namespace = mbs_old_gods_blessing_parent		

#mbs_old_gods_blessing_parent.1 
character_event = {
	id = mbs_old_gods_blessing_parent.1
	hide_window = yes
	
	is_triggered_only = yes

	immediate = {
		random_child = {
			limit = {
				NOT = {
					is_inaccessible_or_incapable_trigger = yes
				}
			}
			character_event = { id = mbs_old_gods_blessing_development.1 days = 25 }
		}
	}	
	
	option = {
		name = "EVTOPTAmbs_old_gods_blessing_parent.1" #
		
		ai_chance = {
			factor = 2
		}
	}
}
character_event = {
	id = mbs_old_gods_blessing_parent.3
	hide_window = yes
	
	is_triggered_only = yes

	immediate = {
		random_child = {
			limit = {
				NOT = {
					is_inaccessible_or_incapable_trigger = yes
				}
			}
			character_event = { id = mbs_old_gods_blessing_development.3 days = 25 }
		}
	}	
	
	option = {
		name = "EVTOPTAmbs_old_gods_blessing_parent.3" #
		
		ai_chance = {
			factor = 2
		}
	}
}
character_event = {
	id = mbs_old_gods_blessing_parent.4
	hide_window = yes
	
	is_triggered_only = yes

	immediate = {
		random_child = {
			limit = {
				NOT = {
					is_inaccessible_or_incapable_trigger = yes
				}
			}
			character_event = { id = mbs_old_gods_blessing_development.4 days = 25 }
		}
	}	
	
	option = {
		name = "EVTOPTAmbs_old_gods_blessing_parent.4" #
		
		ai_chance = {
			factor = 2
		}
	}
}
character_event = {
	id = mbs_old_gods_blessing_parent.5
	hide_window = yes
	
	is_triggered_only = yes

	immediate = {
		random_child = {
			limit = {
				NOT = {
					is_inaccessible_or_incapable_trigger = yes
				}
			}
			character_event = { id = mbs_old_gods_blessing_development.5 days = 25 }
		}
	}	
	
	option = {
		name = "EVTOPTAmbs_old_gods_blessing_parent.5" #
		
		ai_chance = {
			factor = 2
		}
	}
}
character_event = {
	id = mbs_old_gods_blessing_parent.6
	hide_window = yes
	
	is_triggered_only = yes

	immediate = {
		random_child = {
			limit = {
				NOT = {
					is_inaccessible_or_incapable_trigger = yes
				}
			}
			character_event = { id = mbs_old_gods_blessing_development.6 days = 25 }
		}
	}	
	
	option = {
		name = "EVTOPTAmbs_old_gods_blessing_parent.6" #
		
		ai_chance = {
			factor = 2
		}
	}
}
narrative_event = {
	id = mbs_old_gods_blessing_parent.101
	title = "EVTtitlembs_old_gods_blessing_parent.101"
	desc = "EVTDESCmbs_old_gods_blessing_parent.101"
	picture = "GFX_green_dream"
	
	is_triggered_only = yes

	option = {
		name = "EVTOPTAmbs_old_gods_blessing_parent.101" #
		trigger = {
			is_old_gods_religion_trigger = yes
		}
		
		ai_chance = {
			factor = 2
		}
		random_list = {
			50 = {
				add_trait = zealous 
			}
			50 = { }
		}
		piety = 15
	}
	option = {
		name = "EVTOPTBmbs_old_gods_blessing_parent.101" 
		trigger = {
			NOT = { is_old_gods_religion_trigger = yes }
		}
		
		ai_chance = {
			factor = 3
			modifier = {
				factor = 0.1
				NOT = { is_old_gods_religion_trigger = yes }
				trait = zealous
			}
			modifier = {
				factor = 3
				NOT = { is_old_gods_religion_trigger = yes }
				trait = cynical
			}
		}
		
		remove_trait = cynical
		religion = old_gods
		character_event = { id = more_bloodlines.99 days = 1 }
		piety = 15
	}
	option = {
		name = "EVTOPTCmbs_old_gods_blessing_parent.101" 
		trigger = {
			NOT = { is_old_gods_religion_trigger = yes }
		}
		
		ai_chance = {
			factor = 3
			modifier = {
				factor = 10
				NOT = { is_old_gods_religion_trigger = yes }
				trait = zealous
			}
			modifier = {
				factor = 0.3
				NOT = { is_old_gods_religion_trigger = yes }
				trait = cynical
			}
		}
		
		random_list = {
			50 = {
				add_trait = zealous 
			}
			50 = { }
		}
		piety = 15
	}
}
narrative_event = {
	id = mbs_old_gods_blessing_parent.103
	title = "EVTtitlembs_old_gods_blessing_parent.103"
	desc = "EVTDESCmbs_old_gods_blessing_parent.103"
	picture = "GFX_green_dream"
	
	is_triggered_only = yes

	option = {
		name = "EVTOPTAmbs_old_gods_blessing_parent.103" #
		trigger = {
			is_old_gods_religion_trigger = yes
		}
		
		ai_chance = {
			factor = 2
		}
		random_list = {
			50 = {
				add_trait = zealous 
			}
			50 = { }
		}
		piety = 15
	}
	option = {
		name = "EVTOPTBmbs_old_gods_blessing_parent.103" 
		trigger = {
			NOT = { is_old_gods_religion_trigger = yes }
		}
		
		ai_chance = {
			factor = 3
			modifier = {
				factor = 0.1
				NOT = { is_old_gods_religion_trigger = yes }
				trait = zealous
			}
			modifier = {
				factor = 3
				NOT = { is_old_gods_religion_trigger = yes }
				trait = cynical
			}
		}
		
		remove_trait = cynical
		religion = old_gods
		character_event = { id = more_bloodlines.99 days = 1 }
		piety = 15
	}
	option = {
		name = "EVTOPTCmbs_old_gods_blessing_parent.103" 
		trigger = {
			NOT = { is_old_gods_religion_trigger = yes }
		}
		
		ai_chance = {
			factor = 3
			modifier = {
				factor = 10
				NOT = { is_old_gods_religion_trigger = yes }
				trait = zealous
			}
			modifier = {
				factor = 0.3
				NOT = { is_old_gods_religion_trigger = yes }
				trait = cynical
			}
		}
		
		random_list = {
			50 = {
				add_trait = zealous 
			}
			50 = { }
		}
		piety = 15
	}
}
narrative_event = {
	id = mbs_old_gods_blessing_parent.104
	title = "EVTtitlembs_old_gods_blessing_parent.104"
	desc = "EVTDESCmbs_old_gods_blessing_parent.104"
	picture = "GFX_green_dream"
	
	is_triggered_only = yes

	option = {
		name = "EVTOPTAmbs_old_gods_blessing_parent.104" #
		trigger = {
			is_old_gods_religion_trigger = yes
		}
		
		ai_chance = {
			factor = 2
		}
		random_list = {
			50 = {
				add_trait = zealous 
			}
			50 = { }
		}
		piety = 15
	}
	option = {
		name = "EVTOPTBmbs_old_gods_blessing_parent.104" 
		trigger = {
			NOT = { is_old_gods_religion_trigger = yes }
		}
		
		ai_chance = {
			factor = 3
			modifier = {
				factor = 0.1
				NOT = { is_old_gods_religion_trigger = yes }
				trait = zealous
			}
			modifier = {
				factor = 3
				NOT = { is_old_gods_religion_trigger = yes }
				trait = cynical
			}
		}
		
		remove_trait = cynical
		religion = old_gods
		character_event = { id = more_bloodlines.99 days = 1 }
		piety = 15
	}
	option = {
		name = "EVTOPTCmbs_old_gods_blessing_parent.104" 
		trigger = {
			NOT = { is_old_gods_religion_trigger = yes }
		}
		
		ai_chance = {
			factor = 3
			modifier = {
				factor = 10
				NOT = { is_old_gods_religion_trigger = yes }
				trait = zealous
			}
			modifier = {
				factor = 0.3
				NOT = { is_old_gods_religion_trigger = yes }
				trait = cynical
			}
		}
		
		random_list = {
			50 = {
				add_trait = zealous 
			}
			50 = { }
		}
		piety = 15
	}
}
narrative_event = {
	id = mbs_old_gods_blessing_parent.105
	title = "EVTtitlembs_old_gods_blessing_parent.105"
	desc = "EVTDESCmbs_old_gods_blessing_parent.105"
	picture = "GFX_green_dream"
	
	is_triggered_only = yes

	option = {
		name = "EVTOPTAmbs_old_gods_blessing_parent.105" #
		trigger = {
			is_old_gods_religion_trigger = yes
		}
		
		ai_chance = {
			factor = 2
		}
		random_list = {
			50 = {
				add_trait = zealous 
			}
			50 = { }
		}
		piety = 15
	}
	option = {
		name = "EVTOPTBmbs_old_gods_blessing_parent.105" 
		trigger = {
			NOT = { is_old_gods_religion_trigger = yes }
		}
		
		ai_chance = {
			factor = 3
			modifier = {
				factor = 0.1
				NOT = { is_old_gods_religion_trigger = yes }
				trait = zealous
			}
			modifier = {
				factor = 3
				NOT = { is_old_gods_religion_trigger = yes }
				trait = cynical
			}
		}
		
		remove_trait = cynical
		religion = old_gods
		character_event = { id = more_bloodlines.99 days = 1 }
		piety = 15
	}
	option = {
		name = "EVTOPTCmbs_old_gods_blessing_parent.105" 
		trigger = {
			NOT = { is_old_gods_religion_trigger = yes }
		}
		
		ai_chance = {
			factor = 3
			modifier = {
				factor = 10
				NOT = { is_old_gods_religion_trigger = yes }
				trait = zealous
			}
			modifier = {
				factor = 0.3
				NOT = { is_old_gods_religion_trigger = yes }
				trait = cynical
			}
		}
		
		random_list = {
			50 = {
				add_trait = zealous 
			}
			50 = { }
		}
		piety = 15
	}
}
narrative_event = {
	id = mbs_old_gods_blessing_parent.106
	title = "EVTtitlembs_old_gods_blessing_parent.106"
	desc = "EVTDESCmbs_old_gods_blessing_parent.106"
	picture = "GFX_green_dream"
	
	is_triggered_only = yes

	option = {
		name = "EVTOPTAmbs_old_gods_blessing_parent.106" #
		trigger = {
			is_old_gods_religion_trigger = yes
		}
		
		ai_chance = {
			factor = 2
		}
		random_list = {
			50 = {
				add_trait = zealous 
			}
			50 = { }
		}
		piety = 15
	}
	option = {
		name = "EVTOPTBmbs_old_gods_blessing_parent.106" 
		trigger = {
			NOT = { is_old_gods_religion_trigger = yes }
		}
		
		ai_chance = {
			factor = 3
			modifier = {
				factor = 0.1
				NOT = { is_old_gods_religion_trigger = yes }
				trait = zealous
			}
			modifier = {
				factor = 3
				NOT = { is_old_gods_religion_trigger = yes }
				trait = cynical
			}
		}
		
		remove_trait = cynical
		religion = old_gods
		character_event = { id = more_bloodlines.99 days = 1 }
		piety = 15
	}
	option = {
		name = "EVTOPTCmbs_old_gods_blessing_parent.106" 
		trigger = {
			NOT = { is_old_gods_religion_trigger = yes }
		}
		
		ai_chance = {
			factor = 3
			modifier = {
				factor = 10
				NOT = { is_old_gods_religion_trigger = yes }
				trait = zealous
			}
			modifier = {
				factor = 0.3
				NOT = { is_old_gods_religion_trigger = yes }
				trait = cynical
			}
		}
		
		random_list = {
			50 = {
				add_trait = zealous 
			}
			50 = { }
		}
		piety = 15
	}
}
character_event = {
	id = mbs_old_gods_blessing_parent.200
	desc = "EVTDESCmbs_old_gods_blessing_parent.200"
	picture = "GFX_brownbear"
	
	is_triggered_only = yes

	option = {
		name = "EVTOPTAmbs_old_gods_blessing_parent.200" #
		
		ai_chance = {
			factor = 2
		}
	}
}
character_event = {
	id = mbs_old_gods_blessing_parent.203
	desc = "EVTDESCmbs_old_gods_blessing_parent.203"
	picture = "GFX_crow"
	
	is_triggered_only = yes

	option = {
		name = "EVTOPTAmbs_old_gods_blessing_parent.203" #
		
		ai_chance = {
			factor = 2
		}
	}
}
character_event = {
	id = mbs_old_gods_blessing_parent.204
	desc = "EVTDESCmbs_old_gods_blessing_parent.204"
	picture = "GFX_wolf"
	
	is_triggered_only = yes

	option = {
		name = "EVTOPTAmbs_old_gods_blessing_parent.204" #
		
		ai_chance = {
			factor = 2
		}
	}
}
character_event = {
	id = mbs_old_gods_blessing_parent.205
	desc = "EVTDESCmbs_old_gods_blessing_parent.205"
	picture = "GFX_evt_hunting_scene"
	
	is_triggered_only = yes

	option = {
		name = "EVTOPTAmbs_old_gods_blessing_parent.205" #
		
		ai_chance = {
			factor = 2
		}
	}
}
character_event = {
	id = mbs_old_gods_blessing_parent.206
	desc = "EVTDESCmbs_old_gods_blessing_parent.206"
	picture = "GFX_evt_hunting_scene"
	
	is_triggered_only = yes

	option = {
		name = "EVTOPTAmbs_old_gods_blessing_parent.206" #
		
		ai_chance = {
			factor = 2
		}
	}
}
character_event = {
	id = mbs_old_gods_blessing_parent.300
	desc = "EVTDESCmbs_old_gods_blessing_parent.300"
	picture = "GFX_brownbear"
	
	is_triggered_only = yes

	option = {
		name = "EVTOPTAmbs_old_gods_blessing_parent.300" #
		
		ai_chance = {
			factor = 2
		}
	}
}
character_event = {
	id = mbs_old_gods_blessing_parent.303
	desc = "EVTDESCmbs_old_gods_blessing_parent.303"
	picture = "GFX_crow"
	
	is_triggered_only = yes

	option = {
		name = "EVTOPTAmbs_old_gods_blessing_parent.303" #
		
		ai_chance = {
			factor = 2
		}
	}
}
character_event = {
	id = mbs_old_gods_blessing_parent.304
	desc = "EVTDESCmbs_old_gods_blessing_parent.304"
	picture = "GFX_wolf"
	
	is_triggered_only = yes

	option = {
		name = "EVTOPTAmbs_old_gods_blessing_parent.304" #
		
		ai_chance = {
			factor = 2
		}
	}
}
character_event = {
	id = mbs_old_gods_blessing_parent.305
	desc = "EVTDESCmbs_old_gods_blessing_parent.305"
	picture = "GFX_evt_hunting_scene"
	
	is_triggered_only = yes

	option = {
		name = "EVTOPTAmbs_old_gods_blessing_parent.305" #
		
		ai_chance = {
			factor = 2
		}
	}
}
character_event = {
	id = mbs_old_gods_blessing_parent.306
	desc = "EVTDESCmbs_old_gods_blessing_parent.306"
	picture = "GFX_evt_hunting_scene"
	
	is_triggered_only = yes

	option = {
		name = "EVTOPTAmbs_old_gods_blessing_parent.306" #
		
		ai_chance = {
			factor = 2
		}
	}
}
narrative_event = {
	id = mbs_old_gods_blessing_parent.4001
	title = "EVTtitlembs_old_gods_blessing_parent.4001"
	desc = "EVTDESCmbs_old_gods_blessing_parent.4001"
	picture = "GFX_brownbear"
	
	is_triggered_only = yes

	option = {
		name = "EVTOPTAmbs_old_gods_blessing_parent.4001" #
		
		ai_chance = {
			factor = 2
		}
	}
}
narrative_event = {
	id = mbs_old_gods_blessing_parent.4002
	title = "EVTtitlembs_old_gods_blessing_parent.4002"
	desc = "EVTDESCmbs_old_gods_blessing_parent.4002"
	picture = "GFX_brownbear"
	
	is_triggered_only = yes

	option = {
		name = "EVTOPTAmbs_old_gods_blessing_parent.4002" #
		
		ai_chance = {
			factor = 2
		}
	}
}
narrative_event = {
	id = mbs_old_gods_blessing_parent.4003
	title = "EVTtitlembs_old_gods_blessing_parent.4003"
	desc = "EVTDESCmbs_old_gods_blessing_parent.4003"
	picture = "GFX_brownbear"
	
	is_triggered_only = yes

	option = {
		name = "EVTOPTAmbs_old_gods_blessing_parent.4003" #
		
		ai_chance = {
			factor = 2
		}
	}
}
narrative_event = {
	id = mbs_old_gods_blessing_parent.4004
	title = "EVTtitlembs_old_gods_blessing_parent.4004"
	desc = "EVTDESCmbs_old_gods_blessing_parent.4004"
	picture = "GFX_brownbear"
	
	is_triggered_only = yes

	option = {
		name = "EVTOPTAmbs_old_gods_blessing_parent.4004" #
		
		ai_chance = {
			factor = 2
		}
	}
}
narrative_event = {
	id = mbs_old_gods_blessing_parent.4005
	title = "EVTtitlembs_old_gods_blessing_parent.4005"
	desc = "EVTDESCmbs_old_gods_blessing_parent.4005"
	picture = "GFX_crow"
	
	is_triggered_only = yes

	option = {
		name = "EVTOPTAmbs_old_gods_blessing_parent.4005" #
		
		ai_chance = {
			factor = 2
		}
	}
}
narrative_event = {
	id = mbs_old_gods_blessing_parent.4006
	title = "EVTtitlembs_old_gods_blessing_parent.4006"
	desc = "EVTDESCmbs_old_gods_blessing_parent.4006"
	picture = "GFX_crow"
	
	is_triggered_only = yes

	option = {
		name = "EVTOPTAmbs_old_gods_blessing_parent.4006" #
		
		ai_chance = {
			factor = 2
		}
	}
}
narrative_event = {
	id = mbs_old_gods_blessing_parent.4007
	title = "EVTtitlembs_old_gods_blessing_parent.4007"
	desc = "EVTDESCmbs_old_gods_blessing_parent.4007"
	picture = "GFX_crow"
	
	is_triggered_only = yes

	option = {
		name = "EVTOPTAmbs_old_gods_blessing_parent.4007" #
		
		ai_chance = {
			factor = 2
		}
	}
}
narrative_event = {
	id = mbs_old_gods_blessing_parent.4008
	title = "EVTtitlembs_old_gods_blessing_parent.4008"
	desc = "EVTDESCmbs_old_gods_blessing_parent.4008"
	picture = "GFX_crow"
	
	is_triggered_only = yes

	option = {
		name = "EVTOPTAmbs_old_gods_blessing_parent.4008" #
		
		ai_chance = {
			factor = 2
		}
	}
}
narrative_event = {
	id = mbs_old_gods_blessing_parent.4009
	title = "EVTtitlembs_old_gods_blessing_parent.4009"
	desc = "EVTDESCmbs_old_gods_blessing_parent.4009"
	picture = "GFX_wolf"
	
	is_triggered_only = yes

	option = {
		name = "EVTOPTAmbs_old_gods_blessing_parent.4009" #
		
		ai_chance = {
			factor = 2
		}
	}
}
narrative_event = {
	id = mbs_old_gods_blessing_parent.4010
	title = "EVTtitlembs_old_gods_blessing_parent.4010"
	desc = "EVTDESCmbs_old_gods_blessing_parent.4010"
	picture = "GFX_wolf"
	
	is_triggered_only = yes

	option = {
		name = "EVTOPTAmbs_old_gods_blessing_parent.4010" #
		
		ai_chance = {
			factor = 2
		}
	}
}
narrative_event = {
	id = mbs_old_gods_blessing_parent.4011
	title = "EVTtitlembs_old_gods_blessing_parent.4011"
	desc = "EVTDESCmbs_old_gods_blessing_parent.4011"
	picture = "GFX_wolf"
	
	is_triggered_only = yes

	option = {
		name = "EVTOPTAmbs_old_gods_blessing_parent.4011" #
		
		ai_chance = {
			factor = 2
		}
	}
}
narrative_event = {
	id = mbs_old_gods_blessing_parent.4012
	title = "EVTtitlembs_old_gods_blessing_parent.4012"
	desc = "EVTDESCmbs_old_gods_blessing_parent.4012"
	picture = "GFX_wolf"
	
	is_triggered_only = yes

	option = {
		name = "EVTOPTAmbs_old_gods_blessing_parent.4012" #
		
		ai_chance = {
			factor = 2
		}
	}
}
narrative_event = {
	id = mbs_old_gods_blessing_parent.4013
	title = "EVTtitlembs_old_gods_blessing_parent.4013"
	desc = "EVTDESCmbs_old_gods_blessing_parent.4013"
	picture = "GFX_evt_hunting_scene"
	
	is_triggered_only = yes

	option = {
		name = "EVTOPTAmbs_old_gods_blessing_parent.4013" #
		
		ai_chance = {
			factor = 2
		}
	}
}
narrative_event = {
	id = mbs_old_gods_blessing_parent.4014
	title = "EVTtitlembs_old_gods_blessing_parent.4014"
	desc = "EVTDESCmbs_old_gods_blessing_parent.4014"
	picture = "GFX_evt_hunting_scene"
	
	is_triggered_only = yes

	option = {
		name = "EVTOPTAmbs_old_gods_blessing_parent.4014" #
		
		ai_chance = {
			factor = 2
		}
	}
}
narrative_event = {
	id = mbs_old_gods_blessing_parent.4015
	title = "EVTtitlembs_old_gods_blessing_parent.4015"
	desc = "EVTDESCmbs_old_gods_blessing_parent.4015"
	picture = "GFX_evt_hunting_scene"
	
	is_triggered_only = yes

	option = {
		name = "EVTOPTAmbs_old_gods_blessing_parent.4015" #
		
		ai_chance = {
			factor = 2
		}
	}
}
narrative_event = {
	id = mbs_old_gods_blessing_parent.4016
	title = "EVTtitlembs_old_gods_blessing_parent.4016"
	desc = "EVTDESCmbs_old_gods_blessing_parent.4016"
	picture = "GFX_evt_hunting_scene"
	
	is_triggered_only = yes

	option = {
		name = "EVTOPTAmbs_old_gods_blessing_parent.4016" #
		
		ai_chance = {
			factor = 2
		}
	}
}
narrative_event = {
	id = mbs_old_gods_blessing_parent.4017
	title = "EVTtitlembs_old_gods_blessing_parent.4017"
	desc = "EVTDESCmbs_old_gods_blessing_parent.4017"
	picture = "GFX_evt_hunting_scene"
	
	is_triggered_only = yes

	option = {
		name = "EVTOPTAmbs_old_gods_blessing_parent.4017" #
		
		ai_chance = {
			factor = 2
		}
	}
}
narrative_event = {
	id = mbs_old_gods_blessing_parent.4018
	title = "EVTtitlembs_old_gods_blessing_parent.4018"
	desc = "EVTDESCmbs_old_gods_blessing_parent.4018"
	picture = "GFX_evt_hunting_scene"
	
	is_triggered_only = yes

	option = {
		name = "EVTOPTAmbs_old_gods_blessing_parent.4018" #
		
		ai_chance = {
			factor = 2
		}
	}
}
narrative_event = {
	id = mbs_old_gods_blessing_parent.4019
	title = "EVTtitlembs_old_gods_blessing_parent.4019"
	desc = "EVTDESCmbs_old_gods_blessing_parent.4019"
	picture = "GFX_evt_hunting_scene"
	
	is_triggered_only = yes

	option = {
		name = "EVTOPTAmbs_old_gods_blessing_parent.4019" #
		
		ai_chance = {
			factor = 2
		}
	}
}
narrative_event = {
	id = mbs_old_gods_blessing_parent.4020
	title = "EVTtitlembs_old_gods_blessing_parent.4020"
	desc = "EVTDESCmbs_old_gods_blessing_parent.4020"
	picture = "GFX_evt_hunting_scene"
	
	is_triggered_only = yes

	option = {
		name = "EVTOPTAmbs_old_gods_blessing_parent.4020" #
		
		ai_chance = {
			factor = 2
		}
	}
}
narrative_event = {
	id = mbs_old_gods_blessing_parent.500
	title = "EVTtitlembs_old_gods_blessing_parent.500"
	desc = "EVTDESCmbs_old_gods_blessing_parent.500"
	picture = "GFX_brownbear"
	
	is_triggered_only = yes

	option = {
		name = "EVTOPTAmbs_old_gods_blessing_parent.500" #
		
		ai_chance = {
			factor = 2
		}
	}
}
narrative_event = {
	id = mbs_old_gods_blessing_parent.503
	title = "EVTtitlembs_old_gods_blessing_parent.503"
	desc = "EVTDESCmbs_old_gods_blessing_parent.503"
	picture = "GFX_crow"
	
	is_triggered_only = yes

	option = {
		name = "EVTOPTAmbs_old_gods_blessing_parent.503" #
		
		ai_chance = {
			factor = 2
		}
	}
}
narrative_event = {
	id = mbs_old_gods_blessing_parent.504
	title = "EVTtitlembs_old_gods_blessing_parent.504"
	desc = "EVTDESCmbs_old_gods_blessing_parent.504"
	picture = "GFX_wolf"
	
	is_triggered_only = yes

	option = {
		name = "EVTOPTAmbs_old_gods_blessing_parent.504" #
		
		ai_chance = {
			factor = 2
		}
	}
}
narrative_event = {
	id = mbs_old_gods_blessing_parent.505
	title = "EVTtitlembs_old_gods_blessing_parent.505"
	desc = "EVTDESCmbs_old_gods_blessing_parent.505"
	picture = "GFX_evt_hunting_scene"
	
	is_triggered_only = yes

	option = {
		name = "EVTOPTAmbs_old_gods_blessing_parent.505" #
		
		ai_chance = {
			factor = 2
		}
	}
}
narrative_event = {
	id = mbs_old_gods_blessing_parent.506
	title = "EVTtitlembs_old_gods_blessing_parent.506"
	desc = "EVTDESCmbs_old_gods_blessing_parent.506"
	picture = "GFX_evt_hunting_scene"
	
	is_triggered_only = yes

	option = {
		name = "EVTOPTAmbs_old_gods_blessing_parent.506" #
		
		ai_chance = {
			factor = 2
		}
	}
}
narrative_event = {
	id = mbs_old_gods_blessing_parent.600
	title = "EVTtitlembs_old_gods_blessing_parent.600"
	desc = "EVTDESCmbs_old_gods_blessing_parent.600"
	picture = "GFX_brownbear"
	
	is_triggered_only = yes

	option = {
		name = "EVTOPTAmbs_old_gods_blessing_parent.600" #
		
		ai_chance = {
			factor = 2
		}
	}
}
narrative_event = {
	id = mbs_old_gods_blessing_parent.601
	title = "EVTtitlembs_old_gods_blessing_parent.601"
	desc = "EVTDESCmbs_old_gods_blessing_parent.601"
	picture = "GFX_brownbear"
	
	is_triggered_only = yes

	option = {
		name = "EVTOPTAmbs_old_gods_blessing_parent.601" #
		
		ai_chance = {
			factor = 2
		}
	}
}
narrative_event = {
	id = mbs_old_gods_blessing_parent.603
	title = "EVTtitlembs_old_gods_blessing_parent.603"
	desc = "EVTDESCmbs_old_gods_blessing_parent.603"
	picture = "GFX_crow"
	
	is_triggered_only = yes

	option = {
		name = "EVTOPTAmbs_old_gods_blessing_parent.603" #
		
		ai_chance = {
			factor = 2
		}
	}
}
narrative_event = {
	id = mbs_old_gods_blessing_parent.604
	title = "EVTtitlembs_old_gods_blessing_parent.604"
	desc = "EVTDESCmbs_old_gods_blessing_parent.604"
	picture = "GFX_crow"
	
	is_triggered_only = yes

	option = {
		name = "EVTOPTAmbs_old_gods_blessing_parent.604" #
		
		ai_chance = {
			factor = 2
		}
	}
}
narrative_event = {
	id = mbs_old_gods_blessing_parent.605
	title = "EVTtitlembs_old_gods_blessing_parent.605"
	desc = "EVTDESCmbs_old_gods_blessing_parent.605"
	picture = "GFX_wolf"
	
	is_triggered_only = yes

	option = {
		name = "EVTOPTAmbs_old_gods_blessing_parent.605" #
		
		ai_chance = {
			factor = 2
		}
	}
}
narrative_event = {
	id = mbs_old_gods_blessing_parent.606
	title = "EVTtitlembs_old_gods_blessing_parent.606"
	desc = "EVTDESCmbs_old_gods_blessing_parent.606"
	picture = "GFX_wolf"
	
	is_triggered_only = yes

	option = {
		name = "EVTOPTAmbs_old_gods_blessing_parent.606" #
		
		ai_chance = {
			factor = 2
		}
	}
}
narrative_event = {
	id = mbs_old_gods_blessing_parent.607
	title = "EVTtitlembs_old_gods_blessing_parent.607"
	desc = "EVTDESCmbs_old_gods_blessing_parent.607"
	picture = "GFX_evt_hunting_scene"
	
	is_triggered_only = yes

	option = {
		name = "EVTOPTAmbs_old_gods_blessing_parent.607" #
		
		ai_chance = {
			factor = 2
		}
	}
}
narrative_event = {
	id = mbs_old_gods_blessing_parent.608
	title = "EVTtitlembs_old_gods_blessing_parent.608"
	desc = "EVTDESCmbs_old_gods_blessing_parent.608"
	picture = "GFX_evt_hunting_scene"
	
	is_triggered_only = yes

	option = {
		name = "EVTOPTAmbs_old_gods_blessing_parent.608" #
		
		ai_chance = {
			factor = 2
		}
	}
}
narrative_event = {
	id = mbs_old_gods_blessing_parent.609
	title = "EVTtitlembs_old_gods_blessing_parent.609"
	desc = "EVTDESCmbs_old_gods_blessing_parent.609"
	picture = "GFX_evt_hunting_scene"
	
	is_triggered_only = yes

	option = {
		name = "EVTOPTAmbs_old_gods_blessing_parent.609" #
		
		ai_chance = {
			factor = 2
		}
	}
}
narrative_event = {
	id = mbs_old_gods_blessing_parent.610
	title = "EVTtitlembs_old_gods_blessing_parent.610"
	desc = "EVTDESCmbs_old_gods_blessing_parent.610"
	picture = "GFX_evt_hunting_scene"
	
	is_triggered_only = yes

	option = {
		name = "EVTOPTAmbs_old_gods_blessing_parent.610" #
		
		ai_chance = {
			factor = 2
		}
	}
}
narrative_event = {
	id = mbs_old_gods_blessing_parent.700
	title = "EVTtitlembs_old_gods_blessing_parent.700"
	desc = "EVTDESCmbs_old_gods_blessing_parent.700"
	picture = "GFX_brownbear"
	
	is_triggered_only = yes

	option = {
		name = "EVTOPTAmbs_old_gods_blessing_parent.700" #
		
		ai_chance = {
			factor = 2
		}
	}
}
narrative_event = {
	id = mbs_old_gods_blessing_parent.703
	title = "EVTtitlembs_old_gods_blessing_parent.703"
	desc = "EVTDESCmbs_old_gods_blessing_parent.703"
	picture = "GFX_crow"
	
	is_triggered_only = yes

	option = {
		name = "EVTOPTAmbs_old_gods_blessing_parent.703" #
		
		ai_chance = {
			factor = 2
		}
	}
}
narrative_event = {
	id = mbs_old_gods_blessing_parent.704
	title = "EVTtitlembs_old_gods_blessing_parent.704"
	desc = "EVTDESCmbs_old_gods_blessing_parent.704"
	picture = "GFX_wolf"
	
	is_triggered_only = yes

	option = {
		name = "EVTOPTAmbs_old_gods_blessing_parent.704" #
		
		ai_chance = {
			factor = 2
		}
	}
}
narrative_event = {
	id = mbs_old_gods_blessing_parent.705
	title = "EVTtitlembs_old_gods_blessing_parent.705"
	desc = "EVTDESCmbs_old_gods_blessing_parent.705"
	picture = "GFX_evt_hunting_scene"
	
	is_triggered_only = yes

	option = {
		name = "EVTOPTAmbs_old_gods_blessing_parent.705" #
		
		ai_chance = {
			factor = 2
		}
	}
}
narrative_event = {
	id = mbs_old_gods_blessing_parent.706
	title = "EVTtitlembs_old_gods_blessing_parent.706"
	desc = "EVTDESCmbs_old_gods_blessing_parent.706"
	picture = "GFX_evt_hunting_scene"
	
	is_triggered_only = yes

	option = {
		name = "EVTOPTAmbs_old_gods_blessing_parent.706" #
		
		ai_chance = {
			factor = 2
		}
	}
}
narrative_event = {
	id = mbs_old_gods_blessing_parent.803
	title = "EVTtitlembs_old_gods_blessing_parent.803"
	desc = "EVTDESCmbs_old_gods_blessing_parent.803"
	picture = "GFX_crow"
	
	is_triggered_only = yes

	option = {
		name = "EVTOPTAmbs_old_gods_blessing_parent.803" #
		
		ai_chance = {
			factor = 2
		}
	}
}
narrative_event = {
	id = mbs_old_gods_blessing_parent.804
	title = "EVTtitlembs_old_gods_blessing_parent.804"
	desc = "EVTDESCmbs_old_gods_blessing_parent.804"
	picture = "GFX_crow"
	
	is_triggered_only = yes

	option = {
		name = "EVTOPTAmbs_old_gods_blessing_parent.804" #
		
		ai_chance = {
			factor = 2
		}
	}
}
narrative_event = {
	id = mbs_old_gods_blessing_parent.805
	title = "EVTtitlembs_old_gods_blessing_parent.805"
	desc = "EVTDESCmbs_old_gods_blessing_parent.805"
	picture = "GFX_wolf"
	
	is_triggered_only = yes

	option = {
		name = "EVTOPTAmbs_old_gods_blessing_parent.805" #
		
		ai_chance = {
			factor = 2
		}
	}
}
narrative_event = {
	id = mbs_old_gods_blessing_parent.806
	title = "EVTtitlembs_old_gods_blessing_parent.806"
	desc = "EVTDESCmbs_old_gods_blessing_parent.806"
	picture = "GFX_wolf"
	
	is_triggered_only = yes

	option = {
		name = "EVTOPTAmbs_old_gods_blessing_parent.806" #
		
		ai_chance = {
			factor = 2
		}
	}
}
narrative_event = {
	id = mbs_old_gods_blessing_parent.807
	title = "EVTtitlembs_old_gods_blessing_parent.807"
	desc = "EVTDESCmbs_old_gods_blessing_parent.807"
	picture = "GFX_evt_hunting_scene"
	
	is_triggered_only = yes

	option = {
		name = "EVTOPTAmbs_old_gods_blessing_parent.807" #
		
		ai_chance = {
			factor = 2
		}
	}
}
narrative_event = {
	id = mbs_old_gods_blessing_parent.808
	title = "EVTtitlembs_old_gods_blessing_parent.808"
	desc = "EVTDESCmbs_old_gods_blessing_parent.808"
	picture = "GFX_evt_hunting_scene"
	
	is_triggered_only = yes

	option = {
		name = "EVTOPTAmbs_old_gods_blessing_parent.808" #
		
		ai_chance = {
			factor = 2
		}
	}
}
narrative_event = {
	id = mbs_old_gods_blessing_parent.809
	title = "EVTtitlembs_old_gods_blessing_parent.809"
	desc = "EVTDESCmbs_old_gods_blessing_parent.809"
	picture = "GFX_evt_hunting_scene"
	
	is_triggered_only = yes

	option = {
		name = "EVTOPTAmbs_old_gods_blessing_parent.809" #
		
		ai_chance = {
			factor = 2
		}
	}
}
narrative_event = {
	id = mbs_old_gods_blessing_parent.810
	title = "EVTtitlembs_old_gods_blessing_parent.810"
	desc = "EVTDESCmbs_old_gods_blessing_parent.810"
	picture = "GFX_evt_hunting_scene"
	
	is_triggered_only = yes

	option = {
		name = "EVTOPTAmbs_old_gods_blessing_parent.810" #
		
		ai_chance = {
			factor = 2
		}
	}
}