namespace = mbs_border_dispute		
###################################

###
narrative_event = {
	id = mbs_border_dispute.1
	title = "EVTtitlembs_border_dispute.1"
	desc = "EVTDESCmbs_border_dispute.1"
	picture = GFX_evt_reaving3

	is_triggered_only = yes

	immediate = {
		e_vale = {
			holder_scope = {
				character_event = { id = mbs_border_dispute.101 } 					
			}
		}	
		k_vale = {
			holder_scope = {
				character_event = { id = mbs_border_dispute.101 } 					
			}
		}	
		d_the_sisters = {
			holder_scope = {
				character_event = { id = mbs_border_dispute.102 } 					
			}
		}
	}
	
	option = {
		name = OK
	}
}
narrative_event = {
	id = mbs_border_dispute.101
	title = "EVTtitlembs_border_dispute.101"
	desc = "EVTDESCmbs_border_dispute.101"
	picture = GFX_evt_reaving3

	is_triggered_only = yes

	
	option = {
		name = OK
	}
}
narrative_event = {
	id = mbs_border_dispute.102
	title = "EVTtitlembs_border_dispute.102"
	desc = "EVTDESCmbs_border_dispute.102"
	picture = GFX_evt_reaving3

	is_triggered_only = yes

	
	option = {
		name = OK
	}
}
narrative_event = {
	id = mbs_border_dispute.2
	title = "EVTtitlembs_border_dispute.2"
	desc = "EVTDESCmbs_border_dispute.2"
	picture = GFX_evt_reaving3

	is_triggered_only = yes

	immediate = {
		e_north = {
			holder_scope = {
				character_event = { id = mbs_border_dispute.201 } 					
			}
		}	
		k_north = {
			holder_scope = {
				character_event = { id = mbs_border_dispute.201 } 					
			}
		}	
		d_the_sisters = {
			holder_scope = {
				character_event = { id = mbs_border_dispute.202 } 					
			}
		}
	}
	
	option = {
		name = OK
	}
}
narrative_event = {
	id = mbs_border_dispute.201
	title = "EVTtitlembs_border_dispute.201"
	desc = "EVTDESCmbs_border_dispute.201"
	picture = GFX_evt_reaving3

	is_triggered_only = yes

	
	option = {
		name = OK
	}
}
narrative_event = {
	id = mbs_border_dispute.202
	title = "EVTtitlembs_border_dispute.202"
	desc = "EVTDESCmbs_border_dispute.202"
	picture = GFX_evt_reaving3

	is_triggered_only = yes

	
	option = {
		name = OK
	}
}