#CODE;ENGLISH;FRENCH;GERMAN;;SPANISH;;;;;;;;;x
BM_CROWNED_DRAGON;The Crowned Dragon;;;;;;;;;;;;;x
BM_CROWNED_DRAGON_DESC;After winning his War of Conquest Aegon Targaryen the First of His Name was crowned King of the Iron Throne, ruling from his newly founded capital of King's Landing. Will he manage to survive as the King of all of Westeros or will not even his mighty dragons be enough.;;;;;;;;;;;;;x
EVTDESCcrowned_dragon_scenario;After winning his War of Conquest Aegon Targaryen the First of His Name was crowned King of the Iron Throne, ruling from his newly founded capital of King's Landing.;;;;;;;;;;;;;x
EVTOPTAcrowned_dragon_scenario;Long live the Dragon King!;;;;;;;;;;;;;x
EVTOPTBcrowned_dragon_scenario;Curse the invaders and their heretic ways;;;;;;;;;;;;;x

BM_TARGARYEN_RULE;The Targaryen Rule;;;;;;;;;;;;;x
BM_TARGARYEN_RULE_DESC;It has been over a decade since Aegon the Conqueror and his sister brought the world to heel with their mighty dragons, after another failed invasion of Dorne the King has finally decided to focus on maintaining his current realm, with many still not happy about the Targaryen rule how will he fare?;;;;;;;;;;;;;x
EVTDESCtargaryen_rule_scenario;It has been over a decade since Aegon the Conqueror and his sister brought the world to heel with their mighty dragons, after another failed invasion of Dorne the King has finally decided to focus on maintaining his current realm, with many still not happy about the Targaryen rule how will he fare?;;;;;;;;;;;;;x
EVTOPTAtargaryen_rule_scenario;The Targaryens have brought peace and unity!;;;;;;;;;;;;;x
EVTOPTBtargaryen_rule_scenario;This cannot and will not last;;;;;;;;;;;;;x

BM_DEATH_OF_THE_CONQUEROR;The Death of the Conqueror;;;;;;;;;;;;;x
BM_DEATH_OF_THE_CONQUEROR_DESC;After ruling for so long the first Targaryen King Aegon the Conqueror has passed, the realm no longer flinching as much under new rule will the new King be able to maintain stability or is now the time when the Iron Throne will collapse and the Seven Kingdoms shall return?;;;;;;;;;;;;;x
EVTDESCdeath_of_the_conqueror_scenario;After ruling for so long the first Targaryen King Aegon the Conqueror has passed, the realm no longer flinching as much under new rule will the new King be able to maintain stability or is now the time when the Iron Throne will collapse and the Seven Kingdoms shall return?;;;;;;;;;;;;;x
EVTOPTAdeath_of_the_conqueror_scenario;The King is dead, long live the King;;;;;;;;;;;;;x
EVTOPTBdeath_of_the_conqueror_scenario;Now is the time to rise up;;;;;;;;;;;;;x

BM_RISE_OF_THREE_DAUGHTERS;Rise of the Three Daughters;;;;;;;;;;;;;x
BM_RISE_OF_THREE_DAUGHTERS_DESC;In the Free Cities the Triarchs of Volantis who claimed to be the true descendants of Old Valyria have always thought themslves to be above their fellow Free Cities all of whom where colonise of the old empire. Now Myr, Lys and Tyrosh are standing up as they wage war against Volantis in the hopes to establish an alliance of their own.;;;;;;;;;;;;;x
EVTDESCrise_of_three_daughters_scenario;In the Free Cities the Triarchs of Volantis who claimed to be the true descendants of Old Valyria have always thought themslves to be above their fellow Free Cities all of whom where colonise of the old empire. Now Myr, Lys and Tyrosh are standing up as they wage war against Volantis in the hopes to establish an alliance of their own.;;;;;;;;;;;;;x
EVTOPTArise_of_three_daughters_scenario;The new union will be great for trade;;;;;;;;;;;;;x
EVTOPTBrise_of_three_daughters_scenario;This new power poses a threat;;;;;;;;;;;;;x

BM_FALL_OF_THREE_DAUGHTERS;Fall of the Three Daughters;;;;;;;;;;;;;x
BM_FALL_OF_THREE_DAUGHTERS_DESC;The Kingdom of the Three Daughters is under attack by the combined forces of Pentos, Braavos and Lorath. Will the Alliance of Lys, Myr and Tyrosh be able to stand strong against this attack or will they fall and have their alliance reduced to nothing once more.;;;;;;;;;;;;;x
EVTDESCfall_of_three_daughters_scenario;The Kingdom of the Three Daughters is under attack by the combined forces of Pentos, Braavos and Lorath. Will the Alliance of Lys, Myr and Tyrosh be able to stand strong against this attack or will they fall and have their alliance reduced to nothing once more.;;;;;;;;;;;;;x
EVTOPTAfall_of_three_daughters_scenario;This loss of trade would not be good;;;;;;;;;;;;;x
EVTOPTBfall_of_three_daughters_scenario;Finally that beast shall be destroyed;;;;;;;;;;;;;x

BM_HOLY_KING;The Holy King;;;;;;;;;;;;;x
BM_HOLY_KING_DESC;King Baelor the Blessed, the reigning Targaryen monarch on the Iron Throne, a deeply pious man who has taken a vow of celibacy and become a Septon. Will this religious King bring the people of Westeros to peace or will he be a weak ruler relying on the Gods to help him rule.;;;;;;;;;;;;;x
EVTDESCholy_king_scenario;King Baelor the Blessed, the reigning Targaryen monarch on the Iron Throne, a deeply pious man who has taken a vow of celibacy and become a Septon. Will this religious King bring the people of Westeros to peace or will he be a weak ruler relying on the Gods to help him rule.;;;;;;;;;;;;;x
EVTOPTAholy_king_scenario;The King truly is blessed;;;;;;;;;;;;;x
EVTOPTBholy_king_scenario;He masks his weakness with faith;;;;;;;;;;;;;x

BM_THIRD_BLACKFYRE_REBELLION;Third Blackfyre Rebellion;;;;;;;;;;;;;x
BM_THIRD_BLACKFYRE_REBELLION_DESC;Haegon Blackfyre, foruth born son of Daemon Blackfyre, and Aegor Bittersteel launched an attack against Aerys Targaryen to try and claim the Iron Throne for the Blackfyres.;;;;;;;;;;;;;x
EVTDESCthird_blackfyre_rebellion_scenario;Haegon Blackfyre, foruth born son of Daemon Blackfyre, and Aegor Bittersteel launched an attack against Aerys Targaryen to try and claim the Iron Throne for the Blackfyres.;;;;;;;;;;;;;x
EVTOPTAthird_blackfyre_rebellion_scenario;The black dragon shall rule;;;;;;;;;;;;;x
EVTOPTBthird_blackfyre_rebellion_scenario;These pretenders will be easily defeated;;;;;;;;;;;;;x

BM_RAYMUN_REDBEARD_INVASION;Raymun Redbeard's Invasion;;;;;;;;;;;;;x
BM_RAYMUN_REDBEARD_INVASION_DESC;Raymun Redbeard united the free folk and crowned himself King-Beyond-the-Wall. He has the boldness to attack the Night's Watch after having seen how they have fallen into decline and are now in the perfect position to be caught off guard in a surprise attack.;;;;;;;;;;;;;x
EVTDESCraymun_redbeard_invasion_scenario;Raymun Redbeard united the free folk and crowned himself King-Beyond-the-Wall. He has the boldness to attack the Night's Watch after having seen how they have fallen into decline and are now in the perfect position to be caught off guard in a surprise attack.;;;;;;;;;;;;;x
EVTOPTAraymun_redbeard_invasion_scenario;These wildlings will be stopped;;;;;;;;;;;;;x
EVTOPTBraymun_redbeard_invasion_scenario;Ha, watch the Northeners struggle;;;;;;;;;;;;;x

BM_FOURTH_BLACKFYRE_REBELLION;Fourth Blackfyre Rebellion;;;;;;;;;;;;;x
BM_FOURTH_BLACKFYRE_REBELLION_DESC;Daemon Blackfyre, the Third of His Name, eldest son of Haegon Blackfyre, along with Aegor Bittersteel launched an attack against King Aegon Targaryen, the Fifth of His Name, by landing at Massey's Hook.;;;;;;;;;;;;;x
EVTDESCfourth_blackfyre_rebellion_scenario;Daemon Blackfyre, the Third of His Name, eldest son of Haegon Blackfyre, along with Aegor Bittersteel launched an attack against King Aegon Targaryen, the Fifth of His Name, by landing at Massey's Hook.;;;;;;;;;;;;;x
EVTOPTAfourth_blackfyre_rebellion_scenario;The black dragon shall rule;;;;;;;;;;;;;x
EVTOPTBfourth_blackfyre_rebellion_scenario;These pretenders will be easily defeated;;;;;;;;;;;;;x

BM_LAUGHING_STORM_REBELLION;Laughing Storm Rebellion;;;;;;;;;;;;;x
BM_LAUGHING_STORM_REBELLION_DESC;Lord Paramount of the Stormlands Lyonel Baratheon, known as the Laughing Storm, had his daughter betrothed to Prince Duncan Targaryen. However, the Prince broke this betorthal and fell in love with a common born girl called Jenny of Oldstones. With this being a great slight against the honour of his House, how will the Laughing Storm respond?;;;;;;;;;;;;;x
EVTDESClaughing_storm_rebellion_scenario;Lord Paramount of the Stormlands Lyonel Baratheon, known as the Laughing Storm, had his daughter betrothed to Prince Duncan Targaryen. However, the Prince broke this betorthal and fell in love with a common born girl called Jenny of Oldstones. With this being a great slight against the honour of his House, how will the Laughing Storm respond?;;;;;;;;;;;;;x
EVTOPTAlaughing_storm_rebellion_scenario;This is unnaceptable behaviour for a Prince;;;;;;;;;;;;;x
EVTOPTBlaughing_storm_rebellion_scenario;The Prince loved another and love conquers all;;;;;;;;;;;;;x

BM_DEFIANCE_OF_DUSKENDALE;Defiance of Duskendale;;;;;;;;;;;;;x
BM_DEFIANCE_OF_DUSKENDALE_DESC;After Lord Denys Darklyn refused to pay increased taxes to King Aerys and his propes new town charter for Duskendal refused, the King persoanlly went to Duskendale to deal with Lord Denys. However, Lord Denys imprisoned the King and is now facing pressure from all sides.;;;;;;;;;;;;;x
EVTDESCdefiance_of_duskendale_scenario;After Lord Denys Darklyn refused to pay increased taxes to King Aerys and his propes new town charter for Duskendal refused, the King persoanlly went to Duskendale to deal with Lord Denys. However, Lord Denys imprisoned the King and is now facing pressure from all sides.;;;;;;;;;;;;;x
EVTOPTAdefiance_of_duskendale_scenario;What has the realm come too!;;;;;;;;;;;;;x
TOOLTIPdefiance_of_duskendale_scenario_aerys_freed;[Root.GetTitledFirstName] is freed from imprisonment by [This.GetBestName] in a daring rescue.\n;;;;;;;;;;;;;x

BM_YEAR_OF_THE_FALSE_SPRING;Year of the False Spring;;;;;;;;;;;;;x
BM_YEAR_OF_THE_FALSE_SPRING_DESC;The year 281AC, known as the Year of the False Spring, in which the Kingswood Brotherhood was defeated and Jaime Lannister was knighted by Aruther Dayne and then sworn into the Kingsguard in the spot left vacant by Ser Harlan Grandison after his death. The year that the Tourney of Harrenhal took place and the King was seen in public for the first time in moths. What a year to be alive...;;;;;;;;;;;;;x
EVTDESCyear_false_spring_scenario;The year 281AC, known as the Year of the False Spring, in which the Kingswood Brotherhood was defeated and Jaime Lannister was knighted by Aruther Dayne and then sworn into the Kingsguard in the spot left vacant by Ser Harlan Grandison after his death. The year that the Tourney of Harrenhal took place and the King was seen in public for the first time in moths.;;;;;;;;;;;;;x
EVTOPTAyear_false_spring_scenario;The weather is warming, perhaps winter is ending!;;;;;;;;;;;;;x
EVTOPTByear_false_spring_scenario;The King has been acting strangely as of late;;;;;;;;;;;;;x

BM_PARLEY_AT_STORMS_END;Parley at Storm's End;;;;;;;;;;;;;x
BM_PARLEY_AT_STORMS_END_DESC;Westeros is at war. After the untimely death of Robert Baratheon, Joffrey, his untested firstborn son, sits the Iron Throne. Eddard Stark, Lord of the North and Hand of the King, has sent word to Stannis Baratheon that Joffrey is not Robert's son but the result of the incestous relationship between Queen Cersei and her brother Ser Jaime Lannister. Joffrey, outraged at Lord Eddard's accusations, has had him executed. Now Eddard's son Robb, supported by the Tullys of the Riverlands, has raised his banners and is marching on King's Landing. Both Lord Stannis and Lord Renly now style themselves as King and have come to parley to decide who between them should rule. Meanwhile Lord Balon Greyjoy, ever the opportunist, has laid claim to the Seastone Chair and hopes to reave like the Ironborn of old. Finally, across the Narrow Sea, Daenerys Targaryen, mourning the death of her husband and unborn child, begins her quest to return to Westeros. In this scenario relive the central conflict of 'The Song of Ice and Fire' by George R.R. Martin, but remember: Winter Is Coming.;;;;;;;;;;;;;x

EVTDESCmore_bookmarks.4;To celebrate the name day of my maiden daughter I will host a grand tourney the likes the realm has never seen before! Or at least that is the reason I shall tell the realm, Prince Rhaegar Targaryen sent my brother Oswell to speak to me... the Prince will help fund this event so that he along with myslef and many of the other High Lords can meet in secret to discuss removing the King in an informal Great Council.;;;;;;;;;;;;;x
EVTOPTAmore_bookmarks.4;This will be an amazing event!;;;;;;;;;;;;;x
EVTOPTmore_bookmarks.5;I will crown Lyanna Stark!;;;;;;;;;;;;;x
EVTDESCAmore_bookmarks.6;Kidnap;;;;;;;;;;;;;x
EVTDESCBmore_bookmarks.6;My love for Lyanna Stark is ever growing after the fun and joy we had together at Lord Whent's Touruney at Harrenhal, we have been sending letters to each other in secret confessing our love for each other. I truly wish to be with her for the rest of our lives but I am currently married to Elia, she has bore me my children but is weak and frail, I still care for her but not like I do for Lyanna...;;;;;;;;;;;;;x
EVTDESCCmore_bookmarks.6;Marirage offer rejected;;;;;;;;;;;;;x
EVTOPTAmore_bookmarks.6;I cannot persue her, I am married to Elia;;;;;;;;;;;;;x
EVTOPTB1more_bookmarks.6;She will be my wife, there will be no arguement...;;;;;;;;;;;;;x
EVTOPTB2more_bookmarks.6;We will run away together and get married!;;;;;;;;;;;;;x
TOOLTIPlyanna_kidnapped;[This.GetTitledFirstName] will be informed that Lyanna has been kidnapped by you.;;;;;;;;;;;;;x
TOOLTIPlyanna_kidnapped;[This.GetTitledFirstName] will be informed that Lyanna has eloped with you.;;;;;;;;;;;;;x
EVTOPTCmore_bookmarks.6;I will ask her father for permission for us to marry;;;;;;;;;;;;;x
TOOLTIPlyanna_marriage_proposal;Propose a marriage between you and Lyanna to [This.GetTitledFirstName].;;;;;;;;;;;;;x
EVTDESCAmore_bookmarks.7;Kidnap;;;;;;;;;;;;;x
EVTDESCBmore_bookmarks.7;Romance;;;;;;;;;;;;;x
EVTDESCCmore_bookmarks.7;Marriage offer;;;;;;;;;;;;;x
EVTOPTA1more_bookmarks.7;He shall pay for this!;;;;;;;;;;;;;x
EVTOPTA2more_bookmarks.7;How could this happen!;;;;;;;;;;;;;x
EVTOPTBmore_bookmarks.7;She is already promised to Robert!;;;;;;;;;;;;;x
EVTOPTCCmore_bookmarks.7;Who am I to stop true love...;;;;;;;;;;;;;x
EVTDESCmore_bookmarks.8;[Root.GetTitledFirstName],\nIt is not my place to deny the love between you and Lyanna, I give you my blessing to marry and hope you live happily together. Yet be aware, the reast of the realm may not stand for this.\nSigned,\n[From.GetTitledFirstName] [From.GetOnlyDynastyName];;;;;;;;;;;;;x
EVTOPTAmore_bookmarks.8;I am glad he saw our love!;;;;;;;;;;;;;x
TOOLTIPdivorce_elia;[This.GetTitledFirstName] will be informed that you have divorced Elia and chosen to marry Lyanna Stark.;;;;;;;;;;;;;x
EVTDESCmore_bookmarks.9;News arrives to you all to late, Prince Rhaegar Targaryen has chosen to leave your sister Elia and instead marry some wolf girl by the name of Lyanna Stark. He claims that she is his true love even after all that Elia has done for him, she the mother of his children has been cast aside!;;;;;;;;;;;;;x
EVTOPTAmore_bookmarks.9;How could he do this!;;;;;;;;;;;;;x
EVTDESCAmore_bookmarks.10;Rickard let them marry;;;;;;;;;;;;;x
EVTDESCBmore_bookmarks.10;Kidnap;;;;;;;;;;;;;x
EVTDESCCmore_bookmarks.10;Romance;;;;;;;;;;;;;x
EVTOPTAmore_bookmarks.10;I will make him suffer;;;;;;;;;;;;;x
EVTOPTBmore_bookmarks.10;This is madness!;;;;;;;;;;;;;x