###Jogos Nhai
100607399 = {
	name="Gharak"	# Legendary Jhattar

	religion="jogos_pagan"
	culture="jogos_nhai"
	
	give_nickname = nick_squint_eye
	
	add_trait="brilliant_strategist"
	add_trait="ambitious"
	add_trait="brave"
	add_trait="authoritative"

	7274.1.1 = {birth=yes}
	7290.1.1 = {add_trait=master_warrior}
	7328.1.1 = {death="7328.1.1"}
}
101607399 = {
	name="Zhea"	# Jhattar, Repelled Yi Ti Invasion
	female=yes
	
	martial=8
	stewardship=3
	diplomacy=6
	intrigue=5
	learning=2
	
	religion="jogos_pagan"
	culture="jogos_nhai"
	
	give_nickname = nick_the_cruel
	
	add_trait="brilliant_strategist"
	add_trait="quick"
	add_trait="ambitious"
	add_trait="cruel"
	add_trait="authoritative"
	add_trait="deceitful"
	
	add_trait=trickster
	add_trait=cavalry_leader
	add_trait=organizer
	add_trait=defensive_leader
	disallow_random_traits = yes
	
	6678.1.1 = {birth="6678.1.1"}
	6695.1.1 = {add_trait=trained_warrior}
	6723.1.1 = {death="6723.1.1"}
}
#Jhogwin#
100607300 = {
	name="Fardeen"	# a lord
	dynasty=607300

	religion="jogos_pagan"
	culture="jogos_nhai"

	7957.1.1 = {birth="7957.1.1"}
	7973.1.1 = {add_trait=trained_warrior}
	7975.1.1 = {add_spouse=400607300}
	8012.1.1 = {death="8012.1.1"}
}
400607300 = {
	name="Inaara"
	female=yes

	religion="jogos_pagan"
	culture="jogos_nhai"

	7957.1.1 = {birth="7957.1.1"}
	8012.1.1 = {death="8012.1.1"}
}
101607300 = {
	name="Isak"	# a lord
	dynasty=607300

	religion="jogos_pagan"
	culture="jogos_nhai"

	father=100607300
	mother=400607300

	7984.1.1 = {birth="7984.1.1"}
	8000.1.1 = {add_trait=trained_warrior}
	8002.1.1 = {add_spouse=401607300}
	8047.1.1 = {death="8047.1.1"}
}
401607300 = {
	name="Hadi"
	female=yes

	religion="jogos_pagan"
	culture="jogos_nhai"

	7984.1.1 = {birth="7984.1.1"}
	8047.1.1 = {death="8047.1.1"}
}
102607300 = {
	name="Latifa"	# not a lord
	female=yes
	dynasty=607300

	religion="jogos_pagan"
	culture="jogos_nhai"

	father=100607300
	mother=400607300

	7987.1.1 = {birth="7987.1.1"}
	8039.1.1 = {death="8039.1.1"}
}
103607300 = {
	name="Mahwak"	# a lord
	dynasty=607300

	religion="jogos_pagan"
	culture="jogos_nhai"

	father=101607300
	mother=401607300

	8004.1.1 = {birth="8004.1.1"}
	8020.1.1 = {add_trait=skilled_warrior}
	8022.1.1 = {add_spouse=403607300}
	8071.1.1 = {death="8071.1.1"}
}
403607300 = {
	name="Patra"
	female=yes

	religion="jogos_pagan"
	culture="jogos_nhai"

	8004.1.1 = {birth="8004.1.1"}
	8071.1.1 = {death="8071.1.1"}
}
104607300 = {
	name="Vida"	# not a lord
	female=yes
	dynasty=607300

	religion="jogos_pagan"
	culture="jogos_nhai"

	father=101607300
	mother=401607300

	8007.1.1 = {birth="8007.1.1"}
	8057.1.1 = {death="8057.1.1"}
}
105607300 = {
	name="Faqar"	# not a lord
	dynasty=607300

	religion="jogos_pagan"
	culture="jogos_nhai"

	father=101607300
	mother=401607300

	8009.1.1 = {birth="8009.1.1"}
	8025.1.1 = {add_trait=skilled_warrior}
	8064.1.1 = {death="8064.1.1"}
}
106607300 = {
	name="Jakar"	# a lord
	dynasty=607300

	religion="jogos_pagan"
	culture="jogos_nhai"

	father=103607300
	mother=403607300

	8026.1.1 = {birth="8026.1.1"}
	8042.1.1 = {add_trait=trained_warrior}
	8044.1.1 = {add_spouse=406607300}
	8082.1.1 = {death="8082.1.1"}
}
406607300 = {
	name="Laila"
	female=yes

	religion="jogos_pagan"
	culture="jogos_nhai"

	8026.1.1 = {birth="8026.1.1"}
	8082.1.1 = {death="8082.1.1"}
}
107607300 = {
	name="Halima"	# not a lord
	female=yes
	dynasty=607300

	religion="jogos_pagan"
	culture="jogos_nhai"

	father=103607300
	mother=403607300

	8029.1.1 = {birth="8029.1.1"}
	8098.1.1 = {death="8098.1.1"}
}
108607300 = {
	name="Chaman"	# not a lord
	dynasty=607300

	religion="jogos_pagan"
	culture="jogos_nhai"

	father=103607300
	mother=403607300

	8032.1.1 = {birth="8032.1.1"}
	8048.1.1 = {add_trait=master_warrior}
	8088.1.1 = {death="8088.1.1"}
}
109607300 = {
	name="Wafa"	# a lord
	dynasty=607300

	religion="jogos_pagan"
	culture="jogos_nhai"

	father=106607300
	mother=406607300

	8049.1.1 = {birth="8049.1.1"}
	8065.1.1 = {add_trait=poor_warrior}
	8067.1.1 = {add_spouse=409607300}
	8097.1.1 = {death="8097.1.1"}
}
409607300 = {
	name="Tarana"
	female=yes

	religion="jogos_pagan"
	culture="jogos_nhai"

	8049.1.1 = {birth="8049.1.1"}
	8097.1.1 = {death="8097.1.1"}
}
110607300 = {
	name="Vida"	# a lord
	female=yes
	dynasty=607300

	religion="jogos_pagan"
	culture="jogos_nhai"

	father=109607300
	mother=409607300

	8070.1.1 = {birth="8070.1.1"}
	8126.1.1 = {death="8126.1.1"}
}
410607300 = {
	name="Kahkazan"

	religion="jogos_pagan"
	culture="jogos_nhai"

	8070.1.1 = {birth="8070.1.1"}
	8086.1.1 = {add_trait=poor_warrior}
	8088.1.1 = {add_spouse=110607300}
	8126.1.1 = {death="8126.1.1"}
}
111607300 = {
	name="Tahib"	# a lord
	dynasty=607300

	religion="jogos_pagan"
	culture="jogos_nhai"

	father=410607300
	mother=110607300

	8088.1.1 = {birth="8088.1.1"}
	8104.1.1 = {add_trait=trained_warrior}
	8106.1.1 = {add_spouse=411607300}
	8142.1.1 = {death="8142.1.1"}
}
411607300 = {
	name="Qudratu"
	female=yes

	religion="jogos_pagan"
	culture="jogos_nhai"

	8088.1.1 = {birth="8088.1.1"}
	8142.1.1 = {death="8142.1.1"}
}
112607300 = {
	name="Malia"	# not a lord
	female=yes
	dynasty=607300

	religion="jogos_pagan"
	culture="jogos_nhai"

	father=111607300
	mother=411607300

	8122.1.1 = {birth="8122.1.1"}
	8185.1.1 = {death="8185.1.1"}
}
113607300 = {
	name="Lemar"	# a lord
	dynasty=607300

	religion="jogos_pagan"
	culture="jogos_nhai"

	father=111607300
	mother=411607300

	8125.1.1 = {birth="8125.1.1"}
	8141.1.1 = {add_trait=trained_warrior}
	8143.1.1 = {add_spouse=413607300}
	8173.1.1 = {death="8173.1.1"}
}
413607300 = {
	name="Hila"
	female=yes

	religion="jogos_pagan"
	culture="jogos_nhai"

	8125.1.1 = {birth="8125.1.1"}
	8173.1.1 = {death="8173.1.1"}
}
114607300 = {
	name="Fakhria"	# not a lord
	female=yes
	dynasty=607300

	religion="jogos_pagan"
	culture="jogos_nhai"

	father=111607300
	mother=411607300

	8127.1.1 = {birth="8127.1.1"}
	8183.1.1 = {death="8183.1.1"}
}
115607300 = {
	name="Khalek"	# not a lord
	dynasty=607300

	religion="jogos_pagan"
	culture="jogos_nhai"

	father=111607300
	mother=411607300

	8130.1.1 = {birth="8130.1.1"}
	8146.1.1 = {add_trait=poor_warrior}
	8190.1.1 = {death="8190.1.1"}
}
116607300 = {
	name="Barialy"	# a lord
	dynasty=607300

	religion="jogos_pagan"
	culture="jogos_nhai"

	father=113607300
	mother=413607300

	8143.1.1 = {birth="8143.1.1"}
	8159.1.1 = {add_trait=skilled_warrior}
	8161.1.1 = {add_spouse=416607300}
	8180.1.1 = {death="8180.1.1"}
}
416607300 = {
	name="Nabi"
	female=yes

	religion="jogos_pagan"
	culture="jogos_nhai"

	8143.1.1 = {birth="8143.1.1"}
	8180.1.1 = {death="8180.1.1"}
}
117607300 = {
	name="Naherak"	# not a lord
	dynasty=607300

	religion="jogos_pagan"
	culture="jogos_nhai"

	father=113607300
	mother=413607300

	8144.1.1 = {birth="8144.1.1"}
	8160.1.1 = {add_trait=master_warrior}
	8211.1.1 = {death="8211.1.1"}
}
118607300 = {
	name="Sabry"	# a lord
	dynasty=607300

	religion="jogos_pagan"
	culture="jogos_nhai"

	father=116607300
	mother=416607300

	8176.1.1 = {birth="8176.1.1"}
	8192.1.1 = {add_trait=trained_warrior}
	8194.1.1 = {add_spouse=418607300}
	8255.1.1 = {death="8255.1.1"}
}
418607300 = {
	name="Zahra"
	female=yes

	religion="jogos_pagan"
	culture="jogos_nhai"

	8176.1.1 = {birth="8176.1.1"}
	8255.1.1 = {death="8255.1.1"}
}
119607300 = {
	name="Lima"	# not a lord
	female=yes
	dynasty=607300

	religion="jogos_pagan"
	culture="jogos_nhai"

	father=116607300
	mother=416607300

	8179.1.1 = {birth="8179.1.1"}
	8237.1.1 = {death="8237.1.1"}
}
120607300 = {
	name="Usma"	# not a lord
	female=yes
	dynasty=607300

	religion="jogos_pagan"
	culture="jogos_nhai"

	father=116607300
	mother=416607300

	8180.1.1 = {birth="8180.1.1"}
	8231.1.1 = {death="8231.1.1"}
}
121607300 = {
	name="Lida"	# a lord
	female=yes
	dynasty=607300

	religion="jogos_pagan"
	culture="jogos_nhai"

	father=118607300
	mother=418607300

	8200.1.1 = {birth="8200.1.1"}
	8265.1.1 = {death="8265.1.1"}
}
421607300 = {
	name="Temur"

	religion="jogos_pagan"
	culture="jogos_nhai"

	8200.1.1 = {birth="8200.1.1"}
	8216.1.1 = {add_trait=poor_warrior}
	8218.1.1 = {add_spouse=121607300}
	8265.1.1 = {death="8265.1.1"}
}
122607300 = {
	name="Temur"	# not a lord
	dynasty=607300

	religion="jogos_pagan"
	culture="jogos_nhai"

	father=118607300
	mother=418607300

	8202.1.1 = {birth="8202.1.1"}
	8218.1.1 = {add_trait=trained_warrior}
	8252.1.1 = {death="8252.1.1"}
}
123607300 = {
	name="Aarak"	# a lord
	dynasty=607300

	religion="jogos_pagan"
	culture="jogos_nhai"

	father=421607300
	mother=121607300

	8226.1.1 = {birth="8226.1.1"}
	8242.1.1 = {add_trait=trained_warrior}
	8244.1.1 = {add_spouse=423607300}
}
423607300 = {
	name="Darya"
	female=yes

	religion="jogos_pagan"
	culture="jogos_nhai"

	8226.1.1 = {birth="8226.1.1"}
}
124607300 = {
	name="Gulloo"	# not a lord
	dynasty=607300

	religion="jogos_pagan"
	culture="jogos_nhai"

	father=123607300
	mother=423607300

	8259.1.1 = {birth="8259.1.1"}
	8275.1.1 = {add_trait=poor_warrior}
	8277.1.1 = {add_spouse=424607300}
}
424607300 = {
	name="Geeti"
	female=yes

	religion="jogos_pagan"
	culture="jogos_nhai"

	8259.1.1 = {birth="8259.1.1"}
}
125607300 = {
	name="Lemar"	# not a lord
	dynasty=607300

	religion="jogos_pagan"
	culture="jogos_nhai"

	father=123607300
	mother=423607300

	8262.1.1 = {birth="8262.1.1"}
	8278.1.1 = {add_trait=trained_warrior}
	8280.1.1 = {add_spouse=425607300}
}
425607300 = {
	name="Zabia"
	female=yes

	religion="jogos_pagan"
	culture="jogos_nhai"

	8262.1.1 = {birth="8262.1.1"}
}
126607300 = {
	name="Gulloo"	# not a lord
	dynasty=607300

	religion="jogos_pagan"
	culture="jogos_nhai"

	father=124607300
	mother=424607300

	8286.1.1 = {birth="8286.1.1"}
	8302.1.1 = {add_trait=poor_warrior}
}
127607300 = {
	name="Zeba"	# not a lord
	female=yes
	dynasty=607300

	religion="jogos_pagan"
	culture="jogos_nhai"

	father=124607300
	mother=424607300

	8288.1.1 = {birth="8288.1.1"}
}
128607300 = {
	name="Inaara"	# not a lord
	female=yes
	dynasty=607300

	religion="jogos_pagan"
	culture="jogos_nhai"

	father=124607300
	mother=424607300

	8290.1.1 = {birth="8290.1.1"}
}
129607300 = {
	name="Pari"	# not a lord
	female=yes
	dynasty=607300

	religion="jogos_pagan"
	culture="jogos_nhai"

	father=124607300
	mother=424607300

	8292.1.1 = {birth="8292.1.1"}
}
130607300 = {
	name="Isak"	# not a lord
	dynasty=607300

	religion="jogos_pagan"
	culture="jogos_nhai"

	father=124607300
	mother=424607300

	8295.1.1 = {birth="8295.1.1"}
	8311.1.1 = {add_trait=skilled_warrior}
}
131607300 = {
	name="Qurban"	# not a lord
	dynasty=607300

	religion="jogos_pagan"
	culture="jogos_nhai"

	father=125607300
	mother=425607300

	8290.1.1 = {birth="8290.1.1"}
	8306.1.1 = {add_trait=poor_warrior}
}
132607300 = {
	name="Diba"	# not a lord
	female=yes
	dynasty=607300

	religion="jogos_pagan"
	culture="jogos_nhai"

	father=125607300
	mother=425607300

	8293.1.1 = {birth="8293.1.1"}
}
#West Plains#
100607301 = {
	name="Barialy"	# a lord
	dynasty=607301

	religion="jogos_pagan"
	culture="jogos_nhai"

	7966.1.1 = {birth="7966.1.1"}
	7982.1.1 = {add_trait=trained_warrior}
	7984.1.1 = {add_spouse=400607301}
	8028.1.1 = {death="8028.1.1"}
}
400607301 = {
	name="Donyaa"
	female=yes

	religion="jogos_pagan"
	culture="jogos_nhai"

	7966.1.1 = {birth="7966.1.1"}
	8028.1.1 = {death="8028.1.1"}
}
101607301 = {
	name="Kahkazan"	# a lord
	dynasty=607301

	religion="jogos_pagan"
	culture="jogos_nhai"

	father=100607301
	mother=400607301

	7995.1.1 = {birth="7995.1.1"}
	8011.1.1 = {add_trait=skilled_warrior}
	8013.1.1 = {add_spouse=401607301}
	8034.1.1 = {death = {death_reason = death_murder}}
}
401607301 = {
	name="Geeti"
	female=yes

	religion="jogos_pagan"
	culture="jogos_nhai"

	7995.1.1 = {birth="7995.1.1"}
	8034.1.1 = {death="8034.1.1"}
}
102607301 = {
	name="Mahwak"	# not a lord
	dynasty=607301

	religion="jogos_pagan"
	culture="jogos_nhai"

	father=100607301
	mother=400607301

	7996.1.1 = {birth="7996.1.1"}
	8012.1.1 = {add_trait=skilled_warrior}
	8071.1.1 = {death="8071.1.1"}
}
103607301 = {
	name="Laimah"	# a lord
	female=yes
	dynasty=607301

	religion="jogos_pagan"
	culture="jogos_nhai"

	father=101607301
	mother=401607301

	8023.1.1 = {birth="8023.1.1"}
	8088.1.1 = {death = {death_reason = death_accident}}
}
403607301 = {
	name="Aamir"

	religion="jogos_pagan"
	culture="jogos_nhai"

	8023.1.1 = {birth="8023.1.1"}
	8039.1.1 = {add_trait=poor_warrior}
	8041.1.1 = {add_spouse=103607301}
	8088.1.1 = {death="8088.1.1"}
}
104607301 = {
	name="Wajia"	# not a lord
	female=yes
	dynasty=607301

	religion="jogos_pagan"
	culture="jogos_nhai"

	father=101607301
	mother=401607301

	8025.1.1 = {birth="8025.1.1"}
	8094.1.1 = {death="8094.1.1"}
}
105607301 = {
	name="Lailuma"	# not a lord
	female=yes
	dynasty=607301

	religion="jogos_pagan"
	culture="jogos_nhai"

	father=101607301
	mother=401607301

	8028.1.1 = {birth="8028.1.1"}
	8098.1.1 = {death="8098.1.1"}
}
106607301 = {
	name="Sadaf"	# a lord
	dynasty=607301

	religion="jogos_pagan"
	culture="jogos_nhai"

	father=403607301
	mother=103607301

	8046.1.1 = {birth="8046.1.1"}
	8062.1.1 = {add_trait=trained_warrior}
	8064.1.1 = {add_spouse=406607301}
	8100.1.1 = {death="8100.1.1"}
}
406607301 = {
	name="Tahmina"
	female=yes

	religion="jogos_pagan"
	culture="jogos_nhai"

	8046.1.1 = {birth="8046.1.1"}
	8100.1.1 = {death="8100.1.1"}
}
107607301 = {
	name="Zaid"	# a lord
	dynasty=607301

	religion="jogos_pagan"
	culture="jogos_nhai"

	father=106607301
	mother=406607301

	8066.1.1 = {birth="8066.1.1"}
	8082.1.1 = {add_trait=master_warrior}
	8084.1.1 = {add_spouse=407607301}
	8111.1.1 = {death="8111.1.1"}
}
407607301 = {
	name="Fakhria"
	female=yes

	religion="jogos_pagan"
	culture="jogos_nhai"

	8066.1.1 = {birth="8066.1.1"}
	8111.1.1 = {death="8111.1.1"}
}
108607301 = {
	name="Zabia"	# not a lord
	female=yes
	dynasty=607301

	religion="jogos_pagan"
	culture="jogos_nhai"

	father=106607301
	mother=406607301

	8068.1.1 = {birth="8068.1.1"}
	8119.1.1 = {death="8119.1.1"}
}
109607301 = {
	name="Obiada"	# not a lord
	female=yes
	dynasty=607301

	religion="jogos_pagan"
	culture="jogos_nhai"

	father=106607301
	mother=406607301

	8069.1.1 = {birth="8069.1.1"}
	8144.1.1 = {death="8144.1.1"}
}
110607301 = {
	name="Elhash"	# not a lord
	dynasty=607301

	religion="jogos_pagan"
	culture="jogos_nhai"

	father=106607301
	mother=406607301

	8071.1.1 = {birth="8071.1.1"}
	8087.1.1 = {add_trait=skilled_warrior}
	8137.1.1 = {death="8137.1.1"}
}
111607301 = {
	name="Naim"	# a lord
	dynasty=607301

	religion="jogos_pagan"
	culture="jogos_nhai"

	father=107607301
	mother=407607301

	8084.1.1 = {birth="8084.1.1"}
	8100.1.1 = {add_trait=poor_warrior}
	8102.1.1 = {add_spouse=411607301}
	8127.1.1 = {death="8127.1.1"}
}
411607301 = {
	name="Orzala"
	female=yes

	religion="jogos_pagan"
	culture="jogos_nhai"

	8084.1.1 = {birth="8084.1.1"}
	8127.1.1 = {death="8127.1.1"}
}
112607301 = {
	name="Darya"	# not a lord
	female=yes
	dynasty=607301

	religion="jogos_pagan"
	culture="jogos_nhai"

	father=107607301
	mother=407607301

	8086.1.1 = {birth="8086.1.1"}
	8159.1.1 = {death="8159.1.1"}
}
113607301 = {
	name="Lima"	# not a lord
	female=yes
	dynasty=607301

	religion="jogos_pagan"
	culture="jogos_nhai"

	father=111607301
	mother=411607301

	8113.1.1 = {birth="8113.1.1"}
	8165.1.1 = {death="8165.1.1"}
}
114607301 = {
	name="Walia"	# not a lord
	female=yes
	dynasty=607301

	religion="jogos_pagan"
	culture="jogos_nhai"

	father=111607301
	mother=411607301

	8114.1.1 = {birth="8114.1.1"}
	8166.1.1 = {death="8166.1.1"}
}
115607301 = {
	name="Jakar"	# a lord
	dynasty=607301

	religion="jogos_pagan"
	culture="jogos_nhai"

	father=111607301
	mother=411607301

	8116.1.1 = {birth="8116.1.1"}
	8132.1.1 = {add_trait=skilled_warrior}
	8134.1.1 = {add_spouse=415607301}
	8163.1.1 = {death="8163.1.1"}
}
415607301 = {
	name="Nabila"
	female=yes

	religion="jogos_pagan"
	culture="jogos_nhai"

	8116.1.1 = {birth="8116.1.1"}
	8163.1.1 = {death="8163.1.1"}
}
116607301 = {
	name="Bakhtiyar"	# not a lord
	dynasty=607301

	religion="jogos_pagan"
	culture="jogos_nhai"

	father=111607301
	mother=411607301

	8117.1.1 = {birth="8117.1.1"}
	8133.1.1 = {add_trait=trained_warrior}
	8160.1.1 = {death="8160.1.1"}
}
117607301 = {
	name="Abagull"	# a lord
	female=yes
	dynasty=607301

	religion="jogos_pagan"
	culture="jogos_nhai"

	father=115607301
	mother=415607301

	8144.1.1 = {birth="8144.1.1"}
	8223.1.1 = {death="8223.1.1"}
}
417607301 = {
	name="Uzrak"

	religion="jogos_pagan"
	culture="jogos_nhai"

	8144.1.1 = {birth="8144.1.1"}
	8160.1.1 = {add_trait=poor_warrior}
	8162.1.1 = {add_spouse=117607301}
	8223.1.1 = {death="8223.1.1"}
}
118607301 = {
	name="Inzir"	# a lord
	dynasty=607301

	religion="jogos_pagan"
	culture="jogos_nhai"

	father=417607301
	mother=117607301

	8171.1.1 = {birth="8171.1.1"}
	8187.1.1 = {add_trait=trained_warrior}
	8189.1.1 = {add_spouse=418607301}
	8230.1.1 = {death="8230.1.1"}
}
418607301 = {
	name="Nadera"
	female=yes

	religion="jogos_pagan"
	culture="jogos_nhai"

	8171.1.1 = {birth="8171.1.1"}
	8230.1.1 = {death="8230.1.1"}
}
119607301 = {
	name="Jaan"	# not a lord
	dynasty=607301

	religion="jogos_pagan"
	culture="jogos_nhai"

	father=417607301
	mother=117607301

	8173.1.1 = {birth="8173.1.1"}
	8189.1.1 = {add_trait=poor_warrior}
	8230.1.1 = {death="8230.1.1"}
}
120607301 = {
	name="Hadi"	# not a lord
	female=yes
	dynasty=607301

	religion="jogos_pagan"
	culture="jogos_nhai"

	father=118607301
	mother=418607301

	8191.1.1 = {birth="8191.1.1"}
	8222.1.1 = {death="8222.1.1"}
}
121607301 = {
	name="Zahra"	# not a lord
	female=yes
	dynasty=607301

	religion="jogos_pagan"
	culture="jogos_nhai"

	father=118607301
	mother=418607301

	8193.1.1 = {birth="8193.1.1"}
	8226.1.1 = {death="8226.1.1"}
}
122607301 = {
	name="Malia"	# a lord
	female=yes
	dynasty=607301

	religion="jogos_pagan"
	culture="jogos_nhai"

	father=118607301
	mother=418607301

	8196.1.1 = {birth="8196.1.1"}
	8258.1.1 = {death = {death_reason = death_accident}}
}
422607301 = {
	name="Wafa"

	religion="jogos_pagan"
	culture="jogos_nhai"

	8196.1.1 = {birth="8196.1.1"}
	8212.1.1 = {add_trait=poor_warrior}
	8214.1.1 = {add_spouse=122607301}
	8258.1.1 = {death="8258.1.1"}
}
123607301 = {
	name="Ghulak"	# a lord
	dynasty=607301

	religion="jogos_pagan"
	culture="jogos_nhai"

	father=422607301
	mother=122607301

	8219.1.1 = {birth="8219.1.1"}
	8235.1.1 = {add_trait=skilled_warrior}
	8237.1.1 = {add_spouse=423607301}
	8262.1.1 = {death="8262.1.1"}
}
423607301 = {
	name="Makai"
	female=yes

	religion="jogos_pagan"
	culture="jogos_nhai"

	8219.1.1 = {birth="8219.1.1"}
	8262.1.1 = {death="8262.1.1"}
}
124607301 = {
	name="Zabia"	# not a lord
	female=yes
	dynasty=607301

	religion="jogos_pagan"
	culture="jogos_nhai"

	father=422607301
	mother=122607301

	8228.1.1 = {birth="8228.1.1"}
	8264.1.1 = {death="8264.1.1"}
}
125607301 = {
	name="Yaldak"	# a lord
	dynasty=607301

	religion="jogos_pagan"
	culture="jogos_nhai"

	father=123607301
	mother=423607301

	8240.1.1 = {birth="8240.1.1"}
	8256.1.1 = {add_trait=poor_warrior}
	8258.1.1 = {add_spouse=425607301}
	8282.1.1 = {death="8282.1.1"}
}
425607301 = {
	name="Orzala"
	female=yes

	religion="jogos_pagan"
	culture="jogos_nhai"

	8240.1.1 = {birth="8240.1.1"}
	8282.1.1 = {death="8282.1.1"}
}
126607301 = {
	name="Mahwak"	# not a lord
	dynasty=607301

	religion="jogos_pagan"
	culture="jogos_nhai"

	father=123607301
	mother=423607301

	8243.1.1 = {birth="8243.1.1"}
	8259.1.1 = {add_trait=poor_warrior}
	8261.1.1 = {add_spouse=426607301}
}
426607301 = {
	name="Daywa"
	female=yes

	religion="jogos_pagan"
	culture="jogos_nhai"

	8243.1.1 = {birth="8243.1.1"}
}
127607301 = {
	name="Fardeen"	# a lord
	dynasty=607301

	religion="jogos_pagan"
	culture="jogos_nhai"

	father=125607301
	mother=425607301

	8272.1.1 = {birth="8272.1.1"}
	8288.1.1 = {add_trait=trained_warrior}
}
128607301 = {
	name="Ghezal"	# not a lord
	female=yes
	dynasty=607301

	religion="jogos_pagan"
	culture="jogos_nhai"

	father=125607301
	mother=425607301

	8275.1.1 = {birth="8275.1.1"}
}
129607301 = {
	name="Elhash"	# not a lord
	dynasty=607301

	religion="jogos_pagan"
	culture="jogos_nhai"

	father=125607301
	mother=425607301

	8277.1.1 = {birth="8277.1.1"}
	8293.1.1 = {add_trait=skilled_warrior}
}
130607301 = {
	name="Karima"	# not a lord
	female=yes
	dynasty=607301

	religion="jogos_pagan"
	culture="jogos_nhai"

	father=125607301
	mother=425607301

	8278.1.1 = {birth="8278.1.1"}
}
131607301 = {
	name="Taj"	# not a lord
	dynasty=607301

	religion="jogos_pagan"
	culture="jogos_nhai"

	father=126607301
	mother=426607301

	8278.1.1 = {birth="8278.1.1"}
	8294.1.1 = {add_trait=poor_warrior}
}
132607301 = {
	name="Uzrak"	# not a lord
	dynasty=607301

	religion="jogos_pagan"
	culture="jogos_nhai"

	father=126607301
	mother=426607301

	8280.1.1 = {birth="8280.1.1"}
	8296.1.1 = {add_trait=trained_warrior}
}
133607301 = {
	name="Haider"	# not a lord
	dynasty=607301

	religion="jogos_pagan"
	culture="jogos_nhai"

	father=126607301
	mother=426607301

	8281.1.1 = {birth="8281.1.1"}
	8297.1.1 = {add_trait=skilled_warrior}
}

#North Plains#
100607302 = {
	name="Jawak"	# a lord
	dynasty=607302

	religion="jogos_pagan"
	culture="jogos_nhai"

	7935.1.1 = {birth="7935.1.1"}
	7951.1.1 = {add_trait=trained_warrior}
	7953.1.1 = {add_spouse=400607302}
	8001.1.1 = {death="8001.1.1"}
}
400607302 = {
	name="Ghezal"
	female=yes

	religion="jogos_pagan"
	culture="jogos_nhai"

	7935.1.1 = {birth="7935.1.1"}
	8001.1.1 = {death="8001.1.1"}
}
101607302 = {
	name="Faqar"	# a lord
	dynasty=607302

	religion="jogos_pagan"
	culture="jogos_nhai"

	father=100607302
	mother=400607302

	7958.1.1 = {birth="7958.1.1"}
	7974.1.1 = {add_trait=poor_warrior}
	7976.1.1 = {add_spouse=401607302}
	8030.1.1 = {death="8030.1.1"}
}
401607302 = {
	name="Rabeha"
	female=yes

	religion="jogos_pagan"
	culture="jogos_nhai"

	7958.1.1 = {birth="7958.1.1"}
	8030.1.1 = {death="8030.1.1"}
}
102607302 = {
	name="Tahira"	# not a lord
	female=yes
	dynasty=607302

	religion="jogos_pagan"
	culture="jogos_nhai"

	father=100607302
	mother=400607302

	7959.1.1 = {birth="7959.1.1"}
	8022.1.1 = {death="8022.1.1"}
}
103607302 = {
	name="Daoud"	# not a lord
	dynasty=607302

	religion="jogos_pagan"
	culture="jogos_nhai"

	father=100607302
	mother=400607302

	7960.1.1 = {birth="7960.1.1"}
	7976.1.1 = {add_trait=skilled_warrior}
	8019.1.1 = {death="8019.1.1"}
}
104607302 = {
	name="Rasoul"	# not a lord
	dynasty=607302

	religion="jogos_pagan"
	culture="jogos_nhai"

	father=100607302
	mother=400607302

	7961.1.1 = {birth="7961.1.1"}
	7977.1.1 = {add_trait=trained_warrior}
	8040.1.1 = {death="8040.1.1"}
}
105607302 = {
	name="Kahkazan"	# a lord
	dynasty=607302

	religion="jogos_pagan"
	culture="jogos_nhai"

	father=101607302
	mother=401607302

	7990.1.1 = {birth="7990.1.1"}
	8006.1.1 = {add_trait=skilled_warrior}
	8008.1.1 = {add_spouse=405607302}
	8046.1.1 = {death="8046.1.1"}
}
405607302 = {
	name="Xebaida"
	female=yes

	religion="jogos_pagan"
	culture="jogos_nhai"

	7990.1.1 = {birth="7990.1.1"}
	8046.1.1 = {death="8046.1.1"}
}
106607302 = {
	name="Ghulak"	# not a lord
	dynasty=607302

	religion="jogos_pagan"
	culture="jogos_nhai"

	father=101607302
	mother=401607302

	7993.1.1 = {birth="7993.1.1"}
	8009.1.1 = {add_trait=poor_warrior}
	8041.1.1 = {death="8041.1.1"}
}
107607302 = {
	name="Tabish"	# not a lord
	dynasty=607302

	religion="jogos_pagan"
	culture="jogos_nhai"

	father=101607302
	mother=401607302

	7995.1.1 = {birth="7995.1.1"}
	7998.1.1 = {death="7998.1.1"}
}
108607302 = {
	name="Zeba"	# not a lord
	female=yes
	dynasty=607302

	religion="jogos_pagan"
	culture="jogos_nhai"

	father=101607302
	mother=401607302

	7998.1.1 = {birth="7998.1.1"}
	8041.1.1 = {death="8041.1.1"}
}
109607302 = {
	name="Lemar"	# not a lord
	dynasty=607302

	religion="jogos_pagan"
	culture="jogos_nhai"

	father=105607302
	mother=405607302

	8013.1.1 = {birth="8013.1.1"}
	8029.1.1 = {add_trait=poor_warrior}
	8046.1.1 = {death="8046.1.1"}
}
110607302 = {
	name="Zeba"	# a lord
	female=yes
	dynasty=607302

	religion="jogos_pagan"
	culture="jogos_nhai"

	father=105607302
	mother=405607302

	8016.1.1 = {birth="8016.1.1"}
	8059.1.1 = {death="8059.1.1"}
}
410607302 = {
	name="Changaze"

	religion="jogos_pagan"
	culture="jogos_nhai"

	8016.1.1 = {birth="8016.1.1"}
	8032.1.1 = {add_trait=poor_warrior}
	8034.1.1 = {add_spouse=110607302}
	8059.1.1 = {death="8059.1.1"}
}
111607302 = {
	name="Tarana"	# not a lord
	female=yes
	dynasty=607302

	religion="jogos_pagan"
	culture="jogos_nhai"

	father=105607302
	mother=405607302

	8019.1.1 = {birth="8019.1.1"}
	8066.1.1 = {death="8066.1.1"}
}
112607302 = {
	name="Rahila"	# not a lord
	female=yes
	dynasty=607302

	religion="jogos_pagan"
	culture="jogos_nhai"

	father=105607302
	mother=405607302

	8020.1.1 = {birth="8020.1.1"}
	8095.1.1 = {death="8095.1.1"}
}
113607302 = {
	name="Basir"	# a lord
	dynasty=607302

	religion="jogos_pagan"
	culture="jogos_nhai"

	father=410607302
	mother=110607302

	8045.1.1 = {birth="8045.1.1"}
	8061.1.1 = {add_trait=poor_warrior}
	8063.1.1 = {add_spouse=413607302}
	8103.1.1 = {death="8103.1.1"}
}
413607302 = {
	name="Daywa"
	female=yes

	religion="jogos_pagan"
	culture="jogos_nhai"

	8045.1.1 = {birth="8045.1.1"}
	8103.1.1 = {death="8103.1.1"}
}
114607302 = {
	name="Jaan"	# a lord
	dynasty=607302

	religion="jogos_pagan"
	culture="jogos_nhai"

	father=113607302
	mother=413607302

	8079.1.1 = {birth="8079.1.1"}
	8095.1.1 = {add_trait=poor_warrior}
	8097.1.1 = {add_spouse=414607302}
	8147.1.1 = {death="8147.1.1"}
}
414607302 = {
	name="Leepa"
	female=yes

	religion="jogos_pagan"
	culture="jogos_nhai"

	8079.1.1 = {birth="8079.1.1"}
	8147.1.1 = {death="8147.1.1"}
}
115607302 = {
	name="Yasen"	# a lord
	dynasty=607302

	religion="jogos_pagan"
	culture="jogos_nhai"

	father=114607302
	mother=414607302

	8102.1.1 = {birth="8102.1.1"}
	8118.1.1 = {add_trait=master_warrior}
	8120.1.1 = {add_spouse=415607302}
	8163.1.1 = {death="8163.1.1"}
}
415607302 = {
	name="Bakhtawar"
	female=yes

	religion="jogos_pagan"
	culture="jogos_nhai"

	8102.1.1 = {birth="8102.1.1"}
	8163.1.1 = {death="8163.1.1"}
}
116607302 = {
	name="Sabeir"	# a lord
	dynasty=607302

	religion="jogos_pagan"
	culture="jogos_nhai"

	father=114607302
	mother=414607302

	8103.1.1 = {birth="8103.1.1"}
	8119.1.1 = {add_trait=master_warrior}
	8121.1.1 = {add_spouse=416607302}
	8172.1.1 = {death="8172.1.1"}
}
416607302 = {
	name="Aatifa"
	female=yes

	religion="jogos_pagan"
	culture="jogos_nhai"

	8103.1.1 = {birth="8103.1.1"}
	8172.1.1 = {death="8172.1.1"}
}
117607302 = {
	name="Leena"	# not a lord
	female=yes
	dynasty=607302

	religion="jogos_pagan"
	culture="jogos_nhai"

	father=115607302
	mother=415607302

	8122.1.1 = {birth="8122.1.1"}
	8176.1.1 = {death="8176.1.1"}
}
118607302 = {
	name="Ramazan"	# a lord
	dynasty=607302

	religion="jogos_pagan"
	culture="jogos_nhai"

	father=116607302
	mother=416607302

	8136.1.1 = {birth="8136.1.1"}
	8152.1.1 = {add_trait=trained_warrior}
	8154.1.1 = {add_spouse=418607302}
	8191.1.1 = {death="8191.1.1"}
}
418607302 = {
	name="Faria"
	female=yes

	religion="jogos_pagan"
	culture="jogos_nhai"

	8136.1.1 = {birth="8136.1.1"}
	8191.1.1 = {death="8191.1.1"}
}
119607302 = {
	name="Sadik"	# not a lord
	dynasty=607302

	religion="jogos_pagan"
	culture="jogos_nhai"

	father=116607302
	mother=416607302

	8137.1.1 = {birth="8137.1.1"}
	8153.1.1 = {add_trait=skilled_warrior}
	8215.1.1 = {death="8215.1.1"}
}
120607302 = {
	name="Tamim"	# a lord
	dynasty=607302

	religion="jogos_pagan"
	culture="jogos_nhai"

	father=118607302
	mother=418607302

	8160.1.1 = {birth="8160.1.1"}
	8176.1.1 = {add_trait=trained_warrior}
	8178.1.1 = {add_spouse=420607302}
	8217.1.1 = {death="8217.1.1"}
}
420607302 = {
	name="Halima"
	female=yes

	religion="jogos_pagan"
	culture="jogos_nhai"

	8160.1.1 = {birth="8160.1.1"}
	8217.1.1 = {death="8217.1.1"}
}
121607302 = {
	name="Elhash"	# not a lord
	dynasty=607302

	religion="jogos_pagan"
	culture="jogos_nhai"

	father=118607302
	mother=418607302

	8161.1.1 = {birth="8161.1.1"}
	8177.1.1 = {add_trait=trained_warrior}
	8228.1.1 = {death="8228.1.1"}
}
122607302 = {
	name="Wais"	# not a lord
	dynasty=607302

	religion="jogos_pagan"
	culture="jogos_nhai"

	father=118607302
	mother=418607302

	8162.1.1 = {birth="8162.1.1"}
	8178.1.1 = {add_trait=trained_warrior}
	8222.1.1 = {death="8222.1.1"}
}
123607302 = {
	name="Tahira"	# not a lord
	female=yes
	dynasty=607302

	religion="jogos_pagan"
	culture="jogos_nhai"

	father=118607302
	mother=418607302

	8163.1.1 = {birth="8163.1.1"}
	8220.1.1 = {death = {death_reason = death_accident}}
}
124607302 = {
	name="Nadera"	# not a lord
	female=yes
	dynasty=607302

	religion="jogos_pagan"
	culture="jogos_nhai"

	father=120607302
	mother=420607302

	8179.1.1 = {birth="8179.1.1"}
	8236.1.1 = {death="8236.1.1"}
}
125607302 = {
	name="Obiad"	# a lord
	dynasty=607302

	religion="jogos_pagan"
	culture="jogos_nhai"

	father=120607302
	mother=420607302

	8181.1.1 = {birth="8181.1.1"}
	8197.1.1 = {add_trait=master_warrior}
	8199.1.1 = {add_spouse=425607302}
	8221.1.1 = {death="8221.1.1"}
}
425607302 = {
	name="Faria"
	female=yes

	religion="jogos_pagan"
	culture="jogos_nhai"

	8181.1.1 = {birth="8181.1.1"}
	8221.1.1 = {death="8221.1.1"}
}
126607302 = {
	name="Lailuma"	# not a lord
	female=yes
	dynasty=607302

	religion="jogos_pagan"
	culture="jogos_nhai"

	father=120607302
	mother=420607302

	8182.1.1 = {birth="8182.1.1"}
	8241.1.1 = {death="8241.1.1"}
}
127607302 = {
	name="Zahar"	# not a lord
	dynasty=607302

	religion="jogos_pagan"
	culture="jogos_nhai"

	father=120607302
	mother=420607302

	8185.1.1 = {birth="8185.1.1"}
	8201.1.1 = {add_trait=skilled_warrior}
	8247.1.1 = {death="8247.1.1"}
}
128607302 = {
	name="Zabi"	# a lord
	dynasty=607302

	religion="jogos_pagan"
	culture="jogos_nhai"

	father=125607302
	mother=425607302

	8205.1.1 = {birth="8205.1.1"}
	8221.1.1 = {add_trait=poor_warrior}
	8223.1.1 = {add_spouse=428607302}
	8258.1.1 = {death="8258.1.1"}
}
428607302 = {
	name="Orzala"
	female=yes

	religion="jogos_pagan"
	culture="jogos_nhai"

	8205.1.1 = {birth="8205.1.1"}
	8258.1.1 = {death="8258.1.1"}
}
129607302 = {
	name="Wahida"	# a lord
	female=yes
	dynasty=607302

	religion="jogos_pagan"
	culture="jogos_nhai"

	father=128607302
	mother=428607302

	8229.1.1 = {birth="8229.1.1"}
	8274.1.1 = {death="8274.1.1"}
}
429607302 = {
	name="Changaze"

	religion="jogos_pagan"
	culture="jogos_nhai"

	8229.1.1 = {birth="8229.1.1"}
	8245.1.1 = {add_trait=poor_warrior}
	8247.1.1 = {add_spouse=129607302}
	8274.1.1 = {death="8274.1.1"}
}
130607302 = {
	name="Rasoul"	# a lord
	dynasty=607302

	religion="jogos_pagan"
	culture="jogos_nhai"

	father=429607302
	mother=129607302

	8251.1.1 = {birth="8251.1.1"}
	8267.1.1 = {add_trait=trained_warrior}
	8269.1.1 = {add_spouse=430607302}
}
430607302 = {
	name="Ilaaha"
	female=yes

	religion="jogos_pagan"
	culture="jogos_nhai"

	8251.1.1 = {birth="8251.1.1"}
}
131607302 = {
	name="Aasif"	# not a lord
	dynasty=607302

	religion="jogos_pagan"
	culture="jogos_nhai"

	father=130607302
	mother=430607302

	8274.1.1 = {birth="8274.1.1"}
	8290.1.1 = {add_trait=trained_warrior}
}
132607302 = {
	name="Farhad"	# not a lord
	dynasty=607302

	religion="jogos_pagan"
	culture="jogos_nhai"

	father=130607302
	mother=430607302

	8277.1.1 = {birth="8277.1.1"}
	8293.1.1 = {add_trait=skilled_warrior}
}

#Central Plains#
100607303 = {
	name="Zaid"	# a lord
	dynasty=607303

	religion="jogos_pagan"
	culture="jogos_nhai"

	7960.1.1 = {birth="7960.1.1"}
	7976.1.1 = {add_trait=trained_warrior}
	7978.1.1 = {add_spouse=400607303}
	8019.1.1 = {death="8019.1.1"}
}
400607303 = {
	name="Donyaa"
	female=yes

	religion="jogos_pagan"
	culture="jogos_nhai"

	7960.1.1 = {birth="7960.1.1"}
	8019.1.1 = {death="8019.1.1"}
}
101607303 = {
	name="Edrees"	# a lord
	dynasty=607303

	religion="jogos_pagan"
	culture="jogos_nhai"

	father=100607303
	mother=400607303

	7983.1.1 = {birth="7983.1.1"}
	7999.1.1 = {add_trait=trained_warrior}
	8001.1.1 = {add_spouse=401607303}
	8035.1.1 = {death="8035.1.1"}
}
401607303 = {
	name="Laimah"
	female=yes

	religion="jogos_pagan"
	culture="jogos_nhai"

	7983.1.1 = {birth="7983.1.1"}
	8035.1.1 = {death="8035.1.1"}
}
102607303 = {
	name="Yama"	# not a lord
	female=yes
	dynasty=607303

	religion="jogos_pagan"
	culture="jogos_nhai"

	father=100607303
	mother=400607303

	7985.1.1 = {birth="7985.1.1"}
	8037.1.1 = {death="8037.1.1"}
}
103607303 = {
	name="Taj"	# not a lord
	dynasty=607303

	religion="jogos_pagan"
	culture="jogos_nhai"

	father=100607303
	mother=400607303

	7986.1.1 = {birth="7986.1.1"}
	8002.1.1 = {add_trait=trained_warrior}
	8040.1.1 = {death="8040.1.1"}
}
104607303 = {
	name="Tahira"	# not a lord
	female=yes
	dynasty=607303

	religion="jogos_pagan"
	culture="jogos_nhai"

	father=100607303
	mother=400607303

	7988.1.1 = {birth="7988.1.1"}
	8030.1.1 = {death="8030.1.1"}
}
105607303 = {
	name="Chehra"	# not a lord
	female=yes
	dynasty=607303

	religion="jogos_pagan"
	culture="jogos_nhai"

	father=101607303
	mother=401607303

	8003.1.1 = {birth="8003.1.1"}
	8053.1.1 = {death="8053.1.1"}
}
106607303 = {
	name="Qader"	# a lord
	dynasty=607303

	religion="jogos_pagan"
	culture="jogos_nhai"

	father=101607303
	mother=401607303

	8006.1.1 = {birth="8006.1.1"}
	8022.1.1 = {add_trait=trained_warrior}
	8024.1.1 = {add_spouse=406607303}
	8048.1.1 = {death="8048.1.1"}
}
406607303 = {
	name="Xebaida"
	female=yes

	religion="jogos_pagan"
	culture="jogos_nhai"

	8006.1.1 = {birth="8006.1.1"}
	8048.1.1 = {death="8048.1.1"}
}
107607303 = {
	name="Sabeir"	# a lord
	dynasty=607303

	religion="jogos_pagan"
	culture="jogos_nhai"

	father=106607303
	mother=406607303

	8030.1.1 = {birth="8030.1.1"}
	8046.1.1 = {add_trait=master_warrior}
	8048.1.1 = {add_spouse=407607303}
	8079.1.1 = {death="8079.1.1"}
}
407607303 = {
	name="Tahira"
	female=yes

	religion="jogos_pagan"
	culture="jogos_nhai"

	8030.1.1 = {birth="8030.1.1"}
	8079.1.1 = {death="8079.1.1"}
}
108607303 = {
	name="Tamim"	# not a lord
	dynasty=607303

	religion="jogos_pagan"
	culture="jogos_nhai"

	father=106607303
	mother=406607303

	8032.1.1 = {birth="8032.1.1"}
	8048.1.1 = {add_trait=trained_warrior}
	8073.1.1 = {death="8073.1.1"}
}
109607303 = {
	name="Taj"	# a lord
	dynasty=607303

	religion="jogos_pagan"
	culture="jogos_nhai"

	father=107607303
	mother=407607303

	8059.1.1 = {birth="8059.1.1"}
	8075.1.1 = {add_trait=trained_warrior}
	8077.1.1 = {add_spouse=409607303}
	8099.1.1 = {death="8099.1.1"}
}
409607303 = {
	name="Tamana"
	female=yes

	religion="jogos_pagan"
	culture="jogos_nhai"

	8059.1.1 = {birth="8059.1.1"}
	8099.1.1 = {death="8099.1.1"}
}
110607303 = {
	name="Kahkazan"	# a lord
	dynasty=607303

	religion="jogos_pagan"
	culture="jogos_nhai"

	father=109607303
	mother=409607303

	8087.1.1 = {birth="8087.1.1"}
	8103.1.1 = {add_trait=trained_warrior}
	8105.1.1 = {add_spouse=410607303}
	8155.1.1 = {death="8155.1.1"}
}
410607303 = {
	name="Daywa"
	female=yes

	religion="jogos_pagan"
	culture="jogos_nhai"

	8087.1.1 = {birth="8087.1.1"}
	8155.1.1 = {death="8155.1.1"}
}
111607303 = {
	name="Walia"	# not a lord
	female=yes
	dynasty=607303

	religion="jogos_pagan"
	culture="jogos_nhai"

	father=109607303
	mother=409607303

	8090.1.1 = {birth="8090.1.1"}
	8154.1.1 = {death="8154.1.1"}
}
112607303 = {
	name="Aamir"	# not a lord
	dynasty=607303

	religion="jogos_pagan"
	culture="jogos_nhai"

	father=109607303
	mother=409607303

	8091.1.1 = {birth="8091.1.1"}
	8107.1.1 = {add_trait=trained_warrior}
	8144.1.1 = {death="8144.1.1"}
}
113607303 = {
	name="Usma"	# a lord
	female=yes
	dynasty=607303

	religion="jogos_pagan"
	culture="jogos_nhai"

	father=110607303
	mother=410607303

	8108.1.1 = {birth="8108.1.1"}
	8176.1.1 = {death="8176.1.1"}
}
413607303 = {
	name="Tahib"

	religion="jogos_pagan"
	culture="jogos_nhai"

	8108.1.1 = {birth="8108.1.1"}
	8124.1.1 = {add_trait=poor_warrior}
	8126.1.1 = {add_spouse=113607303}
	8176.1.1 = {death="8176.1.1"}
}
114607303 = {
	name="Naim"	# a lord
	dynasty=607303

	religion="jogos_pagan"
	culture="jogos_nhai"

	father=413607303
	mother=113607303

	8137.1.1 = {birth="8137.1.1"}
	8153.1.1 = {add_trait=skilled_warrior}
	8155.1.1 = {add_spouse=414607303}
	8178.1.1 = {death="8178.1.1"}
}
414607303 = {
	name="Leena"
	female=yes

	religion="jogos_pagan"
	culture="jogos_nhai"

	8137.1.1 = {birth="8137.1.1"}
	8178.1.1 = {death="8178.1.1"}
}
115607303 = {
	name="Faqar"	# a lord
	dynasty=607303

	religion="jogos_pagan"
	culture="jogos_nhai"

	father=413607303
	mother=113607303

	8139.1.1 = {birth="8139.1.1"}
	8155.1.1 = {add_trait=trained_warrior}
	8157.1.1 = {add_spouse=415607303}
	8195.1.1 = {death="8195.1.1"}
}
415607303 = {
	name="Aatifa"
	female=yes

	religion="jogos_pagan"
	culture="jogos_nhai"

	8139.1.1 = {birth="8139.1.1"}
	8195.1.1 = {death="8195.1.1"}
}
116607303 = {
	name="Rahila"	# not a lord
	female=yes
	dynasty=607303

	religion="jogos_pagan"
	culture="jogos_nhai"

	father=114607303
	mother=414607303

	8171.1.1 = {birth="8171.1.1"}
	8198.1.1 = {death="8198.1.1"}
}
117607303 = {
	name="Aarak"	# a lord
	dynasty=607303

	religion="jogos_pagan"
	culture="jogos_nhai"

	father=114607303
	mother=414607303

	8174.1.1 = {birth="8174.1.1"}
	8190.1.1 = {add_trait=poor_warrior}
	8192.1.1 = {add_spouse=417607303}
	8226.1.1 = {death = {death_reason = death_murder}}
}
417607303 = {
	name="Chehra"
	female=yes

	religion="jogos_pagan"
	culture="jogos_nhai"

	8174.1.1 = {birth="8174.1.1"}
	8226.1.1 = {death="8226.1.1"}
}
118607303 = {
	name="Elina"	# not a lord
	female=yes
	dynasty=607303

	religion="jogos_pagan"
	culture="jogos_nhai"

	father=115607303
	mother=415607303

	8162.1.1 = {birth="8162.1.1"}
	8221.1.1 = {death="8221.1.1"}
}
119607303 = {
	name="Ehsan"	# a lord
	dynasty=607303

	religion="jogos_pagan"
	culture="jogos_nhai"

	father=117607303
	mother=417607303

	8199.1.1 = {birth="8199.1.1"}
	8215.1.1 = {add_trait=trained_warrior}
	8217.1.1 = {add_spouse=419607303}
	8252.1.1 = {death="8252.1.1"}
}
419607303 = {
	name="Obiada"
	female=yes

	religion="jogos_pagan"
	culture="jogos_nhai"

	8199.1.1 = {birth="8199.1.1"}
	8252.1.1 = {death="8252.1.1"}
}
120607303 = {
	name="Leepa"	# not a lord
	female=yes
	dynasty=607303

	religion="jogos_pagan"
	culture="jogos_nhai"

	father=117607303
	mother=417607303

	8201.1.1 = {birth="8201.1.1"}
	8280.1.1 = {death="8280.1.1"}
}
121607303 = {
	name="Orzala"	# not a lord
	female=yes
	dynasty=607303

	religion="jogos_pagan"
	culture="jogos_nhai"

	father=117607303
	mother=417607303

	8203.1.1 = {birth="8203.1.1"}
	8244.1.1 = {death="8244.1.1"}
}
122607303 = {
	name="Parviz"	# a lord
	dynasty=607303

	religion="jogos_pagan"
	culture="jogos_nhai"

	father=119607303
	mother=419607303

	8226.1.1 = {birth="8226.1.1"}
	8242.1.1 = {add_trait=trained_warrior}
	8244.1.1 = {add_spouse=422607303}
	8293.1.1 = {death="8293.1.1"}
}
422607303 = {
	name="Patra"
	female=yes

	religion="jogos_pagan"
	culture="jogos_nhai"

	8226.1.1 = {birth="8226.1.1"}
	8293.1.1 = {death="8293.1.1"}
}
123607303 = {
	name="Wajia"	# not a lord
	female=yes
	dynasty=607303

	religion="jogos_pagan"
	culture="jogos_nhai"

	father=119607303
	mother=419607303

	8227.1.1 = {birth="8227.1.1"}
	8274.1.1 = {death="8274.1.1"}
}
124607303 = {
	name="Yasaman"	# not a lord
	dynasty=607303

	religion="jogos_pagan"
	culture="jogos_nhai"

	father=119607303
	mother=419607303

	8230.1.1 = {birth="8230.1.1"}
	8246.1.1 = {add_trait=poor_warrior}
	8248.1.1 = {add_spouse=424607303}
	8295.1.1 = {death="8295.1.1"}
}
424607303 = {
	name="Laimah"
	female=yes

	religion="jogos_pagan"
	culture="jogos_nhai"

	8230.1.1 = {birth="8230.1.1"}
	8295.1.1 = {death="8295.1.1"}
}
125607303 = {
	name="Sabeir"	# not a lord
	dynasty=607303

	religion="jogos_pagan"
	culture="jogos_nhai"

	father=119607303
	mother=419607303

	8233.1.1 = {birth="8233.1.1"}
	8249.1.1 = {add_trait=poor_warrior}
	8284.1.1 = {death="8284.1.1"}
}
126607303 = {
	name="Ramazan"	# a lord
	dynasty=607303

	religion="jogos_pagan"
	culture="jogos_nhai"

	father=122607303
	mother=422607303

	8261.1.1 = {birth="8261.1.1"}
	8277.1.1 = {add_trait=trained_warrior}
	8279.1.1 = {add_spouse=426607303}
}
426607303 = {
	name="Obiada"
	female=yes

	religion="jogos_pagan"
	culture="jogos_nhai"

	8261.1.1 = {birth="8261.1.1"}
}
127607303 = {
	name="Zahra"	# not a lord
	female=yes
	dynasty=607303

	religion="jogos_pagan"
	culture="jogos_nhai"

	father=126607303
	mother=426607303

	8284.1.1 = {birth="8284.1.1"}
}
128607303 = {
	name="Sabroo"	# not a lord
	female=yes
	dynasty=607303

	religion="jogos_pagan"
	culture="jogos_nhai"

	father=124607303
	mother=424607303

	8253.1.1 = {birth="8253.1.1"}
}
129607303 = {
	name="Qader"	# a lord
	dynasty=607303

	religion="jogos_pagan"
	culture="jogos_nhai"

	father=124607303
	mother=424607303

	8255.1.1 = {birth="8255.1.1"}
	8271.1.1 = {add_trait=trained_warrior}
	8273.1.1 = {add_spouse=429607303}
}
429607303 = {
	name="Darya"
	female=yes

	religion="jogos_pagan"
	culture="jogos_nhai"

	8255.1.1 = {birth="8255.1.1"}
}
132607303 = {
	name="Maiwand"	# not a lord
	dynasty=607303

	religion="jogos_pagan"
	culture="jogos_nhai"

	father=124607303
	mother=424607303

	8258.1.1 = {birth="8258.1.1"}
	8274.1.1 = {add_trait=trained_warrior}
}
133607303 = {
	name="Fateh"	# not a lord
	dynasty=607303

	religion="jogos_pagan"
	culture="jogos_nhai"

	father=129607303
	mother=429607303

	8277.1.1 = {birth="8277.1.1"}
	8293.1.1 = {add_trait=master_warrior}
}

#East Plains#
100607304 = {
	name="Ehsan"	# a lord
	dynasty=607304

	religion="jogos_pagan"
	culture="jogos_nhai"

	7954.1.1 = {birth="7954.1.1"}
	7970.1.1 = {add_trait=skilled_warrior}
	7972.1.1 = {add_spouse=400607304}
	8005.1.1 = {death="8005.1.1"}
}
400607304 = {
	name="Wahida"
	female=yes

	religion="jogos_pagan"
	culture="jogos_nhai"

	7954.1.1 = {birth="7954.1.1"}
	8005.1.1 = {death="8005.1.1"}
}
101607304 = {
	name="Qader"	# a lord
	dynasty=607304

	religion="jogos_pagan"
	culture="jogos_nhai"

	father=100607304
	mother=400607304

	7977.1.1 = {birth="7977.1.1"}
	7993.1.1 = {add_trait=trained_warrior}
	7995.1.1 = {add_spouse=401607304}
	8027.1.1 = {death="8027.1.1"}
}
401607304 = {
	name="Malalai"
	female=yes

	religion="jogos_pagan"
	culture="jogos_nhai"

	7977.1.1 = {birth="7977.1.1"}
	8027.1.1 = {death="8027.1.1"}
}
102607304 = {
	name="Elhash"	# not a lord
	dynasty=607304

	religion="jogos_pagan"
	culture="jogos_nhai"

	father=100607304
	mother=400607304

	7980.1.1 = {birth="7980.1.1"}
	7996.1.1 = {add_trait=poor_warrior}
	8040.1.1 = {death="8040.1.1"}
}
103607304 = {
	name="Qudratu"	# a lord
	female=yes
	dynasty=607304

	religion="jogos_pagan"
	culture="jogos_nhai"

	father=101607304
	mother=401607304

	8004.1.1 = {birth="8004.1.1"}
	8039.1.1 = {death="8039.1.1"}
}
403607304 = {
	name="Wakel"

	religion="jogos_pagan"
	culture="jogos_nhai"

	8004.1.1 = {birth="8004.1.1"}
	8020.1.1 = {add_trait=poor_warrior}
	8022.1.1 = {add_spouse=103607304}
	8039.1.1 = {death="8039.1.1"}
}
104607304 = {
	name="Zhea"	# not a lord
	female=yes
	dynasty=607304

	religion="jogos_pagan"
	culture="jogos_nhai"

	father=101607304
	mother=401607304

	8006.1.1 = {birth="8006.1.1"}
	8065.1.1 = {death="8065.1.1"}
}
105607304 = {
	name="Camila"	# not a lord
	female=yes
	dynasty=607304

	religion="jogos_pagan"
	culture="jogos_nhai"

	father=101607304
	mother=401607304

	8009.1.1 = {birth="8009.1.1"}
	8036.1.1 = {death="8036.1.1"}
}
106607304 = {
	name="Jakan"	# a lord
	dynasty=607304

	religion="jogos_pagan"
	culture="jogos_nhai"

	father=403607304
	mother=103607304

	8024.1.1 = {birth="8024.1.1"}
	8040.1.1 = {add_trait=trained_warrior}
	8042.1.1 = {add_spouse=406607304}
	8083.1.1 = {death="8083.1.1"}
}
406607304 = {
	name="Wahida"
	female=yes

	religion="jogos_pagan"
	culture="jogos_nhai"

	8024.1.1 = {birth="8024.1.1"}
	8083.1.1 = {death="8083.1.1"}
}
107607304 = {
	name="Kamila"	# not a lord
	female=yes
	dynasty=607304

	religion="jogos_pagan"
	culture="jogos_nhai"

	father=106607304
	mother=406607304

	8047.1.1 = {birth="8047.1.1"}
	8088.1.1 = {death="8088.1.1"}
}
108607304 = {
	name="Tahmina"	# not a lord
	female=yes
	dynasty=607304

	religion="jogos_pagan"
	culture="jogos_nhai"

	father=106607304
	mother=406607304

	8048.1.1 = {birth="8048.1.1"}
	8111.1.1 = {death="8111.1.1"}
}
109607304 = {
	name="Rasoul"	# a lord
	dynasty=607304

	religion="jogos_pagan"
	culture="jogos_nhai"

	father=106607304
	mother=406607304

	8050.1.1 = {birth="8050.1.1"}
	8066.1.1 = {add_trait=skilled_warrior}
	8068.1.1 = {add_spouse=409607304}
	8109.1.1 = {death="8109.1.1"}
}
409607304 = {
	name="Tarana"
	female=yes

	religion="jogos_pagan"
	culture="jogos_nhai"

	8050.1.1 = {birth="8050.1.1"}
	8109.1.1 = {death="8109.1.1"}
}
110607304 = {
	name="Hila"	# not a lord
	female=yes
	dynasty=607304

	religion="jogos_pagan"
	culture="jogos_nhai"

	father=109607304
	mother=409607304

	8077.1.1 = {birth="8077.1.1"}
	8144.1.1 = {death="8144.1.1"}
}
111607304 = {
	name="Durkhany"	# not a lord
	female=yes
	dynasty=607304

	religion="jogos_pagan"
	culture="jogos_nhai"

	father=109607304
	mother=409607304

	8079.1.1 = {birth="8079.1.1"}
	8124.1.1 = {death="8124.1.1"}
}
112607304 = {
	name="Tarakai"	# a lord
	dynasty=607304

	religion="jogos_pagan"
	culture="jogos_nhai"

	father=109607304
	mother=409607304

	8082.1.1 = {birth="8082.1.1"}
	8098.1.1 = {add_trait=skilled_warrior}
	8100.1.1 = {add_spouse=412607304}
	8149.1.1 = {death="8149.1.1"}
}
412607304 = {
	name="Nabila"
	female=yes

	religion="jogos_pagan"
	culture="jogos_nhai"

	8082.1.1 = {birth="8082.1.1"}
	8149.1.1 = {death="8149.1.1"}
}
113607304 = {
	name="Sahar"	# not a lord
	dynasty=607304

	religion="jogos_pagan"
	culture="jogos_nhai"

	father=109607304
	mother=409607304

	8083.1.1 = {birth="8083.1.1"}
	8099.1.1 = {add_trait=poor_warrior}
	8141.1.1 = {death = {death_reason = death_accident}}
}
114607304 = {
	name="Nagia"	# not a lord
	female=yes
	dynasty=607304

	religion="jogos_pagan"
	culture="jogos_nhai"

	father=112607304
	mother=412607304

	8106.1.1 = {birth="8106.1.1"}
	8143.1.1 = {death="8143.1.1"}
}
115607304 = {
	name="Ramez"	# a lord
	dynasty=607304

	religion="jogos_pagan"
	culture="jogos_nhai"

	father=112607304
	mother=412607304

	8107.1.1 = {birth="8107.1.1"}
	8123.1.1 = {add_trait=trained_warrior}
	8125.1.1 = {add_spouse=415607304}
	8177.1.1 = {death="8177.1.1"}
}
415607304 = {
	name="Naazi"
	female=yes

	religion="jogos_pagan"
	culture="jogos_nhai"

	8107.1.1 = {birth="8107.1.1"}
	8177.1.1 = {death="8177.1.1"}
}
116607304 = {
	name="Elhash"	# not a lord
	dynasty=607304

	religion="jogos_pagan"
	culture="jogos_nhai"

	father=112607304
	mother=412607304

	8110.1.1 = {birth="8110.1.1"}
	8126.1.1 = {add_trait=poor_warrior}
	8172.1.1 = {death="8172.1.1"}
}
117607304 = {
	name="Fateh"	# not a lord
	dynasty=607304

	religion="jogos_pagan"
	culture="jogos_nhai"

	father=115607304
	mother=415607304

	8132.1.1 = {birth="8132.1.1"}
	8148.1.1 = {add_trait=skilled_warrior}
	8150.1.1 = {add_spouse=417607304}
	8175.1.1 = {death="8175.1.1"}
}
417607304 = {
	name="Rahila"
	female=yes

	religion="jogos_pagan"
	culture="jogos_nhai"

	8132.1.1 = {birth="8132.1.1"}
	8175.1.1 = {death="8175.1.1"}
}
118607304 = {
	name="Aarak"	# a lord
	dynasty=607304

	religion="jogos_pagan"
	culture="jogos_nhai"

	father=115607304
	mother=415607304

	8135.1.1 = {birth="8135.1.1"}
	8151.1.1 = {add_trait=poor_warrior}
	8153.1.1 = {add_spouse=418607304}
	8179.1.1 = {death="8179.1.1"}
}
418607304 = {
	name="Durkhany"
	female=yes

	religion="jogos_pagan"
	culture="jogos_nhai"

	8135.1.1 = {birth="8135.1.1"}
	8179.1.1 = {death="8179.1.1"}
}
119607304 = {
	name="Daywa"	# not a lord
	female=yes
	dynasty=607304

	religion="jogos_pagan"
	culture="jogos_nhai"

	father=117607304
	mother=417607304

	8151.1.1 = {birth="8151.1.1"}
	8215.1.1 = {death="8215.1.1"}
}
120607304 = {
	name="Tarakai"	# a lord
	dynasty=607304

	religion="jogos_pagan"
	culture="jogos_nhai"

	father=118607304
	mother=418607304

	8158.1.1 = {birth="8158.1.1"}
	8174.1.1 = {add_trait=poor_warrior}
	8176.1.1 = {add_spouse=420607304}
	8224.1.1 = {death="8224.1.1"}
}
420607304 = {
	name="Ghezal"
	female=yes

	religion="jogos_pagan"
	culture="jogos_nhai"

	8158.1.1 = {birth="8158.1.1"}
	8224.1.1 = {death="8224.1.1"}
}
121607304 = {
	name="Abagull"	# not a lord
	female=yes
	dynasty=607304

	religion="jogos_pagan"
	culture="jogos_nhai"

	father=120607304
	mother=420607304

	8182.1.1 = {birth="8182.1.1"}
	8235.1.1 = {death="8235.1.1"}
}
122607304 = {
	name="Inzir"	# a lord
	dynasty=607304

	religion="jogos_pagan"
	culture="jogos_nhai"

	father=120607304
	mother=420607304

	8183.1.1 = {birth="8183.1.1"}
	8199.1.1 = {add_trait=skilled_warrior}
	8201.1.1 = {add_spouse=422607304}
	8250.1.1 = {death="8250.1.1"}
}
422607304 = {
	name="Tarana"
	female=yes

	religion="jogos_pagan"
	culture="jogos_nhai"

	8183.1.1 = {birth="8183.1.1"}
	8250.1.1 = {death="8250.1.1"}
}
123607304 = {
	name="Jakan"	# a lord
	dynasty=607304

	religion="jogos_pagan"
	culture="jogos_nhai"

	father=122607304
	mother=422607304

	8217.1.1 = {birth="8217.1.1"}
	8233.1.1 = {add_trait=trained_warrior}
	8235.1.1 = {add_spouse=423607304}
	8275.1.1 = {death="8275.1.1"}
}
423607304 = {
	name="Camila"
	female=yes

	religion="jogos_pagan"
	culture="jogos_nhai"

	8217.1.1 = {birth="8217.1.1"}
	8275.1.1 = {death="8275.1.1"}
}
124607304 = {
	name="Sadaf"	# a lord
	dynasty=607304

	religion="jogos_pagan"
	culture="jogos_nhai"

	father=123607304
	mother=423607304

	8249.1.1 = {birth="8249.1.1"}
	8265.1.1 = {add_trait=trained_warrior}
	8267.1.1 = {add_spouse=424607304}
	8291.1.1 = {death="8291.1.1"}
}
424607304 = {
	name="Leepa"
	female=yes

	religion="jogos_pagan"
	culture="jogos_nhai"

	8249.1.1 = {birth="8249.1.1"}
	8291.1.1 = {death="8291.1.1"}
}
125607304 = {
	name="Ilaaha"	# not a lord
	female=yes
	dynasty=607304

	religion="jogos_pagan"
	culture="jogos_nhai"

	father=123607304
	mother=423607304

	8250.1.1 = {birth="8250.1.1"}
	8297.1.1 = {death="8297.1.1"}
}
126607304 = {
	name="Janan"	# a lord
	dynasty=607304

	religion="jogos_pagan"
	culture="jogos_nhai"

	father=124607304
	mother=424607304

	8272.1.1 = {birth="8272.1.1"}
	8288.1.1 = {add_trait=poor_warrior}
}
127607304 = {
	name="Zeba"	# not a lord
	female=yes
	dynasty=607304

	religion="jogos_pagan"
	culture="jogos_nhai"

	father=124607304
	mother=424607304

	8273.1.1 = {birth="8273.1.1"}
}
128607304 = {
	name="Temur"	# not a lord
	dynasty=607304

	religion="jogos_pagan"
	culture="jogos_nhai"

	father=124607304
	mother=424607304

	8274.1.1 = {birth="8274.1.1"}
	8290.1.1 = {add_trait=poor_warrior}
}
