

#ACCOMPLISHMENTS
#Saoshyant
#Converter King
#Sponsoring King
#Crusader/equivalent traits
#Bestiality
#Cannibal
#Satanist Leader
#Restorer of Roman Empire

#SHAME
#Excommunicated
#Bastard/legit_bastard/child_of_consort 
#Crowned_by_myself
#Kinslayer/familial_kinslayer/dynastic_kinslayer
#Cannibal

#LIFESTYLES
#administrator
#architect
#duelist
#gamer
#gardener
#hedonist
#hunter
#impaler
#schemer
#seducer/seductress
#mystic
#scholar
#socializer
#strategist
#theologian
#poet
#falconer
#celibate
#drunkard

#DEFORMITIES/GENETIC TRAITS
#crippled/mangled
#disfigured
#hunchback
#giant
#dwarf
#eunuch
#infirm/lunatic
#fat
#malnourished
#strong/robust
#shrewd/quick/genius

death_text_bestiality = {
	weight_multiplier = {
		factor = 50
	
		modifier = {
			factor = 0
			NOT = { 
				any_courtier = { graphical_culture = horsegfx }
			}
		}
		modifier = {
			factor = 0
			NOT = { 
				trait = lustful
			}
		}
		modifier = {
			factor = 0
			NOR = { trait = lunatic trait = possessed }
		}
	}
}
death_text_cannibal = {
	weight_multiplier = {
		factor = 50
	
		modifier = {
			factor = 0
			NOT = { 
				trait = cannibal_trait
			}
		}
	}
}
death_text_satanist = {
	weight_multiplier = {
		factor = 50
	
		modifier = {
			factor = 0
			NOT = { 
				society_rank = {
					rank == 4
					society = the_satanists
				}
			}
		}
	}
}
death_text_bastard = {
	weight_multiplier = {
		factor = 10
	
		modifier = {
			factor = 0
			NOR = { 
				trait = bastard 
				trait = legit_bastard 
				trait = child_of_consort 
			}
		}
	}
}
death_text_administrator = {
	weight_multiplier = {
		factor = 10
	
		modifier = {
			factor = 0
			NOR = { 
				trait = administrator 
			}
		}
	}
}
death_text_duelist = {
	weight_multiplier = {
		factor = 10
	
		modifier = {
			factor = 0
			NOR = { 
				trait = duelist 
			}
		}
	}
}
death_text_gamer = {
	weight_multiplier = {
		factor = 10
	
		modifier = {
			factor = 0
			NOR = { 
				trait = gamer 
			}
		}
	}
}
death_text_gardener = {
	weight_multiplier = {
		factor = 10
	
		modifier = {
			factor = 0
			NOR = { 
				trait = gardener 
			}
		}
	}
}
death_text_hunter = {
	weight_multiplier = {
		factor = 10
	
		modifier = {
			factor = 0
			NOR = { 
				trait = hunter 
			}
		}
	}
}
death_text_impaler = {
	weight_multiplier = {
		factor = 10
	
		modifier = {
			factor = 0
			NOR = { 
				trait = impaler 
			}
		}
	}
}
death_text_schemer = {
	weight_multiplier = {
		factor = 10
	
		modifier = {
			factor = 0
			NOR = { 
				trait = schemer 
			}
		}
	}
}
death_text_seductress = {
	weight_multiplier = {
		factor = 10
	
		modifier = {
			factor = 0
			NOR = { 
				trait = seductress 
			}
		}
	}
}
death_text_mystic = {
	weight_multiplier = {
		factor = 10
	
		modifier = {
			factor = 0
			NOR = { 
				trait = mystic 
			}
		}
	}
}
death_text_scholar = {
	weight_multiplier = {
		factor = 10
	
		modifier = {
			factor = 0
			NOR = { 
				trait = scholar 
			}
		}
	}
}
death_text_socializer = {
	weight_multiplier = {
		factor = 10
	
		modifier = {
			factor = 0
			NOR = { 
				trait = socializer 
			}
		}
	}
}
death_text_strategist = {
	weight_multiplier = {
		factor = 10
	
		modifier = {
			factor = 0
			NOR = { 
				trait = strategist 
			}
		}
	}
}
death_text_theologian = {
	weight_multiplier = {
		factor = 10
	
		modifier = {
			factor = 0
			NOR = { 
				trait = theologian 
			}
		}
	}
}
death_text_poet = {
	weight_multiplier = {
		factor = 10
	
		modifier = {
			factor = 0
			NOR = { 
				trait = poet 
			}
		}
	}
}


death_text_malnourished = {
	weight_multiplier = {
		factor = 10
	
		modifier = {
			factor = 0
			NOR = { 
				trait = is_malnourished
			}
		}
	}
}
death_text_fat = {
	weight_multiplier = {
		factor = 10
	
		modifier = {
			factor = 0
			NOR = { 
				trait = is_fat 
			}
		}
	}
}

death_text_giant = {
	weight_multiplier = {
		factor = 10
	
		modifier = {
			factor = 0
			NOR = { 
				trait = tall
			}
		}
	}
}
death_text_hunchback = {
	weight_multiplier = {
		factor = 10
	
		modifier = {
			factor = 0
			NOR = { 
				trait = hunchback 
			}
		}
	}
}
death_text_disfigured = {
	weight_multiplier = {
		factor = 10
	
		modifier = {
			factor = 0
			NOR = { 
				trait = disfigured 
			}
		}
	}
}
death_text_crippled = {
	weight_multiplier = {
		factor = 10
	
		modifier = {
			factor = 0
			NOR = { 
				trait = maimed 
				trait = mangled 
				trait = crippled
			}
		}
	}
}



death_text_lustful = {
	weight_multiplier = {
		factor = 10
	
		modifier = {
			factor = 0
			OR = {
				NOT = { trait = lustful }
				is_wicked = no
			}
		}
	}
}
death_text_gluttonous = {
	weight_multiplier = {
		factor = 10
	
		modifier = {
			factor = 0
			OR = {
				NOT = { trait = is_fat }
				is_wicked = no
			}
		}
	}
}
death_text_greedy = {
	weight_multiplier = {
		factor = 10
	
		modifier = {
			factor = 0
			OR = {
				NOT = { trait = greedy }
				is_wicked = no
			}
		}
	}
}
death_text_slothful = {
	weight_multiplier = {
		factor = 10
	
		modifier = {
			factor = 0
			OR = {
				NOT = { trait = slothful }
				is_wicked = no
			}
		}
	}
}
death_text_envious = {
	weight_multiplier = {
		factor = 10
	
		modifier = {
			factor = 0
			OR = {
				NOT = { trait = envious }
				is_wicked = no
			}
		}
	}
}
death_text_wroth = {
	weight_multiplier = {
		factor = 10
	
		modifier = {
			factor = 0
			OR = {
				NOT = { trait = wroth }
				is_wicked = no
			}
		}
	}
}
death_text_proud = {
	weight_multiplier = {
		factor = 10
	
		modifier = {
			factor = 0
			OR = {
				NOT = { trait = proud }
				is_wicked = no
			}
		}
	}
}


death_text_chaste = {
	weight_multiplier = {
		factor = 10
	
		modifier = {
			factor = 0
			OR = {
				NOT = { trait = chaste }
				is_virtous = no
			}
		}
	}
}
death_text_temperate = {
	weight_multiplier = {
		factor = 10
	
		modifier = {
			factor = 0
			OR = {
				NOT = { trait = temperate }
				is_virtous = no
			}
		}
	}
}
death_text_charitable = {
	weight_multiplier = {
		factor = 10
	
		modifier = {
			factor = 0
			OR = {
				NOT = { trait = charitable }
				is_virtous = no
			}
		}
	}
}
death_text_diligent = {
	weight_multiplier = {
		factor = 10
	
		modifier = {
			factor = 0
			OR = {
				NOT = { trait = diligent }
				is_virtous = no
			}
		}
	}
}
death_text_kind = {
	weight_multiplier = {
		factor = 10
	
		modifier = {
			factor = 0
			OR = {
				NOT = { trait = kind }
				is_virtous = no
			}
		}
	}
}
death_text_patient = {
	weight_multiplier = {
		factor = 10
	
		modifier = {
			factor = 0
			OR = {
				NOT = { trait = patient }
				is_virtous = no
			}
		}
	}
}
death_text_humble = {
	weight_multiplier = {
		factor = 10
	
		modifier = {
			factor = 0
			OR = {
				NOT = { trait = humble }
				is_virtous = no
			}
		}
	}
}
