skinchanger_trigger = {
	custom_tooltip = {
		text = TOOLTIPskinchanger_trigger
		hidden_tooltip = {
			OR = { 
				trait = crow
				trait = wolf
				trait = cata
				trait = dog
				trait = goat
				trait = bat
				trait = great_bat
				trait = eagle
				trait = deer
				trait = boar
				trait = brownbear
				trait = snowbear
				trait = sea_lion
				trait = whale
				trait = shadowcat
				trait = crane
				trait = lizardlion
				trait = hrakkar
				trait = lion
				trait = vulture
				trait = walrus
				trait = panda
				trait = great_ape
				trait = fox_mbs
				trait = mammoth
				trait = unicorn_MBS
				trait = direwolf
				trait = greensight 
				trait = cotf			
				any_owned_bloodline = {
					has_bloodline_flag = bloodline_great_warg
				}
				any_owned_bloodline = {
					has_bloodline_flag = bloodline_winged_wolf
				}
			}
		}
	}	
}
is_member_of_skinchangers_trigger = {
	custom_tooltip = {
		text = is_member_of_skinchangers_tt
		hidden_trigger = {
			OR = {
				society_member_of = skinchanger_brotherhood
			}
		}
	}
}