From;To;Type;Through;Comment;;;;
30;32;sea;955;-1;-1;-1;-1;Deepdown-Driftwood Hall
31;1199;sea;954;-1;-1;-1;-1;Kingshouse-Skane
31;26;sea;953;-1;-1;-1;-1;Kingshouse-Seal Shore
33;35;sea;960;-1;-1;-1;-1;Bear Island-Deepwood
15;16;sea;960;-1;-1;-1;-1;The Gorge-Shadow Tower
118;119;sea;941;-1;-1;-1;-1;Longsister-Sweetsister
119;120;sea;941;-1;-1;-1;-1;Sweetsister-Littlesister
#120;124;sea;941;-1;-1;-1;-1;Littlesister-Scorched Vale
121;127;sea;940;-1;-1;-1;-1;Pebble-Wycliffe
122;132;sea;939;-1;-1;-1;-1;The Paps-Sunset Keep
153;154;sea;907;-1;-1;-1;-1;Pebbleton-Old Wyk
153;156;sea;907;-1;-1;-1;-1;Pebbleton-Orkmont
155;156;sea;908;-1;-1;-1;-1;Blacktyde-Orkmont
1198;1208;sea;908;-1;-1;-1;-1;Nettlemont-Glimmering Tower
#153;161;sea;907;-1;-1;-1;-1;Pebbleton-Lordsport
#157;162;sea;908;-1;-1;-1;-1;Volmark-Pyke
152;160;sea;907;-1;-1;-1;-1;Hammerhorn-Saltcliffe
160;161;sea;907;-1;-1;-1;-1;Saltcliffe-Lordsport
167;169;sea;900;-1;-1;-1;-1;Fair Isle-Kayce	
219;217;sea;932;-1;-1;-1;-1;Claw Isle-The Whispers
220;221;sea;933;-1;-1;-1;-1;Driftmark-Dragonstone
261;263;sea;893;-1;-1;-1;-1;Greenshield-Oakenshield
261;264;sea;893;-1;-1;-1;-1;Greenshield-Southshield
262;263;sea;893;-1;-1;-1;-1;Greyshield-Oakenshield
262;264;sea;893;-1;-1;-1;-1;Greyshield-Southshield
261;271;sea;893;-1;-1;-1;-1;Greenshield-Manderford
305;298;sea;928;-1;-1;-1;-1;Tarth-Haystack Hall
325;324;sea;925;-1;-1;-1;-1;Wrathrock-Weeping Tower
326;322;sea;920;-1;-1;-1;-1;Estermont-Mistwood
316;317;sea;1082;-1;-1;-1;-1;Stonehelm-Lockport
342;343;sea;1082;-1;-1;-1;-1;Ghaston Grey-The Tor
256;269;major_river;1084;-1;-1;-1;-1;Dunstonbury-Darkdell
242;103;major_river;1086;-1;-1;-1;-1;Derring Downs-Lolliston
242;203;major_river;1086;-1;-1;-1;-1;Derring Downs-Great Fork
227;226;major_river;1085;-1;-1;-1;-1;Dalston Keep-Kings Landing
203;223;major_river;1087;-1;-1;-1;-1;Farring Cross-Great Fork
203;202;major_river;1086;-1;-1;-1;-1;Byford-Great Fork
203;204;major_river;1087;-1;-1;-1;-1;Rayonet-Great Fork
103;115;major_river;1087;-1;-1;-1;-1;Lolliston-Shoreham
106;115;major_river;1087;-1;-1;-1;-1;Goodbrook-Shoreham
98;94;major_river;1088;-1;-1;-1;-1;Saltpans-Darry
93;97;major_river;1088;-1;-1;-1;-1;Redfork-Lord Harroways Town
92;93;major_river;1089;-1;-1;-1;-1;Blue Fork-Red Fork
95;93;major_river;1089;-1;-1;-1;-1;Chiltern-Red Fork
89;92;major_river;1089;-1;-1;-1;-1;Blue Fork-Fairmarket
82;89;major_river;1090;-1;-1;-1;-1;Fairmarket-Stilfen
82;81;major_river;1090;-1;-1;-1;-1;Stilfen-Oldstones
87;91;sea;1094;-1;-1;-1;-1;Maidstone-Southstone
884;1088;portage;107;-1;-1;-1;-1;Gods Eye-Trident
1144;1090;portage;81;-1;-1;-1;-1;Seagard Bay-Blue Fork
342;343;sea;1082;-1;-1;-1;-1;Ghaston Grey-The Tor
419;417;sea;1006;-1;-1;-1;-1;Old Volantis-Volantis
417;418;sea;1006;-1;-1;-1;-1;Volantis-Temple of The Lord of Light
469;470;sea;971;-1;-1;-1;-1;The Marshes-Braavos
511;512;sea;1068;-1;-1;-1;-1;Golden Exile-Little Exile
512;513;sea;1068;-1;-1;-1;-1;Little Exile-Orange Exile
#532;533;sea;1063;-1;-1;-1;-1;Tamarinu-Lizard Head
621;623;sea;1014;-1;-1;-1;-1;Ghozai-Elos
622;623;sea;1012;-1;-1;-1;-1;Velos-Elos
624;625;sea;1005;-1;-1;-1;-1;Ghaen-New Ghis
615;610;sea;1015;-1;-1;-1;-1;Yaros-Yunkai
733;734;sea;1029;-1;-1;-1;-1;Nameless Islands
353;358;sea;923;-1;-1;-1;-1;Sunstone-Bloodstone
358;360;sea;923;-1;-1;-1;-1;Bloodstone-Dark Den
358;365;sea;923;-1;-1;-1;-1;Bloodstone-Wreckstone
365;362;sea;963;-1;-1;-1;-1;Wreckstone-Torturer's Deep
362;359;sea;963;-1;-1;-1;-1;Torturer's Deep-Grey Gallows
359;363;sea;963;-1;-1;-1;-1;Grey Gallows-Last Refuge
360;361;sea;963;-1;-1;-1;-1;Dark Den-The Skulls
359;364;sea;922;-1;-1;-1;-1;Grey Gallows-Shame Isle
485;484;sea;1005;-1;-1;-1;-1;Vasyugys-Little Valyria
619;636;sea;1013;-1;-1;-1;-1;Old Ghis-Sumbyar
749;750;sea;1037;-1;-1;-1;-1;Death Isle-Isle of Flies
749;751;sea;1037;-1;-1;-1;-1;Death Isle-Isle of Serpents
750;751;sea;1037;-1;-1;-1;-1;Isle of Flies-Isle of Serpents
751;752;sea;1037;-1;-1;-1;-1;Isle of Serpents-Howling Mountain
752;753;sea;1038;-1;-1;-1;-1;Howling Mountain-Talon
753;744;sea;1038;-1;-1;-1;-1;Talon-Isle of Toads
753;754;sea;1038;-1;-1;-1;-1;Talon-Isle of Vines
754;744;sea;1038;-1;-1;-1;-1;Isle of Toads-Isle of Vines
754;743;sea;1035;-1;-1;-1;-1;Isle of Vines-Skull island
743;742;sea;1035;-1;-1;-1;-1;Skull island-Ax Isle
471;1133;sea;974;-1;-1;-1;-1;Lorath-Lorassyon
545;546;major_river;1136;-1;-1;-1;-1;Morosh-Sarys
545;547;major_river;1134;-1;-1;-1;-1;Morosh-Protosh
546;547;major_river;1137;-1;-1;-1;-1;Sarys-Protosh
550;547;major_river;1137;-1;-1;-1;-1;Kyth-Protosh
550;549;major_river;1137;-1;-1;-1;-1;Kyth-Rathylar
550;548;major_river;1137;-1;-1;-1;-1;Kyth-High Atosh
551;549;major_river;1137;-1;-1;-1;-1;Mardosh-Rathylar
552;549;major_river;1138;-1;-1;-1;-1;Hornoth-Rathylar
552;542;major_river;1138;-1;-1;-1;-1;Hornoth-Essaria
552;694;major_river;1138;-1;-1;-1;-1;Hornoth-Kalyos
553;696;major_river;1138;-1;-1;-1;-1;Sarnath-Porbath
553;697;major_river;1149;-1;-1;-1;-1;Sarnath-Kesher
555;697;major_river;1149;-1;-1;-1;-1;Kasath-Kesher
555;565;major_river;1150;-1;-1;-1;-1;Kasath-Sathar
350;351;major_river;1141;-1;-1;-1;-1;Plankytown-Lemonwood
1145;233;sea;930;-1;-1;-1;-1;Sweetport Sound-Stonedance
793;150;sea;937;-1;-1;-1;-1;Witch Isle-Runestone
588;590;sea;985;-1;-1;-1;-1;Herse-Ibben Thrak
588;593;sea;985;-1;-1;-1;-1;Herse-Ibben Hran
590;591;sea;985;-1;-1;-1;-1;Ibben Thrak-Ibben Dol
593;592;sea;985;-1;-1;-1;-1;Ibben Hran-Ibben Zok
592;591;sea;985;-1;-1;-1;-1;Ibben Zok-Ibben Dol
591;579;sea;985;-1;-1;-1;-1;Ibben Dol-Thrak
534;536;sea;1061;-1;-1;-1;-1;Xon-Doquu
536;535;sea;1061;-1;-1;-1;-1;Doquu-Bones
535;534;sea;1061;-1;-1;-1;-1;Bones-Xon
516;515;sea;1058;-1;-1;-1;-1;Moluu-Fragrant Isle
514;515;sea;1058;-1;-1;-1;-1;Moluu-Isle of love
511;510;sea;1068;-1;-1;-1;-1;Singing Stones-Golden Exile
492;498;sea;1053;-1;-1;-1;-1;Isle of Women-Jalabuxhon
491;493;sea;1052;-1;-1;-1;-1;last Lament-Stonehead
-1;-1;;-1;-1;-1;-1;-1;-1
