### House Moth
34555927 = {
	name="Bodger"	# a lord
	dynasty=55927

	religion="gods_ibben"
	culture="ibbenese"

	7815.1.1 = {birth="7815.1.1"}
	7831.1.1 = {add_trait=trained_warrior}
	7871.1.1 = {death="7871.1.1"}
}
34455927 = {
	name="Jarr"	# a lord
	dynasty=55927

	religion="gods_ibben"
	culture="ibbenese"
	
	father=34555927

	7836.1.1 = {birth="7836.1.1"}
	7852.1.1 = {add_trait=trained_warrior}
	7890.1.1 = {death="7890.1.1"}
}
34355927 = {
	name="Draloth"	# a lord
	dynasty=55927

	religion="gods_ibben"
	culture="ibbenese"
	
	father=34455927

	7859.1.1 = {birth="7859.1.1"}
	7875.1.1 = {add_trait=trained_warrior}
	7912.1.1 = {death="7912.1.1"}
}
34255927 = {
	name="Togg"	# a lord
	dynasty=55927

	religion="gods_ibben"
	culture="ibbenese"
	
	father=34355927

	7882.1.1 = {birth="7882.1.1"}
	7898.1.1 = {add_trait=trained_warrior}
	7930.1.1 = {death="7930.1.1"}
}
34155927 = {
	name="Moggoth"	# a lord
	dynasty=55927

	religion="gods_ibben"
	culture="ibbenese"
	
	father=34255927

	7907.1.1 = {birth="7907.1.1"}
	7923.1.1 = {add_trait=trained_warrior}
	7966.1.1 = {death="7966.1.1"}
}
34055927 = {
	name="Bodger"	# a lord
	dynasty=55927

	religion="gods_ibben"
	culture="ibbenese"
	
	father=34155927

	7931.1.1 = {birth="7931.1.1"}
	7947.1.1 = {add_trait=trained_warrior}
	7990.1.1 = {death="7990.1.1"}
}
1055927 = {
	name="Togg"	# a lord
	dynasty=55927

	religion="gods_ibben"
	culture="ibbenese"

	father=34055927
	
	7955.1.1 = {birth="7955.1.1"}
	7971.1.1 = {add_trait=poor_warrior}
	8022.1.1 = {death="8022.1.1"}
}
1155927 = {
	name="Togg"	# a lord
	dynasty=55927

	religion="gods_ibben"
	culture="ibbenese"

	father=1055927

	7984.1.1 = {birth="7984.1.1"}
	8000.1.1 = {add_trait=trained_warrior}
	8040.1.1 = {death="8040.1.1"}
}
1655927 = {
	name="Groo"	# a lord
	dynasty=55927

	religion="gods_ibben"
	culture="ibbenese"

	father=1155927

	8014.1.1 = {birth="8014.1.1"}
	8030.1.1 = {add_trait=poor_warrior}
	8042.1.1 = {death="8042.1.1"}
}
1755927 = {
	name="Caloth"	# a lord
	dynasty=55927

	religion="gods_ibben"
	culture="ibbenese"

	father=1655927

	8041.1.1 = {birth="8041.1.1"}
	8057.1.1 = {add_trait=trained_warrior}
	8081.1.1 = {death="8081.1.1"}
}
1955927 = {
	name="Tugg"	# a lord
	dynasty=55927

	religion="gods_ibben"
	culture="ibbenese"

	father=1755927

	8073.1.1 = {birth="8073.1.1"}
	8089.1.1 = {add_trait=trained_warrior}
	8127.1.1 = {death="8127.1.1"}
}
2155927 = {
	name="Galt"	# a lord
	dynasty=55927

	religion="gods_ibben"
	culture="ibbenese"

	father=1955927

	8100.1.1 = {birth="8100.1.1"}
	8116.1.1 = {add_trait=poor_warrior}
	8146.1.1 = {death="8146.1.1"}
}
2255927 = {
	name="Galt"	# a lord
	dynasty=55927

	religion="gods_ibben"
	culture="ibbenese"

	father=2155927

	8127.1.1 = {birth="8127.1.1"}
	8143.1.1 = {add_trait=skilled_warrior}
	8159.1.1 = {death="8159.1.1"}
}
2555927 = {
	name="Slugg"	# a lord
	dynasty=55927

	religion="gods_ibben"
	culture="ibbenese"

	father=2255927

	8157.1.1 = {birth="8157.1.1"}
	8173.1.1 = {add_trait=skilled_warrior}
	8229.1.1 = {death="8229.1.1"}
}
2855927 = {
	name="Togg"	# a lord
	dynasty=55927

	religion="gods_ibben"
	culture="ibbenese"

	father=2555927

	8195.1.1 = {birth="8195.1.1"}
	8211.1.1 = {add_trait=trained_warrior}
	8255.1.1 = {death="8255.1.1"}
}
3255927 = {
	name="Krull"	# a lord
	dynasty=55927

	religion="gods_ibben"
	culture="ibbenese"

	father=2855927

	8223.1.1 = {birth="8223.1.1"}
	8239.1.1 = {add_trait=poor_warrior}
	8263.1.1 = {death="8263.1.1"}
}
3355927 = {
	name="Durr"	# a lord
	dynasty=55927

	religion="gods_ibben"
	culture="ibbenese"

	father=3255927

	8241.1.1 = {birth="8241.1.1"}
	8257.1.1 = {add_trait=poor_warrior}
	8296.1.1 = {death="8296.1.1"}
}
3755927 = {
	name="Holger"	# a lord
	dynasty=55927

	religion="gods_ibben"
	culture="ibbenese"

	father=3355927

	8260.1.1 = {birth="8260.1.1"}
	8276.1.1 = {add_trait=skilled_warrior}
}
3955927 = {
	name="Jogg"	# not a lord
	dynasty=55927

	religion="gods_ibben"
	culture="ibbenese"

	father=3355927

	8266.1.1 = {birth="8266.1.1"}
	8282.1.1 = {add_trait=trained_warrior}
}

### House Bartogg
34555928 = {
	name="Kyogg"	# a lord
	dynasty=55928

	religion="gods_ibben"
	culture="ibbenese"

	7830.1.1 = {birth="7830.1.1"}
	7846.1.1 = {add_trait=poor_warrior}
	7883.1.1 = {death="7883.1.1"}
}
34455928 = {
	name="Shikog"	# a lord
	dynasty=55928

	religion="gods_ibben"
	culture="ibbenese"
	
	father=34555928

	7855.1.1 = {birth="7855.1.1"}
	7871.1.1 = {add_trait=poor_warrior}
	7903.1.1 = {death="7903.1.1"}
}
34355928 = {
	name="Ygon"	# a lord
	dynasty=55928

	religion="gods_ibben"
	culture="ibbenese"
	
	father=34455928

	7871.1.1 = {birth="7871.1.1"}
	7887.1.1 = {add_trait=poor_warrior}
	7920.1.1 = {death="7920.1.1"}
}
34255928 = {
	name="Durr"	# a lord
	dynasty=55928

	religion="gods_ibben"
	culture="ibbenese"
	
	father=34355928

	7894.1.1 = {birth="7894.1.1"}
	7910.1.1 = {add_trait=poor_warrior}
	7956.1.1 = {death="7956.1.1"}
}
34155928 = {
	name="Jarr"	# a lord
	dynasty=55928

	religion="gods_ibben"
	culture="ibbenese"
	
	father=34255928

	7918.1.1 = {birth="7918.1.1"}
	7934.1.1 = {add_trait=poor_warrior}
	7975.1.1 = {death="7975.1.1"}
}
34055928 = {
	name="Colosh"	# a lord
	dynasty=55928

	religion="gods_ibben"
	culture="ibbenese"
	
	father=34155928

	7941.1.1 = {birth="7941.1.1"}
	7957.1.1 = {add_trait=poor_warrior}
	7988.1.1 = {death="7988.1.1"}
}
1055928 = {
	name="Krull"	# a lord
	dynasty=55928

	religion="gods_ibben"
	culture="ibbenese"
	
	father=34055928

	7968.1.1 = {birth="7968.1.1"}
	7984.1.1 = {add_trait=poor_warrior}
	8045.1.1 = {death="8045.1.1"}
}
1155928 = {
	name="Haggon"	# a lord
	dynasty=55928

	religion="gods_ibben"
	culture="ibbenese"

	father=1055928

	7995.1.1 = {birth="7995.1.1"}
	8011.1.1 = {add_trait=trained_warrior}
	8053.1.1 = {death="8053.1.1"}
}
1255928 = {
	name="Jarr"	# a lord
	dynasty=55928

	religion="gods_ibben"
	culture="ibbenese"

	father=1155928

	8022.1.1 = {birth="8022.1.1"}
	8038.1.1 = {add_trait=poor_warrior}
	8057.1.1 = {death="8057.1.1"}
}
1455928 = {
	name="Umar"	# a lord
	dynasty=55928

	religion="gods_ibben"
	culture="ibbenese"

	father=1255928

	8053.1.1 = {birth="8053.1.1"}
	8069.1.1 = {add_trait=poor_warrior}
	8092.1.1 = {death="8092.1.1"}
}
1755928 = {
	name="Krull"	# a lord
	dynasty=55928

	religion="gods_ibben"
	culture="ibbenese"

	father=1455928

	8076.1.1 = {birth="8076.1.1"}
	8092.1.1 = {add_trait=trained_warrior}
	8112.1.1 = {death="8112.1.1"}
}
2255928 = {
	name="Slugg"	# a lord
	dynasty=55928

	religion="gods_ibben"
	culture="ibbenese"

	father=1755928

	8097.1.1 = {birth="8097.1.1"}
	8113.1.1 = {add_trait=skilled_warrior}
	8160.1.1 = {death="8160.1.1"}
}
2555928 = {
	name="Sogg"	# a lord
	dynasty=55928

	religion="gods_ibben"
	culture="ibbenese"

	father=2255928

	8128.1.1 = {birth="8128.1.1"}
	8144.1.1 = {add_trait=poor_warrior}
	8165.1.1 = {death="8165.1.1"}
}
2855928 = {
	name="Joth"	# a lord
	dynasty=55928

	religion="gods_ibben"
	culture="ibbenese"

	father=2555928

	8141.1.1 = {birth="8141.1.1"}
	8157.1.1 = {add_trait=trained_warrior}
	8197.1.1 = {death = {death_reason = death_battle}}
}
3355928 = {
	name="Morr"	# a lord
	dynasty=55928

	religion="gods_ibben"
	culture="ibbenese"

	father=2855928

	8160.1.1 = {birth="8160.1.1"}
	8209.1.1 = {add_trait=poor_warrior}
	8247.1.1 = {death="8247.1.1"}
}
3455928 = {
	name="Colosh"	# a lord
	dynasty=55928

	religion="gods_ibben"
	culture="ibbenese"

	father=3355928

	8217.1.1 = {birth="8217.1.1"}
	8233.1.1 = {add_trait=poor_warrior}
	8274.1.1 = {death="8274.1.1"}
}
3855928 = {
	name="Drogg"	# a lord
	dynasty=55928

	religion="gods_ibben"
	culture="ibbenese"

	father=3455928

	8241.1.1 = {birth="8241.1.1"}
	8257.1.1 = {add_trait=skilled_warrior}
	8283.1.1 = {death="8283.1.1"}
}
3955928 = {
	name="Betharios"	# a lord
	female=yes
	dynasty=55928

	religion="gods_ibben"
	culture="ibbenese"

	father=3855928

	8276.1.1 = {birth="8276.1.1"}
}
4055928 = {
	name="Harra"
	female=yes
	dynasty=55928
	
	religion="gods_ibben"
	culture="ibbenese"

	father=3855928

	8277.1.1 = {birth="8277.1.1"}
}

### House Joth
34455929 = {
	name="Karor"	# a lord
	dynasty=55929

	religion="gods_ibben"
	culture="ibbenese"

	7839.1.1 = {birth="7839.1.1"}
	7855.1.1 = {add_trait=poor_warrior}
	7886.1.1 = {death="7886.1.1"}
}
34355929 = {
	name="Usog"	# a lord
	dynasty=55929

	religion="gods_ibben"
	culture="ibbenese"
	
	father=34455929

	7870.1.1 = {birth="7870.1.1"}
	7886.1.1 = {add_trait=trained_warrior}
	7925.1.1 = {death="7925.1.1"}
}
34255929 = {
	name="Arun"	# a lord
	dynasty=55929

	religion="gods_ibben"
	culture="ibbenese"
	
	father=34355929

	7892.1.1 = {birth="7892.1.1"}
	7908.1.1 = {add_trait=trained_warrior}
	7957.1.1 = {death="7957.1.1"}
}
34155929 = {
	name="Fanog"	# a lord
	dynasty=55929

	religion="gods_ibben"
	culture="ibbenese"
	
	father=34255929

	7918.1.1 = {birth="7918.1.1"}
	7934.1.1 = {add_trait=trained_warrior}
	7987.1.1 = {death="7987.1.1"}
}
34055929 = {
	name="Ziweg"	# a lord
	dynasty=55929

	religion="gods_ibben"
	culture="ibbenese"
	
	father=34155929

	7942.1.1 = {birth="7942.1.1"}
	7958.1.1 = {add_trait=trained_warrior}
	7990.1.1 = {death="7990.1.1"}
}
1055929 = {
	name="Slugg"	# a lord
	dynasty=55929

	religion="gods_ibben"
	culture="ibbenese"
	
	father=34055929

	7969.1.1 = {birth="7969.1.1"}
	7985.1.1 = {add_trait=poor_warrior}
	8036.1.1 = {death="8036.1.1"}
}
1255929 = {
	name="Bodger"	# a lord
	dynasty=55929

	religion="gods_ibben"
	culture="ibbenese"

	father=1055929

	7994.1.1 = {birth="7994.1.1"}
	8010.1.1 = {add_trait=poor_warrior}
	8048.1.1 = {death="8048.1.1"}
}
1655929 = {
	name="Tugg"	# a lord
	dynasty=55929

	religion="gods_ibben"
	culture="ibbenese"

	father=1255929

	8015.1.1 = {birth="8015.1.1"}
	8031.1.1 = {add_trait=skilled_warrior}
	8085.1.1 = {death="8085.1.1"}
}
1855929 = {
	name="Jogg"	# a lord
	dynasty=55929

	religion="gods_ibben"
	culture="ibbenese"

	father=1655929

	8038.1.1 = {birth="8038.1.1"}
	8054.1.1 = {add_trait=poor_warrior}
	8089.1.1 = {death="8089.1.1"}
}
2055929 = {
	name="Bodger"	# a lord
	dynasty=55929

	religion="gods_ibben"
	culture="ibbenese"

	father=1855929

	8065.1.1 = {birth="8065.1.1"}
	8081.1.1 = {add_trait=poor_warrior}
	8121.1.1 = {death="8121.1.1"}
}
2455929 = {
	name="Quort"	# a lord
	dynasty=55929

	religion="gods_ibben"
	culture="ibbenese"

	father=2055929

	8088.1.1 = {birth="8088.1.1"}
	8104.1.1 = {add_trait=poor_warrior}
	8149.1.1 = {death="8149.1.1"}
}
2955929 = {
	name="Draloth"	# a lord
	dynasty=55929

	religion="gods_ibben"
	culture="ibbenese"

	father=2455929

	8121.1.1 = {birth="8121.1.1"}
	8137.1.1 = {add_trait=poor_warrior}
	8162.1.1 = {death="8162.1.1"}
}
3355929 = {
	name="Ygon"	# a lord
	dynasty=55929

	religion="gods_ibben"
	culture="ibbenese"

	father=2955929

	8152.1.1 = {birth="8152.1.1"}
	8168.1.1 = {add_trait=poor_warrior}
	8206.1.1 = {death="8206.1.1"}
}
3455929 = {
	name="Cull"	# a lord
	dynasty=55929

	religion="gods_ibben"
	culture="ibbenese"

	father=3355929

	8173.1.1 = {birth="8173.1.1"}
	8189.1.1 = {add_trait=poor_warrior}
	8214.1.1 = {death="8214.1.1"}
}
3855929 = {
	name="Brogg"	# a lord
	dynasty=55929

	religion="gods_ibben"
	culture="ibbenese"

	father=3455929

	8203.1.1 = {birth="8203.1.1"}
	8219.1.1 = {add_trait=poor_warrior}
	8258.1.1 = {death="8258.1.1"}
}
3955929 = {
	name="Groo"	# a lord
	dynasty=55929

	religion="gods_ibben"
	culture="ibbenese"

	father=3855929

	8238.1.1 = {birth="8238.1.1"}
	8254.1.1 = {add_trait=poor_warrior}
	8297.1.1 = {death="8297.1.1"}
}
40055929 = {
	name="Slugg"	# a lord
	dynasty=55929
	
	religion="gods_ibben"
	culture="ibbenese"

	father=3955929

	8266.1.1 = {birth="8266.1.1"}
	8282.1.1 = {add_trait=poor_warrior}
}
4155929 = {
	name="Assadora"
	female=yes
	dynasty=55929
	
	religion="gods_ibben"
	culture="ibbenese"

	father=3955929

	8269.1.1 = {birth="8269.1.1"}
}

### House Sluggolsh
34555931 = {
	name="Torr"	# a lord
	dynasty=55931

	religion="gods_ibben"
	culture="ibbenese"

	7824.1.1 = {birth="7824.1.1"}
	7840.1.1 = {add_trait=poor_warrior}
	7881.1.1 = {death="7881.1.1"}
}
34455931 = {
	name="Toth"	# a lord
	dynasty=55931

	religion="gods_ibben"
	culture="ibbenese"
	
	father=34555931

	7843.1.1 = {birth="7843.1.1"}
	7859.1.1 = {add_trait=skilled_warrior}
	7895.1.1 = {death="7895.1.1"}
}
34355931 = {
	name="Buzogg"	# a lord
	dynasty=55931

	religion="gods_ibben"
	culture="ibbenese"
	
	father=34455931

	7867.1.1 = {birth="7867.1.1"}
	7883.1.1 = {add_trait=poor_warrior}
	7930.1.1 = {death="7930.1.1"}
}
34255931 = {
	name="Poleg"	# a lord
	dynasty=55931

	religion="gods_ibben"
	culture="ibbenese"
	
	father=34355931

	7890.1.1 = {birth="7890.1.1"}
	7906.1.1 = {add_trait=trained_warrior}
	7949.1.1 = {death="7949.1.1"}
}
34155931 = {
	name="Toth"	# a lord
	dynasty=55931

	religion="gods_ibben"
	culture="ibbenese"
	
	father=34255931

	7915.1.1 = {birth="7915.1.1"}
	7931.1.1 = {add_trait=trained_warrior}
	7971.1.1 = {death="7971.1.1"}
}
34055931 = {
	name="Fanog"	# a lord
	dynasty=55931

	religion="gods_ibben"
	culture="ibbenese"
	
	father=34155931

	7939.1.1 = {birth="7939.1.1"}
	7955.1.1 = {add_trait=skilled_warrior}
	7994.1.1 = {death="7994.1.1"}
}
1055931 = {
	name="Cull"	# a lord
	dynasty=55931

	religion="gods_ibben"
	culture="ibbenese"
	
	father=34055931

	7962.1.1 = {birth="7962.1.1"}
	7978.1.1 = {add_trait=poor_warrior}
	8029.1.1 = {death="8029.1.1"}
}
1155931 = {
	name="Jaqea"	# not a lord
	female=yes
	dynasty=55931

	religion="gods_ibben"
	culture="ibbenese"

	father=1055931

	7986.1.1 = {birth="7986.1.1"}
	8013.1.1 = {death="8013.1.1"}
}
1255931 = {
	name="Gurn"	# a lord
	dynasty=55931

	religion="gods_ibben"
	culture="ibbenese"

	father=1055931

	7989.1.1 = {birth="7989.1.1"}
	8005.1.1 = {add_trait=poor_warrior}
	8041.1.1 = {death="8041.1.1"}
}
1755931 = {
	name="Jogg"	# a lord
	dynasty=55931

	religion="gods_ibben"
	culture="ibbenese"

	father=1255931

	8012.1.1 = {birth="8012.1.1"}
	8028.1.1 = {add_trait=trained_warrior}
	8049.1.1 = {death = {death_reason = death_murder}}
}
1955931 = {
	name="Brogg"	# a lord
	dynasty=55931

	religion="gods_ibben"
	culture="ibbenese"

	father=1755931

	8033.1.1 = {birth="8033.1.1"}
	8049.1.1 = {add_trait=trained_warrior}
	8106.1.1 = {death="8106.1.1"}
}
2155931 = {
	name="Rowan"	# not a lord
	female=yes
	dynasty=55931

	religion="gods_ibben"
	culture="ibbenese"

	father=1755931

	8038.1.1 = {birth="8038.1.1"}
	8117.1.1 = {death="8117.1.1"}
}
2255931 = {
	name="Jogg"	# a lord
	dynasty=55931

	religion="gods_ibben"
	culture="ibbenese"

	father=1955931

	8065.1.1 = {birth="8065.1.1"}
	8081.1.1 = {add_trait=trained_warrior}
	8132.1.1 = {death="8132.1.1"}
}
2555931 = {
	name="Assadora"	# not a lord
	female=yes
	dynasty=55931

	religion="gods_ibben"
	culture="ibbenese"

	father=1955931

	8072.1.1 = {birth="8072.1.1"}
	8126.1.1 = {death="8126.1.1"}
}
2655931 = {
	name="Durr"	# a lord
	dynasty=55931

	religion="gods_ibben"
	culture="ibbenese"

	father=2255931

	8088.1.1 = {birth="8088.1.1"}
	8104.1.1 = {add_trait=trained_warrior}
	8158.1.1 = {death="8158.1.1"}
}
3355931 = {
	name="Bodger"	# a lord
	dynasty=55931

	religion="gods_ibben"
	culture="ibbenese"

	father=2655931

	8115.1.1 = {birth="8115.1.1"}
	8131.1.1 = {add_trait=poor_warrior}
	8169.1.1 = {death="8169.1.1"}
}
3555931 = {
	name="Cull"	# a lord
	dynasty=55931

	religion="gods_ibben"
	culture="ibbenese"

	father=3355931

	8144.1.1 = {birth="8144.1.1"}
	8160.1.1 = {add_trait=poor_warrior}
	8204.1.1 = {death="8204.1.1"}
}
3755931 = {
	name="Quort"	# a lord
	dynasty=55931

	religion="gods_ibben"
	culture="ibbenese"

	father=3555931

	8164.1.1 = {birth="8164.1.1"}
	8180.1.1 = {add_trait=trained_warrior}
	8224.1.1 = {death="8224.1.1"}
}
3855931 = {
	name="Drogg"	# a lord
	dynasty=55931

	religion="gods_ibben"
	culture="ibbenese"

	father=3755931

	8193.1.1 = {birth="8193.1.1"}
	8209.1.1 = {add_trait=master_warrior}
	8232.1.1 = {death="8232.1.1"}
}
3955931 = {
	name="Joth"	# a lord
	dynasty=55931

	religion="gods_ibben"
	culture="ibbenese"

	father=3855931

	8212.1.1 = {birth="8212.1.1"}
	8228.1.1 = {add_trait=poor_warrior}
	8264.1.1 = {death="8264.1.1"}
}
4155931 = {
	name="Howd"		# a lord
	dynasty=55931
	
	religion="gods_ibben"
	culture="ibbenese"

	father=3955931

	8240.1.1 = {birth="8240.1.1"}
	8256.1.1 = {add_trait=poor_warrior}
	8289.1.1 = {death="8289.1.1"}
}
40555931 = {
	name="Eleogg"	# a lord
	dynasty=55931
	
	religion="gods_ibben"
	culture="ibbenese"

	father=4155931

	8267.1.1 = {birth="8267.1.1"}
	8283.1.1 = {add_trait=skilled_warrior}
}
4055931 = {
	name="Bellegere"
	female=yes
	dynasty=55931
	
	religion="gods_ibben"
	culture="ibbenese"

	father=40555931

	8300.1.1 = {birth="8300.1.1"}
}

### House Drakhan
343400302 = {
	name="Drogg"	# a lord
	dynasty=400302 
	
	religion="gods_ibben"
	culture="ibbenese"
	
	7834.1.1 = {birth="7834.1.1"}
	7850.1.1 = {add_trait=trained_warrior}
	7879.1.1 = {death="7879.1.1"}
}
342400302 = {
	name="Togg"	# a lord
	dynasty=400302 
	
	religion="gods_ibben"
	culture="ibbenese"
	
	father=343400302
	
	7859.1.1 = {birth="7859.1.1"}
	7875.1.1 = {add_trait=poor_warrior}
	7907.1.1 = {death="7907.1.1"}
}
341400302 = {
	name="Moggoth"	# a lord
	dynasty=400302 
	
	religion="gods_ibben"
	culture="ibbenese"
	
	father=342400302
	
	7885.1.1 = {birth="7885.1.1"}
	7901.1.1 = {add_trait=trained_warrior}
	7936.1.1 = {
		death = { death_reason = death_execution }
	}
}
340400302 = {
	name="Eleogg"	# not a lord
	dynasty=400302 
	
	religion="gods_ibben"
	culture="ibbenese"
	
	father=341400302
	
	7911.1.1 = {birth="7911.1.1"}
	7927.1.1 = {add_trait=skilled_warrior}
	7936.1.1 = {
		death = { death_reason = death_execution }
	}
}