####################
#DEATH BY EXECUTION:
####################
#Executions are randomized from this list
#An additive modifier is also available, as seen in the example below
#
#execution_method = {
#	death = death_platypus
#	weight_multiplier = {
#		factor = 1
#		modifier = {
#			factor = 0.5
#			FROM = {
#				trait = proud
#			}
#		}
#		additive_modifier = {
#			value = 50
#			ROOT = {
#				has_character_modifier = the_dungeon
#			}
#		}
#	}
#	trigger = {
#		always = yes
#	}
#}
####################

execution_method = {
	death = death_execution_crushing
	weight_multiplier = {
		factor = 200
	}
	trigger = {
		FROM = {
			OR = {
				AND = {
					OR = {
						trait = cruel
						trait = impaler
					}
					OR = {
						trait = wroth
						trait = lunatic
						trait = ruthless
					}
				}	
 				religion = aztec
	 			religion = aztec_reformed
				religion = sothoryos_rel
			}
		}
	}
}

execution_method = {
	death = death_execution_ash
	weight_multiplier = {
		factor = 300
		modifier = {
			factor = 2
			trait = homosexual
		}
	}
	trigger = {
		FROM = {
			OR = {
				# Only available to the following:
 				religion = aztec
	 			religion = aztec_reformed
				religion = sothoryos_rel
			}
		}
	}
}

execution_method = {
	death = death_execution_burning
	weight_multiplier = {
		factor = 150
		modifier = {
			factor = 2
			is_female = yes
		}
		modifier = {
			factor = 2
			is_any_kinslayer_trigger = yes
		}
		modifier = {
			factor = 2
			FROM = {
				ROOT = { just_execution_reason_PREV_trigger = yes }
			}
		}
	}
	trigger = {
		FROM = {
			OR = {
				trait = fire_obsessed
				AND = {
					religion = rhllor
					OR = {
						trait = zealous
						trait = lunatic
						trait = favored_by_rhllor
						trait = chosen_by_rhllor
					}	
				}
			}
		}
	}
}

execution_method = {
	death = death_execution_hdq
	weight_multiplier = {
		factor = 200
		modifier = {
			factor = 4
			FROM = {
				ROOT = { just_execution_reason_PREV_trigger = yes }
			}
		}
		modifier = {
			factor = 0.5
			FROM = {
				OR = {
					trait = kind
					trait = temperate
					trait = charitable
					trait = honorable
				}
			}
		}
	}
	trigger = {
		FROM = {
			OR = {
				trait = cruel
				trait = wroth
				trait = ruthless
			}
			NOR = {
				is_nomadic = yes
				is_tribal = yes
				trait = wildling
			}
			NOR = {
				religion = aztec
	 			religion = aztec_reformed
				religion = sothoryos_rel
			}
		}
	}
}

execution_method = {
	death = death_execution_bear
	weight_multiplier = {
		factor = 50
		modifier = {
			factor = 8
			FROM = {
				trait = hunter
			}
		}
		modifier = {
			factor = 3
			FROM = {
				trait = cruel
			}
		}
	}
	trigger = {
		FROM = {
			OR = {
				dynasty = 102 #Mormont
				capital_scope = { province_id = 33 } #bear island
				AND = {
					OR = {
						trait = cruel
						trait = impaler
					}
					OR = {
						trait = wroth
						trait = lunatic
						trait = ruthless
					}
				}				
			}
			NOR = {
				trait = kind
				trait = honorable
			}
		}
	}
}

execution_method = {
	death = death_execution_lion
	weight_multiplier = {
		factor = 100
		modifier = {
			factor = 8
			FROM = {
				trait = hunter
			}
		}
		modifier = {
			factor = 3
			FROM = {
				trait = cruel
			}
		}
	}
	trigger = {
		FROM = {
			OR = {
				dynasty = 190 #Lannister
				capital_scope = { 
					OR = {
						region = world_westerlands 
						region = world_dothraki_sea
					}	
				}				
			}
			NOR = {
				trait = kind
				trait = honorable
			}
		}
	}
}

execution_method = {
	death = death_execution_snake_pit
	weight_multiplier = {
		factor = 50
		modifier = {
			factor = 2
			FROM = {
				trait = deceitful
			}
		}
		modifier = {
			factor = 3
			FROM = {
				trait = cruel
			}
		}
	}
	trigger = {
		FROM = {
			OR = {
				dynasty = 1 #martell
				capital_scope = { 
					OR = {
						region = world_dorne
						region = world_summer_sea
						region = world_jade_sea
					}	
				}				
			}
			NOR = {
				trait = kind
				trait = honorable
			}
		}
	}
}

execution_method = {
	death = death_execution_disembowelment
	weight_multiplier = {
		factor = 200
	}
	trigger = {
		FROM = {
			OR = {
				AND = {
					OR = {
						trait = cruel
						trait = impaler
					}
					OR = {
						trait = wroth
						trait = lunatic
						trait = ruthless
					}
				}	
 				religion = aztec
	 			religion = aztec_reformed
				religion = sothoryos_rel
			}
			NOT = { is_nomadic = yes }
		}
	}
}

execution_method = {
	death = death_execution_boiling
	weight_multiplier = {
		factor = 200
	}
	trigger = {
		FROM = {
			OR = {
				trait = cruel
				trait = impaler
			}
			OR = {
				trait = wroth
				trait = lunatic
				trait = ruthless
			}
			NOT = { is_nomadic = yes }
		}
	}
}

execution_method = {
	death = death_execution_sawing
	weight_multiplier = {
		factor = 200
	}
	trigger = {
		FROM = {
			OR = {
				trait = cruel
				trait = impaler
			}
			OR = {
				trait = wroth
				trait = lunatic
				trait = ruthless
			}
			NOT = { is_nomadic = yes }
		}
	}
}

execution_method = {
	death = death_execution_hunt
	weight_multiplier = {
		factor = 400
	}
	trigger = {
		FROM = {
			OR = {
				trait = cruel
				trait = impaler
			}
			OR = {
				trait = gamer
				trait = hunter
			}
		}
	}
}

execution_method = {
	death = death_execution_live_burial
	weight_multiplier = {
		factor = 200
		modifier = {
			factor = 3
			FROM = {
				trait = gardener
			}
		}
	}
	trigger = {
		FROM = {
			OR = {
				trait = gardener
				trait = cruel
				trait = impaler
			}
			OR = {
				trait = wroth
				trait = lunatic
				trait = ruthless
			}
			NOR = {
				trait = kind
				trait = honorable
			}
		}
	}
}

execution_method = {
	death = death_execution_hanging
	weight_multiplier = {
		factor = 200
		modifier = {
			factor = 2
			FROM = {
				trait = kind
			}
		}
		modifier = {
			factor = 2
			FROM = {
				trait = temperate
			}
		}
		modifier = {
			factor = 2
			FROM = {
				trait = charitable
			}
		}
		modifier = {
			factor = 4
			is_lowborn = yes
		}
	}
	trigger = {
		FROM = {
			NOT = { is_nomadic = yes }
			NOR = {
				religion = aztec
	 			religion = aztec_reformed
				religion = sothoryos_rel
			}
		}
	}
}

execution_method = {
	death = death_execution_immurement
	weight_multiplier = {
		factor = 200
		modifier = {
			factor = 3
			FROM = {
				trait = architect
			}
		}
	}
	trigger = {
		FROM = {
			OR = {
				trait = architect
				trait = cruel
				trait = impaler
			}
			OR = {
				trait = wroth
				trait = lunatic
				trait = ruthless
			}
			NOR = {
				trait = kind
				trait = honorable
			}
			NOR = {
				is_nomadic = yes
				is_tribal = yes
			}
		}
	}
}

execution_method = {
	death = death_execution_beheading
	weight_multiplier = {
		factor = 300
		modifier = {
			factor = 3
			FROM = {
				trait = kind
			}
		}
		modifier = {
			factor = 2
			FROM = {
				trait = temperate
			}
		}
		modifier = {
			factor = 2
			FROM = {
				trait = charitable
			}
		}
	}
	trigger = {
		is_lowborn = no
		FROM = {
			NOT = { is_nomadic = yes }
			NOR = {
				religion = aztec
	 			religion = aztec_reformed
				religion = sothoryos_rel
			}
		}
	}
}

execution_method = {
	death = death_execution_wine
	weight_multiplier = {
		factor = 250
	}
	trigger = {
		AND = {
			FROM = {
				OR = {
					trait = hedonist
					trait = drunkard
				}
				NOR = {
					religion = aztec
					religion = aztec_reformed
					religion = sothoryos_rel
				}
				NOR = {
					is_nomadic = yes
					is_tribal = yes
					trait = wildling
				}
			}
			is_lowborn = no
		}
	}
}

execution_method = {
	death = death_execution_flaying
	weight_multiplier = {
		factor = 200
		modifier = {
			factor = 2
			FROM = {
				trait = hunter
			}
		}
	}
	trigger = {
		FROM = {
			AND = {
				OR = {
					trait = hunter
					trait = cruel
				}
				NOT = {
					trait = kind
				}
				NOT = { is_nomadic = yes }
			}
		}
	}
}

execution_method = {
	death = death_execution_impaling
	weight_multiplier = {
		factor = 1200
	}
	trigger = {
		FROM = {
			trait = impaler
		}
	}
}

execution_method = {
	death = death_execution_tiger
	weight_multiplier = {
		factor = 50
		modifier = {
			factor = 8
			FROM = {
				trait = hunter
			}
		}
		modifier = {
			factor = 3
			FROM = {
				trait = cruel
			}
		}
	}
	trigger = {
		FROM = {
			OR = {
				trait = tiger
				capital_scope = {
					OR = {
						region = world_leng
						region = world_yi_ti
						region = world_qohor
					}	
				}			
			}	
			NOR = {
				trait = kind
				trait = honorable
			}
		}
	}
}

execution_method = {
	death = death_execution_elephants
	weight_multiplier = {
		factor = 50
		modifier = {
			factor = 3
			trait = tiger
		}
		modifier = {
			factor = 3
			FROM = { trait = cruel }
		}
		modifier = {
			factor = 2
			FROM = {
				higher_tier_than = DUKE
			}
		}
	}
	trigger = {
		FROM = {
			OR = {
				trait = elephant
				capital_scope = {
					OR = {
						region = world_volantis
						region = world_jade_sea
						region = world_ghiscar
					}	
				}			
			}	
			NOR = {
				trait = kind
				trait = honorable
			}
		}
	}
}

execution_method = {
	death = death_execution_bamboo
	weight_multiplier = {
		factor = 300
	}
	trigger = {
		FROM = {
			capital_scope = { region = world_yi_ti }
			OR = {
				trait = cruel
				trait = impaler
			}
			OR = {
				trait = wroth
				trait = lunatic
				trait = ruthless
			}
			NOR = {
				trait = kind
				trait = honorable
			}
		}
	}
}

execution_method = {
	death = death_execution_stoning
	weight_multiplier = {
		factor = 100
		modifier = {
			factor = 2
			FROM = {
				trait = cruel
			}
		}
		modifier = {
			factor = 2
			FROM = {
				trait = wroth
			}
		}
	}
	trigger = {
		OR = {
			AND = {				
				OR = {
					trait = homosexual
					NOT = { piety = 0 }
					is_any_kinslayer_trigger = yes
					trait = excommunicated
				}
				FROM = {
					OR = {
						trait = zealous
						is_theocracy = yes
					}
					NOT = { is_old_gods_religion_trigger = yes }
					NOT = { religion = rhllor }
					NOT = { religion = summer_rel }
					NOT = { religion = summer_rel_reformed }
					NOT = { pacifist = yes }
				}
			}
			FROM = {
				OR = {
					religion = aztec
					religion = aztec_reformed
					religion = sothoryos_rel
				}
			}
		}	
	}
}

execution_method = {
	death = death_execution_crucifixion
	weight_multiplier = {
		factor = 200
	}
	trigger = {
		FROM = {
			OR = {
				culture_group = ghiscari_group
				AND = {
					trait = liberator
					ROOT = {
						OR = {
							trait = slave_owner
							trait = slave_trader
							AND = {
								is_ruler = no
								liege = {
									OR = {
										trait = slave_owner
										trait = slave_trader
									}
									is_close_relative = PREV									
								}
							}
						}
					}
				}
			}
		}
	}
}

execution_method = {
	death = death_execution_blood_eagle
	weight_multiplier = {
		factor = 200
		modifier = {
			factor = 2
			FROM = {
				trait = cruel
			}
		}
		modifier = {
			factor = 2
			FROM = {
				trait = wroth
			}
		}
		modifier = {
			factor = 5
			is_rival = FROM
		}
	}
	trigger = {
		FROM = {
			OR = {
				is_old_gods_religion_trigger = yes
				religion = sothoryos_rel
			}
			NOR = {
				trait = kind
				trait = honorable
			}
		}
	}
}

# execution_method = {
	# death = death_execution_scaphism
	# weight_multiplier = {
		# factor = 250
		# modifier = {
			# factor = 2
			# FROM = {
				# trait = cruel
			# }
		# }
		# modifier = {
			# factor = 2
			# FROM = {
				# trait = wroth
			# }
		# }
	# }
	# trigger = {
		# FROM = {
			# #culture = persian
		# }
	# }
# }

# execution_method = {
	# death = death_execution_drowning_pit
	# weight_multiplier = {
		# factor = 250
	# }
	# trigger = {
		# FROM = {
			# # OR = {
				# # culture_group = celtic
				# # culture = norse
			# # }
			# NOR = {
				# is_nomadic = yes
				# is_tribal = yes
			# }
		# }
	# }
# }

# execution_method = {
	# death = death_execution_garrotting
	# weight_multiplier = {
		# factor = 300
	# }
	# trigger = {
		# FROM = {
			# #culture_group = iberian
		# }
	# }
# }

execution_method = {
	death = death_execution_horses
	weight_multiplier = {
		factor = 300
		modifier = {
			factor = 4
			is_rival = FROM
		}
	}
	trigger = {
		FROM = {
			OR = {
				culture = dothraki
				is_nomadic = yes
			}	
		}
	}
}

execution_method = {
	death = death_execution_back_breaking
	weight_multiplier = {
		factor = 50
	}
	trigger = {
		is_lowborn = no
		FROM = {
			OR = {
				culture = dothraki
				is_nomadic = yes
			}
		}
	}
}

execution_method = {
	death = death_execution_wheel
	weight_multiplier = {
		factor = 50
	}
	trigger = {
		FROM = {
			OR = {
				trait = cruel
				trait = impaler
			}
			OR = {
				trait = wroth
				trait = lunatic
				trait = ruthless
			}
			NOR = {
				trait = kind
				trait = honorable
			}
			NOR = {
				is_nomadic = yes
				is_tribal = yes
			}
		}
	}
}

execution_method = {
	death = death_execution_boar
	weight_multiplier = {
		factor = 100
		modifier = {
			factor = 2
			FROM = {
				trait = cruel
			}
		}
	}
	trigger = {
		FROM = {
			trait = hunter	
			NOR = {
				trait = kind
				trait = honorable
			}
		}
	}
}
execution_method = {
	death = death_execution_wonder_spikes
	weight_multiplier = {
		factor = 400
	
	}
	trigger = {
		FROM = {
			any_realm_wonder = {
				has_wonder_upgrade = upgrade_spikes
			}
		}
	}
}

execution_method = {
	death = death_execution_wonder_moat_spikes
	weight_multiplier = {
		factor = 400
	
	}
	trigger = {
		FROM = {
			any_realm_wonder = {
				has_wonder_upgrade = upgrade_moat_spike
			}
		}
	}
}

execution_method = {
	death = death_execution_wonder_moat_pit
	weight_multiplier = {
		factor = 400
	
	}
	trigger = {
		FROM = {
			any_realm_wonder = {
				has_wonder_upgrade = upgrade_moat_pit
			}
		}
	}
}

execution_method = {
	death = death_execution_wonder_moat_water
	weight_multiplier = {
		factor = 400
	
	}
	trigger = {
		FROM = {
			any_realm_wonder = {
				has_wonder_upgrade = upgrade_moat_water
			}
		}
	}
}


