600.1.1={
	liege="d_hanjin"
}
7995.1.1 = { holder=10069195 }
8036.1.1 = { holder=10169195 }
8048.1.1 = { holder=10369195 }
8086.1.1 = { holder=10669195 }
8104.1.1 = { holder=11169195 }
8111.1.1 = { holder=11269195 }
8143.1.1 = { holder=11869195 }
8177.1.1 = { holder=12169195 }
8214.1.1 = { holder=12469195 }
8220.1.1 = { holder=12669195 }
8254.1.1 = { holder=13169195 }
8279.1.1 = { holder=13469195 }
8299.1.1 = { holder=13769195 }
