600.1.1={
	liege="d_nanqi"
}
7995.1.1 = { holder=10069100 }
8041.1.1 = { holder=10169100 }
8053.1.1 = { holder=10569100 }
8062.1.1 = { holder=10669100 }
8119.1.1 = { holder=10969100 }
8138.1.1 = { holder=11169100 }
8156.1.1 = { holder=11369100 }
8174.1.1 = { holder=11769100 }
8205.1.1 = { holder=11869100 }
8228.1.1 = { holder=12069100 }
8231.1.1 = { holder=12469100 }
8298.1.1 = { holder=12969100 }


