name = "King Qarlon's Invasion of Norvos"

casus_belli={
	casus_belli=invasion
	actor=901174999
	recipient=10069116
	landed_title=k_norvos
	date=6478.1.1
}

6478.1.1 = {
	add_defender = 10069116
	add_attacker = 901174999
}

6479.1.1 = {
	rem_defender = 10069116
	rem_attacker = 901174999
}                                                                                                                                                                                                                                                                                                                