name = "The Battle of Seven Stars"

casus_belli={
	casus_belli=invasion
	actor=557187 # Robar Royce
	recipient=3006182
	landed_title=d_ironoaks
	date=6536.1.1
}

6536.1.1 = {
	add_defender = 3006182
	add_attacker = 557187 # Robar Royce
}

6537.1.1 = {
	rem_defender = 3006182
	rem_attacker = 557187 # Robar Royce
}                                                                                                                                                                                                                                                                                                                