name = "Northern Invasion of the Sisters"

casus_belli={
	casus_belli=invasion
	actor=820059
	recipient=550178
	landed_title=d_the_sisters
	date=6610.1.1
}

6610.1.1 = {
	add_defender = 550178
	add_attacker = 820059
}

6611.1.1 = {
	rem_defender = 550178
	rem_attacker = 820059
}                                                                                                                                                                                                                                                                                                                