name = "The Second Spice War"

casus_belli={
	casus_belli=invasion
	actor=125174397
	recipient=101986003
	landed_title=k_sarhoy
	date=7294.1.1
}

7294.1.1 = {
	add_defender = 101986003 # Sarhoy
	add_attacker = 125174397 # Volantis
}

7295.1.1 = {
	rem_defender = 101986003 # Sarhoy
	rem_attacker = 125174397 # Volantis
}                                                                                                                                                                                                                                                                                                                