name = "Stormlands Invasion of the Reach"

casus_belli={
	casus_belli=invasion
	actor=2011544
	recipient=88155
	landed_title=e_reach
	date=7300.1.1
}

7300.1.1 = {
	add_defender = 88155
	add_attacker = 2011544
}

7301.1.1 = {
	rem_defender = 88155
	rem_attacker= 2011544
}


                                                                                                                                                                                                                                                                                                                                   