name = "Storm King Arlan III's Invasion of The Riverlands"

casus_belli={
	casus_belli=claim_riverlands_CoB
	actor=3501544
	recipient=607174435
	landed_title=e_riverlands
	date=7679.1.1
}

7679.1.1 = {
	add_defender = 607174435
	add_attacker = 3501544
}

7680.1.1 = {
	rem_defender = 607174435
	rem_attacker = 3501544
}                                                                                                                                                                                                                                                                                                                