

############################################   House Darklyn   #####################################

6000364 = {
	name="Jarmen"	# a lord
	dynasty=364

	religion="old_gods"
	culture="old_first_man"

	6414.1.1 = {birth="6414.1.1"}
	6430.1.1 = {add_trait=brave add_trait=master_warrior}
	6432.1.1 = {add_spouse=5000364}
	6458.1.1 = {death="6458.1.1"}
}
5000364 = {
	name="Unella"
	female=yes

	religion="old_gods"
	culture="old_first_man"

	6414.1.1 = {birth="6414.1.1"}
	6458.1.1 = {death="6458.1.1"}
}
6001364 = {
	name="Roelle"	# not a lord
	female=yes
	dynasty=364

	religion="old_gods"
	culture="old_first_man"

	father=6000364
	mother=5000364

	6437.1.1 = {birth="6437.1.1"}
	6484.1.1 = {death="6484.1.1"}
}
6002364 = {
	name="Triston"	# a lord
	dynasty=364

	religion="old_gods"
	culture="old_first_man"

	father=6000364
	mother=5000364

	6439.1.1 = {birth="6439.1.1"}
	6455.1.1 = {add_trait=trained_warrior}
	6457.1.1 = {add_spouse=5002364}
	6476.2.1 = {death="6476.2.1"}
}
5002364 = {
	name="Arianne"
	female=yes

	religion="old_gods"
	culture="old_first_man"

	6439.1.1 = {birth="6439.1.1"}
	6486.1.1 = {death="6486.1.1"}
}
6003364 = {
	name="Duram"	# not a lord
	dynasty=364

	religion="old_gods"
	culture="old_first_man"

	father=6000364
	mother=5000364

	6441.1.1 = {birth="6441.1.1"}
	6457.1.1 = {add_trait=poor_warrior}
	6491.1.1 = {death="6491.1.1"}
}
6004364 = {
	name="Ollidor"	# not a lord
	dynasty=364

	religion="old_gods"
	culture="old_first_man"

	father=6000364
	mother=5000364

	6442.1.1 = {birth="6442.1.1"}
	6458.1.1 = {add_trait=brave add_trait=poor_warrior}
	6488.1.1 = {death="6488.1.1"}
}
6005364 = {
	name="Arianne"	# not a lord
	female=yes
	dynasty=364

	religion="old_gods"
	culture="old_first_man"

	father=6000364
	mother=5000364

	6445.1.1 = {birth="6445.1.1"}
	6504.1.1 = {death="6504.1.1"}
}
6007364 = {
	name="Steffon"	# a lord
	dynasty=364

	religion="old_gods"
	culture="old_first_man"

	father=6002364
	mother=5002364

	6458.1.1 = {birth="6458.1.1"}
	6474.1.1 = {add_trait=poor_warrior}
	6476.1.1 = {add_spouse=5007364}
	6499.1.1 = {death="6499.1.1"}
}
5007364 = {
	name="Roelle"
	female=yes

	religion="old_gods"
	culture="old_first_man"

	6458.1.1 = {birth="6458.1.1"}
	6499.1.1 = {death="6499.1.1"}
}
6008364 = {
	name="Corenna"	# not a lord
	female=yes
	dynasty=364

	religion="old_gods"
	culture="old_first_man"

	father=6007364
	mother=5007364

	6480.1.1 = {birth="6480.1.1"}
	6494.1.1 = {death="6494.1.1"}
}
6009364 = {
	name="Robin"	# a lord
	dynasty=364

	religion="old_gods"
	culture="old_first_man"

	father=6007364
	mother=5007364

	6481.1.1 = {birth="6481.1.1"}
	6497.1.1 = {add_trait=brave add_trait=poor_warrior}
	6499.1.1 = {add_spouse=5009364}
	6513.1.1 = {death="6513.1.1"}
}
5009364 = {
	name="Desmera"
	female=yes

	religion="old_gods"
	culture="old_first_man"

	6481.1.1 = {birth="6481.1.1"}
	6513.1.1 = {death="6513.1.1"}
}
6010364 = {
	name="Alyce"	# not a lord
	female=yes
	dynasty=364

	religion="old_gods"
	culture="old_first_man"

	father=6007364
	mother=5007364

	6482.1.1 = {birth="6482.1.1"}
	6535.1.1 = {death="6535.1.1"}
}
6011364 = {
	name="Leona"	# not a lord
	female=yes
	dynasty=364

	religion="old_gods"
	culture="old_first_man"

	father=6007364
	mother=5007364

	6484.1.1 = {birth="6484.1.1"}
	6547.1.1 = {death="6547.1.1"}
}
6012364 = {
	name="Florian"	# a lord
	dynasty=364

	religion="old_gods"
	culture="old_first_man"

	father=6009364
	mother=5009364

	6500.1.1 = {birth="6500.1.1"}
	6516.1.1 = {add_trait=brave add_trait=skilled_warrior}
	6518.1.1 = {add_spouse=5012364}
	6535.1.1 = {death="6535.1.1"}
}
5012364 = {
	name="Marya"
	female=yes

	religion="old_gods"
	culture="old_first_man"

	6500.1.1 = {birth="6500.1.1"}
	6535.1.1 = {death="6535.1.1"}
}
6013364 = {
	name="Eustace"	# not a lord
	dynasty=364

	religion="old_gods"
	culture="old_first_man"

	father=6009364
	mother=5009364

	6504.1.1 = {birth="6504.1.1"}
	6520.1.1 = {add_trait=brave add_trait=trained_warrior}
	6545.1.1 = {death="6545.1.1"}
}
6014364 = {
	name="Barth"	# not a lord
	dynasty=364

	religion="old_gods"
	culture="old_first_man"

	father=6009364
	mother=5009364

	6505.1.1 = {birth="6505.1.1"}
	6521.1.1 = {add_trait=brave add_trait=poor_warrior}
	6552.1.1 = {death="6552.1.1"}
}
6015364 = {
	name="Danos"	# not a lord
	dynasty=364

	religion="old_gods"
	culture="old_first_man"

	father=6009364
	mother=5009364

	6508.1.1 = {birth="6508.1.1"}
	6524.1.1 = {add_trait=brave add_trait=trained_warrior}
	6565.1.1 = {death = {death_reason = death_accident}}
}
6016364 = {
	name="Marya"	# not a lord
	female=yes
	dynasty=364

	religion="old_gods"
	culture="old_first_man"

	father=6009364
	mother=5009364

	6510.1.1 = {birth="6510.1.1"}
	6519.1.1 = {death="6519.1.1"}
}
6018364 = {
	name="Selyse"	# not a lord
	female=yes
	dynasty=364

	religion="old_gods"
	culture="old_first_man"

	father=6012364
	mother=5012364

	6526.1.1 = {birth="6526.1.1"}
	6558.1.1 = {death="6558.1.1"}
}
6019364 = {
	name="Ulmer"	# a lord
	dynasty=364

	religion="old_gods"
	culture="old_first_man"

	father=6012364
	mother=5012364

	6529.1.1 = {birth="6529.1.1"}
	6545.1.1 = {add_trait=brave add_trait=trained_warrior}
	6547.1.1 = {add_spouse=5019364}
	6578.1.1 = {death="6578.1.1"}
}
5019364 = {
	name="Malessa"
	female=yes

	religion="old_gods"
	culture="old_first_man"

	6529.1.1 = {birth="6529.1.1"}
	6578.1.1 = {death="6578.1.1"}
}
6020364 = {
	name="Marya"	# not a lord
	female=yes
	dynasty=364

	religion="old_gods"
	culture="old_first_man"

	father=6019364
	mother=5019364

	6553.1.1 = {birth="6553.1.1"}
	6597.1.1 = {death="6597.1.1"}
}
6023364 = {
	name="Malessa"	# not a lord
	female=yes
	dynasty=364

	religion="old_gods"
	culture="old_first_man"

	father=6019364
	mother=5019364

	6557.1.1 = {birth="6557.1.1"}
	6590.1.1 = {death="6590.1.1"}
}
6021364 = {
	name="Alysanne"	# not a lord
	female=yes
	dynasty=364

	religion="old_gods"
	culture="old_first_man"

	father=6019364
	mother=5019364

	6558.1.1 = {birth="6558.1.1"}
	6618.1.1 = {death="6618.1.1"}
}
6022364 = {
	name="Dale"	# a lord
	dynasty=364

	religion="old_gods"
	culture="old_first_man"

	father=6019364
	mother=5019364

	6565.1.1 = {birth="6565.1.1"}
	6581.1.1 = {add_trait=brave add_trait=poor_warrior}
	6583.1.1 = {add_spouse=5022364}
	6607.10.1 = {death="6607.10.1"}
}
5022364 = {
	name="Meredyth" #Canon
	female=yes
	
	diplomacy=5
	intrigue=6
	martial=2
	stewardship=6
	learning=5

	religion="old_gods"
	culture="old_first_man"
	
	add_trait = charismatic_negotiator
	add_trait = diligent
	add_trait = authoritative

	6565.1.1 = {birth="6565.1.1"}
	6618.1.1 = {death="6618.1.1"}
}
6024364 = {
	name="Annara"	# not a lord
	female=yes
	dynasty=364

	religion="old_gods"
	culture="old_first_man"

	father=6022364
	mother=5022364

	6589.1.1 = {birth="6589.1.1"}
	6629.1.1 = {death="6629.1.1"}
}
6025364 = {
	name="Jaremy"	# a lord
	dynasty=364

	religion="old_gods"
	culture="old_first_man"

	father=6022364
	mother=5022364

	6598.1.1 = {birth="6598.1.1"}
	6614.1.1 = {add_trait=brave add_trait=poor_warrior}
	6616.1.1 = {add_spouse=5025364}
	6632.1.1 = {death="6632.1.1"}
}
5025364 = {
	name="Leonette"
	female=yes

	religion="old_gods"
	culture="old_first_man"

	6598.1.1 = {birth="6598.1.1"}
	6662.1.1 = {death="6662.1.1"}
}
6026364 = {
	name="Jonquil"	# not a lord
	female=yes
	dynasty=364

	religion="old_gods"
	culture="old_first_man"

	father=6022364
	mother=5022364

	6600.1.1 = {birth="6600.1.1"}
	6631.1.1 = {death="6631.1.1"}
}
6029364 = {
	name="Monford"	# a lord
	dynasty=364

	religion="old_gods"
	culture="old_first_man"

	father=6025364
	mother=5025364

	6617.1.1 = {birth="6617.1.1"}
	6633.1.1 = {add_trait=poor_warrior}
	6634.1.1 = {add_spouse=5029364}
	6667.1.1 = {death="6667.1.1"}
}
5029364 = {
	name="Alla"
	female=yes

	religion="old_gods"
	culture="old_first_man"

	6599.1.1 = {birth="6599.1.1"}
	6667.1.1 = {death="6667.1.1"}
}
6030364 = {
	name="Jarman"	# not a lord
	dynasty=364

	religion="old_gods"
	culture="old_first_man"

	father=6025364
	mother=5025364

	6619.1.1 = {birth="6619.1.1"}
	6635.1.1 = {add_trait=brave add_trait=trained_warrior}
	6654.1.1 = {death="6654.1.1"}
}
6032364 = {
	name="Corenna"	# not a lord
	female=yes
	dynasty=364

	religion="old_gods"
	culture="old_first_man"

	father=6025364
	mother=5025364

	6623.1.1 = {birth="6623.1.1"}
	6668.1.1 = {death="6668.1.1"}
}
6033364 = {
	name="Janos"	# not a lord
	dynasty=364

	religion="old_gods"
	culture="old_first_man"

	father=6025364
	mother=5025364

	6625.1.1 = {birth="6625.1.1"}
	6641.1.1 = {add_trait=brave add_trait=poor_warrior}
	6671.1.1 = {death="6671.1.1"}
}
6034364 = {
	name="Cassana"	# not a lord
	female=yes
	dynasty=364

	religion="old_gods"
	culture="old_first_man"

	father=6029364
	mother=5029364

	6635.1.1 = {birth="6635.1.1"}
	6674.1.1 = {death="6674.1.1"}
}
6035364 = {
	name="Allar"	# a lord
	dynasty=364

	religion="old_gods"
	culture="old_first_man"

	father=6029364
	mother=5029364

	6637.1.1 = {birth="6637.1.1"}
	6653.1.1 = {add_trait=brave add_trait=trained_warrior}
	6653.1.1 = {add_spouse=5035364}
	6677.1.1 = {death = {death_reason = death_accident}}
}
5035364 = {
	name="Alyce"
	female=yes

	religion="old_gods"
	culture="old_first_man"

	6637.1.1 = {birth="6637.1.1"}
	6677.1.1 = {death="6677.1.1"}
}
6036364 = {
	name="Cassana"	# not a lord
	female=yes
	dynasty=364

	religion="old_gods"
	culture="old_first_man"

	father=6029364
	mother=5029364

	6639.1.1 = {birth="6639.1.1"}
	6678.1.1 = {death="6678.1.1"}
}
6037364 = {
	name="Guncer"	# not a lord
	dynasty=364

	religion="old_gods"
	culture="old_first_man"

	father=6029364
	mother=5029364

	6641.1.1 = {birth="6641.1.1"}
	6657.1.1 = {add_trait=brave add_trait=poor_warrior}
	6689.1.1 = {death = {death_reason = death_accident}}
}
6038364 = {
	name="Will"	# a lord
	dynasty=364

	religion="old_gods"
	culture="old_first_man"

	father=6035364
	mother=5035364

	6653.1.1 = {birth="6653.1.1"}
	6669.1.1 = {add_trait=trained_warrior}
	6669.1.1 = {add_spouse=5038364}
	6686.1.1 = {death="6686.1.1"}
}
5038364 = {
	name="Talla"
	female=yes

	religion="old_gods"
	culture="old_first_man"

	6653.1.1 = {birth="6653.1.1"}
	6703.1.1 = {death="6703.1.1"}
}
6039364 = {
	name="Maric"	# not a lord
	dynasty=364

	religion="old_gods"
	culture="old_first_man"

	father=6035364
	mother=5035364

	6656.1.1 = {birth="6656.1.1"}
	6672.1.1 = {add_trait=brave add_trait=trained_warrior}
	6703.1.1 = {death="6703.1.1"}
}
6044364 = {
	name="Lucifer"	# a lord
	dynasty=364

	religion="old_gods"
	culture="old_first_man"

	father=6038364
	mother=5038364

	6677.1.1 = {birth="6677.1.1"}
	6693.1.1 = {add_trait=poor_warrior}
	6695.1.1 = {add_spouse=5044364}
	6733.1.1 = {death="6733.1.1"}
}
5044364 = {
	name="Cyrenna"
	female=yes

	religion="old_gods"
	culture="old_first_man"

	6677.1.1 = {birth="6677.1.1"}
	6733.1.1 = {death="6733.1.1"}
}
6045364 = {
	name="Alyn"	# a lord
	dynasty=364

	religion="old_gods"
	culture="old_first_man"

	father=6038364
	mother=5038364

	6686.1.1 = {birth="6686.1.1"}
	6712.1.1 = {add_trait=brave add_trait=trained_warrior}
	6720.1.1 = {add_spouse=5045364}
	6750.1.1 = {death="6750.1.1"}
}


#################################################################   House Rosby  #########################################################

300038 = {
	name="Robin"	# a lord, 
	dynasty=38
	
	martial = 7
	stewardship = 9
	
	religion="old_gods"
	culture="old_first_man"
	
	add_trait=skilled_tactician
	add_trait=diligent
	add_trait=honorable
	add_trait=humble
	
	6443.1.1 = {birth="6443.1.1"}
	6459.1.1 = {add_trait=brave add_trait=trained_warrior}
	6461.1.1 = {add_spouse=400038}
	6483.1.1 = {death="6483.1.1"}
}
400038 = {
	name="Unella"
	female=yes

	religion="old_gods"
	culture="old_first_man"

	6443.1.1 = {birth="6443.1.1"}
	6500.1.1 = {death="6500.1.1"}
}
300138 = {
	name="Janos"	# a lord
	dynasty=38

	religion="old_gods"
	culture="old_first_man"

	father=300038
	mother=400038

	6468.1.1 = {birth="6468.1.1"}
	6484.1.1 = {add_trait=brave add_trait=poor_warrior}
	6486.1.1 = {add_spouse=400138}
	6505.1.1 = {death = {death_reason = death_murder}}
}
400138 = {
	name="Alysanne"
	female=yes

	religion="old_gods"
	culture="old_first_man"

	6468.1.1 = {birth="6468.1.1"}
	6521.1.1 = {death="6521.1.1"}
}
300238 = {
	name="Malessa"	# not a lord
	female=yes
	dynasty=38

	religion="old_gods"
	culture="old_first_man"

	father=300038
	mother=400038

	6471.1.1 = {birth="6471.1.1"}
	6530.1.1 = {death="6530.1.1"}
}
300338 = {
	name="Alan"	# a lord
	dynasty=38

	religion="old_gods"
	culture="old_first_man"

	father=300138
	mother=400138

	6498.1.1 = {birth="6498.1.1"}
	6514.1.1 = {add_trait=brave add_trait=poor_warrior}
	6516.1.1 = {add_spouse=400338}
	6560.1.1 = {death="6560.1.1"}
}
400338 = {
	name="Mary"
	female=yes

	religion="old_gods"
	culture="old_first_man"

	6498.1.1 = {birth="6498.1.1"}
	6560.1.1 = {death="6560.1.1"}
}
300438 = {
	name="Devan"	# not a lord
	dynasty=38

	religion="old_gods"
	culture="old_first_man"

	father=300138
	mother=400138

	6505.1.1 = {birth="6505.1.1"}
	6521.1.1 = {add_trait=brave add_trait=poor_warrior}
	6541.1.1 = {death="6541.1.1"}
}
300538 = {
	name="Lollys"	# not a lord
	female=yes
	dynasty=38

	religion="old_gods"
	culture="old_first_man"

	father=300338
	mother=400338

	6530.1.1 = {birth="6530.1.1"}
	6589.1.1 = {death="6589.1.1"}
}
300638 = {
	name="Barra"	# not a lord
	female=yes
	dynasty=38

	religion="old_gods"
	culture="old_first_man"

	father=300338
	mother=400338

	6533.1.1 = {birth="6533.1.1"}
	6587.1.1 = {death="6587.1.1"}
}
300738 = {
	name="Howard"	# a lord
	dynasty=38

	religion="old_gods"
	culture="old_first_man"

	father=300338
	mother=400338

	6535.1.1 = {birth="6535.1.1"}
	6551.1.1 = {add_trait=brave add_trait=poor_warrior}
	6553.1.1 = {add_spouse=400738}
	6581.1.1 = {death="6581.1.1"}
}
400738 = {
	name="Desmera"
	female=yes

	religion="old_gods"
	culture="old_first_man"

	6535.1.1 = {birth="6535.1.1"}
	6581.1.1 = {death="6581.1.1"}
}
300838 = {
	name="Lothar"	# not a lord
	dynasty=38

	religion="old_gods"
	culture="old_first_man"

	father=300338
	mother=400338

	6538.1.1 = {birth="6538.1.1"}
	6554.1.1 = {add_trait=poor_warrior}
	6583.1.1 = {death="6583.1.1"}
}
300938 = {
	name="Ardrian"	# a lord
	dynasty=38

	religion="old_gods"
	culture="old_first_man"

	father=300738
	mother=400738

	6562.1.1 = {birth="6562.1.1"}
	6578.1.1 = {add_trait=brave add_trait=poor_warrior}
	6580.1.1 = {add_spouse=400938}
	6608.1.26= {death="6608.1.26"}
}
400938 = {
	name="Melicent"
	female=yes

	religion="old_gods"
	culture="old_first_man"

	6562.1.1 = {birth="6562.1.1"}
	6610.1.1 = {death="6610.1.1"}
}
301038 = {
	name="Sefton"	# not a lord
	dynasty=38

	religion="old_gods"
	culture="old_first_man"

	father=300738
	mother=400738

	6563.1.1 = {birth="6563.1.1"}
	6579.1.1 = {add_trait=brave add_trait=skilled_warrior}
	6600.1.1 = {death="6600.1.1"}
}
301138 = {
	name="Rorge"	# a lord
	dynasty=38

	religion="old_gods"
	culture="old_first_man"

	father=300938
	mother=400938

	6589.1.1 = {birth="6589.1.1"}
	6605.1.1 = {add_trait=brave add_trait=trained_warrior}
	6607.1.1 = {add_spouse=401138}
	6622.1.1 = {death = {death_reason = death_accident}}
}
401138 = {
	name="Mhaegen"
	female=yes

	religion="old_gods"
	culture="old_first_man"

	6589.1.1 = {birth="6589.1.1"}
	6622.1.1 = {death="6622.1.1"}
}
301238 = {
	name="Jacelyn"	# a lord
	dynasty=38

	religion="old_gods"
	culture="old_first_man"

	father=300938
	mother=400938

	6592.1.1 = {birth="6592.1.1"}
	6608.1.1 = {add_trait=brave add_trait=trained_warrior}
	6610.1.1 = {add_spouse=401238}
	6661.1.1 = {death="6661.1.1"}
}
401238 = {
	name="Malora"
	female=yes

	religion="old_gods"
	culture="old_first_man"

	6592.1.1 = {birth="6592.1.1"}
	6661.1.1 = {death="6661.1.1"}
}
301338 = {
	name="Wallace"	# not a lord
	dynasty=38

	religion="old_gods"
	culture="old_first_man"

	father=300938
	mother=400938

	6595.1.1 = {birth="6595.1.1"}
	6611.1.1 = {add_trait=brave add_trait=trained_warrior}
	6613.1.1 = {add_spouse=401338}
	6640.1.1 = {death="6640.1.1"}
}
401338 = {
	name="Desmera"
	female=yes

	religion="old_gods"
	culture="old_first_man"

	6595.1.1 = {birth="6595.1.1"}
	6640.1.1 = {death="6640.1.1"}
}
301438 = {
	name="Bronn"	# a lord
	dynasty=38

	religion="old_gods"
	culture="old_first_man"

	father=301238
	mother=401238

	6616.1.1 = {birth="6616.1.1"}
	6632.1.1 = {add_trait=brave add_trait=trained_warrior}
	6634.1.1 = {add_spouse=401438}
	6673.1.1 = {death="6673.1.1"}
}
401438 = {
	name="Eglantine"
	female=yes

	religion="old_gods"
	culture="old_first_man"

	6616.1.1 = {birth="6616.1.1"}
	6673.1.1 = {death="6673.1.1"}
}
301538 = {
	name="Shireen"	# not a lord
	female=yes
	dynasty=38

	religion="old_gods"
	culture="old_first_man"

	father=301338
	mother=401338

	6622.1.1 = {birth="6622.1.1"}
	6698.1.1 = {death="6698.1.1"}
}
301638 = {
	name="Mortimer"	# a lord
	dynasty=38

	religion="old_gods"
	culture="old_first_man"

	father=301338
	mother=401338

	6623.1.1 = {birth="6623.1.1"}
	6639.1.1 = {add_trait=brave add_trait=skilled_warrior}
	6641.1.1 = {add_spouse=401638}
	6678.1.1 = {death="6678.1.1"}
}
401638 = {
	name="Corenna"
	female=yes

	religion="old_gods"
	culture="old_first_man"

	6623.1.1 = {birth="6623.1.1"}
	6678.1.1 = {death="6678.1.1"}
}
301738 = {
	name="Mhaegan"	# not a lord
	female=yes
	dynasty=38

	religion="old_gods"
	culture="old_first_man"

	father=301338
	mother=401338

	6624.1.1 = {birth="6624.1.1"}
	6681.1.1 = {death="6681.1.1"}
}
301838 = {
	name="Alynne"	# not a lord
	female=yes
	dynasty=38

	religion="old_gods"
	culture="old_first_man"

	father=301638
	mother=401638

	6645.1.1 = {birth="6645.1.1"}
	6692.1.1 = {death="6692.1.1"}
}
301938 = {
	name="Qarlton"	# a lord
	dynasty=38

	religion="old_gods"
	culture="old_first_man"

	father=301638
	mother=401638

	6646.1.1 = {birth="6646.1.1"}
	6662.1.1 = {add_trait=brave add_trait=trained_warrior}
	6664.1.1 = {add_spouse=401938}
	6692.1.1 = {death="6692.1.1"}
}
401938 = {
	name="Matrice"
	female=yes

	religion="old_gods"
	culture="old_first_man"

	6646.1.1 = {birth="6646.1.1"}
	6692.1.1 = {death="6692.1.1"}
}
302038 = {
	name="Rorge"	# not a lord
	dynasty=38

	religion="old_gods"
	culture="old_first_man"

	father=301638
	mother=401638

	6648.1.1 = {birth="6648.1.1"}
	6664.1.1 = {add_trait=brave add_trait=trained_warrior}
	6666.1.1 = {add_spouse=402038}
	6701.1.1 = {death="6701.1.1"}
}
402038 = {
	name="Alynne"
	female=yes

	religion="old_gods"
	culture="old_first_man"

	6648.1.1 = {birth="6648.1.1"}
	6701.1.1 = {death="6701.1.1"}
}
302138 = {
	name="Alla"	# not a lord
	female=yes
	dynasty=38

	religion="old_gods"
	culture="old_first_man"

	father=301638
	mother=401638

	6650.1.1 = {birth="6650.1.1"}
	6707.1.1 = {death="6707.1.1"}
}
302238 = {
	name="Ferret"	# a lord
	dynasty=38

	religion="old_gods"
	culture="old_first_man"

	father=301938
	mother=401938

	6674.1.1 = {birth="6674.1.1"}
	6690.1.1 = {add_trait=brave add_trait=poor_warrior}
	6692.1.1 = {add_spouse=402238}
	6706.1.1 = {death = {death_reason = death_murder}}
}
402238 = {
	name="Melicent"
	female=yes

	religion="old_gods"
	culture="old_first_man"

	6674.1.1 = {birth="6674.1.1"}
	6706.1.1 = {death="6706.1.1"}
}
302338 = {
	name="Janos"	# not a lord
	dynasty=38

	religion="old_gods"
	culture="old_first_man"

	father=301938
	mother=401938

	6677.1.1 = {birth="6677.1.1"}
	6693.1.1 = {add_trait=brave add_trait=poor_warrior}
	6708.1.1 = {death="6708.1.1"}
}
302438 = {
	name="Leyla"	# not a lord
	female=yes
	dynasty=38

	religion="old_gods"
	culture="old_first_man"

	father=301938
	mother=401938

	6678.1.1 = {birth="6678.1.1"}
	6746.1.1 = {death="6746.1.1"}
}
302538 = {
	name="Marya"	# not a lord
	female=yes
	dynasty=38

	religion="old_gods"
	culture="old_first_man"

	father=302038
	mother=402038

	6666.1.1 = {birth="6666.1.1"}
	6715.1.1 = {death="6715.1.1"}
}
302638 = {
	name="Roger"	# not a lord
	dynasty=38

	religion="old_gods"
	culture="old_first_man"

	father=302038
	mother=402038

	6668.1.1 = {birth="6668.1.1"}
	6684.1.1 = {add_trait=brave add_trait=poor_warrior}
	6686.1.1 = {add_spouse=402638}
	6714.1.1 = {death="6714.1.1"}
}
402638 = {
	name="Leona"
	female=yes

	religion="old_gods"
	culture="old_first_man"

	6668.1.1 = {birth="6668.1.1"}
	6714.1.1 = {death="6714.1.1"}
}
302738 = {
	name="Allard"	# not a lord
	dynasty=38

	religion="old_gods"
	culture="old_first_man"

	father=302638
	mother=402638

	6694.1.1 = {birth="6694.1.1"}
	6710.1.1 = {add_trait=poor_warrior}
	6712.1.1 = {add_spouse=402738}
	6745.1.1 = {death="6745.1.1"}
}
402738 = {
	name="Jonquil"
	female=yes

	religion="old_gods"
	culture="old_first_man"

	6694.1.1 = {birth="6694.1.1"}
	6745.1.1 = {death="6745.1.1"}
}
302838 = {
	name="Florian"	# not a lord
	dynasty=38

	religion="old_gods"
	culture="old_first_man"

	father=302738
	mother=402738

	6715.1.1 = {birth="6715.1.1"}
	6731.1.1 = {add_trait=brave add_trait=poor_warrior}
	6733.1.1 = {add_spouse=402838}
	6747.1.1 = {death = {death_reason = death_accident}}
}
402838 = {
	name="Shireen"
	female=yes

	religion="old_gods"
	culture="old_first_man"

	6715.1.1 = {birth="6715.1.1"}
	6747.1.1 = {death="6747.1.1"}
}
302938 = {
	name="Ermesande"	# not a lord
	female=yes
	dynasty=38

	religion="old_gods"
	culture="old_first_man"

	father=302838
	mother=402838

	6743.1.1 = {birth="6743.1.1"}
}
303038 = {
	name="Guncer"	# not a lord
	dynasty=38

	religion="old_gods"
	culture="old_first_man"

	father=302838
	mother=402838

	6747.1.1 = {birth="6747.1.1"}
	6763.1.1 = {add_trait=brave add_trait=trained_warrior}
}

###Sunglass###
30051 = {
	name="Vincent"	# a lord
	dynasty=51

	religion = the_seven
	culture="old_andal"
	
	add_trait = zealous
	add_trait = skilled_tactician

	6447.1.1 = { birth="6447.1.1"  }
	6463.1.1 = { add_trait=skilled_warrior }
	6465.1.1 = {add_spouse=40051}
	6480.1.1 = {
		add_trait=knight
	}
	6505.1.1 = {death="6505.1.1"}
}
40051 = {
	name="Alynne"
	female=yes

	religion = the_seven
	culture="old_andal"

	6447.1.1 = {birth="6447.1.1"  }
	6505.1.1 = {death="6505.1.1"}
}
30151 = {
	name="Roland"	# a lord
	dynasty=51
	
	martial=9

	religion = the_seven
	culture="old_andal"

	father=30051
	mother=40051

	6461.1.1 = {birth="6461.1.1"  }
	6480.1.1 = {
		add_trait=skilled_warrior
	}
	6480.1.1 = {
		add_trait=knight
	}
	6517.1.1 = {death = {death_reason = death_battle}}
}
30251 = {
	name="Alan"	# a lord
	dynasty=51
	
	stewardship=8

	religion = the_seven
	culture="old_andal"

	father=30051
	mother=40051

	6462.1.1 = {birth="6462.1.1"  }
	6478.1.1 = {add_trait=trained_warrior}
	6478.2.1 = {add_spouse=40251}
	6480.1.1 = {
		add_trait=knight 
	}
	6531.1.1 = {death="6531.1.1"}
}
40251 = {
	name="Desmera"
	female=yes
	dynasty=51

	religion = the_seven
	culture="old_andal"
	
	father=30051
	mother=40051

	6463.1.1 = {birth="6463.1.1"  }
	6530.1.1 = {death="6530.1.1"}
}
30351 = {
	name="Alys"	# not a lord
	female=yes
	dynasty=51

	religion = the_seven
	culture="old_andal"

	father=30051
	mother=40051

	6464.1.1 = {birth="6464.1.1"  }
	6500.1.1 = {death = {death_reason = death_accident}}
}
30451 = {
	name="Maldon"	# not a lord
	dynasty=51

	religion = the_seven
	culture="old_andal"
	
	father=30051
	mother=40051

	6470.1.1 = {birth="6470.1.1"  }
	6486.1.1 = {add_trait=knight add_trait=trained_warrior}
	6523.1.1 = {death="6523.1.1"}
}
30551 = {
	name="Gyles"	# not a lord
	dynasty=51

	religion="the_seven"
	culture="old_andal"

	father=30251
	mother=40251

	6484.1.1 = {birth="6484.1.1"  }
	6500.1.1 = {add_trait=knight add_trait=trained_warrior}
	6502.1.1 = {add_spouse=40551}
	6522.1.1 = {death="6522.1.1"}
}
40551 = {
	name="Talla"
	female=yes

	religion="the_seven"
	culture="old_andal"

	6484.1.1 = {birth="6484.1.1"  }
	6522.1.1 = {death="6522.1.1"}
}
30651 = {
	name="Leyla"	# not a lord
	female=yes
	dynasty=51

	religion="the_seven"
	culture="old_andal"

	father=30251
	mother=40251

	6486.1.1 = {birth="6486.1.1"  }
	6521.1.1 = {death="6521.1.1"}
}
30751 = {
	name="Jarmen"
	dynasty=51

	religion="the_seven"
	culture="old_andal"

	father=30551
	mother=40551

	add_trait = zealous
	add_trait="skilled_tactician"
	
	6506.1.1 = {birth="6506.1.1"  }
	6522.1.1 = {add_trait=knight add_trait=skilled_warrior}	
	6524.1.1 = {
		add_spouse = 40751	
	}
	6564.1.1 = {death="6564.1.1"}
}
40751 = {
	name="Alysanne"	# a lord
	female=yes
	
	religion="the_seven"
	culture="old_andal"

	6506.1.1 = {birth="6506.1.1"  }	
	6564.1.1 = {death="6564.1.1"}
}
30851 = {
	name="Gyles"	# a lord
	dynasty=51

	religion="the_seven"
	culture="old_andal"

	mother=40751
	father=30751

	6535.1.1 = {birth="6535.1.1"  }
	6551.1.1 = {add_trait=knight add_trait=poor_warrior}
	6553.1.1 = {add_spouse=40851}
	6592.1.1 = {death="6592.1.1"}
}
40851 = {
	name="Alla"
	female=yes

	religion="the_seven"
	culture="old_andal"

	6535.1.1 = {birth="6535.1.1"  }
	6592.1.1 = {death="6592.1.1"}
}
30951 = {
	name="Shireen"	# not a lord
	female=yes
	dynasty=51

	religion="the_seven"
	culture="old_andal"

	father=30851
	mother=40851

	6553.1.1 = {birth="6553.1.1"}
	6616.1.1 = {death="6616.1.1"}
}
31051 = {
	name="Balman"	# not a lord
	dynasty=51

	religion="the_seven"
	culture="old_andal"

	father=30851
	mother=40851

	6556.1.1 = {birth="6556.1.1"}
	6570.1.1 = {death = {death_reason = death_murder}}
}
31151 = {
	name="Bennard"	# a lord
	dynasty=51

	religion="the_seven"
	culture="old_andal"

	father=30851
	mother=40851

	6558.1.1 = {birth="6558.1.1"}
	6574.1.1 = {add_trait=knight add_trait=trained_warrior}
	6576.1.1 = {add_spouse=41151}
	6615.1.1 = {death="6615.1.1"}
}
41151 = {
	name="Matrice"
	female=yes

	religion="the_seven"
	culture="old_andal"

	6558.1.1 = {birth="6558.1.1"}
	6615.1.1 = {death="6615.1.1"}
}
31251 = {
	name="Daella"	# not a lord
	female=yes
	dynasty=51

	religion="the_seven"
	culture="old_andal"

	father=31151
	mother=41151

	6581.1.1 = {birth="6581.1.1"}
	6622.1.1 = {death="6622.1.1"}
}
31351 = {
	name="Megan"	# not a lord
	female=yes
	dynasty=51

	religion="the_seven"
	culture="old_andal"

	father=31151
	mother=41151

	6582.1.1 = {birth="6582.1.1"}
	6623.1.1 = {death="6623.1.1"}
}
31451 = {
	name="Allar"	# a lord
	dynasty=51

	religion="the_seven"
	culture="old_andal"

	father=31151
	mother=41151

	6583.1.1 = {birth="6583.1.1"}
	6599.1.1 = {add_trait=knight add_trait=poor_warrior}
	6601.1.1 = {add_spouse=41451}
	6635.1.1 = {death="6635.1.1"}
}
41451 = {
	name="Alerie"
	female=yes

	religion="the_seven"
	culture="old_andal"

	6583.1.1 = {birth="6583.1.1"}
	6635.1.1 = {death="6635.1.1"}
}
31551 = {
	name="Moelle"	# not a lord
	female=yes
	dynasty=51

	religion="the_seven"
	culture="old_andal"

	father=31451
	mother=41451

	6602.1.1 = {birth="6602.1.1"}
	6628.1.1 = {death="6628.1.1"}
}
31651 = {
	name="Sefton"	# a lord
	dynasty=51

	religion="the_seven"
	culture="old_andal"

	father=31451
	mother=41451

	6605.1.1 = {birth="6605.1.1"}
	6621.1.1 = {add_trait=knight add_trait=trained_warrior}
	6662.1.1 = {death="6662.1.1"}
}
31751 = {
	name="Guncer"	# not a lord
	dynasty=51

	religion="the_seven"
	culture="old_andal"

	father=31451
	mother=41451

	6606.1.1 = {birth="6606.1.1"}
	6622.1.1 = {add_trait=knight add_trait=poor_warrior}
	6624.1.1 = {add_spouse=41751}
	6653.1.1 = {death="6653.1.1"}
}
41751 = {
	name="Malessa"
	female=yes

	religion="the_seven"
	culture="old_andal"

	6606.1.1 = {birth="6606.1.1"}
	6653.1.1 = {death="6653.1.1"}
}
31851 = {
	name="Desmera"	# not a lord
	female=yes
	dynasty=51

	religion="the_seven"
	culture="old_andal"

	father=31451
	mother=41451

	6607.1.1 = {birth="6607.1.1"}
	6640.1.1 = {death="6640.1.1"}
}
31951 = {
	name="Alan"	# a lord
	dynasty=51

	religion="the_seven"
	culture="old_andal"

	father=31751
	mother=41751

	6631.1.1 = {birth="6631.1.1"}
	6647.1.1 = {add_trait=knight add_trait=poor_warrior}
	6649.1.1 = {add_spouse=41951}
	6692.1.1 = {death="6692.1.1"}
}
41951 = {
	name="Lia"
	female=yes

	religion="the_seven"
	culture="old_andal"

	6631.1.1 = {birth="6631.1.1"}
	6692.1.1 = {death="6692.1.1"}
}
32051 = {
	name="Symon"	# not a lord
	dynasty=51

	religion="the_seven"
	culture="old_andal"

	father=31951
	mother=41951

	6660.1.1 = {birth="6660.1.1"}
	6676.1.1 = {add_trait=knight add_trait=poor_warrior}
	6680.1.1 = {death = {death_reason = death_battle}}
}
32151 = {
	name="Serenei"	# a lord
	female=yes
	dynasty=51

	religion="the_seven"
	culture="old_andal"

	father=31951
	mother=41951

	6668.1.1 = {birth="6668.1.1"}
	6686.1.1 = {
		add_matrilineal_spouse = 42151	
	}
	6714.1.1 = {death="6714.1.1"}
}
42151 = {
	name="Bryen"

	religion="the_seven"
	culture="old_andal"

	6668.1.1 = {birth="6668.1.1"}
	6684.1.1 = {add_trait=knight add_trait=poor_warrior}	
	6714.1.1 = {death="6714.1.1"}
}
32251 = {
	name="Monford"	# a lord
	dynasty=51

	religion="the_seven"
	culture="old_andal"

	father=42151
	mother=32151

	6687.1.1 = {birth="6687.1.1"}
	6703.1.1 = {add_trait=knight add_trait=skilled_warrior}
	6705.1.1 = {add_spouse=42251}
	6731.1.1 = {death="6731.1.1"}
}
42251 = {
	name="Rhaelle"
	female=yes

	religion="the_seven"
	culture="old_andal"

	6687.1.1 = {birth="6687.1.1"}
	6731.1.1 = {death="6731.1.1"}
}
32351 = {
	name="Qarlton"	# not a lord
	dynasty=51

	religion="the_seven"
	culture="old_andal"

	father=32251
	mother=42251

	6714.1.1 = {birth="6714.1.1"}
	6730.1.1 = {add_trait=knight add_trait=trained_warrior}
	6732.1.1 = {add_spouse=42351}
	6770.1.1 = {death="6770.1.1"}
}
42351 = {
	name="Jonquil"
	female=yes

	religion="the_seven"
	culture="old_andal"

	6714.1.1 = {birth="6714.1.1"}
	6770.1.1 = {death="6770.1.1"}
}
32451 = {
	name="Cassana"	# not a lord
	female=yes
	dynasty=51

	religion="the_seven"
	culture="old_andal"

	father=32251
	mother=42251

	6718.1.1 = {birth="6718.1.1"}
	6765.1.1 = {death="6765.1.1"}
}
32551 = {
	name="Mathew"	# not a lord
	dynasty=51

	religion="the_seven"
	culture="old_andal"

	father=32351
	mother=42351

	6754.1.1 = {birth="6754.1.1"}
	6770.1.1 = {add_trait=knight add_trait=trained_warrior}
}
32651 = {
	name="Balman"	# not a lord
	dynasty=51

	religion="the_seven"
	culture="old_andal"

	father=32351
	mother=42351

	6756.1.1 = {birth="6756.1.1"}
	6772.1.1 = {add_trait=knight add_trait=trained_warrior}
}


###############################################################################   Crackclaw Point   ###################################################################

###
### HOUSE BRUNE (id = 42)
### ID (for new character only) : 2000+ for canon character / 3000+ for non-canon character / 4000+ for wives
###
### Nacodaco

3000042 = {
	name="Godry"	# a lord
	dynasty=42

	religion="old_gods"
	culture="old_first_man"

	6446.1.1 = {birth="6446.1.1"}
	6462.1.1 = {add_trait=brave add_trait=trained_warrior}
	6464.1.1 = {add_spouse=4000042}
	6502.1.1 = {death="6502.1.1"}
}
4000042 = {
	name="Bethany"
	female=yes

	religion="old_gods"
	culture="old_first_man"

	6446.1.1 = {birth="6446.1.1"}
	6502.1.1 = {death="6502.1.1"}
}
3001042 = {
	name="Perkin"	# a lord
	dynasty=42

	religion="old_gods"
	culture="old_first_man"

	father=3000042
	mother=4000042

	6474.1.1 = {birth="6474.1.1"}
	6491.1.1 = {add_trait=brave add_trait=poor_warrior}
	6493.1.1 = {add_spouse=4001042}
	6548.1.1 = {death="6548.1.1"}
}
4001042 = {
	name="Selyse"
	female=yes

	religion="old_gods"
	culture="old_first_man"

	6474.1.1 = {birth="6474.1.1"}
	6548.1.1 = {death="6548.1.1"}
}
3002042 = {
	name="Jon"	# not a lord
	dynasty=42

	religion="old_gods"
	culture="old_first_man"

	father=3000042
	mother=4000042

	6478.1.1 = {birth="6478.1.1"}
	6494.1.1 = {add_trait=brave add_trait=poor_warrior}
	6525.1.1 = {death="6525.1.1"}
}
3003042 = {
	name="Aurane"	# not a lord
	dynasty=42

	religion="old_gods"
	culture="old_first_man"

	father=3000042
	mother=4000042

	6480.1.1 = {birth="6480.1.1"}
	6496.1.1 = {add_trait=brave add_trait=trained_warrior}
	6535.1.1 = {death="6535.1.1"}
}
3004042 = {
	name="Ermesande"	# not a lord
	female=yes
	dynasty=42

	religion="old_gods"
	culture="old_first_man"

	father=3000042
	mother=4000042

	6482.1.1 = {birth="6482.1.1"}
	6529.1.1 = {death="6529.1.1"}
}
3005042 = {
	name="Mhaegen"	# not a lord
	female=yes
	dynasty=42

	religion="old_gods"
	culture="old_first_man"

	father=3000042
	mother=4000042

	6484.1.1 = {birth="6484.1.1"}
	6520.1.1 = {death="6520.1.1"}
}
3006042 = {
	name="Matthos"	# not a lord
	dynasty=42

	religion="old_gods"
	culture="old_first_man"

	father=3001042
	mother=4001042

	6494.1.1 = {birth="6494.1.1"}
	6510.1.1 = {add_trait=trained_warrior}
	6512.1.1 = {add_spouse=4006042}
	6517.1.1 = {death="6517.1.1"}
}
4006042 = {
	name="Leyla"
	female=yes

	religion="old_gods"
	culture="old_first_man"

	6494.1.1 = {birth="6494.1.1"}
	6537.1.1 = {death="6537.1.1"}
}
3007042 = {
	name="Balman"	# not a lord
	dynasty=42

	religion="old_gods"
	culture="old_first_man"

	father=3001042
	mother=4001042

	6496.1.1 = {birth="6496.1.1"}
	6512.1.1 = {add_trait=brave add_trait=skilled_warrior}
	6540.1.1 = {death="6540.1.1"}
}
3008042 = {
	name="Lollys"	# not a lord
	female=yes
	dynasty=42

	religion="old_gods"
	culture="old_first_man"

	father=3001042
	mother=4001042

	6498.1.1 = {birth="6498.1.1"}
	6554.1.1 = {death="6554.1.1"}
}
3009042 = {
	name="Gwayne"	# a lord
	dynasty=42

	religion="old_gods"
	culture="old_first_man"

	father=3006042
	mother=4006042

	6515.1.1 = {birth="6515.1.1"}
	6531.1.1 = {add_trait=brave add_trait=skilled_warrior}
	6533.1.1 = {add_spouse=4009042}
	6556.1.1 = {death = {death_reason = death_accident}}
}
4009042 = {
	name="Alerie"
	female=yes

	religion="old_gods"
	culture="old_first_man"

	6515.1.1 = {birth="6515.1.1"}
	6556.1.1 = {death="6556.1.1"}
}
3010042 = {
	name="Jon"	# not a lord
	dynasty=42

	religion="old_gods"
	culture="old_first_man"

	father=3006042
	mother=4006042

	6516.1.1 = {birth="6516.1.1"}
	6532.1.1 = {add_trait=brave add_trait=trained_warrior}
	6571.1.1 = {death="6571.1.1"}
}
3011042 = {
	name="Allar"	# not a lord
	dynasty=42

	religion="old_gods"
	culture="old_first_man"

	father=3009042
	mother=4009042

	6534.1.1 = {birth="6534.1.1"}
	6538.1.1 = {death = {death_reason = death_accident}}
}
3012042 = {
	name="Melicent"	# not a lord
	female=yes
	dynasty=42

	religion="old_gods"
	culture="old_first_man"

	father=3009042
	mother=4009042

	6537.1.1 = {birth="6537.1.1"}
	6573.1.1 = {death="6573.1.1"}
}
3013042 = {
	name="Belis"	# a lord
	dynasty=42

	religion="old_gods"
	culture="old_first_man"

	father=3009042
	mother=4009042

	6538.1.1 = {birth="6538.1.1"}
	6554.1.1 = {add_trait=brave add_trait=trained_warrior}
	6556.1.1 = {add_spouse=4013042}
	6581.1.1 = {death="6581.1.1"}
}
4013042 = {
	name="Moelle"
	female=yes

	religion="old_gods"
	culture="old_first_man"

	6538.1.1 = {birth="6538.1.1"}
	6581.1.1 = {death="6581.1.1"}
}
3014042 = {
	name="Marya"	# not a lord
	female=yes
	dynasty=42

	religion="old_gods"
	culture="old_first_man"

	father=3009042
	mother=4009042

	6541.1.1 = {birth="6541.1.1"}
	6591.1.1 = {death="6591.1.1"}
}
3015042 = {
	name="Corenna"	# not a lord
	female=yes
	dynasty=42

	religion="old_gods"
	culture="old_first_man"

	father=3013042
	mother=4013042

	6569.1.1 = {birth="6569.1.1"}
	6629.1.1 = {death="6629.1.1"}
}
3016042 = {
	name="Donyse"	# not a lord
	female=yes
	dynasty=42

	religion="old_gods"
	culture="old_first_man"

	father=3013042
	mother=4013042

	6571.1.1 = {birth="6571.1.1"}
	6614.1.1 = {death="6614.1.1"}
}
3017042 = {
	name="Hubard"	# a lord
	dynasty=42

	religion="old_gods"
	culture="old_first_man"

	father=3013042
	mother=4013042

	6573.1.1 = {birth="6573.1.1"}
	6589.1.1 = {add_trait=brave add_trait=poor_warrior}
	6591.1.1 = {add_spouse=4017042}
	6628.1.1 = {death="6628.1.1"}
}
4017042 = {
	name="Moelle"
	female=yes

	religion="old_gods"
	culture="old_first_man"

	6573.1.1 = {birth="6573.1.1"}
	6628.1.1 = {death="6628.1.1"}
}
3019042 = {
	name="Dale"	# not a lord
	dynasty=42

	religion="old_gods"
	culture="old_first_man"

	father=3013042
	mother=4013042

	6579.1.1 = {birth="6579.1.1"}
	6595.1.1 = {add_trait=poor_warrior}
	6620.1.1 = {death = {death_reason = death_accident}}
}
3020042 = {
	name="Clement"	# not a lord
	dynasty=42

	religion="old_gods"
	culture="old_first_man"

	father=3017042
	mother=4017042

	6602.1.1 = {birth="6602.1.1"}
	6618.1.1 = {add_trait=brave add_trait=trained_warrior}
	6620.1.1 = {add_spouse=4020042}
	6626.1.1 = {death = {death_reason = death_battle}}
}
4020042 = {
	name="Roelle"
	female=yes

	religion="old_gods"
	culture="old_first_man"

	6602.1.1 = {birth="6602.1.1"}
	6626.1.1 = {death="6626.1.1"}
}
3021042 = {
	name="Symon"	# not a lord
	dynasty=42

	religion="old_gods"
	culture="old_first_man"

	father=3017042
	mother=4017042

	6603.1.1 = {birth="6603.1.1"}
	6619.1.1 = {add_trait=brave add_trait=poor_warrior}
	6628.1.1 = {death="6628.1.1"}
}
3022042 = {
	name="Bryen"	# a lord
	dynasty=42

	religion="old_gods"
	culture="old_first_man"

	father=3020042
	mother=4020042

	6622.1.1 = {birth="6622.1.1"}
	6638.1.1 = {add_trait=poor_warrior}
	6640.1.1 = {add_spouse=4022042}
	6675.1.1 = {death="6675.1.1"}
}
4022042 = {
	name="Bethany"
	female=yes

	religion="old_gods"
	culture="old_first_man"

	6622.1.1 = {birth="6622.1.1"}
	6675.1.1 = {death="6675.1.1"}
}
3023042 = {
	name="Leona"	# not a lord
	female=yes
	dynasty=42

	religion="old_gods"
	culture="old_first_man"

	father=3020042
	mother=4020042

	6625.1.1 = {birth="6625.1.1"}
	6664.1.1 = {death="6664.1.1"}
}
3024042 = {
	name="Moelle"	# not a lord
	female=yes
	dynasty=42

	religion="old_gods"
	culture="old_first_man"

	father=3022042
	mother=4022042

	6645.1.1 = {birth="6645.1.1"}
	6703.1.1 = {death = {death_reason = death_accident}}
}
3025042 = {
	name="Boros"	# a lord
	dynasty=42

	religion="old_gods"
	culture="old_first_man"

	father=3022042
	mother=4022042

	6648.1.1 = {birth="6648.1.1"}
	6664.1.1 = {add_trait=brave add_trait=poor_warrior}
	6666.1.1 = {add_spouse=4025042}
	6689.1.1 = {death="6689.1.1"}
}
4025042 = {
	name="Dalla"
	female=yes

	religion="old_gods"
	culture="old_first_man"

	6648.1.1 = {birth="6648.1.1"}
	6689.1.1 = {death="6689.1.1"}
}
3026042 = {
	name="Lollys"	# not a lord
	female=yes
	dynasty=42

	religion="old_gods"
	culture="old_first_man"

	father=3022042
	mother=4022042

	6650.1.1 = {birth="6650.1.1"}
	6704.1.1 = {death="6704.1.1"}
}
3027042 = {
	name="Senelle"	# not a lord
	female=yes
	dynasty=42

	religion="old_gods"
	culture="old_first_man"

	father=3022042
	mother=4022042

	6651.1.1 = {birth="6651.1.1"}
	6673.1.1 = {death="6673.1.1"}
}
3028042 = {
	name="Rolland"	# a lord
	dynasty=42

	religion="old_gods"
	culture="old_first_man"

	father=3025042
	mother=4025042

	6668.1.1 = {birth="6668.1.1"}
	6684.1.1 = {add_trait=brave add_trait=poor_warrior}
	6686.1.1 = {add_spouse=4028042}
	6709.1.1 = {death="6709.1.1"}
}
4028042 = {
	name="Eglantine"
	female=yes

	religion="old_gods"
	culture="old_first_man"

	6668.1.1 = {birth="6668.1.1"}
	6709.1.1 = {death="6709.1.1"}
}



#House Crabb#
60001197 = {
	name="Ferret"	# a lord
	dynasty=1197

	religion="old_gods"
	culture="old_first_man"

	6415.1.1 = {birth="6415.1.1"}
	6431.1.1 = {add_trait=brave add_trait=poor_warrior}
	6433.1.1 = {add_spouse=50001197}
	6488.1.1 = {death="6488.1.1"}
}
50001197 = {
	name="Leonette"
	female=yes

	religion="old_gods"
	culture="old_first_man"

	6415.1.1 = {birth="6415.1.1"}
	6488.1.1 = {death="6488.1.1"}
}
60011197 = {
	name="Gendry"	# a lord
	dynasty=1197

	religion="old_gods"
	culture="old_first_man"

	father=60001197
	mother=50001197

	6434.1.1 = {birth="6434.1.1"}
	6450.1.1 = {add_trait=skilled_warrior}
	6452.1.1 = {add_spouse=50011197}
	6510.1.1 = {death="6510.1.1"}
}
50011197 = {
	name="Leona"
	female=yes

	religion="old_gods"
	culture="old_first_man"

	6434.1.1 = {birth="6434.1.1"}
	6510.1.1 = {death="6510.1.1"}
}
60021197 = {
	name="Balman"	# not a lord
	dynasty=1197

	religion="old_gods"
	culture="old_first_man"

	father=60001197
	mother=50001197

	6435.1.1 = {birth="6435.1.1"}
	6446.1.1 = {death="6446.1.1"}
}
60031197 = {
	name="Lothor"	# not a lord
	dynasty=1197

	religion="old_gods"
	culture="old_first_man"

	father=60001197
	mother=50001197

	6436.1.1 = {birth="6436.1.1"}
	6452.1.1 = {add_trait=trained_warrior}
	6474.1.1 = {death="6474.1.1"}
}
60041197 = {
	name="Eglantine"	# not a lord
	female=yes
	dynasty=1197

	religion="old_gods"
	culture="old_first_man"

	father=60001197
	mother=50001197

	6437.1.1 = {birth="6437.1.1"}
	6490.1.1 = {death="6490.1.1"}
}
60051197 = {
	name="Falena"	# not a lord
	female=yes
	dynasty=1197

	religion="old_gods"
	culture="old_first_man"

	father=60001197
	mother=50001197

	6438.1.1 = {birth="6438.1.1"}
	6498.1.1 = {death="6498.1.1"}
}
60061197 = {
	name="Monford"	# not a lord
	dynasty=1197

	religion="old_gods"
	culture="old_first_man"

	father=60011197
	mother=50011197

	6461.1.1 = {birth="6461.1.1"}
	6477.1.1 = {add_trait=brave add_trait=skilled_warrior}
	6479.1.1 = {add_spouse=50061197}
	6504.1.1 = {death="6504.1.1"}
}
50061197 = {
	name="Denyse"
	female=yes

	religion="old_gods"
	culture="old_first_man"

	6461.1.1 = {birth="6461.1.1"}
	6504.1.1 = {death="6504.1.1"}
}
60071197 = {
	name="Brella"	# not a lord
	female=yes
	dynasty=1197

	religion="old_gods"
	culture="old_first_man"

	father=60011197
	mother=50011197

	6463.1.1 = {birth="6463.1.1"}
	6529.1.1 = {death="6529.1.1"}
}
60091197 = {
	name="Alyce"	# not a lord
	female=yes
	dynasty=1197

	religion="old_gods"
	culture="old_first_man"

	father=60061197
	mother=50061197

	6488.1.1 = {birth="6488.1.1"}
	6522.1.1 = {death="6522.1.1"}
}
60101197 = {
	name="Duncan"	# a lord
	dynasty=1197

	religion="old_gods"
	culture="old_first_man"

	father=60061197
	mother=50061197

	6491.1.1 = {birth="6491.1.1"}
	6507.1.1 = {add_trait=brave add_trait=trained_warrior}
	6515.1.1 = {death="6515.1.1"}
}
60111197 = {
	name="Gyles"	# a lord
	dynasty=1197

	religion="old_gods"
	culture="old_first_man"

	father=60061197
	mother=50061197

	6493.1.1 = {birth="6493.1.1"}
	6509.1.1 = {add_trait=brave add_trait=poor_warrior}
	6511.1.1 = {add_spouse=50111197}
	6558.1.1 = {death="6558.1.1"}
}
50111197 = {
	name="Cyrenna"
	female=yes

	religion="old_gods"
	culture="old_first_man"

	6493.1.1 = {birth="6493.1.1"}
	6558.1.1 = {death="6558.1.1"}
}
60121197 = {
	name="Clayton"	# a lord
	dynasty=1197

	religion="old_gods"
	culture="old_first_man"

	father=60111197
	mother=50111197

	6520.1.1 = {birth="6520.1.1"}
	6536.1.1 = {add_trait=brave add_trait=poor_warrior}
	6538.1.1 = {add_spouse=50121197}
	6580.1.1 = {death="6580.1.1"}
}
50121197 = {
	name="Tanda"
	female=yes

	religion="old_gods"
	culture="old_first_man"

	6520.1.1 = {birth="6520.1.1"}
	6580.1.1 = {death="6580.1.1"}
}
60131197 = {
	name="Corenna"	# not a lord
	female=yes
	dynasty=1197

	religion="old_gods"
	culture="old_first_man"

	father=60111197
	mother=50111197

	6522.1.1 = {birth="6522.1.1"}
	6587.1.1 = {death="6587.1.1"}
}
60141197 = {
	name="Jonquil"	# not a lord
	female=yes
	dynasty=1197

	religion="old_gods"
	culture="old_first_man"

	father=60111197
	mother=50111197

	6524.1.1 = {birth="6524.1.1"}
	6574.1.1 = {death="6574.1.1"}
}
60151197 = {
	name="Lia"	# not a lord
	female=yes
	dynasty=1197

	religion="old_gods"
	culture="old_first_man"

	father=60111197
	mother=50111197

	6525.1.1 = {birth="6525.1.1"}
	6565.1.1 = {death="6565.1.1"}
}
60161197 = {
	name="Leona"	# not a lord
	female=yes
	dynasty=1197

	religion="old_gods"
	culture="old_first_man"

	father=60111197
	mother=50111197

	6528.1.1 = {birth="6528.1.1"}
	6569.1.1 = {death="6569.1.1"}
}
60171197 = {
	name="Alerie"	# not a lord
	female=yes
	dynasty=1197

	religion="old_gods"
	culture="old_first_man"

	father=60121197
	mother=50121197

	6540.1.1 = {birth="6540.1.1"}
	6589.1.1 = {death="6589.1.1"}
}
60181197 = {
	name="Cyrenna"	# not a lord
	female=yes
	dynasty=1197

	religion="old_gods"
	culture="old_first_man"

	father=60121197
	mother=50121197

	6543.1.1 = {birth="6543.1.1"}
	6603.1.1 = {death="6603.1.1"}
}
60191197 = {
	name="Triston"	# a lord
	dynasty=1197

	religion="old_gods"
	culture="old_first_man"

	father=60121197
	mother=50121197

	6546.1.1 = {birth="6546.1.1"}
	6562.1.1 = {add_trait=brave add_trait=trained_warrior}
	6564.1.1 = {add_spouse=50191197}
	6587.1.1 = {death="6587.1.1"}
}
50191197 = {
	name="Bethany"
	female=yes

	religion="old_gods"
	culture="old_first_man"

	6546.1.1 = {birth="6546.1.1"}
	6587.1.1 = {death="6587.1.1"}
}
60201197 = {
	name="Eglantine"	# not a lord
	female=yes
	dynasty=1197

	religion="old_gods"
	culture="old_first_man"

	father=60121197
	mother=50121197

	6549.1.1 = {birth="6549.1.1"}
	6581.1.1 = {death="6581.1.1"}
}
60211197 = {
	name="Jaremy"	# a lord
	dynasty=1197

	religion="old_gods"
	culture="old_first_man"

	father=60191197
	mother=50191197

	6578.1.1 = {birth="6578.1.1"}
	6594.1.1 = {add_trait=brave add_trait=poor_warrior}
	6596.1.1 = {add_spouse=50211197}
	6638.1.1 = {death="6638.1.1"}
}
50211197 = {
	name="Corenna"
	female=yes

	religion="old_gods"
	culture="old_first_man"

	6578.1.1 = {birth="6578.1.1"}
	6638.1.1 = {death="6638.1.1"}
}
60221197 = {
	name="Belgrave"	# a lord
	dynasty=1197

	religion="old_gods"
	culture="old_first_man"

	father=60211197
	mother=50211197

	6600.1.1 = {birth="6600.1.1"}
	6616.1.1 = {add_trait=brave add_trait=poor_warrior}
	6618.1.1 = {add_spouse=50221197}
	6659.1.1 = {death="6659.1.1"}
}
50221197 = {
	name="Dalla"
	female=yes

	religion="old_gods"
	culture="old_first_man"

	6600.1.1 = {birth="6600.1.1"}
	6659.1.1 = {death="6659.1.1"}
}
60231197 = {
	name="Pate"	# not a lord
	dynasty=1197

	religion="old_gods"
	culture="old_first_man"

	father=60211197
	mother=50211197

	6601.1.1 = {birth="6601.1.1"}
	6619.1.1 = {add_spouse=50231197}
	6634.1.1 = {death="6634.1.1"}
}
50231197 = {
	name="Bethany"
	female=yes

	religion="old_gods"
	culture="old_first_man"

	6601.1.1 = {birth="6601.1.1"}
	6656.1.1 = {death="6656.1.1"}
}
60241197 = {
	name="Simon"	# not a lord
	dynasty=1197

	religion="old_gods"
	culture="old_first_man"

	father=60231197
	mother=50231197

	6622.1.1 = {birth="6622.1.1"}
	6638.1.1 = {add_trait=poor_warrior}
	6680.1.1 = {death="6680.1.1"}
}
60251197 = {
	name="Janos"	# not a lord
	dynasty=1197

	religion="old_gods"
	culture="old_first_man"

	father=60231197
	mother=50231197

	6628.1.1 = {birth="6628.1.1"}
	6644.1.1 = {add_trait=poor_warrior}
	6707.1.1 = {death="6707.1.1"}
}
60271197 = {
	name="Bryen"	# not a lord
	dynasty=1197

	religion="old_gods"
	culture="old_first_man"

	father=60221197
	mother=50221197

	6618.1.1 = {birth="6618.1.1"}
	6634.1.1 = {add_trait=poor_warrior}
	6636.1.1 = {add_spouse=50271197}
	6659.1.1 = {death="6659.1.1"}
}
50271197 = {
	name="Mylenda"
	female=yes

	religion="old_gods"
	culture="old_first_man"

	6618.1.1 = {birth="6618.1.1"}
	6659.1.1 = {death="6659.1.1"}
}
60291197 = {
	name="Devan"	# a lord
	dynasty=1197

	religion="old_gods"
	culture="old_first_man"

	father=60271197
	mother=50271197

	6644.1.1 = {birth="6644.1.1"}
	6660.1.1 = {add_trait=poor_warrior}
	6662.1.1 = {add_spouse=50291197}
	6681.1.1 = {death="6681.1.1"}
}
50291197 = {
	name="Marei"
	female=yes

	religion="old_gods"
	culture="old_first_man"

	6644.1.1 = {birth="6644.1.1"}
	6691.1.1 = {death="6691.1.1"}
}
60301197 = {
	name="Alys"	# not a lord
	female=yes
	dynasty=1197

	religion="old_gods"
	culture="old_first_man"

	father=60291197
	mother=50291197

	6668.1.1 = {birth="6668.1.1"}
	6708.1.1 = {death="6708.1.1"}
}
60311197 = {
	name="Clarence"	# a lord
	dynasty=1197

	religion="old_gods"
	culture="old_first_man"

	father=60291197
	mother=50291197

	6670.1.1 = {birth="6670.1.1"}
	6686.1.1 = {add_trait=brave add_trait=trained_warrior}
	6688.1.1 = {add_spouse=50311197}
	6718.1.1 = {death="6718.1.1"}
}
50311197 = {
	name="Alys"
	female=yes

	religion="old_gods"
	culture="old_first_man"

	6670.1.1 = {birth="6670.1.1"}
	6718.1.1 = {death="6718.1.1"}
}
60321197 = {
	name="Alerie"	# not a lord
	female=yes
	dynasty=1197

	religion="old_gods"
	culture="old_first_man"

	father=60291197
	mother=50291197

	6675.1.1 = {birth="6675.1.1"}
	6735.1.1 = {death="6735.1.1"}
}
60331197 = {
	name="Wallace"	# a lord
	dynasty=1197

	religion="old_gods"
	culture="old_first_man"

	father=60311197
	mother=50311197

	6690.1.1 = {birth="6690.1.1"}
	6706.1.1 = {add_trait=poor_warrior}
	6708.1.1 = {add_spouse=50331197}
	6747.1.1 = {death="6747.1.1"}
}
50331197 = {
	name="Leonette"
	female=yes

	religion="old_gods"
	culture="old_first_man"

	6690.1.1 = {birth="6690.1.1"}
	6747.1.1 = {death="6747.1.1"}
}
60341197 = {
	name="Alerie"	# not a lord
	female=yes
	dynasty=1197

	religion="old_gods"
	culture="old_first_man"

	father=60331197
	mother=50331197

	6717.1.1 = {birth="6717.1.1"}
	6760.1.1 = {death="6760.1.1"}
}
60351197 = {
	name="Talla"	# not a lord
	female=yes
	dynasty=1197

	religion="old_gods"
	culture="old_first_man"

	father=60331197
	mother=50331197

	6720.1.1 = {birth="6720.1.1"}
	6741.1.1 = {death="6741.1.1"}
}
60361197 = {
	name="Lucifer"	# a lord
	dynasty=1197

	religion="old_gods"
	culture="old_first_man"

	father=60331197
	mother=50331197

	6723.1.1 = {birth="6723.1.1"}
	6739.1.1 = {add_trait=brave add_trait=trained_warrior}
	6741.1.1 = {add_spouse=50361197}
	6785.1.1 = {death="6785.1.1"}
}
50361197 = {
	name="Matrice"
	female=yes

	religion="old_gods"
	culture="old_first_man"

	6723.1.1 = {birth="6723.1.1"}
	6785.1.1 = {death="6785.1.1"}
}
#line for Dick
1551197 = {
	name="Richard"	# a lord
	dynasty=1197

	religion="old_gods"
	culture="old_first_man"

	father=60311197
	mother=50311197

	6693.1.1 = {birth="6693.1.1"}
	6709.1.1 = {add_trait=poor_warrior}
	6748.1.1 = {death="6748.1.1"}
}
1561197 = {
	name="Clarence"	# a lord
	dynasty=1197

	religion="old_gods"
	culture="old_first_man"

	father=1551197

	6718.1.1 = {birth="6718.1.1"}
	6734.1.1 = {add_trait=poor_warrior}
	6759.1.1 = {death="6759.1.1"}
}


####  House Boggs

302174410 = {
	name="Denys"
	dynasty=174410

	religion="old_gods"
	culture="old_first_man"

	father=303174410
	
	6680.1.1 = {birth="6680.1.1"}
	6732.1.1 = {death="6732.1.1"}
}
303174410 = {
	name="Mortimer"
	dynasty=174410

	religion="old_gods"
	culture="old_first_man"

	father=304174410
	
	6657.1.1 = {birth="6657.1.1"}
	6673.1.1 = {add_trait="brave"}
	6693.1.1 = {death="6693.1.1"}
}
304174410 = {
	name="Florian"
	dynasty=174410

	religion="old_gods"
	culture="old_first_man"

	father=305174410
	
	6632.1.1 = {birth="6632.1.1"}
	6674.1.1 = {death="6674.1.1"}
}
305174410 = {
	name="Symon"
	dynasty=174410

	religion="old_gods"
	culture="old_first_man"

	father=306174410
	
	6601.1.1 = {birth="6601.1.1"}
	6654.1.1 = {death="6654.1.1"}
}
306174410 = {
	name="Perkin"
	dynasty=174410

	religion="old_gods"
	culture="old_first_man"

	father=307174410
	
	6579.1.1 = {birth="6579.1.1"}
	6630.1.1 = {death="6630.1.1"}
}
307174410 = {
	name="Triston"
	dynasty=174410

	religion="old_gods"
	culture="old_first_man"

	father=308174410
	
	6559.1.1 = {birth="6559.1.1"}
	6601.1.1 = {death="6601.1.1"}
}
308174410 = {
	name="Dale"
	dynasty=174410

	religion="old_gods"
	culture="old_first_man"

	father=310174410
	
	6534.1.1 = {birth="6534.1.1"}
	6575.1.1 = {death="6575.1.1"}
}
310174410 = {
	name="Allar"
	dynasty=174410

	religion="old_gods"
	culture="old_first_man"

	father=311174410
	
	6510.1.1 = {birth="6510.1.1"}
	6554.1.1 = {death="6554.1.1"}
}
311174410 = {
	name="Humfrey"
	dynasty=174410

	religion="old_gods"
	culture="old_first_man"

	father=313174410
	
	6491.1.1 = {birth="6491.1.1"}
	6530.1.1 = {death="6530.1.1"}
}
312174410 = {
	name="Davos"
	dynasty=174410

	religion="old_gods"
	culture="old_first_man"
	
	6446.1.1 = {birth="6446.1.1"}
	6489.1.1 = {death="6489.1.1"}
}
313174410 = {
	name="Guncer"
	dynasty=174410

	religion="old_gods"
	culture="old_first_man"

	father=312174410
	
	6469.1.1 = {birth="6469.1.1"}
	6505.1.1 = {death="6505.1.1"}
}


###House Pyne (174412)

302174412 = {
	name="Duncan"
	dynasty=174412

	religion="old_gods"
	culture="old_first_man"

	father=303174412
	
	6680.1.1 = {birth="6680.1.1"}
	6732.1.1 = {death="6732.1.1"}
}
303174412 = {
	name="Bennard"
	dynasty=174412

	religion="old_gods"
	culture="old_first_man"

	father=304174412
	
	6657.1.1 = {birth="6657.1.1"}
	6693.1.1 = {death="6693.1.1"}
}
304174412 = {
	name="Osney"
	dynasty=174412

	religion="old_gods"
	culture="old_first_man"

	father=305174412
	
	6632.1.1 = {birth="6632.1.1"}
	6674.1.1 = {death="6674.1.1"}
}
305174412 = {
	name="Roger"
	dynasty=174412

	religion="old_gods"
	culture="old_first_man"

	father=306174412
	
	6601.1.1 = {birth="6601.1.1"}
	6654.1.1 = {death="6654.1.1"}
}
306174412 = {
	name="Lucos"
	dynasty=174412

	religion="old_gods"
	culture="old_first_man"

	father=307174412
	
	6579.1.1 = {birth="6579.1.1"}
	6630.1.1 = {death="6630.1.1"}
}
307174412 = {
	name="Crispian"
	dynasty=174412

	religion="old_gods"
	culture="old_first_man"

	father=308174412
	
	6559.1.1 = {birth="6559.1.1"}
	6601.1.1 = {death="6601.1.1"}
}
308174412 = {
	name="Godry"
	dynasty=174412

	religion="old_gods"
	culture="old_first_man"

	father=310174412
	
	6534.1.1 = {birth="6534.1.1"}
	6575.1.1 = {death="6575.1.1"}
}
310174412 = {
	name="Belis"
	dynasty=174412

	religion="old_gods"
	culture="old_first_man"

	father=311174412
	
	6510.1.1 = {birth="6510.1.1"}
	6554.1.1 = {death="6554.1.1"}
}
311174412 = {
	name="Rennifer"
	dynasty=174412

	religion="old_gods"
	culture="old_first_man"

	father=313174412
	
	6491.1.1 = {birth="6491.1.1"}
	6530.1.1 = {death="6530.1.1"}
}
312174412 = {
	name="Jacelyn"
	dynasty=174412

	religion="old_gods"
	culture="old_first_man"
	
	6446.1.1 = {birth="6446.1.1"}
	6489.1.1 = {death="6489.1.1"}
}
313174412 = {
	name="Will"
	dynasty=174412

	religion="old_gods"
	culture="old_first_man"

	father=312174412
	
	6469.1.1 = {birth="6469.1.1"}
	6505.1.1 = {death="6505.1.1"}
}


####  House Cave

302174411 = {
	name="Robin"
	dynasty=174411

	religion="old_gods"
	culture="old_first_man"

	father=303174411
	
	6679.1.1 = {birth="6679.1.1"}
	6732.1.1 = {death="6732.1.1"}
}
303174411 = {
	name="Mortimer"
	dynasty=174411

	religion="old_gods"
	culture="old_first_man"

	father=304174411
	
	6656.1.1 = {birth="6656.1.1"}
	6693.1.1 = {death="6693.1.1"}
}
304174411 = {
	name="Clement"
	dynasty=174411

	religion="old_gods"
	culture="old_first_man"

	father=305174411
	
	6631.1.1 = {birth="6631.1.1"}
	6674.1.1 = {death="6674.1.1"} 
}
305174411 = {
	name="Crispian"
	dynasty=174411

	religion="old_gods"
	culture="old_first_man"

	father=306174411
	
	6600.1.1 = {birth="6600.1.1"}
	6654.1.1 = {death="6654.1.1"}
}
306174411 = {
	name="Alan"
	dynasty=174411

	religion="old_gods"
	culture="old_first_man"

	father=307174411
	
	6578.1.1 = {birth="6578.1.1"}
	6630.1.1 = {death="6630.1.1"}
}
307174411 = {
	name="Jaremy"
	dynasty=174411

	religion="old_gods"
	culture="old_first_man"

	father=308174411
	
	6558.1.1 = {birth="6558.1.1"}
	6601.1.1 = {death="6601.1.1"}
}
308174411 = {
	name="Gyles"
	dynasty=174411

	religion="old_gods"
	culture="old_first_man"

	father=310174411
	
	6535.1.1 = {birth="6535.1.1"}
	6575.1.1 = {death="6575.1.1"}
}
310174411 = {
	name="Will"
	dynasty=174411

	religion="old_gods"
	culture="old_first_man"

	father=311174411
	
	6509.1.1 = {birth="6509.1.1"}
	6554.1.1 = {death="6554.1.1"}
}
311174411 = {
	name="Dobber"
	dynasty=174411

	religion="old_gods"
	culture="old_first_man"

	father=313174411
	
	6490.1.1 = {birth="6490.1.1"}
	6530.1.1 = {death="6530.1.1"}
}
312174411 = {
	name="Balman"
	dynasty=174411

	religion="old_gods"
	culture="old_first_man"
	
	6445.1.1 = {birth="6445.1.1"}
	6489.1.1 = {death="6489.1.1"}
}
313174411 = {
	name="Qarlton"
	dynasty=174411

	religion="old_gods"
	culture="old_first_man"

	father=312174411
	
	6468.1.1 = {birth="6468.1.1"}
	6505.1.1 = {death="6505.1.1"}
}


##############################################################  House Bar Emmon  ##########################################################################


150049 = {
	name="Togarion"	# Andal Warlord
	dynasty=49
	
	martial=9
	diplomacy=7
	intrigue=5
	stewardship=3
	learning=2

	religion="the_seven"
	culture="old_andal"
	
	add_trait=ambitious
	add_trait=ruthless
	add_trait=cruel
	add_trait=brilliant_strategist
	add_trait=zealous
	
	give_nickname=nick_the_terrible

	6503.1.1 = {birth="6503.1.1"}
	6519.1.1 = {add_trait=knight add_trait=skilled_warrior}
	6546.1.1 = {add_spouse=155046} #Massey
	6558.1.1 = {death="6558.1.1"}
}
3009049 = {
	name="Rorge"	# a lord
	dynasty=49

	religion="the_seven"
	culture="old_andal"

	father=150049
	mother=155046

	6548.1.1 = {birth="6548.1.1"}
	6563.1.1 = {add_spouse=4009049}
	6587.1.1 = {death="6587.1.1"}
}
4009049 = {
	name="Lia"
	female=yes

	religion="the_seven"
	culture="old_andal"

	6548.1.1 = {birth="6548.1.1"}
	6587.1.1 = {death="6587.1.1"}
}
3012049 = {
	name="Osmund"	# a lord
	dynasty=49

	religion="the_seven"
	culture="old_andal"

	father=3009049
	mother=4009049

	6565.1.1 = {birth="6565.1.1"}
	6581.1.1 = {add_trait=knight add_trait=master_warrior}
	6583.1.1 = {add_spouse=4012049}
	6602.1.1 = {death="6602.1.1"}
}
4012049 = {
	name="Lia"
	female=yes

	religion="the_seven"
	culture="old_andal"

	6565.1.1 = {birth="6565.1.1"}
	6609.1.1 = {death="6609.1.1"}
}
3013049 = {
	name="Denyse"	# not a lord
	female=yes
	dynasty=49

	religion="the_seven"
	culture="old_andal"

	father=3012049
	mother=4012049

	6598.1.1 = {birth="6598.1.1"}
	6622.1.1 = {death = {death_reason = death_battle}}
}
3014049 = {
	name="Clarence"	# a lord
	dynasty=49

	religion="the_seven"
	culture="old_andal"

	father=3012049
	mother=4012049

	6601.1.1 = {birth="6601.1.1"}
	6617.1.1 = {add_trait=knight add_trait=poor_warrior}
	6619.1.1 = {add_spouse=4014049}
	6666.1.1 = {death="6666.1.1"}
}
4014049 = {
	name="Arianne"
	female=yes

	religion="the_seven"
	culture="old_andal"

	6601.1.1 = {birth="6601.1.1"}
	6666.1.1 = {death="6666.1.1"}
}
3015049 = {
	name="Bryen"	# not a lord
	dynasty=49

	religion="the_seven"
	culture="old_andal"

	father=3014049
	mother=4014049

	6624.1.1 = {birth="6624.1.1"}
	6628.1.1 = {death = {death_reason = death_accident}}
}
3016049 = {
	name="Leonette"	# a lord
	female=yes
	dynasty=49

	religion="the_seven"
	culture="old_andal"

	father=3014049
	mother=4014049

	6627.1.1 = {birth="6627.1.1"}
	6678.1.1 = {death="6678.1.1"}
}
4016049 = {
	name="Allard"

	religion="the_seven"
	culture="old_andal"

	6627.1.1 = {birth="6627.1.1"}
	6643.1.1 = {add_trait=poor_warrior}
	6645.1.1 = {add_spouse=3016049}
	6678.1.1 = {death="6678.1.1"}
}
3017049 = {
	name="Cassana"	# not a lord
	female=yes
	dynasty=49

	religion="the_seven"
	culture="old_andal"

	father=3014049
	mother=4014049

	6629.1.1 = {birth="6629.1.1"}
	6686.1.1 = {death = {death_reason = death_execution}}
}
3018049 = {
	name="Desmera"	# not a lord
	female=yes
	dynasty=49

	religion="the_seven"
	culture="old_andal"

	father=3014049
	mother=4014049

	6631.1.1 = {birth="6631.1.1"}
	6663.1.1 = {death="6663.1.1"}
}
3019049 = {
	name="Robin"	# a lord
	dynasty=49

	religion="the_seven"
	culture="old_andal"

	father=4016049
	mother=3016049

	6661.1.1 = {birth="6661.1.1"}
	6677.1.1 = {add_trait=knight add_trait=trained_warrior}
	6679.1.1 = {add_spouse=4019049}
	6713.1.1 = {death="6713.1.1"}
}
4019049 = {
	name="Mylenda"
	female=yes

	religion="the_seven"
	culture="old_andal"

	6661.1.1 = {birth="6661.1.1"}
	6713.1.1 = {death="6713.1.1"}
}
3020049 = {
	name="Malora"	# not a lord
	female=yes
	dynasty=49

	religion="the_seven"
	culture="old_andal"

	father=3019049
	mother=4019049

	6679.1.1 = {birth="6679.1.1"}
	6726.1.1 = {death="6726.1.1"}
}
3021049 = {
	name="Ardrian"	# a lord
	dynasty=49

	religion="the_seven"
	culture="old_andal"

	father=3019049
	mother=4019049

	6681.1.1 = {birth="6681.1.1"}
	6697.1.1 = {add_trait=knight add_trait=poor_warrior}
	6699.1.1 = {add_spouse=4021049}
	6714.1.1 = { 
		add_claim=c_sharp_point
		add_trait=dead_target
	}
	6747.1.1 = {death="6747.1.1"}
}
4021049 = {
	name="Moelle"
	female=yes

	religion="the_seven"
	culture="old_andal"

	6681.1.1 = {birth="6681.1.1"}
	6747.1.1 = {death="6747.1.1"}
}
3022049 = {
	name="Marei"	# not a lord
	female=yes
	dynasty=49

	religion="the_seven"
	culture="old_andal"

	father=3021049
	mother=4021049

	6700.1.1 = {birth="6700.1.1"}
	6745.1.1 = {death="6745.1.1"}
}
3023049 = {
	name="Jacelyn"	# not a lord
	dynasty=49

	religion="the_seven"
	culture="old_andal"

	father=3021049
	mother=4021049

	6702.1.1 = {birth="6702.1.1"}
	6718.1.1 = {add_trait=poor_warrior}
	6720.1.1 = {add_spouse=4023049}
	6746.1.1 = {death="6746.1.1"}
}
4023049 = {
	name="Tanda"
	female=yes

	religion="the_seven"
	culture="old_andal"

	6702.1.1 = {birth="6702.1.1"}
	6746.1.1 = {death="6746.1.1"}
}
3024049 = {
	name="Guncer"	# not a lord
	dynasty=49

	religion="the_seven"
	culture="old_andal"

	father=3021049
	mother=4021049

	6705.1.1 = {birth="6705.1.1"}
	6721.1.1 = {death="6721.1.1"}
}
3025049 = {
	name="Barra"	# not a lord
	female=yes
	dynasty=49

	religion="the_seven"
	culture="old_andal"

	father=3021049
	mother=4021049

	6707.1.1 = {birth="6707.1.1"}
	6755.1.1 = {death="6755.1.1"}
}
3026049 = {
	name="Roger"	# not a lord
	dynasty=49

	religion="the_seven"
	culture="old_andal"

	father=3021049
	mother=4021049

	6709.1.1 = {birth="6709.1.1"}
	6715.1.1 = {death = {death_reason = death_accident}}
}