###  House Erosenes

150300540 = {
	name="Groleo"	# a lord
	dynasty=55925

	religion="weeping_lady"
	culture="lysene"

	6442.1.1 = {birth="6442.1.1"}
	6460.1.1 = {add_spouse=250300540}
	6503.1.1 = {death="6503.1.1"}
}
250300540 = {
	name="Bellonara"
	female=yes

	religion="weeping_lady"
	culture="lysene"

	6444.1.1 = {birth="6444.1.1"}
	6501.1.1 = {death="6501.1.1"}
}
100300540 = {
	name="Allequo"	# a lord
	dynasty=55925

	religion="weeping_lady"
	culture="lysene"

	father=150300540
	mother=250300540

	6461.1.1 = {birth="6461.1.1"}
	6496.1.1 = {add_trait=poor_warrior}
	6498.1.1 = {add_spouse=200300540}
	6534.1.1 = {death="6534.1.1"}
}
200300540 = {
	name="Bellonara"
	female=yes

	religion="weeping_lady"
	culture="lysene"

	6461.1.1 = {birth="6461.1.1"}
	6534.1.1 = {death="6534.1.1"}
}
101300540 = {
	name="Collio"	# a lord
	dynasty=55925

	religion="weeping_lady"
	culture="lysene"

	father=100300540
	mother=200300540

	6499.1.1 = {birth="6499.1.1"}
	6515.1.1 = {add_trait=poor_warrior}
	6517.1.1 = {add_spouse=201300540}
	6539.1.1 = {death="6539.1.1"}
}
201300540 = {
	name="Ferrega"
	female=yes

	religion="weeping_lady"
	culture="lysene"

	6499.1.1 = {birth="6499.1.1"}
	6539.1.1 = {death="6539.1.1"}
}
102300540 = {
	name="Ferrega"	# not a lord
	female=yes
	dynasty=55925

	religion="weeping_lady"
	culture="lysene"

	father=100300540
	mother=200300540

	6500.1.1 = {birth="6500.1.1"}
	6543.1.1 = {death="6543.1.1"}
}
103300540 = {
	name="Denia"	# not a lord
	female=yes
	dynasty=55925

	religion="weeping_lady"
	culture="lysene"

	father=100300540
	mother=200300540

	6501.1.1 = {birth="6501.1.1"}
	6542.1.1 = {death="6542.1.1"}
}
104300540 = {
	name="Yorka"	# not a lord
	female=yes
	dynasty=55925

	religion="weeping_lady"
	culture="lysene"

	father=101300540
	mother=201300540

	6522.1.1 = {birth="6522.1.1"}
	6570.1.1 = {death = {death_reason = death_accident}}
}
105300540 = {
	name="Lothea"	# not a lord
	female=yes
	dynasty=55925

	religion="weeping_lady"
	culture="lysene"

	father=101300540
	mother=201300540

	6523.1.1 = {birth="6523.1.1"}
	6580.1.1 = {death="6580.1.1"}
}
106300540 = {
	name="Alia"	# not a lord
	female=yes
	dynasty=55925

	religion="weeping_lady"
	culture="lysene"

	father=101300540
	mother=201300540

	6525.1.1 = {birth="6525.1.1"}
	6588.1.1 = {death="6588.1.1"}
}
107300540 = {
	name="Syrio"	# a lord
	dynasty=55925

	religion="weeping_lady"
	culture="lysene"

	father=101300540
	mother=201300540

	6526.1.1 = {birth="6526.1.1"}
	6542.1.1 = {add_trait=trained_warrior}
	6544.1.1 = {add_spouse=207300540}
	6576.1.1 = {death="6576.1.1"}
}
207300540 = {
	name="Rogga"
	female=yes

	religion="weeping_lady"
	culture="lysene"

	6526.1.1 = {birth="6526.1.1"}
	6576.1.1 = {death="6576.1.1"}
}
108300540 = {
	name="Serenei"	# not a lord
	female=yes
	dynasty=55925

	religion="weeping_lady"
	culture="lysene"

	father=101300540
	mother=201300540

	6528.1.1 = {birth="6528.1.1"}
	6581.1.1 = {death="6581.1.1"}
}
110300540 = {
	name="Pynto"	# a lord
	dynasty=55925

	religion="weeping_lady"
	culture="lysene"

	father=107300540
	mother=207300540

	6546.1.1 = {birth="6546.1.1"}
	6562.1.1 = {add_trait=trained_warrior}
	6564.1.1 = {add_spouse=210300540}
	6597.1.1 = {death="6597.1.1"}
}
210300540 = {
	name="Taena"
	female=yes

	religion="weeping_lady"
	culture="lysene"

	6546.1.1 = {birth="6546.1.1"}
	6597.1.1 = {death="6597.1.1"}
}
111300540 = {
	name="Khorane"	# a lord
	dynasty=55925

	religion="weeping_lady"
	culture="lysene"

	father=107300540
	mother=207300540

	6560.1.1 = {birth="6560.1.1"}
	6576.1.1 = {add_trait=trained_warrior}
	6588.1.1 = {add_spouse=211300540}
	6601.1.1 = {death="6601.1.1"}
}
211300540 = {
	name="Lucerre"
	female=yes

	religion="weeping_lady"
	culture="lysene"

	6560.1.1 = {birth="6560.1.1"}
	6601.1.1 = {death="6601.1.1"}
}
112300540 = {
	name="Gyleno"	# not a lord
	dynasty=55925

	religion="weeping_lady"
	culture="lysene"

	father=107300540
	mother=207300540

	6562.1.1 = {birth="6562.1.1"}
	6588.1.1 = {add_trait=poor_warrior}
	6590.1.1 = {add_spouse=212300540}
	6631.1.1 = {death="6631.1.1"}
}
212300540 = {
	name="Lothea"
	female=yes

	religion="weeping_lady"
	culture="lysene"

	6562.1.1 = {birth="6562.1.1"}
	6631.1.1 = {death="6631.1.1"}
}
113300540 = {
	name="Gylono"	# a lord
	dynasty=55925

	religion="weeping_lady"
	culture="lysene"

	father=111300540
	mother=211300540

	6592.1.1 = {birth="6592.1.1"}
	6608.1.1 = {add_trait=trained_warrior}
	6610.1.1 = {add_spouse=213300540}
	6643.1.1 = {death="6643.1.1"}
}
213300540 = {
	name="Nohia"
	female=yes

	religion="weeping_lady"
	culture="lysene"

	6592.1.1 = {birth="6592.1.1"}
	6643.1.1 = {death="6643.1.1"}
}
115300540 = {
	name="Betharios"	# not a lord
	female=yes
	dynasty=55925

	religion="weeping_lady"
	culture="lysene"

	father=111300540
	mother=211300540

	6594.1.1 = {birth="6594.1.1"}
	6653.1.1 = {death="6653.1.1"}
}
116300540 = {
	name="Moredea"	# not a lord
	female=yes
	dynasty=55925

	religion="weeping_lady"
	culture="lysene"

	father=113300540
	mother=213300540

	6612.1.1 = {birth="6612.1.1"}
	6663.1.1 = {death="6663.1.1"}
}
117300540 = {
	name="Joss"	# a lord
	dynasty=55925

	religion="weeping_lady"
	culture="lysene"

	father=113300540
	mother=213300540

	6613.1.1 = {birth="6613.1.1"}
	6629.1.1 = {add_trait=master_warrior}
	6631.1.1 = {add_spouse=217300540}
	6686.1.1 = {death="6686.1.1"}
}
217300540 = {
	name="Yna"
	female=yes

	religion="weeping_lady"
	culture="lysene"

	6613.1.1 = {birth="6613.1.1"}
	6686.1.1 = {death="6686.1.1"}
}
118300540 = {
	name="Torma"	# not a lord
	female=yes
	dynasty=55925

	religion="weeping_lady"
	culture="lysene"

	father=117300540
	mother=217300540

	6633.1.1 = {birth="6633.1.1"}
	6685.1.1 = {death="6685.1.1"}
}
119300540 = {
	name="Orbela"	# not a lord
	female=yes
	dynasty=55925

	religion="weeping_lady"
	culture="lysene"

	father=117300540
	mother=217300540

	6635.1.1 = {birth="6635.1.1"}
	6702.1.1 = {death="6702.1.1"}
}
120300540 = {
	name="Serala"	# not a lord
	female=yes
	dynasty=55925

	religion="weeping_lady"
	culture="lysene"

	father=117300540
	mother=217300540

	6637.1.1 = {birth="6637.1.1"}
	6694.1.1 = {death="6694.1.1"}
}
121300540 = {
	name="Tagganaro"	# a lord
	dynasty=55925

	religion="weeping_lady"
	culture="lysene"

	father=117300540
	mother=217300540

	6640.1.1 = {birth="6640.1.1"}
	6656.1.1 = {add_trait=poor_warrior}
	6658.1.1 = {add_spouse=221300540}
	6717.1.1 = {death="6717.1.1"}
}
221300540 = {
	name="Ferrega"
	female=yes

	religion="weeping_lady"
	culture="lysene"

	6640.1.1 = {birth="6640.1.1"}
	6717.1.1 = {death="6717.1.1"}
}
122300540 = {
	name="Jaqea"	# not a lord
	female=yes
	dynasty=55925

	religion="weeping_lady"
	culture="lysene"

	father=117300540
	mother=217300540

	6642.1.1 = {birth="6642.1.1"}
	6683.1.1 = {death="6683.1.1"}
}
124300540 = {
	name="Brusco"	# a lord
	dynasty=55925

	religion="weeping_lady"
	culture="lysene"

	father=121300540
	mother=221300540

	6668.1.1 = {birth="6668.1.1"}
	6684.1.1 = {add_trait=poor_warrior}
	6686.1.1 = {add_spouse=224300540}
	6732.1.1 = {death="6732.1.1"}
}
224300540 = {
	name="Taena"
	female=yes

	religion="weeping_lady"
	culture="lysene"

	6668.1.1 = {birth="6668.1.1"}
	6732.1.1 = {death="6732.1.1"}
}
125300540 = {
	name="Ternesia"	# not a lord
	female=yes
	dynasty=55925

	religion="weeping_lady"
	culture="lysene"

	father=121300540
	mother=221300540

	6670.1.1 = {birth="6670.1.1"}
	6747.1.1 = {death="6747.1.1"}
}
126300540 = {
	name="Betharios"	# not a lord
	female=yes
	dynasty=55925

	religion="weeping_lady"
	culture="lysene"

	father=121300540
	mother=221300540

	6673.1.1 = {birth="6673.1.1"}
	6730.1.1 = {death="6730.1.1"}
}
127300540 = {
	name="Ternesio"	# a lord
	dynasty=55925

	religion="weeping_lady"
	culture="lysene"

	father=124300540
	mother=224300540

	6696.1.1 = {birth="6696.1.1"}
	6712.1.1 = {add_trait=trained_warrior}
	6714.1.1 = {add_spouse=227300540}
	6748.1.1 = {death = {death_reason = death_accident}}
}
227300540 = {
	name="Syrea"
	female=yes

	religion="weeping_lady"
	culture="lysene"

	6696.1.1 = {birth="6696.1.1"}
	6740.1.1 = {death="6740.1.1"}
}
128300540 = {
	name="Allaquo"	# not a lord
	dynasty=55925
	
	martial = 10

	religion="weeping_lady"
	culture="lysene"

	father=124300540
	mother=224300540
	
	add_trait = ambitious

	6699.1.1 = {birth="6699.1.1"}
	6715.1.1 = {add_trait=trained_warrior}
	6751.1.1 = {death="6751.1.1"}
}
129300540 = {
	name="Ternesia"	# not a lord
	female=yes
	dynasty=55925

	religion="weeping_lady"
	culture="lysene"

	father=127300540
	mother=227300540

	6714.1.1 = {birth="6714.1.1"}
	6757.1.1 = {death = {death_reason = death_accident}}
}
2003994 = {
	name="Orbello"
	dynasty=55925 

	culture="lysene"
	religion="weeping_lady"

	father=127300540
	mother=227300540

	6737.1.1 = {birth="6737.1.1"}
	6759.1.1 = {add_spouse=21003994}
}
21003994 = {
	name="Taeneyrs"
	female=yes

	culture="lysene"
	religion="weeping_lady"

	6737.1.1 = {birth="6737.1.1"}
}
2013994 = {
	name="Tregar"
	dynasty=55925 

	culture="lysene"
	religion="weeping_lady"

	father=2003994
	mother=21003994

	6762.1.1 = {birth="6762.1.1"}
}
2023994 = {
	name="Sharako"
	dynasty=55925 

	culture="lysene"
	religion="weeping_lady"

	father=2003994
	mother=21003994

	6766.1.1 = {birth="6766.1.1"}
}
###  House Ormollen

11001386 = {
	name="Doniphos"	# a lord
	dynasty=1386

	religion="weeping_lady"
	culture="lysene"

	6437.1.1 = {birth="6437.1.1"}
	6453.1.1 = {add_spouse=21001386}
	6505.1.1 = {death="6505.1.1"}
}
21001386 = {
	name="Serenie"
	female=yes

	religion="weeping_lady"
	culture="lysene"

	6442.1.1 = {birth="6442.1.1"}
	6507.1.1 = {death="6507.1.1"}
}
10001386 = {
	name="Sullhiem"	# a lord
	dynasty=1386

	religion="weeping_lady"
	culture="lysene"

	father=11001386
	mother=21001386

	6462.1.1 = {birth="6462.1.1"}
	6494.1.1 = {add_trait=poor_warrior}
	6496.1.1 = {add_spouse=20001386}
	6541.1.1 = {death="6541.1.1"}
}
20001386 = {
	name="Terrios"
	female=yes

	religion="weeping_lady"
	culture="lysene"

	6462.1.1 = {birth="6462.1.1"}
	6541.1.1 = {death="6541.1.1"}
}
10011386 = {
	name="Lothea"	# not a lord
	female=yes
	dynasty=1386

	religion="weeping_lady"
	culture="lysene"

	father=10001386
	mother=20001386

	6500.1.1 = {birth="6500.1.1"}
	6550.1.1 = {death="6550.1.1"}
}
10021386 = {
	name="Tagganaro"	# a lord
	dynasty=1386

	religion="weeping_lady"
	culture="lysene"

	father=10001386
	mother=20001386

	6502.1.1 = {birth="6502.1.1"}
	6518.1.1 = {add_trait=poor_warrior}
	6544.1.1 = {death="6544.1.1"}
}
10031386 = {
	name="Luco"	# not a lord
	dynasty=1386

	religion="weeping_lady"
	culture="lysene"

	father=10001386
	mother=20001386

	6504.1.1 = {birth="6504.1.1"}
	6520.1.1 = {add_trait=poor_warrior}
	6522.1.1 = {add_spouse=20031386}
	6545.1.1 = {death="6545.1.1"}
}
20031386 = {
	name="Betharios"
	female=yes

	religion="weeping_lady"
	culture="lysene"

	6504.1.1 = {birth="6504.1.1"}
	6545.1.1 = {death="6545.1.1"}
}
10041386 = {
	name="Cossoma"	# not a lord
	female=yes
	dynasty=1386

	religion="weeping_lady"
	culture="lysene"

	father=10001386
	mother=20001386

	6507.1.1 = {birth="6507.1.1"}
	6558.1.1 = {death="6558.1.1"}
}
10051386 = {
	name="Lucerre"	# not a lord
	female=yes
	dynasty=1386

	religion="weeping_lady"
	culture="lysene"

	father=10031386
	mother=20031386

	6529.1.1 = {birth="6529.1.1"}
	6609.1.1 = {death="6609.1.1"}
}
10061386 = {
	name="Qarro"	# a lord
	dynasty=1386

	religion="weeping_lady"
	culture="lysene"

	father=10031386
	mother=20031386

	6530.1.1 = {birth="6530.1.1"}
	6546.1.1 = {add_trait=poor_warrior}
	6548.1.1 = {add_spouse=20061386}
	6590.1.1 = {death="6590.1.1"}
}
20061386 = {
	name="Izembara"
	female=yes

	religion="weeping_lady"
	culture="lysene"

	6530.1.1 = {birth="6530.1.1"}
	6590.1.1 = {death="6590.1.1"}
}
10071386 = {
	name="Terrios"	# not a lord
	female=yes
	dynasty=1386

	religion="weeping_lady"
	culture="lysene"

	father=10031386
	mother=20031386

	6532.1.1 = {birth="6532.1.1"}
	6574.1.1 = {death="6574.1.1"}
}
10081386 = {
	name="Joss"	# not a lord
	dynasty=1386

	religion="weeping_lady"
	culture="lysene"

	father=10031386
	mother=20031386

	6533.1.1 = {birth="6533.1.1"}
	6549.1.1 = {add_trait=poor_warrior}
	6582.1.1 = {death="6582.1.1"}
}
10091386 = {
	name="Gylenios"	# not a lord
	female=yes
	dynasty=1386

	religion="weeping_lady"
	culture="lysene"

	father=10061386
	mother=20061386

	6548.1.1 = {birth="6548.1.1"}
	6595.1.1 = {death="6595.1.1"}
}
10101386 = {
	name="Lysono"	# a lord
	dynasty=1386

	religion="weeping_lady"
	culture="lysene"

	father=10061386
	mother=20061386

	6549.1.1 = {birth="6549.1.1"}
	6565.1.1 = {add_trait=trained_warrior}
	6567.1.1 = {add_spouse=20101386}
	6606.1.1 = {death="6606.1.1"}
}
20101386 = {
	name="Myrmellios"
	female=yes

	religion="weeping_lady"
	culture="lysene"

	6549.1.1 = {birth="6549.1.1"}
	6606.1.1 = {death="6606.1.1"}
}
10111386 = {
	name="Myrmellios"	# not a lord
	female=yes
	dynasty=1386

	religion="weeping_lady"
	culture="lysene"

	father=10061386
	mother=20061386

	6552.1.1 = {birth="6552.1.1"}
	6608.1.1 = {death="6608.1.1"}
}
10121386 = {
	name="Terro"	# not a lord
	dynasty=1386

	religion="weeping_lady"
	culture="lysene"

	father=10101386
	mother=20101386

	6570.1.1 = {birth="6570.1.1"}
	6584.1.1 = {death="6584.1.1"}
}
10131386 = {
	name="Roggo"	# a lord
	dynasty=1386

	religion="weeping_lady"
	culture="lysene"

	father=10101386
	mother=20101386

	6582.1.1 = {birth="6582.1.1"}
	6598.1.1 = {add_trait=trained_warrior}
	6600.1.1 = {add_spouse=20131386}
	6640.1.1 = {death="6640.1.1"}
}
20131386 = {
	name="Serra"
	female=yes

	religion="weeping_lady"
	culture="lysene"

	6582.1.1 = {birth="6582.1.1"}
	6640.1.1 = {death="6640.1.1"}
}
10141386 = {
	name="Ollo"	# not a lord
	dynasty=1386

	religion="weeping_lady"
	culture="lysene"

	father=10101386
	mother=20101386

	6584.1.1 = {birth="6584.1.1"}
	6600.1.1 = {add_trait=trained_warrior}
	6662.1.1 = {death="6662.1.1"}
}
10151386 = {
	name="Terro"	# not a lord
	dynasty=1386

	religion="weeping_lady"
	culture="lysene"

	father=10101386
	mother=20101386

	6585.1.1 = {birth="6585.1.1"}
	6601.1.1 = {add_trait=trained_warrior}
	6623.1.1 = {death = {death_reason = death_battle}}
}
10161386 = {
	name="Brea"	# not a lord
	female=yes
	dynasty=1386

	religion="weeping_lady"
	culture="lysene"

	father=10131386
	mother=20131386

	6613.1.1 = {birth="6613.1.1"}
	6650.1.1 = {death="6650.1.1"}
}
10171386 = {
	name="Gyleno"	# a lord
	dynasty=1386

	religion="weeping_lady"
	culture="lysene"

	father=10131386
	mother=20131386

	6615.1.1 = {birth="6615.1.1"}
	6631.1.1 = {add_trait=trained_warrior}
	6633.1.1 = {add_spouse=20171386}
	6675.1.1 = {death="6675.1.1"}
}
20171386 = {
	name="Jaqea"
	female=yes

	religion="weeping_lady"
	culture="lysene"

	6615.1.1 = {birth="6615.1.1"}
	6675.1.1 = {death="6675.1.1"}
}
10181386 = {
	name="Narbo"	# not a lord
	dynasty=1386

	religion="weeping_lady"
	culture="lysene"

	father=10131386
	mother=20131386

	6616.1.1 = {birth="6616.1.1"}
	6632.1.1 = {add_trait=poor_warrior}
	6634.1.1 = {add_spouse=20181386}
	6671.1.1 = {death="6671.1.1"}
}
20181386 = {
	name="Qarria"
	female=yes

	religion="weeping_lady"
	culture="lysene"

	6616.1.1 = {birth="6616.1.1"}
	6671.1.1 = {death="6671.1.1"}
}
10191386 = {
	name="Jaqen"	# not a lord
	dynasty=1386

	religion="weeping_lady"
	culture="lysene"

	father=10131386
	mother=20131386

	6617.1.1 = {birth="6617.1.1"}
	6633.1.1 = {add_trait=master_warrior}
	6635.1.1 = {add_spouse=20191386}
	6690.1.1 = {death="6690.1.1"}
}
20191386 = {
	name="Orios"
	female=yes

	religion="weeping_lady"
	culture="lysene"

	6617.1.1 = {birth="6617.1.1"}
	6690.1.1 = {death="6690.1.1"}
}
10201386 = {
	name="Ternesio"	# not a lord
	dynasty=1386

	religion="weeping_lady"
	culture="lysene"

	father=10171386
	mother=20171386

	6633.1.1 = {birth="6633.1.1"}
	6649.1.1 = {add_trait=poor_warrior}
	6674.1.1 = {death="6674.1.1"}
}
10211386 = {
	name="Jaqen"	# not a lord
	dynasty=1386

	religion="weeping_lady"
	culture="lysene"

	father=10171386
	mother=20171386

	6635.1.1 = {birth="6635.1.1"}
	6651.1.1 = {add_trait=poor_warrior}
	6673.1.1 = {death = {death_reason = death_murder}}
}
10221386 = {
	name="Gylora"	# not a lord
	female=yes
	dynasty=1386

	religion="weeping_lady"
	culture="lysene"

	father=10171386
	mother=20171386

	6646.1.1 = {birth="6646.1.1"}
	6670.1.1 = {death="6670.1.1"}
}
10231386 = {
	name="Collio"	# a lord
	dynasty=1386

	religion="weeping_lady"
	culture="lysene"

	father=10171386
	mother=20171386

	6648.1.1 = {birth="6648.1.1"}
	6664.1.1 = {add_trait=skilled_warrior}
	6666.1.1 = {add_spouse=20231386}
	6699.1.1 = {death="6699.1.1"}
}
20231386 = {
	name="Mellario"
	female=yes

	religion="weeping_lady"
	culture="lysene"

	6648.1.1 = {birth="6648.1.1"}
	6699.1.1 = {death="6699.1.1"}
}
10241386 = {
	name="Bellegere"	# not a lord
	female=yes
	dynasty=1386

	religion="weeping_lady"
	culture="lysene"

	father=10171386
	mother=20171386

	6651.1.1 = {birth="6651.1.1"}
	6706.1.1 = {death="6706.1.1"}
}
10251386 = {
	name="Ezzere"	# not a lord
	female=yes
	dynasty=1386

	religion="weeping_lady"
	culture="lysene"

	father=10171386
	mother=20171386

	6652.1.1 = {birth="6652.1.1"}
	6709.1.1 = {death="6709.1.1"}
}
10261386 = {
	name="Alia"	# not a lord
	female=yes
	dynasty=1386

	religion="weeping_lady"
	culture="lysene"

	father=10171386
	mother=20171386

	6655.1.1 = {birth="6655.1.1"}
	6681.1.1 = {death="6681.1.1"}
}
10271386 = {
	name="Roro"	# a lord
	dynasty=1386

	religion="weeping_lady"
	culture="lysene"

	father=10231386
	mother=20231386

	6675.1.1 = {birth="6675.1.1"}
	6691.1.1 = {add_trait=poor_warrior}
	6693.1.1 = {add_spouse=20271386}
	6712.1.1 = {death = {death_reason = death_battle}}
}
20271386 = {
	name="Ferrega"
	female=yes

	religion="weeping_lady"
	culture="lysene"

	6675.1.1 = {birth="6675.1.1"}
	6712.1.1 = {death="6712.1.1"}
}
10281386 = {
	name="Lysono"	# not a lord
	dynasty=1386

	religion="weeping_lady"
	culture="lysene"

	father=10231386
	mother=20231386

	6676.1.1 = {birth="6676.1.1"}
	6692.1.1 = {add_spouse=20281386}
	6694.1.1 = {death="6694.1.1"}
}
20281386 = {
	name="Umma"
	female=yes

	religion="weeping_lady"
	culture="lysene"

	6676.1.1 = {birth="6676.1.1"}
	6694.1.1 = {death="6694.1.1"}
}
10291386 = {
	name="Yna"	# not a lord
	female=yes
	dynasty=1386

	religion="weeping_lady"
	culture="lysene"

	father=10231386
	mother=20231386

	6677.1.1 = {birth="6677.1.1"}
	6716.1.1 = {death="6716.1.1"}
}
10301386 = {
	name="Tagganaria"	# not a lord
	female=yes
	dynasty=1386

	religion="weeping_lady"
	culture="lysene"

	father=10231386
	mother=20231386

	6679.1.1 = {birth="6679.1.1"}
	6717.1.1 = {death="6717.1.1"}
}
10311386 = {
	name="Syrio"	# a lord
	dynasty=1386

	religion="weeping_lady"
	culture="lysene"

	father=10271386
	mother=20271386

	6698.1.1 = {birth="6698.1.1"}
	6719.1.1 = {add_trait=skilled_warrior}
	6720.1.1 = {add_spouse=20381386}
	6752.1.1 = {death="6752.1.1"}
}
20381386 = {
	name="Nyssa"
	female=yes

	religion="weeping_lady"
	culture="lysene"

	6703.1.1 = {birth="6703.1.1"}
	6748.1.1 = {death="6748.1.1"}
}
88108 = {
	name="Tregaros"
	dynasty=1386 #Ormollen
	religion="weeping_lady"
	culture="lysene"

	father=10311386
	mother=20381386

	6728.1.1={
		birth="6728.1.1"
	}
	6750.1.1={
		add_spouse=488108
	}
} 
488108 = {
	name="Melyssa"
	female=yes

	religion="weeping_lady"
	culture="lysene"

	6728.1.1 = {birth="6728.1.1"}
	6768.1.1 = {death="6768.1.1"}
}
881108 = {
	name="Syrio"
	dynasty=1386 #Ormollen
	religion="weeping_lady"
	culture="lysene"

	father=88108
	mother=488108

	6752.1.1={
		birth="6752.1.1"
	}
} 
882108 = {
	name="Mellario"
	dynasty=1386 #Ormollen
	female=yes
	religion="weeping_lady"
	culture="lysene"

	father=88108
	mother=488108

	6755.1.1={
		birth="6755.1.1"
	}
} 
883108 = {
	name="Parquello"
	dynasty=1386 #Ormollen
	religion="weeping_lady"
	culture="lysene"

	father=88108
	mother=488108

	6759.1.1={
		birth="6759.1.1"
	}
} 

### House Sathmantes

150300546 = {
	name="Vaelar"	# a lord
	dynasty=300546

	religion="rhllor"
	culture="lysene"

	6439.1.1 = {birth="6439.1.1"}
	6461.1.1 = {add_spouse=250300546}
	6514.1.1 = {death="6514.1.1"}
}
250300546 = {
	name="Daenys"
	female=yes

	religion="rhllor"
	culture="lysene"

	6440.1.1 = {birth="6440.1.1"}
	6514.1.1 = {death="6514.1.1"}
}
100300546 = {
	name="Roro"	# a lord
	dynasty=300546

	religion="rhllor"
	culture="lysene"

	father=150300546
	mother=250300546

	6463.1.1 = {birth="6463.1.1"}
	6504.1.1 = {add_trait=poor_warrior}
	6506.1.1 = {add_spouse=200300546}
	6557.1.1 = {death="6557.1.1"}
}
200300546 = {
	name="Mellario"
	female=yes

	religion="rhllor"
	culture="lysene"

	6463.1.1 = {birth="6463.1.1"}
	6557.1.1 = {death="6557.1.1"}
}
101300546 = {
	name="Alia"	# not a lord
	female=yes
	dynasty=300546

	religion="rhllor"
	culture="lysene"

	father=100300546
	mother=200300546

	6510.1.1 = {birth="6510.1.1"}
	6582.1.1 = {death="6582.1.1"}
}
102300546 = {
	name="Bellegere"	# not a lord
	female=yes
	dynasty=300546

	religion="rhllor"
	culture="lysene"

	father=100300546
	mother=200300546

	6512.1.1 = {birth="6512.1.1"}
	6558.1.1 = {death="6558.1.1"}
}
104300546 = {
	name="Umma"	# not a lord
	female=yes
	dynasty=300546

	religion="rhllor"
	culture="lysene"

	father=100300546
	mother=200300546

	6517.1.1 = {birth="6517.1.1"}
	6540.1.1 = {death="6540.1.1"}
}
105300546 = {
	name="Sallodhor"	# a lord
	dynasty=300546

	religion="rhllor"
	culture="lysene"

	father=100300546
	mother=200300546

	6518.1.1 = {birth="6518.1.1"}
	6534.1.1 = {add_trait=trained_warrior}
	6536.1.1 = {add_spouse=205300546}
	6584.1.1 = {death="6584.1.1"}
}
205300546 = {
	name="Gylora"
	female=yes

	religion="rhllor"
	culture="lysene"

	6518.1.1 = {birth="6518.1.1"}
	6584.1.1 = {death="6584.1.1"}
}
106300546 = {
	name="Tagganaro"	# a lord
	dynasty=300546

	religion="rhllor"
	culture="lysene"

	father=105300546
	mother=205300546

	6542.1.1 = {birth="6542.1.1"}
	6560.1.1 = {add_spouse=206300546}
	6607.1.1 = {death="6607.1.1"}
}
206300546 = {
	name="Cossoma"
	female=yes

	religion="rhllor"
	culture="lysene"

	6542.1.1 = {birth="6542.1.1"}
	6558.1.1 = {add_trait=poor_warrior}
	6607.1.1 = {death="6607.1.1"}
}
107300546 = {
	name="Taena"	# not a lord
	female=yes
	dynasty=300546

	religion="rhllor"
	culture="lysene"

	father=106300546
	mother=206300546

	6567.1.1 = {birth="6567.1.1"}
	6624.1.1 = {death="6624.1.1"}
}
109300546 = {
	name="Syrio"	# a lord
	dynasty=300546

	religion="rhllor"
	culture="lysene"

	father=106300546
	mother=206300546

	6571.1.1 = {birth="6571.1.1"}
	6587.1.1 = {add_trait=poor_warrior}
	6589.1.1 = {add_spouse=209300546}
	6646.1.1 = {death="6646.1.1"}
}
209300546 = {
	name="Meralyia"
	female=yes

	religion="rhllor"
	culture="lysene"

	6571.1.1 = {birth="6571.1.1"}
	6646.1.1 = {death="6646.1.1"}
}
111300546 = {
	name="Tormo"	# not a lord
	dynasty=300546

	religion="rhllor"
	culture="lysene"

	father=109300546
	mother=209300546

	6593.1.1 = {birth="6593.1.1"}
	6609.1.1 = {add_trait=poor_warrior}
	6636.1.1 = {death="6636.1.1"}
}
112300546 = {
	name="Ordello"	# a lord
	dynasty=300546

	religion="rhllor"
	culture="lysene"

	father=109300546
	mother=209300546

	6594.1.1 = {birth="6594.1.1"}
	6610.1.1 = {add_trait=poor_warrior}
	6612.1.1 = {add_spouse=212300546}
	6674.1.1 = {death="6674.1.1"}
}
212300546 = {
	name="Pynta"
	female=yes

	religion="rhllor"
	culture="lysene"

	6594.1.1 = {birth="6594.1.1"}
	6674.1.1 = {death="6674.1.1"}
}
113300546 = {
	name="Moreo"	# not a lord
	dynasty=300546

	religion="rhllor"
	culture="lysene"

	father=109300546
	mother=209300546

	6596.1.1 = {birth="6596.1.1"}
	6612.1.1 = {add_trait=trained_warrior}
	6614.1.1 = {add_spouse=213300546}
	6637.1.1 = {death="6637.1.1"}
}
213300546 = {
	name="Myrmellios"
	female=yes

	religion="rhllor"
	culture="lysene"

	6596.1.1 = {birth="6596.1.1"}
	6637.1.1 = {death="6637.1.1"}
}
114300546 = {
	name="Beqqo"	# not a lord
	dynasty=300546

	religion="rhllor"
	culture="lysene"

	father=112300546
	mother=212300546

	6618.1.1 = {birth="6618.1.1"}
	6634.1.1 = {add_trait=trained_warrior}
	6664.1.1 = {death="6664.1.1"}
}
115300546 = {
	name="Illyrio"	# a lord
	dynasty=300546

	religion="rhllor"
	culture="lysene"

	father=112300546
	mother=212300546

	6621.1.1 = {birth="6621.1.1"}
	6637.1.1 = {add_trait=trained_warrior}
	6639.1.1 = {add_spouse=215300546}
	6683.1.1 = {death="6683.1.1"}
}
215300546 = {
	name="Serra"
	female=yes

	religion="rhllor"
	culture="lysene"

	6621.1.1 = {birth="6621.1.1"}
	6683.1.1 = {death="6683.1.1"}
}
116300546 = {
	name="Lotho"	# not a lord
	dynasty=300546

	religion="rhllor"
	culture="lysene"

	father=112300546
	mother=212300546

	6624.1.1 = {birth="6624.1.1"}
	6640.1.1 = {add_trait=trained_warrior}
	6642.1.1 = {add_spouse=216300546}
	6653.1.1 = {death="6653.1.1"}
}
216300546 = {
	name="Gylora"
	female=yes

	religion="rhllor"
	culture="lysene"

	6624.1.1 = {birth="6624.1.1"}
	6653.1.1 = {death="6653.1.1"}
}
117300546 = {
	name="Ordello"	# a lord
	dynasty=300546

	religion="rhllor"
	culture="lysene"

	father=115300546
	mother=215300546

	6645.1.1 = {birth="6645.1.1"}
	6661.1.1 = {add_trait=trained_warrior}
	6663.1.1 = {add_spouse=217300546}
	6705.1.1 = {death="6705.1.1"}
}
217300546 = {
	name="Talea"
	female=yes

	religion="rhllor"
	culture="lysene"

	6645.1.1 = {birth="6645.1.1"}
	6705.1.1 = {death="6705.1.1"}
}
118300546 = {
	name="Izembaro"	# a lord
	dynasty=300546

	religion="rhllor"
	culture="lysene"

	father=117300546
	mother=217300546

	6670.1.1 = {birth="6670.1.1"}
	6686.1.1 = {add_trait=poor_warrior}
	6688.1.1 = {add_spouse=218300546}
	6727.1.1 = {death="6727.1.1"}
}
218300546 = {
	name="Cossoma"
	female=yes

	religion="rhllor"
	culture="lysene"

	6670.1.1 = {birth="6670.1.1"}
	6727.1.1 = {death="6727.1.1"}
}
119300546 = {
	name="Tycho"	# not a lord
	dynasty=300546

	religion="rhllor"
	culture="lysene"

	father=117300546
	mother=217300546

	6673.1.1 = {birth="6673.1.1"}
	6689.1.1 = {add_trait=trained_warrior}
	6753.1.1 = {death="6753.1.1"}
}
120300546 = {
	name="Ferrego"	# not a lord
	dynasty=300546

	religion="rhllor"
	culture="lysene"

	father=117300546
	mother=217300546

	6675.1.1 = {birth="6675.1.1"}
	6691.1.1 = {add_trait=poor_warrior}
	6739.1.1 = {death="6739.1.1"}
}
121300546 = {
	name="Yna"	# not a lord
	female=yes
	dynasty=300546

	religion="rhllor"
	culture="lysene"

	father=118300546
	mother=218300546

	6696.1.1 = {birth="6696.1.1"}
	6752.1.1 = {death="6752.1.1"}
}
122300546 = {
	name="Tycho"	# a lord
	dynasty=300546

	religion="rhllor"
	culture="lysene"

	father=118300546
	mother=218300546

	6698.1.1 = {birth="6698.1.1"}
	6714.1.1 = {add_trait=poor_warrior}
	6752.1.1 = {death="6752.1.1"}
}
123300546 = {
	name="Ezzere"	# not a lord
	female=yes
	dynasty=300546

	religion="rhllor"
	culture="lysene"

	father=118300546
	mother=218300546

	6700.1.1 = {birth="6700.1.1"}
	6736.1.1 = {death="6736.1.1"}
}
124300546 = {
	name="Lanna"	# not a lord
	female=yes
	dynasty=300546

	religion="rhllor"
	culture="lysene"

	father=118300546
	mother=218300546

	6703.1.1 = {birth="6703.1.1"}
	6772.1.1 = {death="6772.1.1"}
}
125300546 = {
	name="Gyleno"	# a lord
	dynasty=300546

	religion="rhllor"
	culture="lysene"

	father=122300546

	6729.1.1 = {birth="6729.1.1"}
	6745.1.1 = {add_trait=poor_warrior}
	6748.1.1 = {add_spouse=225300546}
}
225300546 = {
	name="Nyssa"
	female=yes

	religion="rhllor"
	culture="lysene"


	6729.1.1 = {birth="6729.1.1"}
}
126300546 = {
	name="Yorko"	# not a lord
	dynasty=300546

	religion="rhllor"
	culture="lysene"

	father=122300546

	6731.1.1 = {birth="6731.1.1"}
	6747.1.1 = {add_trait=poor_warrior}
}
151300546 = {
	name="Kohrane"	# canon
	dynasty=300546

	religion="rhllor"
	culture="lysene"

	father=125300546
	mother=225300546

	6754.1.1 = {birth="6754.1.1"}
}
132300546 = {
	name="Tycho"	# not a lord
	dynasty=300546

	religion="rhllor"
	culture="lysene"

	father=125300546
	mother=225300546

	6758.1.1 = {birth="6758.1.1"}
}

###  House Rogare

150300539 = {
	name="Nyessos"	# a lord
	dynasty=55999

	religion="rhllor"
	culture="lysene"

	6438.1.1 = {birth="6438.1.1"}
	6454.1.1 = { add_trait="truth" }
	6460.1.1 = {add_spouse=250300539}
	6507.1.1 = {death="6507.1.1"}
}
250300539 = {
	name="Bellegre"
	female=yes

	religion="rhllor"
	culture="lysene"

	6444.1.1 = {birth="6444.1.1"}
	6508.1.1 = {death="6508.1.1"}
}
100300539 = {
	name="Doniphos"	# a lord
	dynasty=55999

	religion="rhllor"
	culture="lysene"

	father=150300539
	mother=250300539

	6468.1.1 = {birth="6468.1.1"}
	6500.1.1 = {add_trait=poor_warrior}
	6502.1.1 = {add_spouse=200300539}
	6507.1.1 = { add_trait="truth" }
	6553.1.1 = {death="6553.1.1"}
}
200300539 = {
	name="Betharios"
	female=yes

	religion="rhllor"
	culture="lysene"

	6468.1.1 = {birth="6468.1.1"}
	6553.1.1 = {death="6553.1.1"}
}
101300539 = {
	name="Beqqo"	# not a lord
	dynasty=55999

	religion="rhllor"
	culture="lysene"

	father=100300539
	mother=200300539

	6508.1.1 = {birth="6508.1.1"}
	6524.1.1 = {add_trait=master_warrior}
	6533.1.1 = {death="6533.1.1"}
}
102300539 = {
	name="Serala"	# not a lord
	female=yes
	dynasty=55999

	religion="rhllor"
	culture="lysene"

	father=100300539
	mother=200300539

	6507.1.1 = {birth="6507.1.1"}
	6559.1.1 = {death="6559.1.1"}
}
103300539 = {
	name="Syrea"	# not a lord
	female=yes
	dynasty=55999

	religion="rhllor"
	culture="lysene"

	father=100300539
	mother=200300539

	6510.1.1 = {birth="6510.1.1"}
	6561.1.1 = {death="6561.1.1"}
}
104300539 = {
	name="Orbelo"	# a lord
	dynasty=55999

	religion="rhllor"
	culture="lysene"

	father=100300539
	mother=200300539

	6512.1.1 = {birth="6512.1.1"}
	6528.1.1 = {add_trait=skilled_warrior}
	6530.1.1 = {add_spouse=204300539}
	6553.1.1 = { add_trait="truth" }
	6555.1.1 = {death="6555.1.1"}
}
204300539 = {
	name="Gylenios"
	female=yes

	religion="rhllor"
	culture="lysene"

	6512.1.1 = {birth="6512.1.1"}
	6555.1.1 = {death="6555.1.1"}
}
105300539 = {
	name="Orbela"	# not a lord
	female=yes
	dynasty=55999

	religion="rhllor"
	culture="lysene"

	father=100300539
	mother=200300539

	6513.1.1 = {birth="6513.1.1"}
	6570.1.1 = {death="6570.1.1"}
}
106300539 = {
	name="Oro"	# a lord
	dynasty=55999

	religion="rhllor"
	culture="lysene"

	father=104300539
	mother=204300539

	6533.1.1 = {birth="6533.1.1"}
	6549.1.1 = {add_trait=skilled_warrior}
	6551.1.1 = {add_spouse=206300539}
	6555.1.1 = { add_trait="truth" }
	6593.1.1 = {death="6593.1.1"}
}
206300539 = {
	name="Meralyia"
	female=yes

	religion="rhllor"
	culture="lysene"

	6533.1.1 = {birth="6533.1.1"}
	6593.1.1 = {death="6593.1.1"}
}
107300539 = {
	name="Gyleno"	# a lord
	dynasty=55999

	religion="rhllor"
	culture="lysene"

	father=106300539
	mother=206300539

	6554.1.1 = {birth="6554.1.1"}
	6570.1.1 = {add_trait=poor_warrior}
	6573.1.1 = {add_spouse=207300539}
	6593.1.1 = { add_trait="truth" }
	6603.1.1 = {death="6603.1.1"}
}
207300539 = {
	name="Myrmellios"
	female=yes

	religion="rhllor"
	culture="lysene"

	6554.1.1 = {birth="6554.1.1"}
	6603.1.1 = {death="6603.1.1"}
}
108300539 = {
	name="Lysandro"	# a lord
	dynasty=55999
	
	stewardship=8
	martial=2
	diplomacy=7
	intrigue=3
	learning=3

	religion="rhllor"
	culture="high_valyrian"

	father=107300539
	mother=207300539
	
	add_trait=ambitious
	add_trait=ruthless
	add_trait=gregarious
	add_trait=midas_touched
	add_trait=quick

	6573.1.1 = {
		birth="6573.1.1"
		effect = { culture = lysene }
	}
	6589.1.1 = {add_trait=trained_warrior}
	6592.1.1 = {add_spouse=208300539}
	6603.1.1 = { add_trait="truth" }
	6608.1.1 = { 
		give_nickname=nick_the_magnificent
	}
	6618.1.1 = {
		culture = lysene
		death={
			death_reason = death_murder_unknown
		}
	}
}
208300539 = {
	name="Lothea"
	female=yes

	religion="rhllor"
	culture="lysene"

	6573.1.1 = {birth="6573.1.1"}
	6618.1.1 = {death="6618.1.1"}
}
109300539 = {
	name="Drazenko"	# Prince Consort of Dorne
	dynasty=55999
	
	diplomacy=8

	religion="rhllor"
	culture="high_valyrian"

	father=107300539
	mother=207300539
	
	add_trait=ambitious
	add_trait=grey_eminence

	6578.1.1 = {
		birth="6578.1.1"
		effect = { culture = lysene }
	}
	6594.1.1 = {add_trait=skilled_warrior}
	6618.1.1 = {
		culture = lysene
		death={
			death_reason = death_murder_unknown
		}
	}
}
110300539 = {
	name="Lysaro"	# A Lord
	dynasty=55999
	
	stewardship=4
	diplomacy=1
	intrigue=3
	martial=3
	learning=4

	religion="rhllor"
	culture="high_valyrian"

	father=108300539
	mother=208300539
	
	add_trait=indulgent_wastrel
	add_trait=greedy
	add_trait=proud
	add_trait=ambitious
	add_trait=wroth
	add_trait=rude

	6592.1.1 = {
		birth="6592.1.1"
		effect = { culture = lysene }
	}
	6613.1.1 = {
		effect = {
			if = {
				limit = { 
					is_ruler = no 
					NOT = { year = 8139 }
				}
				e_iron_throne = { holder_scope = { ROOT = { move_character = PREV } } }
			}
		}
	}
	6623.1.1 = {
		culture = lysene
		death = {
			death_reason = death_execution #scourged to death
		}
	}
}
159300539 = {
	name="Larra"	# Married Viserys II Targaryen
	female=yes
	dynasty=55999
	dna="akaiangicdp"
	properties="0e00"

	religion="rhllor"
	culture="high_valyrian"
	
	add_trait=fair
	add_trait=shy
	add_trait=proud

	father=108300539
	mother=208300539

	6593.1.1 = {
		birth="6593.1.1"
		effect = { culture = lysene }
	}
	6617.6.1 = {
		effect = {
			b_rogare = { holder_scope = { ROOT = { move_character = PREV } } }
		}
	}
	6623.1.1 = {
		culture = lysene
		death="6623.1.1"
	}
}
112300539 = {
	name="Moredo"	# not a lord
	dynasty=55999
	
	martial=7

	religion="rhllor"
	culture="high_valyrian"

	father=108300539
	mother=208300539
	
	add_trait=skilled_tactician
	add_trait=diligent
	add_trait=just

	6599.1.1 = {
		birth="6599.1.1"
		effect = { culture = lysene }
	}
	6615.1.1 = {
		add_trait=skilled_warrior
		effect = {
			if = {
				limit = { 
					is_ruler = no 
					NOT = { year = 8139 }
				}
				e_iron_throne = { holder_scope = { ROOT = { move_character = PREV } } }
			}
		}
	}
	6617.1.1 = {add_spouse=212300539}
	6618.1.1 = { add_trait="truth" }
	6643.1.1 = {
		culture = lysene
		death="6643.1.1"
	}
}
212300539 = {
	name="Meralyia"
	female=yes

	religion="rhllor"
	culture="lysene"

	6599.1.1 = {birth="6599.1.1"}
	6643.1.1 = {death="6643.1.1"}
}
113300539 = {
	name="Qarria"	# not a lord
	female=yes
	dynasty=55999

	religion="rhllor"
	culture="lysene"

	father=112300539
	mother=212300539

	6625.1.1 = {birth="6625.1.1"}
	6677.1.1 = {death = {death_reason = death_accident}}
}
114300539 = {
	name="Orbelo"	# a lord
	dynasty=55999

	religion="rhllor"
	culture="lysene"

	father=112300539
	mother=212300539

	6626.1.1 = {birth="6626.1.1"}
	6638.1.1 = { add_trait="truth" }
	6642.1.1 = {add_trait=skilled_warrior}
	6644.1.1 = {add_spouse=214300539}
	6687.1.1 = {death="6687.1.1"}
}
214300539 = {
	name="Nohia"
	female=yes

	religion="rhllor"
	culture="lysene"

	6626.1.1 = {birth="6626.1.1"}
	6687.1.1 = {death="6687.1.1"}
}
115300539 = {
	name="Tagganaria"	# not a lord
	female=yes
	dynasty=55999

	religion="rhllor"
	culture="lysene"

	father=112300539
	mother=212300539

	6629.1.1 = {birth="6629.1.1"}
	6708.1.1 = {death="6708.1.1"}
}
116300539 = {
	name="Ternesia"	# not a lord
	female=yes
	dynasty=55999

	religion="rhllor"
	culture="lysene"

	father=112300539
	mother=212300539

	6630.1.1 = {birth="6630.1.1"}
	6663.1.1 = {death="6663.1.1"}
}
117300539 = {
	name="Ollo"	# not a lord
	dynasty=55999

	religion="rhllor"
	culture="lysene"

	father=114300539
	mother=214300539

	6645.1.1 = {birth="6645.1.1"}
	6658.1.1 = {death = {death_reason = death_murder}}
}
118300539 = {
	name="Denyo"	# not a lord
	dynasty=55999

	religion="rhllor"
	culture="lysene"

	father=114300539
	mother=214300539

	6647.1.1 = {birth="6647.1.1"}
	6663.1.1 = {add_trait=skilled_warrior}
	6682.1.1 = {death="6682.1.1"}
}
119300539 = {
	name="Moreo"	# a lord
	dynasty=55999

	religion="rhllor"
	culture="lysene"

	father=114300539
	mother=214300539

	6649.1.1 = {birth="6649.1.1"}
	6665.1.1 = {add_trait=trained_warrior}
	6667.1.1 = {add_spouse=219300539}
	6687.1.1 = { add_trait="truth" }
	6711.1.1 = {death="6711.1.1"}
}
219300539 = {
	name="Lucerre"
	female=yes

	religion="rhllor"
	culture="lysene"

	6649.1.1 = {birth="6649.1.1"}
	6711.1.1 = {death="6711.1.1"}
}
120300539 = {
	name="Gyleno"	# a lord
	dynasty=55999

	religion="rhllor"
	culture="lysene"

	father=119300539
	mother=219300539

	6669.1.1 = {birth="6669.1.1"}
	6685.1.1 = {add_trait=poor_warrior}
	6687.1.1 = {add_spouse=220300539}
	6711.1.1 = { add_trait="truth" }
	6730.1.1 = {death="6730.1.1"}
}
220300539 = {
	name="Syrea"
	female=yes

	religion="rhllor"
	culture="lysene"

	6669.1.1 = {birth="6669.1.1"}
	6730.1.1 = {death="6730.1.1"}
}
121300539 = {
	name="Qarria"	# not a lord
	female=yes
	dynasty=55999

	religion="rhllor"
	culture="lysene"

	father=119300539
	mother=219300539

	6671.1.1 = {birth="6671.1.1"}
	6717.1.1 = {death="6717.1.1"}
}
122300539 = {
	name="Yorka"	# not a lord
	female=yes
	dynasty=55999

	religion="rhllor"
	culture="lysene"

	father=119300539
	mother=219300539

	6673.1.1 = {birth="6673.1.1"}
	6691.1.1 = {death="6691.1.1"}
}
123300539 = {
	name="Orbelo"	# a lord
	dynasty=55999

	religion="rhllor"
	culture="lysene"

	father=120300539
	mother=220300539

	6696.1.1 = {birth="6696.1.1"}
	6712.1.1 = {add_trait=trained_warrior}
	6714.1.1 = {add_spouse=223300539}
	6730.1.1 = { add_trait="truth" }
	6738.1.1 = {death="6738.1.1"}
}
223300539 = {
	name="Qarria"
	female=yes

	religion="rhllor"
	culture="lysene"

	6696.1.1 = {birth="6696.1.1"}
	6738.1.1 = {death="6738.1.1"}
}
124300539 = {
	name="Gylora"	# not a lord
	female=yes
	dynasty=55999

	religion="rhllor"
	culture="lysene"

	father=120300539
	mother=220300539

	6697.1.1 = {birth="6697.1.1"}
	6748.1.1 = {death="6748.1.1"}
}
125300539 = {
	name="Byan"	# a lord
	dynasty=55999

	religion="rhllor"
	culture="lysene"

	father=123300539
	mother=223300539

	6731.1.1 = {birth="6731.1.1"}
	6738.1.1 = { add_trait="truth" }
	6747.1.1 = {add_trait=trained_warrior}
	6753.1.1 = {add_spouse=225300539}
}
225300539 = {
	name="Serra"
	female=yes

	religion="rhllor"
	culture="lysene"

	6731.1.1 = {birth="6731.1.1"}
}
126300539 = {
	name="Syrio"	# not a lord
	dynasty=55999

	religion="rhllor"
	culture="lysene"

	father=123300539
	mother=223300539

	6734.1.1 = {birth="6734.1.1"}
	6750.1.1 = {add_trait=skilled_warrior}
}
151300539 = {
	name="Gyleno"
	dynasty=55999

	religion="rhllor"
	culture="lysene"

	father=125300539
	mother=225300539

	6756.1.1 = {birth="6756.1.1"}
}
152300539 = {
	name="Mellario"	
	female=yes
	dynasty=55999

	religion="rhllor"
	culture="lysene"

	father=125300539
	mother=225300539

	6759.1.1 = {birth="6759.1.1"}
}
153300539 = {
	name="Tybaro"
	dynasty=55999

	religion="rhllor"
	culture="lysene"

	father=125300539
	mother=225300539

	6762.1.1 = {birth="6762.1.1"}
}

### House Lohar

150300523 = {
	name="Maelys"	# a lord
	dynasty=300523

	religion="weeping_lady"
	culture="lysene"

	6438.1.1 = {birth="6438.1.1"}
	6460.1.1 = {add_spouse=250300523}
	6496.1.1 = {death="6496.1.1"}
}
250300523 = {
	name="Shiera"
	female=yes

	religion="weeping_lady"
	culture="lysene"

	6441.1.1 = {birth="6441.1.1"}
	6502.1.1 = {death="6502.1.1"}
}
100300523 = {
	name="Beqqo"	# a lord
	dynasty=300523

	religion="weeping_lady"
	culture="lysene"

	father=150300523
	mother=250300523

	6471.1.1 = {birth="6471.1.1"}
	6506.1.1 = {add_trait=poor_warrior}
	6508.1.1 = {add_spouse=200300523}
	6558.1.1 = {death="6558.1.1"}
}
200300523 = {
	name="Moredea"
	female=yes

	religion="weeping_lady"
	culture="lysene"

	6471.1.1 = {birth="6471.1.1"}
	6558.1.1 = {death="6558.1.1"}
}
101300523 = {
	name="Talea"	# not a lord
	female=yes
	dynasty=300523

	religion="weeping_lady"
	culture="lysene"

	father=100300523
	mother=200300523

	6509.1.1 = {birth="6509.1.1"}
	6538.1.1 = {death="6538.1.1"}
}
102300523 = {
	name="Allaquo"	# a lord
	dynasty=300523

	religion="weeping_lady"
	culture="lysene"

	father=100300523
	mother=200300523

	6511.1.1 = {birth="6511.1.1"}
	6527.1.1 = {add_trait=trained_warrior}
	6529.1.1 = {add_spouse=202300523}
	6564.1.1 = {death="6564.1.1"}
}
202300523 = {
	name="Bellonara"
	female=yes

	religion="weeping_lady"
	culture="lysene"

	6511.1.1 = {birth="6511.1.1"}
	6564.1.1 = {death="6564.1.1"}
}
103300523 = {
	name="Pynto"	# a lord
	dynasty=300523

	religion="weeping_lady"
	culture="lysene"

	father=102300523
	mother=202300523

	6531.1.1 = {birth="6531.1.1"}
	6547.1.1 = {add_trait=trained_warrior}
	6549.1.1 = {add_spouse=203300523}
	6593.1.1 = {death = {death_reason = death_murder}}
}
203300523 = {
	name="Alia"
	female=yes

	religion="weeping_lady"
	culture="lysene"

	6531.1.1 = {birth="6531.1.1"}
	6593.1.1 = {death = {death_reason = death_murder}}
}
104300523 = {
	name="Umma"	# not a lord
	female=yes
	dynasty=300523

	religion="weeping_lady"
	culture="lysene"

	father=102300523
	mother=202300523

	6533.1.1 = {birth="6533.1.1"}
	6558.1.1 = {death="6558.1.1"}
}
105300523 = {
	name="Myrmellios"	# not a lord
	female=yes
	dynasty=300523

	religion="weeping_lady"
	culture="lysene"

	father=103300523
	mother=203300523

	6566.1.1 = {birth="6566.1.1"}
	6599.1.1 = {death="6599.1.1"}
}
106300523 = {
	name="Sharako"	# a lord, canon
	dynasty=300523
	
	martial = 9

	religion="weeping_lady"
	culture="lysene"

	father=103300523
	mother=203300523
	
	add_trait = skilled_tactician

	6557.1.1 = {birth="6557.1.1"}
	6583.1.1 = {add_trait=skilled_warrior}
	6585.1.1 = {add_spouse=206300523}
	6608.1.1 = {death="6608.1.1"}
}
206300523 = {
	name="Syrea"
	female=yes

	religion="weeping_lady"
	culture="lysene"

	6557.1.1 = {birth="6557.1.1"}
	6611.1.1 = {death="6611.1.1"}
}
107300523 = {
	name="Tregar"	# not a lord
	dynasty=300523

	religion="weeping_lady"
	culture="lysene"

	father=103300523
	mother=203300523

	6559.1.1 = {birth="6559.1.1"}
	6575.1.1 = {add_trait=poor_warrior}
	6577.1.1 = {add_spouse=207300523}
	6591.1.1 = {death="6591.1.1"}
}
207300523 = {
	name="Nohia"
	female=yes

	religion="weeping_lady"
	culture="lysene"

	6559.1.1 = {birth="6559.1.1"}
	6591.1.1 = {death="6591.1.1"}
}
108300523 = {
	name="Meralyn"	# not a lord
	dynasty=300523

	religion="weeping_lady"
	culture="lysene"

	father=106300523
	mother=206300523

	6600.1.1 = {birth="6600.1.1"}
	6616.1.1 = {add_trait=skilled_warrior}
	6668.1.1 = {death="6668.1.1"}
}
109300523 = {
	name="Talea"	# not a lord
	female=yes
	dynasty=300523

	religion="weeping_lady"
	culture="lysene"

	father=106300523
	mother=206300523

	6603.1.1 = {birth="6603.1.1"}
	6651.1.1 = {death="6651.1.1"}
}
110300523 = {
	name="Mellario"	# a lord
	female=yes
	dynasty=300523

	religion="weeping_lady"
	culture="lysene"

	father=107300523
	mother=207300523

	6583.1.1 = {birth="6583.1.1"}
	6644.1.1 = { death = { death_reason = death_murder } }
}
111300523 = {
	name="Tregar"	# a lord
	dynasty=300523

	religion="weeping_lady"
	culture="lysene"

	father=107300523
	mother=207300523

	6587.1.1 = {birth="6587.1.1"}
	6603.1.1 = {add_trait=trained_warrior}
	6605.1.1 = {add_spouse=211300523}
	6638.1.1 = {death="6638.1.1"}
}
211300523 = {
	name="Cossoma"
	female=yes

	religion="weeping_lady"
	culture="lysene"

	6587.1.1 = {birth="6587.1.1"}
	6645.1.1 = {death="6645.1.1"}
}
112300523 = {
	name="Illyrio"	# a lord
	dynasty=300523

	religion="weeping_lady"
	culture="lysene"

	father=111300523
	mother=211300523

	6626.1.1 = {birth="6626.1.1"}
	6646.1.1 = {add_trait=poor_warrior}
	6648.1.1 = {add_spouse=212300523}
	6686.1.1 = {death="6686.1.1"}
}
212300523 = {
	name="Gylenios"
	female=yes

	religion="weeping_lady"
	culture="lysene"

	6626.1.1 = {birth="6626.1.1"}
	6686.1.1 = {death="6686.1.1"}
}
113300523 = {
	name="Oro"	# not a lord
	dynasty=300523

	religion="weeping_lady"
	culture="lysene"

	father=111300523
	mother=211300523

	6636.1.1 = {birth="6636.1.1"}
	6652.1.1 = {add_trait=poor_warrior}
	6654.1.1 = {add_spouse=213300523}
	6693.1.1 = {death="6693.1.1"}
}
213300523 = {
	name="Mera"
	female=yes

	religion="weeping_lady"
	culture="lysene"

	6636.1.1 = {birth="6636.1.1"}
	6693.1.1 = {death="6693.1.1"}
}
114300523 = {
	name="Tycho"	# a lord
	dynasty=300523

	religion="weeping_lady"
	culture="lysene"

	father=112300523
	mother=212300523

	6648.1.1 = {birth="6648.1.1"}
	6664.1.1 = {add_trait=skilled_warrior}
	6666.1.1 = {add_spouse=214300523}
	6710.1.1 = {death="6710.1.1"}
}
214300523 = {
	name="Betharios"
	female=yes

	religion="weeping_lady"
	culture="lysene"

	6648.1.1 = {birth="6648.1.1"}
	6710.1.1 = {death="6710.1.1"}
}
115300523 = {
	name="Tycha"	# not a lord
	female=yes
	dynasty=300523

	religion="weeping_lady"
	culture="lysene"

	father=112300523
	mother=212300523

	6651.1.1 = {birth="6651.1.1"}
	6710.1.1 = {death="6710.1.1"}
}
116300523 = {
	name="Beqqo"	# not a lord
	dynasty=300523

	religion="weeping_lady"
	culture="lysene"

	father=114300523
	mother=214300523

	6679.1.1 = {birth="6679.1.1"}
	6694.1.1 = {add_spouse=216300523}
	6697.1.1 = {death = {death_reason = death_accident}}
}
216300523 = {
	name="Rogga"
	female=yes

	religion="weeping_lady"
	culture="lysene"

	6679.1.1 = {birth="6679.1.1"}
	6697.1.1 = {death="6697.1.1"}
}
117300523 = {
	name="Yna"	# not a lord
	female=yes
	dynasty=300523

	religion="weeping_lady"
	culture="lysene"

	father=114300523
	mother=214300523

	6681.1.1 = {birth="6681.1.1"}
	6710.1.1 = {death = {death_reason = death_murder}}
}
118300523 = {
	name="Tregar"	# a lord
	dynasty=300523

	religion="weeping_lady"
	culture="lysene"

	father=114300523
	mother=214300523

	6682.1.1 = {birth="6682.1.1"}
	6698.1.1 = {add_trait=poor_warrior}
	6700.1.1 = {add_spouse=218300523}
	6722.1.1 = {death="6722.1.1"}
}
218300523 = {
	name="Lothea"
	female=yes

	religion="weeping_lady"
	culture="lysene"

	6682.1.1 = {birth="6682.1.1"}
	6722.1.1 = {death="6722.1.1"}
}
119300523 = {
	name="Ezzere"	# not a lord
	female=yes
	dynasty=300523

	religion="weeping_lady"
	culture="lysene"

	father=114300523
	mother=214300523

	6683.1.1 = {birth="6683.1.1"}
	6703.1.1 = {death="6703.1.1"}
}
120300523 = {
	name="Lothea"	# not a lord
	female=yes
	dynasty=300523

	religion="weeping_lady"
	culture="lysene"

	father=118300523
	mother=218300523

	6703.1.1 = {birth="6703.1.1"}
}
121300523 = {
	name="Gyleno"	# a lord
	dynasty=300523

	religion="weeping_lady"
	culture="lysene"

	father=118300523
	mother=218300523

	6704.1.1 = {birth="6704.1.1"}
	6720.1.1 = {add_trait=poor_warrior}
	6722.1.1 = {add_spouse=221300523}
	6755.1.1 = {death="6755.1.1"}
}
221300523 = {
	name="Taena"
	female=yes

	religion="weeping_lady"
	culture="lysene"

	6704.1.1 = {birth="6704.1.1"}
	6755.1.1 = {death="6755.1.1"}
}
122300523 = {
	name="Illyrio"	# a lord
	dynasty=300523

	religion="weeping_lady"
	culture="lysene"

	father=121300523
	mother=221300523

	6738.1.1 = {birth="6738.1.1"}
	6754.1.1 = {add_trait=skilled_warrior}
	6759.1.1 = {add_spouse=222300523}
}
222300523 = {
	name="Bellagere"
	female=yes

	religion="weeping_lady"
	culture="lysene"

	6738.1.1 = {birth="6738.1.1"}
}
123300523 = {
	name="Bellonara"	# not a lord
	female=yes
	dynasty=300523

	religion="weeping_lady"
	culture="lysene"

	father=121300523
	mother=221300523

	6739.1.1 = {birth="6739.1.1"}
}
124300523 = {
	name="Orbela"	# not a lord
	female=yes
	dynasty=300523

	religion="weeping_lady"
	culture="lysene"

	father=121300523
	mother=221300523

	6740.1.1 = {birth="6740.1.1"}
	6789.1.1 = {death="6789.1.1"}
}
125300523 = {
	name="Khorane"	# not a lord
	dynasty=300523

	religion="weeping_lady"
	culture="lysene"

	father=121300523
	mother=221300523

	6743.1.1 = {birth="6743.1.1"}
	6759.1.1 = {add_trait=poor_warrior}
}
126300523 = {
	name="Terrios"	# not a lord
	female=yes
	dynasty=300523

	religion="weeping_lady"
	culture="lysene"

	father=121300523
	mother=221300523

	6745.1.1 = {birth="6745.1.1"}
	6755.1.1 = {death="6755.1.1"}
}
127300523 = {
	name="Ternessio"
	dynasty=300523

	religion="weeping_lady"
	culture="lysene"

	father=122300523
	mother=222300523

	6761.1.1 = {birth="6761.1.1"}
}

###Pirates of the Stepstones###
#Sunstone
100982367 = {
	name="Mero"	# not a lord
	dynasty=982367

	religion="pirate"
	culture="lysene"

	6453.1.1 = {birth="6453.1.1"}
	6469.1.1 = {add_trait=trained_warrior}
	6502.1.1 = {death="6502.1.1"}
}
101982367 = {
	name="Denyo"	# a lord
	dynasty=982367

	religion="pirate"
	culture="lysene"

	father=100982367

	6485.1.1 = {birth="6485.1.1"}
	6501.1.1 = {add_trait=trained_warrior}
	6524.1.1 = {death="6524.1.1"}
}
104982367 = {
	name="Yorko"	# a lord
	dynasty=982367

	religion="pirate"
	culture="lysene"

	father=101982367

	6508.1.1 = {birth="6508.1.1"}
	6524.1.1 = {add_trait=skilled_warrior}
	6567.1.1 = {death="6567.1.1"}
}
105982367 = {
	name="Ternesio"	# a lord
	dynasty=982367

	religion="pirate"
	culture="lysene"

	father=104982367

	6535.1.1 = {birth="6535.1.1"}
	6551.1.1 = {add_trait=poor_warrior}
	6615.1.1 = {death="6615.1.1"}
}
109982367 = {
	name="Allaquo"	# a lord
	dynasty=982367

	religion="pirate"
	culture="lysene"

	father=105982367

	6555.1.1 = {birth="6555.1.1"}
	6571.1.1 = {add_trait=trained_warrior}
	6622.1.1 = {death="6622.1.1"}
}
112982367 = {
	name="Tycho"	# a lord
	dynasty=982367

	religion="pirate"
	culture="lysene"

	father=109982367

	6593.1.1 = {birth="6593.1.1"}
	6609.1.1 = {add_trait=skilled_warrior}
	6638.1.1 = {death="6638.1.1"}
}
113982367 = {
	name="Ordello"	# a lord
	dynasty=982367

	religion="pirate"
	culture="lysene"

	father=112982367

	6615.1.1 = {birth="6615.1.1"}
	6631.1.1 = {add_trait=poor_warrior}
	6653.1.1 = {death = {death_reason = death_murder}}
}
114982367 = {
	name="Sallodhor"	# a lord
	dynasty=982367

	religion="pirate"
	culture="lysene"

	father=113982367

	6634.1.1 = {birth="6634.1.1"}
	6650.1.1 = {add_trait=skilled_warrior}
	6680.1.1 = {death = {death_reason = death_murder}}
}
115982367 = {
	name="Meralyn"	# a lord
	dynasty=982367

	religion="pirate"
	culture="lysene"

	father=114982367

	6658.1.1 = {birth="6658.1.1"}
	6674.1.1 = {add_trait=poor_warrior}
	6712.1.1 = {death="6712.1.1"}
}
116982367 = {
	name="Daario"	# a lord
	dynasty=982367

	religion="pirate"
	culture="lysene"

	father=115982367

	6686.1.1 = {birth="6686.1.1"}
	6702.1.1 = {add_trait=master_warrior}
	6732.1.1 = {death="6732.1.1"}
}
117982367 = {
	name="Tormo"	# a lord
	dynasty=982367

	religion="pirate"
	culture="lysene"

	father=116982367

	6712.1.1 = {birth="6712.1.1"}
	6728.1.1 = {add_trait=poor_warrior}
}
118982367 = {
	name="Ferrego"	# not a lord
	dynasty=982367

	religion="pirate"
	culture="lysene"

	father=117982367

	6742.1.1 = {birth="6742.1.1"}
	6758.1.1 = {add_trait=trained_warrior}
}
###House Saan###
100982370 = {
	name="Lysono"	# a lord
	dynasty=982370

	religion="pirate"
	culture="lysene"
	
	add_trait = ruthless
	add_trait = tough_soldier

	6453.1.1 = {birth="6453.1.1"}
	6469.1.1 = {add_trait=trained_warrior}
	6471.1.1 = {add_spouse=400982370}
	6502.1.1 = {death="6502.1.1"}
}
400982370 = {
	name="Orbela"
	female=yes

	religion="pirate"
	culture="lysene"

	6453.1.1 = {birth="6453.1.1"}
	6502.1.1 = {death="6502.1.1"}
}
101982370 = {
	name="Salassor"	# a lord
	dynasty=982370

	religion="pirate"
	culture="lysene"

	father=100982370
	mother=400982370
	
	add_trait = ruthless
	add_trait = tough_soldier

	6485.1.1 = {birth="6485.1.1"}
	6501.1.1 = {add_trait=trained_warrior}
	6503.1.1 = {add_spouse=401982370}
	6535.1.1 = {death="6535.1.1"}
}
401982370 = {
	name="Qarria"
	female=yes

	religion="pirate"
	culture="lysene"

	6485.1.1 = {birth="6485.1.1"}
	6535.1.1 = {death="6535.1.1"}
}
102982370 = {
	name="Groleo"	# not a lord
	dynasty=982370

	religion="pirate"
	culture="lysene"

	father=100982370
	mother=400982370

	6487.1.1 = {birth="6487.1.1"}
	6503.1.1 = {add_trait=trained_warrior}
	6558.1.1 = {death = {death_reason = death_accident}}
}
103982370 = {
	name="Jaqea"	# not a lord
	female=yes
	dynasty=982370

	religion="pirate"
	culture="lysene"

	father=101982370
	mother=401982370

	6520.1.1 = {birth="6520.1.1"}
	6544.1.1 = {death="6544.1.1"}
}
105982370 = {
	name="Collio"	# a lord
	dynasty=982370

	religion="pirate"
	culture="lysene"

	father=101982370
	mother=401982370

	6525.1.1 = {birth="6525.1.1"}
	6541.1.1 = {add_trait=poor_warrior}
	6543.1.1 = {add_spouse=405982370}
	6593.1.1 = {death="6593.1.1"}
}
405982370 = {
	name="Betharios"
	female=yes

	religion="pirate"
	culture="lysene"

	6525.1.1 = {birth="6525.1.1"}
	6593.1.1 = {death="6593.1.1"}
}
106982370 = {
	name="Tregar"	# a lord
	dynasty=982370

	religion="pirate"
	culture="lysene"

	father=105982370
	mother=405982370

	6553.1.1 = {birth="6553.1.1"}
	6569.1.1 = {add_trait=skilled_warrior}
	6571.1.1 = {add_spouse=406982370}
	6616.1.1 = {death="6616.1.1"}
}
406982370 = {
	name="Ternesia"
	female=yes

	religion="pirate"
	culture="lysene"

	6553.1.1 = {birth="6553.1.1"}
	6616.1.1 = {death="6616.1.1"}
}
107982370 = {
	name="Ferrega"	# not a lord
	female=yes
	dynasty=982370

	religion="pirate"
	culture="lysene"

	father=105982370
	mother=405982370

	6554.1.1 = {birth="6554.1.1"}
	6600.1.1 = {death="6600.1.1"}
}
108982370 = {
	name="Taena"	# not a lord
	female=yes
	dynasty=982370

	religion="pirate"
	culture="lysene"

	father=106982370
	mother=406982370

	6574.1.1 = {birth="6574.1.1"}
	6627.1.1 = {death="6627.1.1"}
}
110982370 = {
	name="Sulleham"	# a lord, semi canon from the MUSH
	dynasty=982370

	religion="pirate"
	culture="lysene"

	father=106982370
	mother=406982370

	6579.1.1 = {birth="6579.1.1"}
	6595.1.1 = {add_trait=skilled_warrior}
	6597.1.1 = {add_spouse=410982370}
	6645.1.1 = {death="6645.1.1"}
}
410982370 = {
	name="Mellario"
	female=yes

	religion="pirate"
	culture="lysene"

	6579.1.1 = {birth="6579.1.1"}
	6645.1.1 = {death="6645.1.1"}
}
150982370 = {
	name="Saathos"	# Canon, Corsair King
	dynasty=982370
	
	martial=5
	stewardship=3
	diplomacy=5
	intrigue=4
	learning=2

	religion="pirate"
	culture="lysene"

	father=106982370
	mother=406982370
	
	
	6580.1.1 = {birth="6580.1.1"}
	6596.1.1 = {add_trait=trained_warrior}
	6633.1.1 = {
		death="6633.1.1"
	}
}
111982370 = {
	name="Gyleno"	# a lord
	dynasty=982370

	religion="pirate"
	culture="lysene"

	father=110982370
	mother=410982370

	6606.1.1 = {birth="6606.1.1"}
	6622.1.1 = {add_trait=trained_warrior}
	6624.1.1 = {add_spouse=411982370}
	6658.1.1 = {death = {death_reason = death_battle}}
}
411982370 = {
	name="Rogga"
	female=yes

	religion="pirate"
	culture="lysene"

	6606.1.1 = {birth="6606.1.1"}
	6658.1.1 = {death="6658.1.1"}
}
112982370 = {
	name="Lysono"	# a lord
	dynasty=982370

	religion="pirate"
	culture="lysene"

	father=111982370
	mother=411982370

	6635.1.1 = {birth="6635.1.1"}
	6651.1.1 = {add_trait=poor_warrior}
	6653.1.1 = {add_spouse=412982370}
	6697.1.1 = {death="6697.1.1"}
}
412982370 = {
	name="Alia"
	female=yes

	religion="pirate"
	culture="lysene"

	6635.1.1 = {birth="6635.1.1"}
	6697.1.1 = {death="6697.1.1"}
}
113982370 = {
	name="Qarria"	# not a lord
	female=yes
	dynasty=982370

	religion="pirate"
	culture="lysene"

	father=111982370
	mother=411982370

	6637.1.1 = {birth="6637.1.1"}
	6686.1.1 = {death="6686.1.1"}
}
114982370 = {
	name="Noho"	# a lord
	dynasty=982370

	religion="pirate"
	culture="lysene"

	father=112982370
	mother=412982370

	6668.1.1 = {birth="6668.1.1"}
	6684.1.1 = {add_trait=skilled_warrior}
	6728.1.1 = {death="6728.1.1"}
}
115982370 = {
	name="Ordello"	# a lord
	dynasty=982370

	religion="pirate"
	culture="lysene"

	father=112982370
	mother=412982370

	6669.1.1 = {birth="6669.1.1"}
	6685.1.1 = {add_trait=trained_warrior}
	6687.1.1 = {add_spouse=415982370}
	6731.1.1 = {death="6731.1.1"}
}
415982370 = {
	name="Rogga"
	female=yes

	religion="pirate"
	culture="lysene"

	6669.1.1 = {birth="6669.1.1"}
	6744.1.1 = {death="6744.1.1"}
}
117982370 = {
	name="Terro"	# not a lord
	dynasty=982370

	religion="pirate"
	culture="lysene"

	father=115982370
	mother=415982370

	6703.1.1 = {birth="6703.1.1"}
	6719.1.1 = {add_trait=poor_warrior}
	6723.1.1 = {death="6723.1.1"}
}
118982370 = {
	name="Samarro"	# a lord
	dynasty=982370

	religion="pirate"
	culture="lysene"
	
	martial=12
	diplomacy=10
	intrigue=8
	stewardship=5
	add_trait="pirate"
	add_trait=greedy
	add_trait=ruthless
	add_trait=proud

	father=115982370
	mother=415982370

	6705.1.1 = {birth="6705.1.1"}
	6721.1.1 = {add_trait=skilled_warrior}
	6723.1.1 = {add_spouse=418982370}
	6737.1.1 = {
		give_nickname = nick_the_last_valyrian
		effect = { 
			set_character_flag = band_of_nine
			liege = {
				reverse_opinion = {
					who = ROOT
					modifier = opinion_band_of_nine
					years = 20
				}
			}	
		} 
	}
	6758.1.1 = {death="6758.1.1"}
}
418982370 = {
	name="Terrios"
	female=yes

	religion="pirate"
	culture="lysene"

	6705.1.1 = {birth="6705.1.1"}
	6758.1.1 = {death="6758.1.1"}
}


### Bloodstone rulers to stop fix targaryen title history
1001639 = {
	name="Syrio"	# not a lord
	dynasty=982375

	religion="pirate"
	culture="lysene"
	
	add_trait = poison

	6443.1.1 = {birth="6443.1.1"}
	6459.1.1 = {add_trait=skilled_warrior}
	6461.1.1 = {add_spouse=4001639}
	6501.1.1 = {death="6501.1.1"}
}
4001639 = {
	name="Syrea"
	female=yes

	religion="pirate"
	culture="lysene"

	6443.1.1 = {birth="6443.1.1"}
	6501.1.1 = {death="6501.1.1"}
}
1011639 = {
	name="Mero"	# a lord
	dynasty=982375

	religion="pirate"
	culture="lysene"

	father=1001639
	mother=4001639

	6472.1.1 = {birth="6472.1.1"}
	6488.1.1 = {add_trait=skilled_warrior}
	6490.1.1 = {add_spouse=4011639}
	6501.1.1 = {add_trait = poison}
	6510.1.1 = {death="6510.1.1"}
}
4011639 = {
	name="Lanna"
	female=yes

	religion="pirate"
	culture="lysene"

	6472.1.1 = {birth="6472.1.1"}
	6510.1.1 = {death="6510.1.1"}
}
1051639 = {
	name="Daario"	# not a lord
	dynasty=982375

	religion="pirate"
	culture="lysene"

	father=1001639
	mother=4001639

	6474.1.1 = {birth="6474.1.1"}
	6490.1.1 = {add_trait=poor_warrior}
	6532.1.1 = {death="6532.1.1"}
}
1061639 = {
	name="Torma"	# not a lord
	female=yes
	dynasty=982375

	religion="pirate"
	culture="lysene"

	father=1011639
	mother=4011639

	6500.1.1 = {birth="6500.1.1"}
	6506.1.1 = {death="6506.1.1"}
}
1071639 = {
	name="Moredo"	# a lord
	dynasty=982375

	religion="pirate"
	culture="lysene"

	father=1011639
	mother=4011639

	6503.1.1 = {birth="6503.1.1"}
	6510.1.1 = {add_trait = poison}
	6519.1.1 = {add_trait=trained_warrior}
	6521.1.1 = {add_spouse=4071639}
	6559.1.1 = {death="6559.1.1"}
}
4071639 = {
	name="Moredea"
	female=yes

	religion="pirate"
	culture="lysene"

	6503.1.1 = {birth="6503.1.1"}
	6559.1.1 = {death="6559.1.1"}
}
1081639 = {
	name="Yorko"	# a lord
	dynasty=982375

	religion="pirate"
	culture="lysene"

	father=1071639
	mother=4071639

	6532.1.1 = {birth="6532.1.1"}
	6548.1.1 = {add_trait=trained_warrior}
	6550.1.1 = {add_spouse=4081639}
	6559.1.1 = {add_trait = poison}
	6607.1.1 = {death="6607.1.1"}
}
4081639 = {
	name="Bellonara"
	female=yes

	religion="pirate"
	culture="lysene"

	6532.1.1 = {birth="6532.1.1"}
	6607.1.1 = {death="6607.1.1"}
}
1091639 = {
	name="Yorka"	# not a lord
	female=yes
	dynasty=982375

	religion="pirate"
	culture="lysene"

	father=1081639
	mother=4081639

	6561.1.1 = {birth="6561.1.1"}
	6617.1.1 = {death="6617.1.1"}
}
1101639 = {
	name="Meralyn"	# a lord
	dynasty=982375

	religion="pirate"
	culture="lysene"

	father=1081639
	mother=4081639

	6564.1.1 = {birth="6564.1.1"}
	6580.1.1 = {add_trait=skilled_warrior}
	6582.1.1 = {add_spouse=4101639}
	6607.1.1 = {add_trait = poison}
	6609.1.1 = {death="6609.1.1"}
}
4101639 = {
	name="Talea"
	female=yes

	religion="pirate"
	culture="lysene"

	6564.1.1 = {birth="6564.1.1"}
	6609.1.1 = {death="6609.1.1"}
}
1111639 = {
	name="Areo"	# a lord
	dynasty=982375

	religion="pirate"
	culture="lysene"

	father=1101639
	mother=4101639

	6593.1.1 = {birth="6593.1.1"}
	6609.1.1 = {
		add_trait=skilled_warrior
		add_trait=poison
	}
	6611.1.1 = {add_spouse=4111639}
	6631.1.1 = {death = {death_reason = death_execution}}
}
4111639 = {
	name="Lucerre"
	female=yes

	religion="pirate"
	culture="lysene"

	6593.1.1 = {birth="6593.1.1"}
	6631.1.1 = {death="6631.1.1"}
}
1121639 = {
	name="Terro"	# not a lord
	dynasty=982375

	religion="pirate"
	culture="lysene"

	father=1101639
	mother=4101639

	6594.1.1 = {birth="6594.1.1"}
	6610.1.1 = {add_trait=poor_warrior}
	6649.1.1 = {death="6649.1.1"}
}
1131639 = {
	name="Orbela"	# not a lord
	female=yes
	dynasty=982375

	religion="pirate"
	culture="lysene"

	father=1111639
	mother=4111639

	6617.1.1 = {birth="6617.1.1"}
	6670.1.1 = {death="6670.1.1"}
}
1141639 = {
	name="Beqqo"	# a lord
	dynasty=982375

	religion="pirate"
	culture="lysene"

	father=1111639
	mother=4111639

	6619.1.1 = {birth="6619.1.1"}
	6631.1.1 = {add_trait = poison}
	6635.1.1 = {add_trait=trained_warrior}
	6637.1.1 = {add_spouse=4141639}
	6663.1.1 = {death = {death_reason = death_battle}}
}
4141639 = {
	name="Brea"
	female=yes

	religion="pirate"
	culture="lysene"

	6619.1.1 = {birth="6619.1.1"}
	6663.1.1 = {death="6663.1.1"}
}
1151639 = {
	name="Moreo"	# a lord
	dynasty=982375

	religion="pirate"
	culture="lysene"

	father=1141639
	mother=4141639

	6637.1.1 = {birth="6637.1.1"}
	6653.1.1 = {add_trait=trained_warrior}
	6663.1.1 = {add_trait = poison}
	6695.1.1 = {death="6695.1.1"}
}
1161639 = {
	name="Jaqen"	# not a lord
	dynasty=982375

	religion="pirate"
	culture="lysene"

	father=1141639
	mother=4141639

	6639.1.1 = {birth="6639.1.1"}
	6655.1.1 = {add_trait=master_warrior}
	6694.1.1 = {death = {death_reason = death_accident}}
}
1171639 = {
	name="Denyo"	# a lord
	dynasty=982375

	religion="pirate"
	culture="lysene"

	father=1141639
	mother=4141639

	6642.1.1 = {birth="6642.1.1"}
	6658.1.1 = {add_trait=trained_warrior}
	6660.1.1 = {add_spouse=4171639}
	6695.1.1 = {add_trait = poison}
	6700.1.1 = {death="6700.1.1"}
}
4171639 = {
	name="Betharios"
	female=yes

	religion="pirate"
	culture="lysene"

	6642.1.1 = {birth="6642.1.1"}
	6700.1.1 = {death="6700.1.1"}
}
1181639 = {
	name="Sallodhor"	# not a lord
	dynasty=982375

	religion="pirate"
	culture="lysene"

	father=1141639
	mother=4141639

	6644.1.1 = {birth="6644.1.1"}
	6660.1.1 = {add_trait=poor_warrior}
	6720.1.1 = {death="6720.1.1"}
}
1191639 = {
	name="Illyrio"	# a lord
	dynasty=982375

	religion="pirate"
	culture="lysene"

	father=1171639
	mother=4171639

	6673.1.1 = {birth="6673.1.1"}
	6689.1.1 = {add_trait=poor_warrior}
	6691.1.1 = {add_spouse=4191639}
	6700.1.1 = {add_trait = poison}
	6729.1.1 = {death = {death_reason = death_accident}}
}
4191639 = {
	name="Ferrega"
	female=yes

	religion="pirate"
	culture="lysene"

	6673.1.1 = {birth="6673.1.1"}
	6738.1.1 = {death="6738.1.1"}
}
10001639 = {
	name="Roro"	# a lord
	dynasty=982375

	religion="pirate"
	culture="lysene"

	father=1191639
	mother=4191639

	6706.1.1 = {birth="6706.1.1"}
	6722.1.1 = {add_trait=skilled_warrior}
	6724.1.1 = {add_spouse=40001639}
	6738.11.11 = {add_trait = poison}
	6759.1.1 = {death = {death_reason = death_battle}}
}
40001639 = {
	name="Narba"
	female=yes

	religion="pirate"
	culture="lysene"

	6706.1.1 = {birth="6706.1.1"}
	6759.1.1 = {death="6759.1.1"}
}
1201639 = {
	name="Sallodhor"	# not a lord
	dynasty=982375

	religion="pirate"
	culture="lysene"

	father=1191639
	mother=4191639

	6708.1.1 = {birth="6708.1.1"}
	6724.1.1 = {add_trait=poor_warrior}
	6761.1.1 = {death="6761.1.1"}
}
1211639 = {
	name="Pynta"	# not a lord
	female=yes
	dynasty=982375

	religion="pirate"
	culture="lysene"

	father=1191639
	mother=4191639

	6709.1.1 = {birth="6709.1.1"}
	6758.1.1 = {death="6758.1.1"}
}
10011639 = {
	name="Lothea"	# not a lord
	female=yes
	dynasty=982375

	religion="pirate"
	culture="lysene"

	father=10001639
	mother=40001639

	6729.1.1 = {birth="6729.1.1"}
	6805.1.1 = {death="6805.1.1"}
}
10021639 = {
	name = "Gyleno"	# a lord
	dynasty = 982375
	dna = blfdepiddfu
	properties = mn0eck000000

	religion = pirate
	culture = lysene

	father = 10001639
	mother = 40001639
	
	diplomacy = 6
	martial = 6
	stewardship = 5
	intrigue = 5
	learning = 3
	
	add_trait = fair
	add_trait = ruthless
	add_trait = brave
	add_trait = deceitful
	add_trait = gregarious
	add_trait = lustful

	6740.1.1 = { birth= "6740.1.1" }
	6756.1.1 = {
		add_trait = tough_soldier
		add_trait = trained_warrior
		add_trait = duelist
		add_trait = trickster
	}
	6758.1.1 = { add_spouse=40021639 }
	6759.1.1 = {add_trait = poison}
}
40021639 = {
	name="Betharios"
	female=yes

	religion="pirate"
	culture="lysene"

	6730.1.1 = {birth="6730.1.1"}
	6796.1.1 = {death="6796.1.1"}
}
# 10031639 = {
	# name="Moredo"	# not a lord
	# dynasty=982375

	# religion="pirate"
	# culture="lysene"

	# father=10001639
	# mother=40001639

	# 6732.1.1 = {birth="6732.1.1"}
	# 6748.1.1 = {add_trait=skilled_warrior}
	# 6776.1.1 = {death="6776.1.1"}
# }
# 10041639 = {
	# name="Jaqen"	# not a lord
	# dynasty=982375

	# religion="pirate"
	# culture="lysene"

	# father=10001639
	# mother=40001639

	# 6733.1.1 = {birth="6733.1.1"}
	# 6749.1.1 = {add_trait=trained_warrior}
	# 6767.1.1 = {death="6767.1.1"}
# }
10051639 = {
	name="Gylora"	# not a lord
	female=yes
	dynasty=982375

	religion="pirate"
	culture="lysene"

	father=10001639
	mother=40001639

	6735.1.1 = {birth="6735.1.1"}
	6775.1.1 = {death = {death_reason = death_dungeon}}
}
10061639 = {
	name="Tormo"	# not a lord
	dynasty=982375

	religion="pirate"
	culture="lysene"

	father=10021639
	mother=40021639

	6767.1.1 = {birth="6767.1.1"}
}
10071639 = {
	name="Daario"	# not a lord
	dynasty=982375

	religion="pirate"
	culture="lysene"

	father=10021639
	mother=40021639

	6770.1.1 = {birth="6770.1.1"}
}
10081639 = {
	name="Ternesia"	# not a lord
	female=yes
	dynasty=982375

	religion="pirate"
	culture="lysene"

	father=10021639
	mother=40021639

	6774.1.1 = {birth="6774.1.1"}
}
10091639 = {
	name="Alia"	# not a lord
	female=yes
	dynasty=982375

	religion="pirate"
	culture="lysene"

	mother=10051639

	6775.1.1 = {birth="6775.1.1"}
}
