#First King of the Andals
900174999 = {
	name="Hugor"
	dynasty = 174999 #of the Hill
	
	religion="the_seven"
	culture="old_andal"
	
	martial=10
	diplomacy=7
	intrigue=5
	stewardship=10
	
	add_trait="knight"
	add_trait="quick"
	add_trait="master_warrior"
	add_trait="diligent"
	add_trait="zealous"
	add_trait="brave"
	add_trait="authoritative"

	10.1.1={birth="10.1.1"}
	88.1.1={death="88.1.1"}
}
10174918 = {
	name="Argos"
	dynasty = 174918
	
	religion="the_seven"
	culture="old_andal"
	
	martial=7
	diplomacy=6
	intrigue=5
	stewardship=5
	
	add_trait="ambitious"
	add_trait="ruthless"
	add_trait="brave"
	add_trait="wroth"
	add_trait="zealous"
	
	6578.1.1={birth="6578.1.1"}
	6593.1.1={
		add_trait="skilled_warrior"
		add_trait="knight"
	}
	6601.1.1={
		death = {
			death_reason = death_execution
			killer = 820059 # Theon Stark
		}
	}
}

#King of Lorath
901174999 = {
	name="Qarlon"
	dynasty = 174917
	
	religion="the_seven"
	culture="old_andal"
	
	martial=7
	diplomacy=6
	intrigue=5
	stewardship=5
	
	add_trait="quick"
	add_trait="ambitious"
	add_trait="brilliant_strategist"
	add_trait="ruthless"
	add_trait="brave"
	add_trait="wroth"
	add_trait="zealous"
	
	6425.1.1={birth="6425.1.1"}
	6431.1.1={
		add_trait="skilled_warrior"
		add_trait="knight"
	}
	6459.1.1={
		give_nickname=nick_the_great
	}
	6478.1.1={
		effect = {
			set_global_flag = andal_invasion_of_norvos
			e_new_valyria = {
				holder_scope = {
					opinion = { who = ROOT modifier = declared_war_on_tributary }
				}
			}
		}
	}
	6479.1.1={
		death={
			death_reason=death_battle
		}
	}
}
902174999 = {
	name="Uthor"	# a lord
	dynasty=174917

	religion="the_seven"
	culture="old_andal"

	father=901174999

	6442.1.1 = {birth="6442.1.1"}
	6460.1.1 = {add_trait=knight add_trait=skilled_warrior}
	6479.1.1={
		death={
			death_reason=death_battle
		}
	}
}
903174999 = {
	name="Atrys"	# a lord
	dynasty=174917

	religion="the_seven"
	culture="old_andal"

	father=901174999

	6447.1.1 = {birth="6447.1.1"}
	6465.1.1 = {add_trait=knight add_trait=skilled_warrior}
	6479.1.1={
		death={
			death_reason=death_battle
		}
	}
}
###House Hill
100174900 = {
	name="Marwyn"	# a lord
	dynasty=174900

	religion="the_seven"
	culture="old_andal"

	6443.1.1 = {birth="6443.1.1"}
	6459.1.1 = {add_trait=knight add_trait=trained_warrior}
	6461.1.1 = {add_spouse=400174900}
	6501.1.1 = {death="6501.1.1"}
}
400174900 = {
	name="Carolei"
	female=yes

	religion="the_seven"
	culture="old_andal"

	6443.1.1 = {birth="6443.1.1"}
	6501.1.1 = {death="6501.1.1"}
}
101174900 = {
	name="Uthor"	# a lord
	dynasty=174900

	religion="the_seven"
	culture="old_andal"

	father=100174900
	mother=400174900

	6471.1.1 = {birth="6471.1.1"}
	6487.1.1 = {add_trait=knight add_trait=skilled_warrior}
	6489.1.1 = {add_spouse=401174900}
	6543.1.1 = {death="6543.1.1"}
}
401174900 = {
	name="Pia"
	female=yes

	religion="the_seven"
	culture="old_andal"

	6471.1.1 = {birth="6471.1.1"}
	6543.1.1 = {death="6543.1.1"}
}
102174900 = {
	name="Othor"	# not a lord
	dynasty=174900

	religion="the_seven"
	culture="old_andal"

	father=100174900
	mother=400174900

	6472.1.1 = {birth="6472.1.1"}
	6488.1.1 = {add_trait=knight add_trait=poor_warrior}
	6490.1.1 = {add_spouse=402174900}
	6528.1.1 = {death="6528.1.1"}
}
402174900 = {
	name="Janyce"
	female=yes

	religion="the_seven"
	culture="old_andal"

	6472.1.1 = {birth="6472.1.1"}
	6528.1.1 = {death="6528.1.1"}
}
103174900 = {
	name="Becca"	# not a lord
	female=yes
	dynasty=174900

	religion="the_seven"
	culture="old_andal"

	father=101174900
	mother=401174900

	6499.1.1 = {birth="6499.1.1"}
	6557.1.1 = {death="6557.1.1"}
}
104174900 = {
	name="Amerei"	# not a lord
	female=yes
	dynasty=174900

	religion="the_seven"
	culture="old_andal"

	father=102174900
	mother=402174900

	6491.1.1 = {birth="6491.1.1"}
	6549.1.1 = {death="6549.1.1"}
}
105174900 = {
	name="Pate"	# a lord
	dynasty=174900

	religion="the_seven"
	culture="old_andal"

	father=102174900
	mother=402174900

	6493.1.1 = {birth="6493.1.1"}
	6509.1.1 = {add_trait=knight add_trait=poor_warrior}
	6511.1.1 = {add_spouse=405174900}
	6554.1.1 = {death="6554.1.1"}
}
405174900 = {
	name="Amabel"
	female=yes

	religion="the_seven"
	culture="old_andal"

	6493.1.1 = {birth="6493.1.1"}
	6554.1.1 = {death="6554.1.1"}
}
106174900 = {
	name="Morgarth"	# not a lord
	dynasty=174900

	religion="the_seven"
	culture="old_andal"

	father=102174900
	mother=402174900

	6496.1.1 = {birth="6496.1.1"}
	6512.1.1 = {add_trait=poor_warrior}
	6547.1.1 = {death="6547.1.1"}
}
107174900 = {
	name="Symond"	# a lord
	dynasty=174900

	religion="the_seven"
	culture="old_andal"

	father=105174900
	mother=405174900

	6522.1.1 = {birth="6522.1.1"}
	6538.1.1 = {add_trait=poor_warrior}
	6540.1.1 = {add_spouse=407174900}
	6575.1.1 = {death="6575.1.1"}
}
407174900 = {
	name="Myranda"
	female=yes

	religion="the_seven"
	culture="old_andal"

	6522.1.1 = {birth="6522.1.1"}
	6575.1.1 = {death="6575.1.1"}
}
108174900 = {
	name="Osgood"	# a lord
	dynasty=174900

	religion="the_seven"
	culture="old_andal"

	father=107174900
	mother=407174900

	6545.1.1 = {birth="6545.1.1"}
	6561.1.1 = {add_trait=poor_warrior}
	6579.1.1 = {death = {death_reason = death_murder}}
}
109174900 = {
	name="Robar"	# a lord
	dynasty=174900

	religion="the_seven"
	culture="old_andal"

	father=107174900
	mother=407174900

	6548.1.1 = {birth="6548.1.1"}
	6564.1.1 = {add_trait=knight add_trait=trained_warrior}
	6566.1.1 = {add_spouse=409174900}
	6596.1.1 = {death="6596.1.1"}
}
409174900 = {
	name="Gretchel"
	female=yes

	religion="the_seven"
	culture="old_andal"

	6548.1.1 = {birth="6548.1.1"}
	6596.1.1 = {death="6596.1.1"}
}
110174900 = {
	name="Denys"	# a lord
	dynasty=174900

	religion="the_seven"
	culture="old_andal"

	father=109174900
	mother=409174900

	6581.1.1 = {birth="6581.1.1"}
	6597.1.1 = {add_trait=knight add_trait=trained_warrior}
	6604.1.1 = {death="6604.1.1"}
}
111174900 = {
	name="Benedar"	# a lord
	dynasty=174900

	religion="the_seven"
	culture="old_andal"

	father=109174900
	mother=409174900

	6584.1.1 = {birth="6584.1.1"}
	6600.1.1 = {add_trait=knight add_trait=trained_warrior}
	6602.1.1 = {add_spouse=411174900}
	6650.1.1 = {death="6650.1.1"}
}
411174900 = {
	name="Myranda"
	female=yes

	religion="the_seven"
	culture="old_andal"

	6584.1.1 = {birth="6584.1.1"}
	6650.1.1 = {death="6650.1.1"}
}
112174900 = {
	name="Mela"	# not a lord
	female=yes
	dynasty=174900

	religion="the_seven"
	culture="old_andal"

	father=109174900
	mother=409174900

	6587.1.1 = {birth="6587.1.1"}
	6628.1.1 = {death = {death_reason = death_accident}}
}
113174900 = {
	name="Barbara"	# not a lord
	female=yes
	dynasty=174900

	religion="the_seven"
	culture="old_andal"

	father=109174900
	mother=409174900

	6588.1.1 = {birth="6588.1.1"}
	6626.1.1 = {death="6626.1.1"}
}
114174900 = {
	name="Eustace"	# not a lord
	dynasty=174900

	religion="the_seven"
	culture="old_andal"

	father=109174900
	mother=409174900

	6589.1.1 = {birth="6589.1.1"}
	6605.1.1 = {add_trait=poor_warrior}
	6644.1.1 = {death="6644.1.1"}
}
115174900 = {
	name="Jorelle"	# not a lord
	female=yes
	dynasty=174900

	religion="the_seven"
	culture="old_andal"

	father=111174900
	mother=411174900

	6613.1.1 = {birth="6613.1.1"}
	6636.1.1 = {death="6636.1.1"}
}
116174900 = {
	name="Annara"	# not a lord
	female=yes
	dynasty=174900

	religion="the_seven"
	culture="old_andal"

	father=111174900
	mother=411174900

	6615.1.1 = {birth="6615.1.1"}
	6669.1.1 = {death="6669.1.1"}
}
117174900 = {
	name="Gyles"	# not a lord
	dynasty=174900

	religion="the_seven"
	culture="old_andal"

	father=111174900
	mother=411174900

	6616.1.1 = {birth="6616.1.1"}
	6632.1.1 = {add_trait=knight add_trait=poor_warrior}
	6646.1.1 = {death="6646.1.1"}
}
118174900 = {
	name="Deana"	# not a lord
	female=yes
	dynasty=174900

	religion="the_seven"
	culture="old_andal"

	father=111174900
	mother=411174900

	6618.1.1 = {birth="6618.1.1"}
	6659.1.1 = {death = {death_reason = death_accident}}
}
119174900 = {
	name="Robar"	# a lord
	dynasty=174900

	religion="the_seven"
	culture="old_andal"

	father=111174900
	mother=411174900

	6620.1.1 = {birth="6620.1.1"}
	6636.1.1 = {add_trait=knight add_trait=trained_warrior}
	6638.1.1 = {add_spouse=419174900}
	6672.1.1 = {death="6672.1.1"}
}
419174900 = {
	name="Alayne"
	female=yes

	religion="the_seven"
	culture="old_andal"

	6620.1.1 = {birth="6620.1.1"}
	6672.1.1 = {death="6672.1.1"}
}
120174900 = {
	name="Lothor"	# a lord
	dynasty=174900

	religion="the_seven"
	culture="old_andal"

	father=119174900
	mother=419174900

	6641.1.1 = {birth="6641.1.1"}
	6657.1.1 = {add_trait=poor_warrior}
	6659.1.1 = {add_spouse=420174900}
	6695.1.1 = {death="6695.1.1"}
}
420174900 = {
	name="Janyce"
	female=yes

	religion="the_seven"
	culture="old_andal"

	6641.1.1 = {birth="6641.1.1"}
	6695.1.1 = {death="6695.1.1"}
}
121174900 = {
	name="Rhialta"	# not a lord
	female=yes
	dynasty=174900

	religion="the_seven"
	culture="old_andal"

	father=119174900
	mother=419174900

	6644.1.1 = {birth="6644.1.1"}
	6681.1.1 = {death="6681.1.1"}
}
122174900 = {
	name="Pia"	# not a lord
	female=yes
	dynasty=174900

	religion="the_seven"
	culture="old_andal"

	father=120174900
	mother=420174900

	6665.1.1 = {birth="6665.1.1"}
	6730.1.1 = {death="6730.1.1"}
}
123174900 = {
	name="Elys"	# a lord
	dynasty=174900

	religion="the_seven"
	culture="old_andal"

	father=120174900
	mother=420174900

	6667.1.1 = {birth="6667.1.1"}
	6683.1.1 = {add_trait=poor_warrior}
	6685.1.1 = {add_spouse=423174900}
	6719.1.1 = {death="6719.1.1"}
}
423174900 = {
	name="Annara"
	female=yes

	religion="the_seven"
	culture="old_andal"

	6667.1.1 = {birth="6667.1.1"}
	6719.1.1 = {death="6719.1.1"}
}
124174900 = {
	name="Jasper"	# a lord
	dynasty=174900

	religion="the_seven"
	culture="old_andal"

	father=123174900
	mother=423174900

	6687.1.1 = {birth="6687.1.1"}
	6703.1.1 = {add_trait=knight add_trait=trained_warrior}
	6705.1.1 = {add_spouse=424174900}
	6767.1.1 = {death="6767.1.1"}
}
424174900 = {
	name="Ravella"
	female=yes

	religion="the_seven"
	culture="old_andal"

	6687.1.1 = {birth="6687.1.1"}
	6767.1.1 = {death="6767.1.1"}
}
125174900 = {
	name="Florian"	# not a lord
	dynasty=174900

	religion="the_seven"
	culture="old_andal"

	father=123174900
	mother=423174900

	6689.1.1 = {birth="6689.1.1"}
	6705.1.1 = {add_trait=knight add_trait=poor_warrior}
	6746.1.1 = {death="6746.1.1"}
}
126174900 = {
	name="Serra"	# not a lord
	female=yes
	dynasty=174900

	religion="the_seven"
	culture="old_andal"

	father=124174900
	mother=424174900

	6710.1.1 = {birth="6710.1.1"}
	6748.1.1 = {death="6748.1.1"}
}
127174900 = {
	name="Florian"	# not a lord
	dynasty=174900

	religion="the_seven"
	culture="old_andal"

	father=124174900
	mother=424174900

	6711.1.1 = {birth="6711.1.1"}
	6727.1.1 = {add_trait=knight add_trait=master_warrior}
	6729.1.1 = {add_spouse=427174900}
	6767.1.1 = {death="6767.1.1"}
}
427174900 = {
	name="Arwyn"
	female=yes

	religion="the_seven"
	culture="old_andal"

	6711.1.1 = {birth="6711.1.1"}
	6767.1.1 = {death="6767.1.1"}
}
128174900 = {
	name="Alys"	# not a lord
	female=yes
	dynasty=174900

	religion="the_seven"
	culture="old_andal"

	father=124174900
	mother=424174900

	6714.1.1 = {birth="6714.1.1"}
	6761.1.1 = {death="6761.1.1"}
}
129174900 = {
	name="Alesandor"	# not a lord
	dynasty=174900

	religion="the_seven"
	culture="old_andal"

	father=124174900
	mother=424174900

	6716.1.1 = {birth="6716.1.1"}
	6732.1.1 = {add_trait=poor_warrior}
	6770.1.1 = {death="6770.1.1"}
}
130174900 = {
	name="Morya"	# not a lord
	female=yes
	dynasty=174900

	religion="the_seven"
	culture="old_andal"

	father=127174900
	mother=427174900

	6736.1.1 = {birth="6736.1.1"}
}
131174900 = {
	name="Ballabar"	# a lord
	dynasty=174900

	religion="the_seven"
	culture="old_andal"

	father=127174900
	mother=427174900

	6739.1.1 = {birth="6739.1.1"}
	6755.1.1 = {add_trait=poor_warrior}
	6757.1.1 = {add_spouse=431174900}
}
431174900 = {
	name="Mylessa"
	female=yes

	religion="the_seven"
	culture="old_andal"

	6739.1.1 = {birth="6739.1.1"}
}
132174900 = {
	name="Raymar"	# not a lord
	dynasty=174900

	religion="the_seven"
	culture="old_andal"

	father=127174900
	mother=427174900

	6742.1.1 = {birth="6742.1.1"}
	6758.1.1 = {add_trait=poor_warrior}
}
133174900 = {
	name="Ballabar"	# not a lord
	dynasty=174900

	religion="the_seven"
	culture="old_andal"

	father=127174900
	mother=427174900

	6743.1.1 = {birth="6743.1.1"}
	6759.1.1 = {add_trait=trained_warrior}
}
134174900 = {
	name="Edmund"	# not a lord
	dynasty=174900

	religion="the_seven"
	culture="old_andal"

	father=131174900
	mother=431174900

	6757.1.1 = {birth="6757.1.1"}
	6773.1.1 = {add_trait=knight add_trait=trained_warrior}
}
135174900 = {
	name="Mela"	# not a lord
	female=yes
	dynasty=174900

	religion="the_seven"
	culture="old_andal"

	father=131174900
	mother=431174900

	6758.1.1 = {birth="6758.1.1"}
}
136174900 = {
	name="Artys"	# not a lord
	dynasty=174900

	religion="the_seven"
	culture="old_andal"

	father=131174900
	mother=431174900

	6759.1.1 = {birth="6759.1.1"}
	6775.1.1 = {add_trait=knight add_trait=poor_warrior}
}
###House Willow
100174901 = {
	name="Morton"	# a lord
	dynasty=174901

	religion="the_seven"
	culture="old_andal"

	6422.1.1 = {birth="6422.1.1"}
	6438.1.1 = {add_trait=poor_warrior}
	6440.1.1 = {add_spouse=400174901}
	6487.1.1 = {death="6487.1.1"}
}
400174901 = {
	name="Aglantine"
	female=yes

	religion="the_seven"
	culture="old_andal"

	6422.1.1 = {birth="6422.1.1"}
	6487.1.1 = {death="6487.1.1"}
}
101174901 = {
	name="Nestor"	# not a lord
	dynasty=174901

	religion="the_seven"
	culture="old_andal"

	father=100174901
	mother=400174901

	6444.1.1 = {birth="6444.1.1"}
	6460.1.1 = {add_trait=knight add_trait=trained_warrior}
	6462.1.1 = {add_spouse=401174901}
	6479.1.1 = {death="6479.1.1"}
}
401174901 = {
	name="Bellena"
	female=yes

	religion="the_seven"
	culture="old_andal"

	6444.1.1 = {birth="6444.1.1"}
	6479.1.1 = {death="6479.1.1"}
}
102174901 = {
	name="Triston"	# not a lord
	dynasty=174901

	religion="the_seven"
	culture="old_andal"

	father=100174901
	mother=400174901

	6447.1.1 = {birth="6447.1.1"}
	6463.1.1 = {add_trait=knight add_trait=poor_warrior}
	6499.1.1 = {death="6499.1.1"}
}
103174901 = {
	name="Perra"	# not a lord
	female=yes
	dynasty=174901

	religion="the_seven"
	culture="old_andal"

	father=100174901
	mother=400174901

	6448.1.1 = {birth="6448.1.1"}
	6507.1.1 = {death="6507.1.1"}
}
104174901 = {
	name="Mylessa"	# not a lord
	female=yes
	dynasty=174901

	religion="the_seven"
	culture="old_andal"

	father=100174901
	mother=400174901

	6451.1.1 = {birth="6451.1.1"}
	6503.1.1 = {death="6503.1.1"}
}
105174901 = {
	name="Mela"	# not a lord
	female=yes
	dynasty=174901

	religion="the_seven"
	culture="old_andal"

	father=101174901
	mother=401174901

	6473.1.1 = {birth="6473.1.1"}
	6506.1.1 = {death="6506.1.1"}
}
106174901 = {
	name="Royce"	# a lord
	dynasty=174901

	religion="the_seven"
	culture="old_andal"

	father=101174901
	mother=401174901

	6476.1.1 = {birth="6476.1.1"}
	6492.1.1 = {add_trait=knight add_trait=master_warrior}
	6494.1.1 = {add_spouse=406174901}
	6532.1.1 = {death="6532.1.1"}
}
406174901 = {
	name="Sarya"
	female=yes

	religion="the_seven"
	culture="old_andal"

	6476.1.1 = {birth="6476.1.1"}
	6532.1.1 = {death="6532.1.1"}
}
107174901 = {
	name="Gilwood"	# a lord
	dynasty=174901

	religion="the_seven"
	culture="old_andal"

	father=106174901
	mother=406174901

	6504.1.1 = {birth="6504.1.1"}
	6520.1.1 = {add_trait=knight add_trait=poor_warrior}
	6522.1.1 = {add_spouse=407174901}
	6574.1.1 = {death="6574.1.1"}
}
407174901 = {
	name="Mela"
	female=yes

	religion="the_seven"
	culture="old_andal"

	6504.1.1 = {birth="6504.1.1"}
	6574.1.1 = {death="6574.1.1"}
}
108174901 = {
	name="Mya"	# not a lord
	female=yes
	dynasty=174901

	religion="the_seven"
	culture="old_andal"

	father=106174901
	mother=406174901

	6507.1.1 = {birth="6507.1.1"}
	6568.1.1 = {death="6568.1.1"}
}
109174901 = {
	name="Creighton"	# not a lord
	dynasty=174901

	religion="the_seven"
	culture="old_andal"

	father=107174901
	mother=407174901

	6522.1.1 = {birth="6522.1.1"}
	6538.1.1 = {add_trait=knight add_trait=poor_warrior}
	6540.1.1 = {add_spouse=409174901}
	6562.1.1 = {death="6562.1.1"}
}
409174901 = {
	name="Ravella"
	female=yes

	religion="the_seven"
	culture="old_andal"

	6522.1.1 = {birth="6522.1.1"}
	6562.1.1 = {death="6562.1.1"}
}
110174901 = {
	name="Amabel"	# not a lord
	female=yes
	dynasty=174901

	religion="the_seven"
	culture="old_andal"

	father=107174901
	mother=407174901

	6524.1.1 = {birth="6524.1.1"}
	6590.1.1 = {death="6590.1.1"}
}
111174901 = {
	name="Nestor"	# not a lord
	dynasty=174901

	religion="the_seven"
	culture="old_andal"

	father=107174901
	mother=407174901

	6525.1.1 = {birth="6525.1.1"}
	6541.1.1 = {add_trait=poor_warrior}
	6579.1.1 = {death="6579.1.1"}
}
112174901 = {
	name="Horton"	# a lord
	dynasty=174901

	religion="the_seven"
	culture="old_andal"

	father=109174901
	mother=409174901

	6550.1.1 = {birth="6550.1.1"}
	6566.1.1 = {add_trait=knight add_trait=poor_warrior}
	6568.1.1 = {add_spouse=412174901}
	6608.1.1 = {death="6608.1.1"}
}
412174901 = {
	name="Ysilla"
	female=yes

	religion="the_seven"
	culture="old_andal"

	6550.1.1 = {birth="6550.1.1"}
	6608.1.1 = {death="6608.1.1"}
}
113174901 = {
	name="Byron"	# not a lord
	dynasty=174901

	religion="the_seven"
	culture="old_andal"

	father=109174901
	mother=409174901

	6552.1.1 = {birth="6552.1.1"}
	6568.1.1 = {add_trait=knight add_trait=poor_warrior}
	6625.1.1 = {death="6625.1.1"}
}
114174901 = {
	name="Umfred"	# not a lord
	dynasty=174901

	religion="the_seven"
	culture="old_andal"

	father=109174901
	mother=409174901

	6555.1.1 = {birth="6555.1.1"}
	6571.1.1 = {add_trait=knight add_trait=skilled_warrior}
	6632.1.1 = {death="6632.1.1"}
}
115174901 = {
	name="Albar"	# a lord
	dynasty=174901

	religion="the_seven"
	culture="old_andal"

	father=112174901
	mother=412174901

	6575.1.1 = {birth="6575.1.1"}
	6591.1.1 = {add_trait=knight add_trait=trained_warrior}
	6593.1.1 = {add_spouse=415174901}
	6618.1.1 = {death="6618.1.1"}
}
415174901 = {
	name="Alyssa"
	female=yes

	religion="the_seven"
	culture="old_andal"

	6575.1.1 = {birth="6575.1.1"}
	6618.1.1 = {death="6618.1.1"}
}
116174901 = {
	name="Jon"	# not a lord
	dynasty=174901

	religion="the_seven"
	culture="old_andal"

	father=112174901
	mother=412174901

	6577.1.1 = {birth="6577.1.1"}
	6593.1.1 = {add_trait=knight add_trait=trained_warrior}
	6620.1.1 = {death="6620.1.1"}
}
117174901 = {
	name="Harlan"	# a lord
	dynasty=174901

	religion="the_seven"
	culture="old_andal"

	father=115174901
	mother=415174901

	6600.1.1 = {birth="6600.1.1"}
	6616.1.1 = {add_trait=knight add_trait=skilled_warrior}
	6618.1.1 = {add_spouse=417174901}
	6643.1.1 = {death="6643.1.1"}
}
417174901 = {
	name="Janyce"
	female=yes

	religion="the_seven"
	culture="old_andal"

	6600.1.1 = {birth="6600.1.1"}
	6643.1.1 = {death="6643.1.1"}
}
118174901 = {
	name="Creighton"	# not a lord
	dynasty=174901

	religion="the_seven"
	culture="old_andal"

	father=115174901
	mother=415174901

	6603.1.1 = {birth="6603.1.1"}
	6619.1.1 = {add_trait=knight add_trait=trained_warrior}
	6636.1.1 = {death="6636.1.1"}
}
119174901 = {
	name="Royce"	# not a lord
	dynasty=174901

	religion="the_seven"
	culture="old_andal"

	father=115174901
	mother=415174901

	6605.1.1 = {birth="6605.1.1"}
	6621.1.1 = {add_trait=trained_warrior}
	6664.1.1 = {death="6664.1.1"}
}
120174901 = {
	name="Donella"	# not a lord
	female=yes
	dynasty=174901

	religion="the_seven"
	culture="old_andal"

	father=115174901
	mother=415174901

	6608.1.1 = {birth="6608.1.1"}
	6676.1.1 = {death="6676.1.1"}
}
121174901 = {
	name="Randyll"	# a lord
	dynasty=174901

	religion="the_seven"
	culture="old_andal"

	father=117174901
	mother=417174901

	6622.1.1 = {birth="6622.1.1"}
	6638.1.1 = {add_trait=poor_warrior}
	6673.1.1 = {death="6673.1.1"}
}
122174901 = {
	name="Wallace"	# a lord
	dynasty=174901

	religion="the_seven"
	culture="old_andal"

	father=117174901
	mother=417174901

	6625.1.1 = {birth="6625.1.1"}
	6641.1.1 = {add_trait=trained_warrior}
	6643.1.1 = {add_spouse=422174901}
	6694.1.1 = {death="6694.1.1"}
}
422174901 = {
	name="Mya"
	female=yes

	religion="the_seven"
	culture="old_andal"

	6625.1.1 = {birth="6625.1.1"}
	6694.1.1 = {death="6694.1.1"}
}
123174901 = {
	name="Zhoe"	# not a lord
	female=yes
	dynasty=174901

	religion="the_seven"
	culture="old_andal"

	father=117174901
	mother=417174901

	6628.1.1 = {birth="6628.1.1"}
	6684.1.1 = {death="6684.1.1"}
}
124174901 = {
	name="Osney"	# not a lord
	dynasty=174901

	religion="the_seven"
	culture="old_andal"

	father=117174901
	mother=417174901

	6630.1.1 = {birth="6630.1.1"}
	6646.1.1 = {add_trait=knight add_trait=trained_warrior}
	6650.1.1 = {death="6650.1.1"}
}
125174901 = {
	name="Lyra"	# not a lord
	female=yes
	dynasty=174901

	religion="the_seven"
	culture="old_andal"

	father=122174901
	mother=422174901

	6643.1.1 = {birth="6643.1.1"}
	6682.1.1 = {death="6682.1.1"}
}
126174901 = {
	name="Gerold"	# a lord
	dynasty=174901

	religion="the_seven"
	culture="old_andal"

	father=122174901
	mother=422174901

	6645.1.1 = {birth="6645.1.1"}
	6661.1.1 = {add_trait=knight add_trait=poor_warrior}
	6663.1.1 = {add_spouse=426174901}
	6715.1.1 = {death="6715.1.1"}
}
426174901 = {
	name="Lythene"
	female=yes

	religion="the_seven"
	culture="old_andal"

	6645.1.1 = {birth="6645.1.1"}
	6715.1.1 = {death="6715.1.1"}
}
127174901 = {
	name="Harrold"	# not a lord
	dynasty=174901

	religion="the_seven"
	culture="old_andal"

	father=122174901
	mother=422174901

	6648.1.1 = {birth="6648.1.1"}
	6664.1.1 = {add_trait=knight add_trait=poor_warrior}
	6666.1.1 = {add_spouse=427174901}
	6712.1.1 = {death="6712.1.1"}
}
427174901 = {
	name="Jonquil"
	female=yes

	religion="the_seven"
	culture="old_andal"

	6648.1.1 = {birth="6648.1.1"}
	6712.1.1 = {death="6712.1.1"}
}
128174901 = {
	name="Osmund"	# not a lord
	dynasty=174901

	religion="the_seven"
	culture="old_andal"

	father=122174901
	mother=422174901

	6651.1.1 = {birth="6651.1.1"}
	6667.1.1 = {add_trait=poor_warrior}
	6693.1.1 = {death = {death_reason = death_murder}}
}
129174901 = {
	name="Ronnel"	# a lord
	dynasty=174901

	religion="the_seven"
	culture="old_andal"

	father=126174901
	mother=426174901

	6668.1.1 = {birth="6668.1.1"}
	6684.1.1 = {add_trait=poor_warrior}
	6731.1.1 = {death="6731.1.1"}
}
130174901 = {
	name="Umfred"	# a lord
	dynasty=174901

	religion="the_seven"
	culture="old_andal"

	father=127174901
	mother=427174901

	6681.1.1 = {birth="6681.1.1"}
	6697.1.1 = {add_trait=knight add_trait=poor_warrior}
	6699.1.1 = {add_spouse=430174901}
	6757.1.1 = {death="6757.1.1"}
}
430174901 = {
	name="Randa"
	female=yes

	religion="the_seven"
	culture="old_andal"

	6681.1.1 = {birth="6681.1.1"}
	6757.1.1 = {death="6757.1.1"}
}
131174901 = {
	name="Robar"	# not a lord
	dynasty=174901

	religion="the_seven"
	culture="old_andal"

	father=130174901
	mother=430174901

	6708.1.1 = {birth="6708.1.1"}
	6724.1.1 = {add_trait=knight add_trait=poor_warrior}
	6726.1.1 = {add_spouse=431174901}
	6745.1.1 = {death="6745.1.1"}
}
431174901 = {
	name="Aglantine"
	female=yes

	religion="the_seven"
	culture="old_andal"

	6708.1.1 = {birth="6708.1.1"}
	6745.1.1 = {death="6745.1.1"}
}
132174901 = {
	name="Sybelle"	# not a lord
	female=yes
	dynasty=174901

	religion="the_seven"
	culture="old_andal"

	father=130174901
	mother=430174901

	6709.1.1 = {birth="6709.1.1"}
	6758.1.1 = {death = {death_reason = death_accident}}
}
133174901 = {
	name="Yohn"	# a lord
	dynasty=174901

	religion="the_seven"
	culture="old_andal"

	father=131174901
	mother=431174901

	6735.1.1 = {birth="6735.1.1"}
	6751.1.1 = {add_trait=knight add_trait=poor_warrior}
	6753.1.1 = {add_spouse=433174901}
}
433174901 = {
	name="Kella"
	female=yes

	religion="the_seven"
	culture="old_andal"

	6735.1.1 = {birth="6735.1.1"}
}
134174901 = {
	name="Andar"	# not a lord
	dynasty=174901

	religion="the_seven"
	culture="old_andal"

	father=131174901
	mother=431174901

	6736.1.1 = {birth="6736.1.1"}
	6752.1.1 = {add_trait=poor_warrior}
	6754.1.1 = {add_spouse=434174901}
}
434174901 = {
	name="Carellen"
	female=yes

	religion="the_seven"
	culture="old_andal"

	6736.1.1 = {birth="6736.1.1"}
}
135174901 = {
	name="Becca"	# not a lord
	female=yes
	dynasty=174901

	religion="the_seven"
	culture="old_andal"

	father=131174901
	mother=431174901

	6739.1.1 = {birth="6739.1.1"}
}
136174901 = {
	name="Bethany"	# not a lord
	female=yes
	dynasty=174901

	religion="the_seven"
	culture="old_andal"

	father=133174901
	mother=433174901

	6764.1.1 = {birth="6764.1.1"}
}
137174901 = {
	name="Donnel"	# not a lord
	dynasty=174901

	religion="the_seven"
	culture="old_andal"

	father=133174901
	mother=433174901

	6765.1.1 = {birth="6765.1.1"}
	6781.1.1 = {add_trait=trained_warrior}
}
138174901 = {
	name="Jeyne"	# not a lord
	female=yes
	dynasty=174901

	religion="the_seven"
	culture="old_andal"

	father=133174901
	mother=433174901

	6766.1.1 = {birth="6766.1.1"}
}
139174901 = {
	name="Harlan"	# not a lord
	dynasty=174901

	religion="the_seven"
	culture="old_andal"

	father=133174901
	mother=433174901

	6768.1.1 = {birth="6768.1.1"}
	6784.1.1 = {add_trait=poor_warrior}
}
140174901 = {
	name="Vardis"	# not a lord
	dynasty=174901

	religion="the_seven"
	culture="old_andal"

	father=134174901
	mother=434174901

	6765.1.1 = {birth="6765.1.1"}
	6781.1.1 = {add_trait=poor_warrior}
}
#House Ninewater
100174915 = {
	name="Osmund"	# a lord
	dynasty=174915

	religion="the_seven"
	culture="old_andal"

	6438.1.1 = {birth="6438.1.1"}
	6454.1.1 = {add_trait=knight add_trait=trained_warrior}
	6456.1.1 = {add_spouse=400174915}
	6499.1.1 = {death="6499.1.1"}
}
400174915 = {
	name="Carellen"
	female=yes

	religion="the_seven"
	culture="old_andal"

	6438.1.1 = {birth="6438.1.1"}
	6499.1.1 = {death="6499.1.1"}
}
101174915 = {
	name="Barbara"	# not a lord
	female=yes
	dynasty=174915

	religion="the_seven"
	culture="old_andal"

	father=100174915
	mother=400174915

	6469.1.1 = {birth="6469.1.1"}
	6514.1.1 = {death="6514.1.1"}
}
102174915 = {
	name="Symond"	# a lord
	dynasty=174915

	religion="the_seven"
	culture="old_andal"

	father=100174915
	mother=400174915

	6471.1.1 = {birth="6471.1.1"}
	6487.1.1 = {add_trait=poor_warrior}
	6516.1.1 = {death="6516.1.1"}
}
103174915 = {
	name="Carellen"	# not a lord
	female=yes
	dynasty=174915

	religion="the_seven"
	culture="old_andal"

	father=100174915
	mother=400174915

	6473.1.1 = {birth="6473.1.1"}
	6518.1.1 = {death="6518.1.1"}
}
104174915 = {
	name="Horton"	# a lord
	dynasty=174915

	religion="the_seven"
	culture="old_andal"

	father=100174915
	mother=400174915

	6474.1.1 = {birth="6474.1.1"}
	6491.1.1 = {add_trait=knight add_trait=skilled_warrior}
	6493.1.1 = {add_spouse=404174915}
	6547.1.1 = {death="6547.1.1"}
}
404174915 = {
	name="Morya"
	female=yes

	religion="the_seven"
	culture="old_andal"

	6474.1.1 = {birth="6474.1.1"}
	6547.1.1 = {death="6547.1.1"}
}
105174915 = {
	name="Ravella"	# not a lord
	female=yes
	dynasty=174915

	religion="the_seven"
	culture="old_andal"

	father=104174915
	mother=404174915

	6498.1.1 = {birth="6498.1.1"}
	6567.1.1 = {death="6567.1.1"}
}
106174915 = {
	name="Royce"	# a lord
	dynasty=174915

	religion="the_seven"
	culture="old_andal"

	father=104174915
	mother=404174915

	6500.1.1 = {birth="6500.1.1"}
	6516.1.1 = {add_trait=knight add_trait=trained_warrior}
	6518.1.1 = {add_spouse=406174915}
	6555.1.1 = {death="6555.1.1"}
}
406174915 = {
	name="Anya"
	female=yes

	religion="the_seven"
	culture="old_andal"

	6500.1.1 = {birth="6500.1.1"}
	6555.1.1 = {death="6555.1.1"}
}
107174915 = {
	name="Rolley"	# a lord
	dynasty=174915

	religion="the_seven"
	culture="old_andal"

	father=104174915
	mother=404174915

	6501.1.1 = {birth="6501.1.1"}
	6517.1.1 = {add_trait=knight add_trait=skilled_warrior}
	6519.1.1 = {add_spouse=407174915}
	6571.1.1 = {death="6571.1.1"}
}
407174915 = {
	name="Jeyne"
	female=yes

	religion="the_seven"
	culture="old_andal"

	6501.1.1 = {birth="6501.1.1"}
	6571.1.1 = {death="6571.1.1"}
}
108174915 = {
	name="Jonella"	# not a lord
	female=yes
	dynasty=174915

	religion="the_seven"
	culture="old_andal"

	father=104174915
	mother=404174915

	6504.1.1 = {birth="6504.1.1"}
	6529.1.1 = {death="6529.1.1"}
}
109174915 = {
	name="Alyssa"	# not a lord
	female=yes
	dynasty=174915

	religion="the_seven"
	culture="old_andal"

	father=106174915
	mother=406174915

	6519.1.1 = {birth="6519.1.1"}
	6567.1.1 = {death="6567.1.1"}
}
110174915 = {
	name="Arya"	# not a lord
	female=yes
	dynasty=174915

	religion="the_seven"
	culture="old_andal"

	father=106174915
	mother=406174915

	6522.1.1 = {birth="6522.1.1"}
	6565.1.1 = {death="6565.1.1"}
}
111174915 = {
	name="Myranda"	# not a lord
	female=yes
	dynasty=174915

	religion="the_seven"
	culture="old_andal"

	father=107174915
	mother=407174915

	6527.1.1 = {birth="6527.1.1"}
	6531.1.1 = {death="6531.1.1"}
}
112174915 = {
	name="Robar"	# a lord
	dynasty=174915

	religion="the_seven"
	culture="old_andal"

	father=107174915
	mother=407174915

	6529.1.1 = {birth="6529.1.1"}
	6545.1.1 = {add_trait=knight add_trait=trained_warrior}
	6547.1.1 = {add_spouse=412174915}
	6593.1.1 = {death="6593.1.1"}
}
412174915 = {
	name="Zhoe"
	female=yes

	religion="the_seven"
	culture="old_andal"

	6529.1.1 = {birth="6529.1.1"}
	6593.1.1 = {death="6593.1.1"}
}
113174915 = {
	name="Pate"	# not a lord
	dynasty=174915

	religion="the_seven"
	culture="old_andal"

	father=107174915
	mother=407174915

	6532.1.1 = {birth="6532.1.1"}
	6548.1.1 = {add_trait=knight add_trait=trained_warrior}
	6573.1.1 = {death="6573.1.1"}
}
114174915 = {
	name="Morton"	# a lord
	dynasty=174915

	religion="the_seven"
	culture="old_andal"

	father=112174915
	mother=412174915

	6555.1.1 = {birth="6555.1.1"}
	6571.1.1 = {add_trait=knight add_trait=trained_warrior}
	6573.1.1 = {add_spouse=414174915}
	6606.1.1 = {death="6606.1.1"}
}
414174915 = {
	name="Becca"
	female=yes

	religion="the_seven"
	culture="old_andal"

	6555.1.1 = {birth="6555.1.1"}
	6606.1.1 = {death="6606.1.1"}
}
115174915 = {
	name="Mya"	# not a lord
	female=yes
	dynasty=174915

	religion="the_seven"
	culture="old_andal"

	father=112174915
	mother=412174915

	6556.1.1 = {birth="6556.1.1"}
	6608.1.1 = {death="6608.1.1"}
}
116174915 = {
	name="Pate"	# a lord
	dynasty=174915

	religion="the_seven"
	culture="old_andal"

	father=114174915
	mother=414174915

	6575.1.1 = {birth="6575.1.1"}
	6591.1.1 = {add_trait=knight add_trait=poor_warrior}
	6593.1.1 = {add_spouse=416174915}
	6608.1.1 = {death = {death_reason = death_murder}}
}
416174915 = {
	name="Jonnela"
	female=yes

	religion="the_seven"
	culture="old_andal"

	6575.1.1 = {birth="6575.1.1"}
	6608.1.1 = {death="6608.1.1"}
}
117174915 = {
	name="Godric"	# not a lord
	dynasty=174915

	religion="the_seven"
	culture="old_andal"

	father=114174915
	mother=414174915

	6577.1.1 = {birth="6577.1.1"}
	6593.1.1 = {add_trait=knight add_trait=skilled_warrior}
	6626.1.1 = {death="6626.1.1"}
}
118174915 = {
	name="Marsella"	# not a lord
	female=yes
	dynasty=174915

	religion="the_seven"
	culture="old_andal"

	father=114174915
	mother=414174915

	6579.1.1 = {birth="6579.1.1"}
	6632.1.1 = {death="6632.1.1"}
}
119174915 = {
	name="Osfryd"	# a lord
	dynasty=174915

	religion="the_seven"
	culture="old_andal"

	father=116174915
	mother=416174915

	6607.1.1 = {birth="6607.1.1"}
	6623.1.1 = {add_trait=knight add_trait=poor_warrior}
	6628.1.1 = {add_spouse=419174915}
	6665.1.1 = {death="6665.1.1"}
}
419174915 = {
	name="Alysanne"
	female=yes

	religion="the_seven"
	culture="old_andal"

	6610.1.1 = {birth="6610.1.1"}
	6665.1.1 = {death="6665.1.1"}
}
120174915 = {
	name="Lothor"	# not a lord
	dynasty=174915

	religion="the_seven"
	culture="old_andal"

	father=119174915
	mother=419174915

	6630.1.1 = {birth="6630.1.1"}
	6646.1.1 = {add_trait=knight add_trait=trained_warrior}
	6648.1.1 = {add_spouse=420174915}
	6663.1.1 = {death = {death_reason = death_murder}}
}
420174915 = {
	name="Alayne"
	female=yes

	religion="the_seven"
	culture="old_andal"

	6630.1.1 = {birth="6630.1.1"}
	6663.1.1 = {death="6663.1.1"}
}
121174915 = {
	name="Carolei"	# not a lord
	female=yes
	dynasty=174915

	religion="the_seven"
	culture="old_andal"

	father=119174915
	mother=419174915

	6633.1.1 = {birth="6633.1.1"}
	6711.1.1 = {death="6711.1.1"}
}
122174915 = {
	name="Mychel"	# not a lord
	dynasty=174915

	religion="the_seven"
	culture="old_andal"

	father=119174915
	mother=419174915

	6634.1.1 = {birth="6634.1.1"}
	6650.1.1 = {add_trait=knight add_trait=poor_warrior}
	6681.1.1 = {death="6681.1.1"}
}
123174915 = {
	name="Edmund"	# a lord
	dynasty=174915

	religion="the_seven"
	culture="old_andal"

	father=120174915
	mother=420174915

	6659.1.1 = {birth="6659.1.1"}
	6675.1.1 = {add_trait=knight add_trait=poor_warrior}
	6677.1.1 = {add_spouse=423174915}
	6723.1.1 = {death="6723.1.1"}
}
423174915 = {
	name="Carolei"
	female=yes

	religion="the_seven"
	culture="old_andal"

	6659.1.1 = {birth="6659.1.1"}
	6723.1.1 = {death="6723.1.1"}
}
124174915 = {
	name="Robar"	# not a lord
	dynasty=174915

	religion="the_seven"
	culture="old_andal"

	father=120174915
	mother=420174915

	6662.1.1 = {birth="6662.1.1"}
	6678.1.1 = {add_trait=knight add_trait=poor_warrior}
	6722.1.1 = {death="6722.1.1"}
}
125174915 = {
	name="Ravella"	# not a lord
	female=yes
	dynasty=174915

	religion="the_seven"
	culture="old_andal"

	father=123174915
	mother=423174915

	6685.1.1 = {birth="6685.1.1"}
	6727.1.1 = {death="6727.1.1"}
}
126174915 = {
	name="Elys"	# a lord
	dynasty=174915

	religion="the_seven"
	culture="old_andal"

	father=123174915
	mother=423174915

	6687.1.1 = {birth="6687.1.1"}
	6703.1.1 = {add_trait=knight add_trait=trained_warrior}
	6705.1.1 = {add_spouse=426174915}
	6741.1.1 = {death="6741.1.1"}
}
426174915 = {
	name="Carellen"
	female=yes

	religion="the_seven"
	culture="old_andal"

	6687.1.1 = {birth="6687.1.1"}
	6741.1.1 = {death="6741.1.1"}
}
127174915 = {
	name="Robin"	# not a lord
	dynasty=174915

	religion="the_seven"
	culture="old_andal"

	father=123174915
	mother=423174915

	6689.1.1 = {birth="6689.1.1"}
	6705.1.1 = {add_trait=knight add_trait=trained_warrior}
	6758.1.1 = {death="6758.1.1"}
}
128174915 = {
	name="Wyl"	# a lord
	dynasty=174915

	religion="the_seven"
	culture="old_andal"

	father=126174915
	mother=426174915

	6714.1.1 = {birth="6714.1.1"}
	6730.1.1 = {add_trait=knight add_trait=skilled_warrior}
	6732.1.1 = {add_spouse=428174915}
	6767.1.1 = {death="6767.1.1"}
}
428174915 = {
	name="Carellen"
	female=yes

	religion="the_seven"
	culture="old_andal"

	6714.1.1 = {birth="6714.1.1"}
	6767.1.1 = {death="6767.1.1"}
}
129174915 = {
	name="Bryen"	# not a lord
	dynasty=174915

	religion="the_seven"
	culture="old_andal"

	father=126174915
	mother=426174915

	6715.1.1 = {birth="6715.1.1"}
	6731.1.1 = {add_trait=knight add_trait=trained_warrior}
	6743.1.1 = {death="6743.1.1"}
}
130174915 = {
	name="Creighton"	# not a lord
	dynasty=174915

	religion="the_seven"
	culture="old_andal"

	father=126174915
	mother=426174915

	6717.1.1 = {birth="6717.1.1"}
	6733.1.1 = {add_trait=knight add_trait=poor_warrior}
}
131174915 = {
	name="Eglantine"	# not a lord
	female=yes
	dynasty=174915

	religion="the_seven"
	culture="old_andal"

	father=128174915
	mother=428174915

	6739.1.1 = {birth="6739.1.1"}
}
132174915 = {
	name="Alys"	# not a lord
	female=yes
	dynasty=174915

	religion="the_seven"
	culture="old_andal"

	father=128174915
	mother=428174915

	6741.1.1 = {birth="6741.1.1"}
}
133174915 = {
	name="Eon"	# a lord
	dynasty=174915

	religion="the_seven"
	culture="old_andal"

	father=128174915
	mother=428174915

	6743.1.1 = {birth="6743.1.1"}
	6759.1.1 = {add_trait=knight add_trait=poor_warrior}
	6761.1.1 = {add_spouse=433174915}
}
433174915 = {
	name="Melicent"
	female=yes

	religion="the_seven"
	culture="old_andal"

	6743.1.1 = {birth="6743.1.1"}
}
134174915 = {
	name="Eon"	# not a lord
	dynasty=174915

	religion="the_seven"
	culture="old_andal"

	father=128174915
	mother=428174915

	6744.1.1 = {birth="6744.1.1"}
	6760.1.1 = {add_trait=knight add_trait=skilled_warrior}
}
135174915 = {
	name="Leona"	# not a lord
	female=yes
	dynasty=174915

	religion="the_seven"
	culture="old_andal"

	father=128174915
	mother=428174915

	6747.1.1 = {birth="6747.1.1"}
}
136174915 = {
	name="Morya"	# not a lord
	female=yes
	dynasty=174915

	religion="the_seven"
	culture="old_andal"

	father=133174915
	mother=433174915

	6765.1.1 = {birth="6765.1.1"}
}
137174915 = {
	name="Nestor"	# not a lord
	dynasty=174915

	religion="the_seven"
	culture="old_andal"

	father=133174915
	mother=433174915

	6766.1.1 = {birth="6766.1.1"}
	6782.1.1 = {add_trait=knight add_trait=trained_warrior}
}
###House Greatwood
100174909 = {
	name="Lothor"	# a lord
	dynasty=174909

	religion="the_seven"
	culture="old_andal"

	6435.1.1 = {birth="6435.1.1"}
	6451.1.1 = {add_trait=knight add_trait=trained_warrior}
	6453.1.1 = {add_spouse=400174909}
	6493.1.1 = {death="6493.1.1"}
}
400174909 = {
	name="Alys"
	female=yes

	religion="the_seven"
	culture="old_andal"

	6435.1.1 = {birth="6435.1.1"}
	6493.1.1 = {death="6493.1.1"}
}
101174909 = {
	name="Ballabar"	# a lord
	dynasty=174909

	religion="the_seven"
	culture="old_andal"

	father=100174909
	mother=400174909

	6457.1.1 = {birth="6457.1.1"}
	6473.1.1 = {add_trait=knight add_trait=trained_warrior}
	6474.1.1 = {add_spouse=401174909}
	6513.1.1 = {death="6513.1.1"}
}
401174909 = {
	name="Melicent"
	female=yes

	religion="the_seven"
	culture="old_andal"

	6457.1.1 = {birth="6457.1.1"}
	6513.1.1 = {death="6513.1.1"}
}
102174909 = {
	name="Osney"	# not a lord
	dynasty=174909

	religion="the_seven"
	culture="old_andal"

	father=100174909
	mother=400174909

	6459.1.1 = {birth="6459.1.1"}
	6474.1.1 = {add_trait=poor_warrior}
	6477.1.1 = {add_spouse=402174909}
	6512.1.1 = {death="6512.1.1"}
}
402174909 = {
	name="Kella"
	female=yes

	religion="the_seven"
	culture="old_andal"

	6459.1.1 = {birth="6459.1.1"}
	6512.1.1 = {death="6512.1.1"}
}
103174909 = {
	name="Osmund"	# not a lord
	dynasty=174909

	religion="the_seven"
	culture="old_andal"

	father=100174909
	mother=400174909

	6462.1.1 = {birth="6462.1.1"}
	6478.1.1 = {add_trait=knight add_trait=skilled_warrior}
	6523.1.1 = {death="6523.1.1"}
}
104174909 = {
	name="Zhoe"	# not a lord
	female=yes
	dynasty=174909

	religion="the_seven"
	culture="old_andal"

	father=100174909
	mother=400174909

	6463.1.1 = {birth="6463.1.1"}
	6509.1.1 = {death="6509.1.1"}
}
105174909 = {
	name="Vardis"	# a lord
	dynasty=174909

	religion="the_seven"
	culture="old_andal"

	father=102174909
	mother=402174909

	6486.1.1 = {birth="6486.1.1"}
	6502.1.1 = {add_trait=knight add_trait=poor_warrior}
	6504.1.1 = {add_spouse=405174909}
	6538.1.1 = {death="6538.1.1"}
}
405174909 = {
	name="Ryella"
	female=yes

	religion="the_seven"
	culture="old_andal"

	6486.1.1 = {birth="6486.1.1"}
	6538.1.1 = {death="6538.1.1"}
}
106174909 = {
	name="Mychel"	# not a lord
	dynasty=174909

	religion="the_seven"
	culture="old_andal"

	father=102174909
	mother=402174909

	6488.1.1 = {birth="6488.1.1"}
	6504.1.1 = {add_trait=knight add_trait=poor_warrior}
	6537.1.1 = {death="6537.1.1"}
}
107174909 = {
	name="Sarya"	# not a lord
	female=yes
	dynasty=174909

	religion="the_seven"
	culture="old_andal"

	father=102174909
	mother=402174909

	6489.1.1 = {birth="6489.1.1"}
	6526.1.1 = {death="6526.1.1"}
}
108174909 = {
	name="Jorelle"	# not a lord
	female=yes
	dynasty=174909

	religion="the_seven"
	culture="old_andal"

	father=102174909
	mother=402174909

	6491.1.1 = {birth="6491.1.1"}
	6535.1.1 = {death="6535.1.1"}
}
109174909 = {
	name="Elys"	# not a lord
	dynasty=174909

	religion="the_seven"
	culture="old_andal"

	father=102174909
	mother=402174909

	6492.1.1 = {birth="6492.1.1"}
	6508.1.1 = {add_trait=poor_warrior}
	6546.1.1 = {death="6546.1.1"}
}
110174909 = {
	name="Bethany"	# not a lord
	female=yes
	dynasty=174909

	religion="the_seven"
	culture="old_andal"

	father=105174909
	mother=405174909

	6515.1.1 = {birth="6515.1.1"}
	6590.1.1 = {death="6590.1.1"}
}
111174909 = {
	name="Ravella"	# not a lord
	female=yes
	dynasty=174909

	religion="the_seven"
	culture="old_andal"

	father=105174909
	mother=405174909

	6517.1.1 = {birth="6517.1.1"}
	6563.1.1 = {death="6563.1.1"}
}
112174909 = {
	name="Ballabar"	# a lord
	dynasty=174909

	religion="the_seven"
	culture="old_andal"

	father=105174909
	mother=405174909

	6519.1.1 = {birth="6519.1.1"}
	6535.1.1 = {add_trait=knight add_trait=poor_warrior}
	6537.1.1 = {add_spouse=412174909}
	6596.1.1 = {death="6596.1.1"}
}
412174909 = {
	name="Ysilla"
	female=yes

	religion="the_seven"
	culture="old_andal"

	6519.1.1 = {birth="6519.1.1"}
	6596.1.1 = {death="6596.1.1"}
}
113174909 = {
	name="Uthor"	# not a lord
	dynasty=174909

	religion="the_seven"
	culture="old_andal"

	father=105174909
	mother=405174909

	6521.1.1 = {birth="6521.1.1"}
	6537.1.1 = {add_trait=knight add_trait=poor_warrior}
	6589.1.1 = {death="6589.1.1"}
}
114174909 = {
	name="Pate"	# not a lord
	dynasty=174909

	religion="the_seven"
	culture="old_andal"

	father=105174909
	mother=405174909

	6522.1.1 = {birth="6522.1.1"}
	6538.1.1 = {add_trait=knight add_trait=skilled_warrior}
	6577.1.1 = {death="6577.1.1"}
}
115174909 = {
	name="Jonella"	# not a lord
	female=yes
	dynasty=174909

	religion="the_seven"
	culture="old_andal"

	father=112174909
	mother=412174909

	6538.1.1 = {birth="6538.1.1"}
	6580.1.1 = {death="6580.1.1"}
}
116174909 = {
	name="Rowena"	# not a lord
	female=yes
	dynasty=174909

	religion="the_seven"
	culture="old_andal"

	father=112174909
	mother=412174909

	6539.1.1 = {birth="6539.1.1"}
	6618.1.1 = {death="6618.1.1"}
}
117174909 = {
	name="Serwyn"	# a lord
	dynasty=174909

	religion="the_seven"
	culture="old_andal"

	father=112174909
	mother=412174909

	6540.1.1 = {birth="6540.1.1"}
	6556.1.1 = {add_trait=knight add_trait=skilled_warrior}
	6558.1.1 = {add_spouse=417174909}
	6605.1.1 = {death="6605.1.1"}
}
417174909 = {
	name="Melicent"
	female=yes

	religion="the_seven"
	culture="old_andal"

	6540.1.1 = {birth="6540.1.1"}
	6605.1.1 = {death="6605.1.1"}
}
118174909 = {
	name="Ryella"	# not a lord
	female=yes
	dynasty=174909

	religion="the_seven"
	culture="old_andal"

	father=112174909
	mother=412174909

	6543.1.1 = {birth="6543.1.1"}
	6584.1.1 = {death = {death_reason = death_murder}}
}
119174909 = {
	name="Rolland"	# not a lord
	dynasty=174909

	religion="the_seven"
	culture="old_andal"

	father=112174909
	mother=412174909

	6544.1.1 = {birth="6544.1.1"}
	6560.1.1 = {add_trait=knight add_trait=trained_warrior}
	6622.1.1 = {death="6622.1.1"}
}
120174909 = {
	name="Umfred"	# a lord
	dynasty=174909

	religion="the_seven"
	culture="old_andal"

	father=117174909
	mother=417174909

	6563.1.1 = {birth="6563.1.1"}
	6579.1.1 = {add_trait=knight add_trait=trained_warrior}
	6581.1.1 = {add_spouse=420174909}
	6612.1.1 = {death="6612.1.1"}
}
420174909 = {
	name="Mela"
	female=yes

	religion="the_seven"
	culture="old_andal"

	6563.1.1 = {birth="6563.1.1"}
	6612.1.1 = {death="6612.1.1"}
}
121174909 = {
	name="Lark"	# not a lord
	dynasty=174909

	religion="the_seven"
	culture="old_andal"

	father=117174909
	mother=417174909

	6564.1.1 = {birth="6564.1.1"}
	6580.1.1 = {add_trait=knight add_trait=poor_warrior}
	6620.1.1 = {death="6620.1.1"}
}
122174909 = {
	name="Gwayne"	# not a lord
	dynasty=174909

	religion="the_seven"
	culture="old_andal"

	father=117174909
	mother=417174909

	6565.1.1 = {birth="6565.1.1"}
	6581.1.1 = {add_trait=knight add_trait=trained_warrior}
	6629.1.1 = {death="6629.1.1"}
}
123174909 = {
	name="Zia"	# not a lord
	female=yes
	dynasty=174909

	religion="the_seven"
	culture="old_andal"

	father=117174909
	mother=417174909

	6568.1.1 = {birth="6568.1.1"}
	6623.1.1 = {death="6623.1.1"}
}
124174909 = {
	name="Unella"	# not a lord
	female=yes
	dynasty=174909

	religion="the_seven"
	culture="old_andal"

	father=117174909
	mother=417174909

	6569.1.1 = {birth="6569.1.1"}
	6598.1.1 = {death="6598.1.1"}
}
125174909 = {
	name="Marianne"	# not a lord
	female=yes
	dynasty=174909

	religion="the_seven"
	culture="old_andal"

	father=120174909
	mother=420174909

	6597.1.1 = {birth="6597.1.1"}
	6656.1.1 = {death="6656.1.1"}
}
126174909 = {
	name="Anya"	# not a lord
	female=yes
	dynasty=174909

	religion="the_seven"
	culture="old_andal"

	father=120174909
	mother=420174909

	6598.1.1 = {birth="6598.1.1"}
	6648.1.1 = {death="6648.1.1"}
}
127174909 = {
	name="Serwyn"	# a lord
	dynasty=174909

	religion="the_seven"
	culture="old_andal"

	father=120174909
	mother=420174909

	6599.1.1 = {birth="6599.1.1"}
	6615.1.1 = {add_trait=trained_warrior}
	6617.1.1 = {add_spouse=427174909}
	6645.1.1 = {death="6645.1.1"}
}
427174909 = {
	name="Annara"
	female=yes

	religion="the_seven"
	culture="old_andal"

	6599.1.1 = {birth="6599.1.1"}
	6645.1.1 = {death="6645.1.1"}
}
128174909 = {
	name="Royce"	# a lord
	dynasty=174909

	religion="the_seven"
	culture="old_andal"

	father=127174909
	mother=427174909

	6619.1.1 = {birth="6619.1.1"}
	6635.1.1 = {add_trait=knight add_trait=poor_warrior}
	6637.1.1 = {add_spouse=428174909}
	6677.1.1 = {death="6677.1.1"}
}
428174909 = {
	name="Janyce"
	female=yes

	religion="the_seven"
	culture="old_andal"

	6619.1.1 = {birth="6619.1.1"}
	6677.1.1 = {death="6677.1.1"}
}
129174909 = {
	name="Pate"	# not a lord
	dynasty=174909

	religion="the_seven"
	culture="old_andal"

	father=127174909
	mother=427174909

	6622.1.1 = {birth="6622.1.1"}
	6638.1.1 = {add_trait=poor_warrior}
	6676.1.1 = {death="6676.1.1"}
}
130174909 = {
	name="Bellena"	# not a lord
	female=yes
	dynasty=174909

	religion="the_seven"
	culture="old_andal"

	father=127174909
	mother=427174909

	6623.1.1 = {birth="6623.1.1"}
	6698.1.1 = {death="6698.1.1"}
}
131174909 = {
	name="Lyonel"	# not a lord
	dynasty=174909

	religion="the_seven"
	culture="old_andal"

	father=128174909
	mother=428174909

	6651.1.1 = {birth="6651.1.1"}
	6667.1.1 = {add_trait=poor_warrior}
	6669.1.1 = {add_spouse=431174909}
	6676.1.1 = {death = {death_reason = death_battle}}
}
431174909 = {
	name="Randa"
	female=yes

	religion="the_seven"
	culture="old_andal"

	6651.1.1 = {birth="6651.1.1"}
	6676.1.1 = {death="6676.1.1"}
}
132174909 = {
	name="Carellen"	# not a lord
	female=yes
	dynasty=174909

	religion="the_seven"
	culture="old_andal"

	father=128174909
	mother=428174909

	6653.1.1 = {birth="6653.1.1"}
	6699.1.1 = {death="6699.1.1"}
}
133174909 = {
	name="Tim"	# a lord
	dynasty=174909

	religion="the_seven"
	culture="old_andal"

	father=131174909
	mother=431174909

	6672.1.1 = {birth="6672.1.1"}
	6688.1.1 = {add_trait=knight add_trait=poor_warrior}
	6690.1.1 = {add_spouse=433174909}
	6746.1.1 = {death="6746.1.1"}
}
433174909 = {
	name="Jonella"
	female=yes

	religion="the_seven"
	culture="old_andal"

	6672.1.1 = {birth="6672.1.1"}
	6746.1.1 = {death="6746.1.1"}
}
134174909 = {
	name="Yohn"	# not a lord
	dynasty=174909

	religion="the_seven"
	culture="old_andal"

	father=131174909
	mother=431174909

	6674.1.1 = {birth="6674.1.1"}
	6690.1.1 = {add_trait=knight add_trait=trained_warrior}
	6733.1.1 = {death="6733.1.1"}
}
135174909 = {
	name="Anya"	# not a lord
	female=yes
	dynasty=174909

	religion="the_seven"
	culture="old_andal"

	father=131174909
	mother=431174909

	6676.1.1 = {birth="6676.1.1"}
	6748.1.1 = {death="6748.1.1"}
}
136174909 = {
	name="Donnel"	# a lord
	dynasty=174909

	religion="the_seven"
	culture="old_andal"

	father=133174909
	mother=433174909

	6698.1.1 = {birth="6698.1.1"}
	6714.1.1 = {add_trait=knight add_trait=poor_warrior}
	6716.1.1 = {add_spouse=436174909}
	6760.1.1 = {death="6760.1.1"}
}
436174909 = {
	name="Alayne"
	female=yes

	religion="the_seven"
	culture="old_andal"

	6698.1.1 = {birth="6698.1.1"}
	6760.1.1 = {death="6760.1.1"}
}
137174909 = {
	name="Yohn"	# not a lord
	dynasty=174909

	religion="the_seven"
	culture="old_andal"

	father=133174909
	mother=433174909

	6699.1.1 = {birth="6699.1.1"}
	6715.1.1 = {add_trait=knight add_trait=skilled_warrior}
	6730.1.1 = {death="6730.1.1"}
}
138174909 = {
	name="Donnel"	# a lord
	dynasty=174909

	religion="the_seven"
	culture="old_andal"

	father=136174909
	mother=436174909

	6725.1.1 = {birth="6725.1.1"}
	6741.1.1 = {add_trait=knight add_trait=skilled_warrior}
	6743.1.1 = {add_spouse=438174909}
}
438174909 = {
	name="Sybelle"
	female=yes

	religion="the_seven"
	culture="old_andal"

	6725.1.1 = {birth="6725.1.1"}
}
139174909 = {
	name="Lark"	# not a lord
	dynasty=174909

	religion="the_seven"
	culture="old_andal"

	father=136174909
	mother=436174909

	6726.1.1 = {birth="6726.1.1"}
	6742.1.1 = {add_trait=poor_warrior}
	6744.1.1 = {add_spouse=439174909}
}
439174909 = {
	name="Sarra"
	female=yes

	religion="the_seven"
	culture="old_andal"

	6726.1.1 = {birth="6726.1.1"}
}
140174909 = {
	name="Eglantine"	# not a lord
	female=yes
	dynasty=174909

	religion="the_seven"
	culture="old_andal"

	father=136174909
	mother=436174909

	6728.1.1 = {birth="6728.1.1"}
}
141174909 = {
	name="Harrold"	# not a lord
	dynasty=174909

	religion="the_seven"
	culture="old_andal"

	father=138174909
	mother=438174909

	6748.1.1 = {birth="6748.1.1"}
	6764.1.1 = {add_trait=poor_warrior}
}
142174909 = {
	name="Mya"	# not a lord
	female=yes
	dynasty=174909

	religion="the_seven"
	culture="old_andal"

	father=138174909
	mother=438174909

	6750.1.1 = {birth="6750.1.1"}
}
143174909 = {
	name="Terrance"	# not a lord
	dynasty=174909

	religion="the_seven"
	culture="old_andal"

	father=138174909
	mother=438174909

	6752.1.1 = {birth="6752.1.1"}
	6768.1.1 = {add_trait=knight add_trait=trained_warrior}
}
144174909 = {
	name="Ryella"	# not a lord
	female=yes
	dynasty=174909

	religion="the_seven"
	culture="old_andal"

	father=139174909
	mother=439174909

	6753.1.1 = {birth="6753.1.1"}
}
145174909 = {
	name="Godric"	# not a lord
	dynasty=174909

	religion="the_seven"
	culture="old_andal"

	father=139174909
	mother=439174909

	6754.1.1 = {birth="6754.1.1"}
	6770.1.1 = {add_trait=knight add_trait=poor_warrior}
}
