

#######################################   Ny Sar  ######################################################

##  House Nymeros

100174407 = {
	name="Rycas"	# a lord
	dynasty=174407

	religion="rhoynar_pagan"
	culture="rhoynar"

	6438.1.1 = {birth="6438.1.1"}
	6454.1.1 = {add_trait=poor_warrior}
	6456.1.1 = {add_spouse=400174407}
	6500.1.1 = {death="6500.1.1"}
}
400174407 = {
	name="Sylva"
	female=yes

	religion="rhoynar_pagan"
	culture="rhoynar"

	6438.1.1 = {birth="6438.1.1"}
	6500.1.1 = {death="6500.1.1"}
}
101174407 = {
	name="Nysterica"	# not a lord
	female=yes
	dynasty=174407

	religion="rhoynar_pagan"
	culture="rhoynar"

	father=100174407
	mother=400174407

	6467.1.1 = {birth="6467.1.1"}
	6508.1.1 = {death="6508.1.1"}
}
102174407 = {
	name="Mors"	# a lord
	dynasty=174407

	religion="rhoynar_pagan"
	culture="rhoynar"

	father=100174407
	mother=400174407

	6468.1.1 = {birth="6468.1.1"}
	6484.1.1 = {add_trait=master_warrior}
	6486.1.1 = {add_spouse=402174407}
	6525.1.1 = {death = {death_reason = death_accident}}
}
402174407 = {
	name="Laria"
	female=yes

	religion="rhoynar_pagan"
	culture="rhoynar"

	6468.1.1 = {birth="6468.1.1"}
	6525.1.1 = {death="6525.1.1"}
}
103174407 = {
	name="Daemyn"	# not a lord
	dynasty=174407

	religion="rhoynar_pagan"
	culture="rhoynar"

	father=100174407
	mother=400174407

	6470.1.1 = {birth="6470.1.1"}
	6486.1.1 = {add_trait=poor_warrior}
	6521.1.1 = {death="6521.1.1"}
}
104174407 = {
	name="Nysterica"	# not a lord
	female=yes
	dynasty=174407

	religion="rhoynar_pagan"
	culture="rhoynar"

	father=100174407
	mother=400174407

	6471.1.1 = {birth="6471.1.1"}
	6525.1.1 = {death="6525.1.1"}
}
105174407 = {
	name="Mellei"	# not a lord
	female=yes
	dynasty=174407

	religion="rhoynar_pagan"
	culture="rhoynar"

	father=102174407
	mother=402174407

	6503.1.1 = {birth="6503.1.1"}
	6545.1.1 = {death="6545.1.1"}
}
106174407 = {
	name="Yandry"	# a lord
	dynasty=174407

	religion="rhoynar_pagan"
	culture="rhoynar"

	father=102174407
	mother=402174407

	6505.1.1 = {birth="6505.1.1"}
	6521.1.1 = {add_trait=poor_warrior}
	6523.1.1 = {add_spouse=406174407}
	6554.1.1 = {death="6554.1.1"}
}
406174407 = {
	name="Emberlia"
	female=yes

	religion="rhoynar_pagan"
	culture="rhoynar"

	6505.1.1 = {birth="6505.1.1"}
	6554.1.1 = {death="6554.1.1"}
}
107174407 = {
	name="Quentyn"	# not a lord
	dynasty=174407

	religion="rhoynar_pagan"
	culture="rhoynar"

	father=102174407
	mother=402174407

	6508.1.1 = {birth="6508.1.1"}
	6524.1.1 = {add_trait=poor_warrior}
	6565.1.1 = {death="6565.1.1"}
}
108174407 = {
	name="Quentyn"	# a lord
	dynasty=174407

	religion="rhoynar_pagan"
	culture="rhoynar"

	father=106174407
	mother=406174407

	6533.1.1 = {birth="6533.1.1"}
	6549.1.1 = {add_trait=skilled_warrior}
	6551.1.1 = {add_spouse=408174407}
	6578.1.1 = {death="6578.1.1"}
}
408174407 = {
	name="Leyla"
	female=yes

	religion="rhoynar_pagan"
	culture="rhoynar"

	6533.1.1 = {birth="6533.1.1"}
	6578.1.1 = {death="6578.1.1"}
}
109174407 = {
	name="Ellaria"	# not a lord
	female=yes
	dynasty=174407

	religion="rhoynar_pagan"
	culture="rhoynar"

	father=106174407
	mother=406174407

	6534.1.1 = {birth="6534.1.1"}
	6591.1.1 = {death="6591.1.1"}
}
110174407 = {
	name="Allyria"	# not a lord
	female=yes
	dynasty=174407

	religion="rhoynar_pagan"
	culture="rhoynar"

	father=106174407
	mother=406174407

	6535.1.1 = {birth="6535.1.1"}
	6598.1.1 = {death="6598.1.1"}
}
111174407 = {
	name="Mellei"	# not a lord
	female=yes
	dynasty=174407

	religion="rhoynar_pagan"
	culture="rhoynar"

	father=106174407
	mother=406174407

	6538.1.1 = {birth="6538.1.1"}
	6589.1.1 = {death="6589.1.1"}
}
112174407 = {
	name="Jynessa"	# not a lord
	female=yes
	dynasty=174407

	religion="rhoynar_pagan"
	culture="rhoynar"

	father=108174407
	mother=408174407

	6552.1.1 = {birth="6552.1.1"}
	6630.1.1 = {death="6630.1.1"}
}
113174407 = {
	name="Mors"	# a lord
	dynasty=174407

	religion="rhoynar_pagan"
	culture="rhoynar"

	father=108174407
	mother=408174407

	6554.1.1 = {birth="6554.1.1"}
	6570.1.1 = {add_trait=master_warrior}
	6572.1.1 = {add_spouse=413174407}
	6603.1.1 = {death="6603.1.1"}
}
413174407 = {
	name="Obella"
	female=yes

	religion="rhoynar_pagan"
	culture="rhoynar"

	6554.1.1 = {birth="6554.1.1"}
	6603.1.1 = {death="6603.1.1"}
}
114174407 = {
	name="Daemyn"	# not a lord
	dynasty=174407

	religion="rhoynar_pagan"
	culture="rhoynar"

	father=108174407
	mother=408174407

	6556.1.1 = {birth="6556.1.1"}
	6572.1.1 = {add_trait=skilled_warrior}
	6607.1.1 = {death="6607.1.1"}
}
115174407 = {
	name="Cyrenna"	# not a lord
	female=yes
	dynasty=174407

	religion="rhoynar_pagan"
	culture="rhoynar"

	father=113174407
	mother=413174407

	6581.1.1 = {birth="6581.1.1"}
	6624.1.1 = {death="6624.1.1"}
}
116174407 = {
	name="Alleras"	# a lord
	dynasty=174407

	religion="rhoynar_pagan"
	culture="rhoynar"

	father=113174407
	mother=413174407

	6583.1.1 = {birth="6583.1.1"}
	6599.1.1 = {add_trait=trained_warrior}
	6601.1.1 = {add_spouse=416174407}
	6640.1.1 = {death="6640.1.1"}
}
416174407 = {
	name="Myria"
	female=yes

	religion="rhoynar_pagan"
	culture="rhoynar"

	6583.1.1 = {birth="6583.1.1"}
	6640.1.1 = {death="6640.1.1"}
}
117174407 = {
	name="Bors"	# a lord
	dynasty=174407

	religion="rhoynar_pagan"
	culture="rhoynar"

	father=116174407
	mother=416174407

	6612.1.1 = {birth="6612.1.1"}
	6628.1.1 = {add_trait=skilled_warrior}
	6630.1.1 = {add_spouse=417174407}
	6660.1.1 = {death="6660.1.1"}
}
417174407 = {
	name="Donyse"
	female=yes

	religion="rhoynar_pagan"
	culture="rhoynar"

	6612.1.1 = {birth="6612.1.1"}
	6660.1.1 = {death="6660.1.1"}
}
118174407 = {
	name="Peyos"	# a lord
	dynasty=174407

	religion="rhoynar_pagan"
	culture="rhoynar"

	father=117174407
	mother=417174407

	6643.1.1 = {birth="6643.1.1"}
	6659.1.1 = {add_trait=poor_warrior}
	6661.1.1 = {add_spouse=418174407}
	6702.1.1 = {death="6702.1.1"}
}
418174407 = {
	name="Sylva"
	female=yes

	religion="rhoynar_pagan"
	culture="rhoynar"

	6643.1.1 = {birth="6643.1.1"}
	6702.1.1 = {death="6702.1.1"}
}
119174407 = {
	name="Alyse"	# not a lord
	female=yes
	dynasty=174407

	religion="rhoynar_pagan"
	culture="rhoynar"

	father=117174407
	mother=417174407

	6644.1.1 = {birth="6644.1.1"}
	6717.1.1 = {death="6717.1.1"}
}
120174407 = {
	name="Dorea"	# not a lord
	female=yes
	dynasty=174407

	religion="rhoynar_pagan"
	culture="rhoynar"

	father=117174407
	mother=417174407

	6646.1.1 = {birth="6646.1.1"}
	6704.1.1 = {death="6704.1.1"}
}
121174407 = {
	name="Donyse"	# not a lord
	female=yes
	dynasty=174407

	religion="rhoynar_pagan"
	culture="rhoynar"

	father=117174407
	mother=417174407

	6649.1.1 = {birth="6649.1.1"}
	6697.1.1 = {death="6697.1.1"}
}
122174407 = {
	name="Yandry"	# a lord
	dynasty=174407

	religion="rhoynar_pagan"
	culture="rhoynar"

	father=118174407
	mother=418174407

	6663.1.1 = {birth="6663.1.1"}
	6679.1.1 = {add_trait=trained_warrior}
	6681.1.1 = {add_spouse=422174407}
	6734.1.1 = {death="6734.1.1"}
}
422174407 = {
	name="Sylva"
	female=yes

	religion="rhoynar_pagan"
	culture="rhoynar"

	6663.1.1 = {birth="6663.1.1"}
	6734.1.1 = {death="6734.1.1"}
}
123174407 = {
	name="Cassella"	# not a lord
	female=yes
	dynasty=174407

	religion="rhoynar_pagan"
	culture="rhoynar"

	father=118174407
	mother=418174407

	6665.1.1 = {birth="6665.1.1"}
	6716.1.1 = {death="6716.1.1"}
}
124174407 = {
	name="Ashara"	# not a lord
	female=yes
	dynasty=174407

	religion="rhoynar_pagan"
	culture="rhoynar"

	father=118174407
	mother=418174407

	6667.1.1 = {birth="6667.1.1"}
	6717.1.1 = {death="6717.1.1"}
}
125174407 = {
	name="Garyn"	# a lord
	dynasty=174407

	religion="rhoynar_pagan"
	culture="rhoynar"

	father=122174407
	mother=422174407

	6691.1.1 = {birth="6691.1.1"}
	6707.1.1 = {add_trait=poor_warrior}
	6709.1.1 = {add_spouse=425174407}
	6751.1.1 = {death="6751.1.1"}
}
425174407 = {
	name="Cyrenna"
	female=yes

	religion="rhoynar_pagan"
	culture="rhoynar"

	6691.1.1 = {birth="6691.1.1"}
	6751.1.1 = {death="6751.1.1"}
}
126174407 = {
	name="Aryen"	# a lord
	dynasty=174407

	religion="rhoynar_pagan"
	culture="rhoynar"

	father=125174407
	mother=425174407

	6717.1.1 = {birth="6717.1.1"}
	6733.1.1 = {add_trait=poor_warrior}
	6735.1.1 = {add_spouse=426174407}
}
426174407 = {
	name="Sarelya"
	female=yes

	religion="rhoynar_pagan"
	culture="rhoynar"

	6717.1.1 = {birth="6717.1.1"}
}
127174407 = {
	name="Alyse"	# not a lord
	female=yes
	dynasty=174407

	religion="rhoynar_pagan"
	culture="rhoynar"

	father=125174407
	mother=425174407

	6720.1.1 = {birth="6720.1.1"}
	6766.1.1 = {death="6766.1.1"}
}
128174407 = {
	name="Cassella"	# not a lord
	female=yes
	dynasty=174407

	religion="rhoynar_pagan"
	culture="rhoynar"

	father=125174407
	mother=425174407

	6721.1.1 = {birth="6721.1.1"}
}
129174407 = {
	name="Dygos"	# not a lord
	dynasty=174407

	religion="rhoynar_pagan"
	culture="rhoynar"

	father=125174407
	mother=425174407

	6723.1.1 = {birth="6723.1.1"}
	6739.1.1 = {add_trait=trained_warrior}
	6762.1.1 = {death="6762.1.1"}
}
130174407 = {
	name="Aryanne"	# not a lord
	female=yes
	dynasty=174407

	religion="rhoynar_pagan"
	culture="rhoynar"

	father=126174407
	mother=426174407

	6739.1.1 = {birth="6739.1.1"}
}
131174407 = {
	name="Trebor"	# not a lord
	dynasty=174407

	religion="rhoynar_pagan"
	culture="rhoynar"

	father=126174407
	mother=426174407

	6742.1.1 = {birth="6742.1.1"}
	6758.1.1 = {add_trait=poor_warrior}
}
132174407 = {
	name="Tanselia"	# not a lord
	female=yes
	dynasty=174407

	religion="rhoynar_pagan"
	culture="rhoynar"

	father=126174407
	mother=426174407

	6745.1.1 = {birth="6745.1.1"}
}
133174407 = {
	name="Nysterica"	# not a lord
	female=yes
	dynasty=174407

	religion="rhoynar_pagan"
	culture="rhoynar"

	father=126174407
	mother=426174407

	6748.1.1 = {birth="6748.1.1"}
}


###############################################################################   Chroyane  ##########################################################


##  House Chroyos

110086017 = {
	name="Maron"	# a lord
	dynasty=86007

	religion="rhoynar_pagan"
	culture="rhoynar"

	6435.1.1 = {birth="6435.1.1"}
	6451.1.1 = {add_trait=poor_warrior}
	6453.1.1 = {add_spouse=20086017}
	6497.1.1 = {death="6497.1.1"}
}
20086017 = {
	name="Nysterica"
	female=yes

	religion="rhoynar_pagan"
	culture="rhoynar"

	6435.1.1 = {birth="6435.1.1"}
	6497.1.1 = {death="6497.1.1"}
}
110186017 = {
	name="Gerrys"	# not a lord
	dynasty=86007

	religion="rhoynar_pagan"
	culture="rhoynar"

	father=110086017
	mother=20086017

	6458.1.1 = {birth="6458.1.1"}
	6474.1.1 = {add_trait=poor_warrior}
	6481.1.1 = {death="6481.1.1"}
}
110286017 = {
	name="Anders"	# a lord
	dynasty=86007

	religion="rhoynar_pagan"
	culture="rhoynar"

	father=110086017
	mother=20086017

	6461.1.1 = {birth="6461.1.1"}
	6477.1.1 = {add_trait=skilled_warrior}
	6485.1.1 = {add_spouse=20286017}
	6518.1.1 = {death="6518.1.1"}
}
20286017 = {
	name="Alysanne"
	female=yes

	religion="rhoynar_pagan"
	culture="rhoynar"

	6461.1.1 = {birth="6461.1.1"}
	6518.1.1 = {death="6518.1.1"}
}
110386017 = {
	name="Aryen"	# a lord
	dynasty=86007

	religion="rhoynar_pagan"
	culture="rhoynar"

	father=110286017
	mother=20286017

	6482.1.1 = {birth="6482.1.1"}
	6498.1.1 = {add_trait=poor_warrior}
	6500.1.1 = {add_spouse=40386017}
	6540.1.1 = {death="6540.1.1"}
}
40386017 = {
	name="Emberlia"
	female=yes

	religion="rhoynar_pagan"
	culture="rhoynar"

	6482.1.1 = {birth="6482.1.1"}
	6540.1.1 = {death="6540.1.1"}
}
10486017 = {
	name="Obara"	# not a lord
	female=yes
	dynasty=86007

	religion="rhoynar_pagan"
	culture="rhoynar"

	father=110286017
	mother=20286017

	6483.1.1 = {birth="6483.1.1"}
	6514.1.1 = {death="6514.1.1"}
}
10586017 = {
	name="Belyar"	# a lord
	dynasty=86007

	religion="rhoynar_pagan"
	culture="rhoynar"

	father=110386017
	mother=40386017

	6517.1.1 = {birth="6517.1.1"}
	6533.1.1 = {add_trait=poor_warrior}
	6535.1.1 = {add_spouse=40586017}
	6574.1.1 = {death="6574.1.1"}
}
40586017 = {
	name="Cassella"
	female=yes

	religion="rhoynar_pagan"
	culture="rhoynar"

	6517.1.1 = {birth="6517.1.1"}
	6574.1.1 = {death="6574.1.1"}
}
10686017 = {
	name="Aryanne"	# not a lord
	female=yes
	dynasty=86007

	religion="rhoynar_pagan"
	culture="rhoynar"

	father=110386017
	mother=40386017

	6519.1.1 = {birth="6519.1.1"}
	6554.1.1 = {death="6554.1.1"}
}
10786017 = {
	name="Daemyn"	# a lord
	dynasty=86007

	religion="rhoynar_pagan"
	culture="rhoynar"

	father=10586017
	mother=40586017

	6537.1.1 = {birth="6537.1.1"}
	6553.1.1 = {add_trait=poor_warrior}
	6555.1.1 = {add_spouse=40786017}
	6579.1.1 = {death="6579.1.1"}
}
40786017 = {
	name="Nysterica"
	female=yes

	religion="rhoynar_pagan"
	culture="rhoynar"

	6537.1.1 = {birth="6537.1.1"}
	6579.1.1 = {death="6579.1.1"}
}
10886017 = {
	name="Allar"	# not a lord
	dynasty=86007

	religion="rhoynar_pagan"
	culture="rhoynar"

	father=10586017
	mother=40586017

	6538.1.1 = {birth="6538.1.1"}
	6554.1.1 = {add_trait=poor_warrior}
	6583.1.1 = {death="6583.1.1"}
}
10986017 = {
	name="Mallor"	# not a lord
	dynasty=86007

	religion="rhoynar_pagan"
	culture="rhoynar"

	father=10586017
	mother=40586017

	6541.1.1 = {birth="6541.1.1"}
	6557.1.1 = {add_trait=poor_warrior}
	6571.1.1 = {death="6571.1.1"}
}
11086017 = {
	name="Gulyan"	# not a lord
	dynasty=86007

	religion="rhoynar_pagan"
	culture="rhoynar"

	father=10586017
	mother=40586017

	6543.1.1 = {birth="6543.1.1"}
	6559.1.1 = {add_trait=trained_warrior}
	6589.1.1 = {death="6589.1.1"}
}
11186017 = {
	name="Ysilla"	# not a lord
	female=yes
	dynasty=86007

	religion="rhoynar_pagan"
	culture="rhoynar"

	father=10786017
	mother=40786017

	6562.1.1 = {birth="6562.1.1"}
	6605.1.1 = {death="6605.1.1"}
}
11286017 = {
	name="Cyrenna"	# not a lord
	female=yes
	dynasty=86007

	religion="rhoynar_pagan"
	culture="rhoynar"

	father=10786017
	mother=40786017

	6564.1.1 = {birth="6564.1.1"}
	6619.1.1 = {death="6619.1.1"}
}
11386017 = {
	name="Mallor"	# a lord
	dynasty=86007

	religion="rhoynar_pagan"
	culture="rhoynar"

	father=10786017
	mother=40786017

	6566.1.1 = {birth="6566.1.1"}
	6582.1.1 = {add_trait=poor_warrior}
	6584.1.1 = {add_spouse=41386017}
	6621.1.1 = {death="6621.1.1"}
}
41386017 = {
	name="Amary"
	female=yes

	religion="rhoynar_pagan"
	culture="rhoynar"

	6566.1.1 = {birth="6566.1.1"}
	6621.1.1 = {death="6621.1.1"}
}
11486017 = {
	name="Cassella"	# not a lord
	female=yes
	dynasty=86007

	religion="rhoynar_pagan"
	culture="rhoynar"

	father=10786017
	mother=40786017

	6567.1.1 = {birth="6567.1.1"}
	6643.1.1 = {death = {death_reason = death_murder}}
}
11586017 = {
	name="Anders"	# a lord
	dynasty=86007

	religion="rhoynar_pagan"
	culture="rhoynar"

	father=11386017
	mother=41386017

	6590.1.1 = {birth="6590.1.1"}
	6606.1.1 = {add_trait=poor_warrior}
	6608.1.1 = {add_spouse=41586017}
	6631.1.1 = {death="6631.1.1"}
}
41586017 = {
	name="Obara"
	female=yes

	religion="rhoynar_pagan"
	culture="rhoynar"

	6590.1.1 = {birth="6590.1.1"}
	6631.1.1 = {death="6631.1.1"}
}
11686017 = {
	name="Cyrenna"	# not a lord
	female=yes
	dynasty=86007

	religion="rhoynar_pagan"
	culture="rhoynar"

	father=11386017
	mother=41386017

	6591.1.1 = {birth="6591.1.1"}
	6632.1.1 = {death = {death_reason = death_murder}}
}
11786017 = {
	name="Trebor"	# a lord
	dynasty=86007

	religion="rhoynar_pagan"
	culture="rhoynar"

	father=11586017
	mother=41586017

	6610.1.1 = {birth="6610.1.1"}
	6626.1.1 = {add_trait=skilled_warrior}
	6628.1.1 = {add_spouse=41786017}
	6652.1.1 = {death="6652.1.1"}
}
41786017 = {
	name="Leyla"
	female=yes

	religion="rhoynar_pagan"
	culture="rhoynar"

	6610.1.1 = {birth="6610.1.1"}
	6652.1.1 = {death="6652.1.1"}
}
11886017 = {
	name="Doran"	# a lord
	dynasty=86007

	religion="rhoynar_pagan"
	culture="rhoynar"

	father=11786017
	mother=41786017

	6630.1.1 = {birth="6630.1.1"}
	6646.1.1 = {add_trait=poor_warrior}
	6648.1.1 = {add_spouse=41886017}
	6680.1.1 = {death="6680.1.1"}
}
41886017 = {
	name="Obella"
	female=yes

	religion="rhoynar_pagan"
	culture="rhoynar"

	6630.1.1 = {birth="6630.1.1"}
	6680.1.1 = {death="6680.1.1"}
}
11986017 = {
	name="Cassella"	# not a lord
	female=yes
	dynasty=86007

	religion="rhoynar_pagan"
	culture="rhoynar"

	father=11786017
	mother=41786017

	6633.1.1 = {birth="6633.1.1"}
	6669.1.1 = {death="6669.1.1"}
}
12086017 = {
	name="Peyos"	# a lord
	dynasty=86007

	religion="rhoynar_pagan"
	culture="rhoynar"

	father=11886017
	mother=41886017

	6657.1.1 = {birth="6657.1.1"}
	6673.1.1 = {add_trait=poor_warrior}
	6675.1.1 = {add_spouse=42086017}
	6714.1.1 = {death="6714.1.1"}
}
42086017 = {
	name="Allyria"
	female=yes

	religion="rhoynar_pagan"
	culture="rhoynar"

	6657.1.1 = {birth="6657.1.1"}
	6714.1.1 = {death="6714.1.1"}
}
12186017 = {
	name="Peyos"	# a lord
	dynasty=86007

	religion="rhoynar_pagan"
	culture="rhoynar"

	father=12086017
	mother=42086017

	6685.1.1 = {birth="6685.1.1"}
	6701.1.1 = {add_trait=skilled_warrior}
	6703.1.1 = {add_spouse=42186017}
	6733.1.1 = {death="6733.1.1"}
}
42186017 = {
	name="Melessa"
	female=yes

	religion="rhoynar_pagan"
	culture="rhoynar"

	6685.1.1 = {birth="6685.1.1"}
	6733.1.1 = {death="6733.1.1"}
}
12286017 = {
	name="Nysterica"	# not a lord
	female=yes
	dynasty=86007

	religion="rhoynar_pagan"
	culture="rhoynar"

	father=12086017
	mother=42086017

	6688.1.1 = {birth="6688.1.1"}
	6758.1.1 = {death="6758.1.1"}
}
12386017 = {
	name="Casyos"	# a lord
	dynasty=86007

	religion="rhoynar_pagan"
	culture="rhoynar"

	father=12186017
	mother=42186017

	6707.1.1 = {birth="6707.1.1"}
	6723.1.1 = {add_trait=poor_warrior}
	6725.1.1 = {add_spouse=42386017}
	6752.1.1 = {death="6752.1.1"}
}
42386017 = {
	name="Mellei"
	female=yes

	religion="rhoynar_pagan"
	culture="rhoynar"

	6707.1.1 = {birth="6707.1.1"}
	6752.1.1 = {death="6752.1.1"}
}
12486017 = {
	name="Caleyen"	# not a lord
	dynasty=86007

	religion="rhoynar_pagan"
	culture="rhoynar"

	father=12186017
	mother=42186017

	6709.1.1 = {birth="6709.1.1"}
	6725.1.1 = {add_trait=master_warrior}
	6762.1.1 = {death="6762.1.1"}
}
12586017 = {
	name="Mallor"	# not a lord
	dynasty=86007

	religion="rhoynar_pagan"
	culture="rhoynar"

	father=12186017
	mother=42186017

	6710.1.1 = {birth="6710.1.1"}
	6726.1.1 = {add_trait=master_warrior}
	6768.1.1 = {death="6768.1.1"}
}
12686017 = {
	name="Daemyn"	# a lord
	dynasty=86007

	religion="rhoynar_pagan"
	culture="rhoynar"

	father=12386017
	mother=42386017

	6729.1.1 = {birth="6729.1.1"}
	6745.1.1 = {add_trait=trained_warrior}
}
12786017 = {
	name="Ellaria"	# not a lord
	female=yes
	dynasty=86007

	religion="rhoynar_pagan"
	culture="rhoynar"

	father=12386017
	mother=42386017

	6732.1.1 = {birth="6732.1.1"}
}


#############################################################   Ar Noy  #########################################################################

##  House Aryenos

100186004 = {
	name="Ryon"	# a lord
	dynasty=86004

	religion="rhoynar_pagan"
	culture="rhoynar"

	6444.1.1 = {birth="6444.1.1"}
	6460.1.1 = {add_trait=poor_warrior}
	6462.1.1 = {add_spouse=40086004}
	6500.1.1 = {death="6500.1.1"}
}
40086004 = {
	name="Donyse"
	female=yes

	religion="rhoynar_pagan"
	culture="rhoynar"

	6444.1.1 = {birth="6444.1.1"}
	6500.1.1 = {death="6500.1.1"}
}
101186004 = {
	name="Aryen"	# a lord
	dynasty=86004

	religion="rhoynar_pagan"
	culture="rhoynar"

	father=100186004
	mother=40086004

	6468.1.1 = {birth="6468.1.1"}
	6484.1.1 = {add_trait=poor_warrior}
	6486.1.1 = {add_spouse=40186004}
	6539.1.1 = {death="6539.1.1"}
}
40186004 = {
	name="Lynesse"
	female=yes

	religion="rhoynar_pagan"
	culture="rhoynar"

	6468.1.1 = {birth="6468.1.1"}
	6539.1.1 = {death="6539.1.1"}
}

10386004 = {
	name="Mors"	# not a lord
	dynasty=86004

	religion="rhoynar_pagan"
	culture="rhoynar"

	father=101186004
	mother=40186004

	6486.1.1 = {birth="6486.1.1"}
	6502.1.1 = {add_trait=trained_warrior}
	6509.1.1 = {death = {death_reason = death_battle}}
}
10486004 = {
	name="Alyse"	# not a lord
	female=yes
	dynasty=86004

	religion="rhoynar_pagan"
	culture="rhoynar"

	father=101186004
	mother=40186004

	6487.1.1 = {birth="6487.1.1"}
	6524.1.1 = {death="6524.1.1"}
}
10586004 = {
	name="Alleras"	# a lord
	dynasty=86004

	religion="rhoynar_pagan"
	culture="rhoynar"

	father=101186004
	mother=40186004

	6488.1.1 = {birth="6488.1.1"}
	6504.1.1 = {add_trait=poor_warrior}
	6506.1.1 = {add_spouse=40586004}
	6545.1.1 = {death="6545.1.1"}
}
40586004 = {
	name="Alysanne"
	female=yes

	religion="rhoynar_pagan"
	culture="rhoynar"

	6488.1.1 = {birth="6488.1.1"}
	6545.1.1 = {death="6545.1.1"}
}
10686004 = {
	name="Laria"	# not a lord
	female=yes
	dynasty=86004

	religion="rhoynar_pagan"
	culture="rhoynar"

	father=101186004
	mother=40186004

	6489.1.1 = {birth="6489.1.1"}
	6533.1.1 = {death="6533.1.1"}
}
10786004 = {
	name="Aron"	# a lord
	dynasty=86004

	religion="rhoynar_pagan"
	culture="rhoynar"

	father=10586004
	mother=40586004

	6508.1.1 = {birth="6508.1.1"}
	6524.1.1 = {add_trait=skilled_warrior}
	6526.1.1 = {add_spouse=40786004}
	6553.1.1 = {death="6553.1.1"}
}
40786004 = {
	name="Jynessa"
	female=yes

	religion="rhoynar_pagan"
	culture="rhoynar"

	6508.1.1 = {birth="6508.1.1"}
	6553.1.1 = {death="6553.1.1"}
}
10886004 = {
	name="Melessa"	# not a lord
	female=yes
	dynasty=86004

	religion="rhoynar_pagan"
	culture="rhoynar"

	father=10586004
	mother=40586004

	6509.1.1 = {birth="6509.1.1"}
	6587.1.1 = {death="6587.1.1"}
}
10986004 = {
	name="Myria"	# not a lord
	female=yes
	dynasty=86004

	religion="rhoynar_pagan"
	culture="rhoynar"

	father=10586004
	mother=40586004

	6512.1.1 = {birth="6512.1.1"}
	6567.1.1 = {death="6567.1.1"}
}
11086004 = {
	name="Laria"	# not a lord
	female=yes
	dynasty=86004

	religion="rhoynar_pagan"
	culture="rhoynar"

	father=10586004
	mother=40586004

	6515.1.1 = {birth="6515.1.1"}
	6573.1.1 = {death="6573.1.1"}
}
11186004 = {
	name="Elyana"	# not a lord
	female=yes
	dynasty=86004

	religion="rhoynar_pagan"
	culture="rhoynar"

	father=10786004
	mother=40786004

	6528.1.1 = {birth="6528.1.1"}
	6594.1.1 = {death="6594.1.1"}
}
11286004 = {
	name="Leyla"	# not a lord
	female=yes
	dynasty=86004

	religion="rhoynar_pagan"
	culture="rhoynar"

	father=10786004
	mother=40786004

	6529.1.1 = {birth="6529.1.1"}
	6578.1.1 = {death="6578.1.1"}
}
11386004 = {
	name="Daeron"	# a lord
	dynasty=86004

	religion="rhoynar_pagan"
	culture="rhoynar"

	father=10786004
	mother=40786004

	6532.1.1 = {birth="6532.1.1"}
	6548.1.1 = {add_trait=trained_warrior}
	6550.1.1 = {add_spouse=41386004}
	6588.1.1 = {death="6588.1.1"}
}
41386004 = {
	name="Emberlia"
	female=yes

	religion="rhoynar_pagan"
	culture="rhoynar"

	6532.1.1 = {birth="6532.1.1"}
	6588.1.1 = {death="6588.1.1"}
}
11486004 = {
	name="Gasoyne"	# a lord
	dynasty=86004

	religion="rhoynar_pagan"
	culture="rhoynar"

	father=11386004
	mother=41386004

	6560.1.1 = {birth="6560.1.1"}
	6576.1.1 = {add_trait=trained_warrior}
	6578.1.1 = {add_spouse=41486004}
	6634.1.1 = {death="6634.1.1"}
}
41486004 = {
	name="Leyla"
	female=yes

	religion="rhoynar_pagan"
	culture="rhoynar"

	6560.1.1 = {birth="6560.1.1"}
	6634.1.1 = {death="6634.1.1"}
}
11586004 = {
	name="Mallor"	# not a lord
	dynasty=86004

	religion="rhoynar_pagan"
	culture="rhoynar"

	father=11386004
	mother=41386004

	6562.1.1 = {birth="6562.1.1"}
	6578.1.1 = {add_trait=skilled_warrior}
	6610.1.1 = {death="6610.1.1"}
}
11686004 = {
	name="Rycas"	# a lord
	dynasty=86004

	religion="rhoynar_pagan"
	culture="rhoynar"

	father=11486004
	mother=41486004

	6588.1.1 = {birth="6588.1.1"}
	6604.1.1 = {add_trait=skilled_warrior}
	6606.1.1 = {add_spouse=41686004}
	6648.1.1 = {death = {death_reason = death_murder}}
}
41686004 = {
	name="Sylva"
	female=yes

	religion="rhoynar_pagan"
	culture="rhoynar"

	6588.1.1 = {birth="6588.1.1"}
	6648.1.1 = {death="6648.1.1"}
}
11786004 = {
	name="Yandry"	# not a lord
	dynasty=86004

	religion="rhoynar_pagan"
	culture="rhoynar"

	father=11486004
	mother=41486004

	6590.1.1 = {birth="6590.1.1"}
	6606.1.1 = {add_trait=skilled_warrior}
	6638.1.1 = {death="6638.1.1"}
}
11886004 = {
	name="Caleyen"	# not a lord
	dynasty=86004

	religion="rhoynar_pagan"
	culture="rhoynar"

	father=11486004
	mother=41486004

	6591.1.1 = {birth="6591.1.1"}
	6607.1.1 = {add_trait=poor_warrior}
	6632.1.1 = {death="6632.1.1"}
}
11986004 = {
	name="Lynesse"	# not a lord
	female=yes
	dynasty=86004

	religion="rhoynar_pagan"
	culture="rhoynar"

	father=11486004
	mother=41486004

	6593.1.1 = {birth="6593.1.1"}
	6627.1.1 = {death="6627.1.1"}
}
12086004 = {
	name="Peyos"	# a lord
	dynasty=86004

	religion="rhoynar_pagan"
	culture="rhoynar"

	father=11686004
	mother=41686004

	6613.1.1 = {birth="6613.1.1"}
	6629.1.1 = {add_trait=poor_warrior}
	6631.1.1 = {add_spouse=42086004}
	6667.1.1 = {death="6667.1.1"}
}
42086004 = {
	name="Nymella"
	female=yes

	religion="rhoynar_pagan"
	culture="rhoynar"

	6613.1.1 = {birth="6613.1.1"}
	6667.1.1 = {death="6667.1.1"}
}
12186004 = {
	name="Cassella"	# not a lord
	female=yes
	dynasty=86004

	religion="rhoynar_pagan"
	culture="rhoynar"

	father=11686004
	mother=41686004

	6614.1.1 = {birth="6614.1.1"}
	6660.1.1 = {death="6660.1.1"}
}
12286004 = {
	name="Allar"	# a lord
	dynasty=86004

	religion="rhoynar_pagan"
	culture="rhoynar"

	father=12086004
	mother=42086004

	6648.1.1 = {birth="6648.1.1"}
	6664.1.1 = {add_trait=poor_warrior}
	6666.1.1 = {add_spouse=42286004}
	6723.1.1 = {death="6723.1.1"}
}
42286004 = {
	name="Loreza"
	female=yes

	religion="rhoynar_pagan"
	culture="rhoynar"

	6648.1.1 = {birth="6648.1.1"}
	6723.1.1 = {death="6723.1.1"}
}
12386004 = {
	name="Alysanne"	# not a lord
	female=yes
	dynasty=86004

	religion="rhoynar_pagan"
	culture="rhoynar"

	father=12286004
	mother=42286004

	6666.1.1 = {birth="6666.1.1"}
	6716.1.1 = {death="6716.1.1"}
}
12486004 = {
	name="Amary"	# not a lord
	female=yes
	dynasty=86004

	religion="rhoynar_pagan"
	culture="rhoynar"

	father=12286004
	mother=42286004

	6668.1.1 = {birth="6668.1.1"}
	6717.1.1 = {death="6717.1.1"}
}
12586004 = {
	name="Quentyn"	# not a lord
	dynasty=86004

	religion="rhoynar_pagan"
	culture="rhoynar"

	father=12286004
	mother=42286004

	6670.1.1 = {birth="6670.1.1"}
	6686.1.1 = {add_trait=poor_warrior}
	6708.1.1 = {death = {death_reason = death_battle}}
}
12686004 = {
	name="Allar"	# a lord
	dynasty=86004

	religion="rhoynar_pagan"
	culture="rhoynar"

	father=12286004
	mother=42286004

	6673.1.1 = {birth="6673.1.1"}
	6689.1.1 = {add_trait=trained_warrior}
	6691.1.1 = {add_spouse=42686004}
	6725.1.1 = {death="6725.1.1"}
}
42686004 = {
	name="Marya"
	female=yes

	religion="rhoynar_pagan"
	culture="rhoynar"

	6673.1.1 = {birth="6673.1.1"}
	6725.1.1 = {death="6725.1.1"}
}
12786004 = {
	name="Trystane"	# a lord
	dynasty=86004

	religion="rhoynar_pagan"
	culture="rhoynar"

	father=12686004
	mother=42686004

	6705.1.1 = {birth="6705.1.1"}
	6721.1.1 = {add_trait=poor_warrior}
	6723.1.1 = {add_spouse=42786004}
	6772.1.1 = {death="6772.1.1"}
}
42786004 = {
	name="Tanselia"
	female=yes

	religion="rhoynar_pagan"
	culture="rhoynar"

	6705.1.1 = {birth="6705.1.1"}
	6772.1.1 = {death="6772.1.1"}
}
12886004 = {
	name="Tyene"	# not a lord
	female=yes
	dynasty=86004

	religion="rhoynar_pagan"
	culture="rhoynar"

	father=12686004
	mother=42686004

	6708.1.1 = {birth="6708.1.1"}
	6740.1.1 = {death="6740.1.1"}
}
12986004 = {
	name="Bors"	# not a lord
	dynasty=86004

	religion="rhoynar_pagan"
	culture="rhoynar"

	father=12686004
	mother=42686004

	6711.1.1 = {birth="6711.1.1"}
	6727.1.1 = {add_trait=poor_warrior}
	6774.1.1 = {death="6774.1.1"}
}
13086004 = {
	name="Melessa"	# not a lord
	female=yes
	dynasty=86004

	religion="rhoynar_pagan"
	culture="rhoynar"

	father=12786004
	mother=42786004

	6733.1.1 = {birth="6733.1.1"}
	6755.1.1 = {death="6755.1.1"}
}
13186004 = {
	name="Myria"	# a lord
	female=yes
	dynasty=86004

	religion="rhoynar_pagan"
	culture="rhoynar"

	father=12786004
	mother=42786004

	6735.1.1 = {birth="6735.1.1"}
}


###################################################################  Sarhoy  ##########################################################################

#####  House Myros

100086003 = {
	name="Gerrys"	# a lord
	dynasty=86003

	religion="rhoynar_pagan"
	culture="rhoynar"

	6443.1.1 = {birth="6443.1.1"}
	6459.1.1 = {add_trait=poor_warrior}
	6461.1.1 = {add_spouse=400086003}
	6496.1.1 = {death="6496.1.1"}
}
400086003 = {
	name="Ashara"
	female=yes

	religion="rhoynar_pagan"
	culture="rhoynar"

	6443.1.1 = {birth="6443.1.1"}
	6496.1.1 = {death="6496.1.1"}
}
100186003 = {
	name="Emberlia"	# not a lord
	female=yes
	dynasty=86003

	religion="rhoynar_pagan"
	culture="rhoynar"

	father=100086003
	mother=400086003

	6463.1.1 = {birth="6463.1.1"}
	6508.1.1 = {death = {death_reason = death_accident}}
}
100286003 = {
	name="Marei"	# not a lord
	female=yes
	dynasty=86003

	religion="rhoynar_pagan"
	culture="rhoynar"

	father=100086003
	mother=400086003

	6465.1.1 = {birth="6465.1.1"}
	6515.1.1 = {death="6515.1.1"}
}
100386003 = {
	name="Allar"	# a lord
	dynasty=86003

	religion="rhoynar_pagan"
	culture="rhoynar"

	father=100086003
	mother=400086003

	6466.1.1 = {birth="6466.1.1"}
	6482.1.1 = {add_trait=trained_warrior}
	6484.1.1 = {add_spouse=400386003}
	6519.1.1 = {death="6519.1.1"}
}
400386003 = {
	name="Cassella"
	female=yes

	religion="rhoynar_pagan"
	culture="rhoynar"

	6466.1.1 = {birth="6466.1.1"}
	6519.1.1 = {death="6519.1.1"}
}
100486003 = {
	name="Ashara"	# not a lord
	female=yes
	dynasty=86003

	religion="rhoynar_pagan"
	culture="rhoynar"

	father=100086003
	mother=400086003

	6467.1.1 = {birth="6467.1.1"}
	6524.1.1 = {death="6524.1.1"}
}
100586003 = {
	name="Aron"	# not a lord
	dynasty=86003

	religion="rhoynar_pagan"
	culture="rhoynar"

	father=100086003
	mother=400086003

	6470.1.1 = {birth="6470.1.1"}
	6486.1.1 = {add_trait=poor_warrior}
	6547.1.1 = {death = {death_reason = death_murder}}
}
100686003 = {
	name="Garyn"	# a lord
	dynasty=86003

	religion="rhoynar_pagan"
	culture="rhoynar"

	father=100386003
	mother=400386003

	6498.1.1 = {birth="6498.1.1"}
	6514.1.1 = {add_trait=poor_warrior}
	6516.1.1 = {add_spouse=400686003}
	6550.1.1 = {death="6550.1.1"}
}
400686003 = {
	name="Melessa"
	female=yes

	religion="rhoynar_pagan"
	culture="rhoynar"

	6498.1.1 = {birth="6498.1.1"}
	6550.1.1 = {death="6550.1.1"}
}
100786003 = {
	name="Daemyn"	# a lord
	dynasty=86003

	religion="rhoynar_pagan"
	culture="rhoynar"

	father=100686003
	mother=400686003

	6525.1.1 = {birth="6525.1.1"}
	6541.1.1 = {add_trait=poor_warrior}
	6543.1.1 = {add_spouse=400786003}
	6565.1.1 = {death="6565.1.1"}
}
400786003 = {
	name="Obara"
	female=yes

	religion="rhoynar_pagan"
	culture="rhoynar"

	6525.1.1 = {birth="6525.1.1"}
	6565.1.1 = {death="6565.1.1"}
}
100886003 = {
	name="Ellaria"	# not a lord
	female=yes
	dynasty=86003

	religion="rhoynar_pagan"
	culture="rhoynar"

	father=100686003
	mother=400686003

	6528.1.1 = {birth="6528.1.1"}
	6584.1.1 = {death="6584.1.1"}
}
100986003 = {
	name="Leyla"	# not a lord
	female=yes
	dynasty=86003

	religion="rhoynar_pagan"
	culture="rhoynar"

	father=100686003
	mother=400686003

	6529.1.1 = {birth="6529.1.1"}
	6594.1.1 = {death="6594.1.1"}
}
101086003 = {
	name="Tyene"	# not a lord
	female=yes
	dynasty=86003

	religion="rhoynar_pagan"
	culture="rhoynar"

	father=100686003
	mother=400686003

	6531.1.1 = {birth="6531.1.1"}
	6568.1.1 = {death="6568.1.1"}
}
101186003 = {
	name="Garyn"	# a lord
	dynasty=86003

	religion="rhoynar_pagan"
	culture="rhoynar"

	father=100786003
	mother=400786003

	6549.1.1 = {birth="6549.1.1"}
	6565.1.1 = {add_trait=poor_warrior}
	6567.1.1 = {add_spouse=401186003}
	6604.1.1 = {death="6604.1.1"}
}
401186003 = {
	name="Alysanne"
	female=yes

	religion="rhoynar_pagan"
	culture="rhoynar"

	6549.1.1 = {birth="6549.1.1"}
	6604.1.1 = {death="6604.1.1"}
}
101286003 = {
	name="Lynesse"	# not a lord
	female=yes
	dynasty=86003

	religion="rhoynar_pagan"
	culture="rhoynar"

	father=100786003
	mother=400786003

	6550.1.1 = {birth="6550.1.1"}
	6610.1.1 = {death="6610.1.1"}
}
101386003 = {
	name="Gasoyne"	# not a lord
	dynasty=86003

	religion="rhoynar_pagan"
	culture="rhoynar"

	father=101186003
	mother=401186003

	6568.1.1 = {birth="6568.1.1"}
	6584.1.1 = {add_trait=poor_warrior}
	6604.1.1 = {death = {death_reason = death_battle}}
}
101486003 = {
	name="Oberyn"	# not a lord
	dynasty=86003

	religion="rhoynar_pagan"
	culture="rhoynar"

	father=101186003
	mother=401186003

	6571.1.1 = {birth="6571.1.1"}
	6587.1.1 = {add_trait=poor_warrior}
	6602.1.1 = {death="6602.1.1"}
}
101586003 = {
	name="Yandry"	# a lord
	dynasty=86003

	religion="rhoynar_pagan"
	culture="rhoynar"

	father=101186003
	mother=401186003

	6573.1.1 = {birth="6573.1.1"}
	6589.1.1 = {add_trait=poor_warrior}
	6591.1.1 = {add_spouse=401586003}
	6633.1.1 = {death="6633.1.1"}
}
401586003 = {
	name="Elia"
	female=yes

	religion="rhoynar_pagan"
	culture="rhoynar"

	6573.1.1 = {birth="6573.1.1"}
	6633.1.1 = {death="6633.1.1"}
}
101686003 = {
	name="Marya"	# not a lord
	female=yes
	dynasty=86003

	religion="rhoynar_pagan"
	culture="rhoynar"

	father=101186003
	mother=401186003

	6575.1.1 = {birth="6575.1.1"}
	6620.1.1 = {death="6620.1.1"}
}
101786003 = {
	name="Sylva"	# not a lord
	female=yes
	dynasty=86003

	religion="rhoynar_pagan"
	culture="rhoynar"

	father=101586003
	mother=401586003

	6606.1.1 = {birth="6606.1.1"}
	6658.1.1 = {death="6658.1.1"}
}
101886003 = {
	name="Alyse"	# not a lord
	female=yes
	dynasty=86003

	religion="rhoynar_pagan"
	culture="rhoynar"

	father=101586003
	mother=401586003

	6609.1.1 = {birth="6609.1.1"}
	6659.1.1 = {death="6659.1.1"}
}
101986003 = {
	name="Trystane"	# a lord
	dynasty=86003

	religion="rhoynar_pagan"
	culture="rhoynar"

	father=101586003
	mother=401586003

	6610.1.1 = {birth="6610.1.1"}
	6626.1.1 = {add_trait=trained_warrior}
	6628.1.1 = {add_spouse=401986003}
	6679.1.1 = {death="6679.1.1"}
}
401986003 = {
	name="Ysilla"
	female=yes

	religion="rhoynar_pagan"
	culture="rhoynar"

	6610.1.1 = {birth="6610.1.1"}
	6679.1.1 = {death="6679.1.1"}
}
102086003 = {
	name="Dorea"	# not a lord
	female=yes
	dynasty=86003

	religion="rhoynar_pagan"
	culture="rhoynar"

	father=101586003
	mother=401586003

	6613.1.1 = {birth="6613.1.1"}
	6672.1.1 = {death="6672.1.1"}
}
102186003 = {
	name="Rycas"	# a lord
	dynasty=86003

	religion="rhoynar_pagan"
	culture="rhoynar"

	father=101986003
	mother=401986003

	6633.1.1 = {birth="6633.1.1"}
	6649.1.1 = {add_trait=poor_warrior}
	6651.1.1 = {add_spouse=402186003}
	6692.1.1 = {death = {death_reason = death_murder}}
}
402186003 = {
	name="Alysanne"
	female=yes

	religion="rhoynar_pagan"
	culture="rhoynar"

	6633.1.1 = {birth="6633.1.1"}
	6692.1.1 = {death="6692.1.1"}
}
102286003 = {
	name="Ysilla"	# not a lord
	female=yes
	dynasty=86003

	religion="rhoynar_pagan"
	culture="rhoynar"

	father=101986003
	mother=401986003

	6636.1.1 = {birth="6636.1.1"}
	6681.1.1 = {death="6681.1.1"}
}
102386003 = {
	name="Allar"	# a lord
	dynasty=86003

	religion="rhoynar_pagan"
	culture="rhoynar"

	father=102186003
	mother=402186003

	6654.1.1 = {birth="6654.1.1"}
	6670.1.1 = {add_trait=trained_warrior}
	6672.1.1 = {add_spouse=402386003}
	6694.1.1 = {death="6694.1.1"}
}
402386003 = {
	name="Cerenya"
	female=yes

	religion="rhoynar_pagan"
	culture="rhoynar"

	6654.1.1 = {birth="6654.1.1"}
	6694.1.1 = {death="6694.1.1"}
}
102486003 = {
	name="Sarelya"	# not a lord
	female=yes
	dynasty=86003

	religion="rhoynar_pagan"
	culture="rhoynar"

	father=102186003
	mother=402186003

	6657.1.1 = {birth="6657.1.1"}
	6695.1.1 = {death = {death_reason = death_accident}}
}
102586003 = {
	name="Mors"	# not a lord
	dynasty=86003

	religion="rhoynar_pagan"
	culture="rhoynar"

	father=102186003
	mother=402186003

	6658.1.1 = {birth="6658.1.1"}
	6674.1.1 = {add_trait=master_warrior}
	6711.1.1 = {death="6711.1.1"}
}
102686003 = {
	name="Ysilla"	# not a lord
	female=yes
	dynasty=86003

	religion="rhoynar_pagan"
	culture="rhoynar"

	father=102186003
	mother=402186003

	6660.1.1 = {birth="6660.1.1"}
	6716.1.1 = {death="6716.1.1"}
}
102786003 = {
	name="Dygos"	# a lord
	dynasty=86003

	religion="rhoynar_pagan"
	culture="rhoynar"

	father=102386003
	mother=402386003

	6682.1.1 = {birth="6682.1.1"}
	6698.1.1 = {add_trait=trained_warrior}
	6700.1.1 = {add_spouse=402786003}
	6720.1.1 = {death = {death_reason = death_murder}}
}
402786003 = {
	name="Elia"
	female=yes

	religion="rhoynar_pagan"
	culture="rhoynar"

	6682.1.1 = {birth="6682.1.1"}
	6720.1.1 = {death="6720.1.1"}
}
102886003 = {
	name="Allyria"	# not a lord
	female=yes
	dynasty=86003

	religion="rhoynar_pagan"
	culture="rhoynar"

	father=102386003
	mother=402386003

	6683.1.1 = {birth="6683.1.1"}
	6740.1.1 = {death="6740.1.1"}
}
102986003 = {
	name="Elyana"	# not a lord
	female=yes
	dynasty=86003

	religion="rhoynar_pagan"
	culture="rhoynar"

	father=102386003
	mother=402386003

	6684.1.1 = {birth="6684.1.1"}
	6743.1.1 = {death="6743.1.1"}
}
103086003 = {
	name="Wylia"	# not a lord
	female=yes
	dynasty=86003

	religion="rhoynar_pagan"
	culture="rhoynar"

	father=102386003
	mother=402386003

	6685.1.1 = {birth="6685.1.1"}
	6736.1.1 = {death="6736.1.1"}
}
103186003 = {
	name="Dezyel"	# a lord
	dynasty=86003

	religion="rhoynar_pagan"
	culture="rhoynar"

	father=102786003
	mother=402786003

	6709.1.1 = {birth="6709.1.1"}
	6725.1.1 = {add_trait=trained_warrior}
	6727.1.1 = {add_spouse=403186003}
	6773.1.1 = {death="6773.1.1"}
}
403186003 = {
	name="Lynesse"
	female=yes

	religion="rhoynar_pagan"
	culture="rhoynar"

	6709.1.1 = {birth="6709.1.1"}
	6773.1.1 = {death="6773.1.1"}
}
103286003 = {
	name="Laria"	# not a lord
	female=yes
	dynasty=86003

	religion="rhoynar_pagan"
	culture="rhoynar"

	father=103186003
	mother=403186003

	6732.1.1 = {birth="6732.1.1"}
	6764.1.1 = {death="6764.1.1"}
}
103386003 = {
	name="Peyos"	# a lord
	dynasty=86003

	religion="rhoynar_pagan"
	culture="rhoynar"

	father=103186003
	mother=403186003

	6733.1.1 = {birth="6733.1.1"}
	6749.1.1 = {add_trait=trained_warrior}
	6751.1.1 = {add_spouse=403386003}
	6795.1.1 = {death="6795.1.1"}
}
403386003 = {
	name="Obella"
	female=yes

	religion="rhoynar_pagan"
	culture="rhoynar"

	6733.1.1 = {birth="6733.1.1"}
	6795.1.1 = {death="6795.1.1"}
}
103486003 = {
	name="Caleyen"	# a lord
	dynasty=86003

	religion="rhoynar_pagan"
	culture="rhoynar"

	father=103386003
	mother=403386003

	6755.1.1 = {birth="6755.1.1"}
	6771.1.1 = {add_trait=skilled_warrior}
	6773.1.1 = {add_spouse=403486003}
	6812.1.1 = {death="6812.1.1"}
}
403486003 = {
	name="Leyla"
	female=yes

	religion="rhoynar_pagan"
	culture="rhoynar"

	6755.1.1 = {birth="6755.1.1"}
	6812.1.1 = {death="6812.1.1"}
}
103586003 = {
	name="Nymella"	# not a lord
	female=yes
	dynasty=86003

	religion="rhoynar_pagan"
	culture="rhoynar"

	father=103386003
	mother=403386003

	6757.1.1 = {birth="6757.1.1"}
	6797.1.1 = {death="6797.1.1"}
}
103686003 = {
	name="Lynesse"	# not a lord
	female=yes
	dynasty=86003

	religion="rhoynar_pagan"
	culture="rhoynar"

	father=103386003
	mother=403386003

	6758.1.1 = {birth="6758.1.1"}
	6817.1.1 = {death="6817.1.1"}
}
103786003 = {
	name="Quentyn"	# not a lord
	dynasty=86003

	religion="rhoynar_pagan"
	culture="rhoynar"

	father=103386003
	mother=403386003

	6760.1.1 = {birth="6760.1.1"}
	6776.1.1 = {add_trait=poor_warrior}
	6810.1.1 = {death="6810.1.1"}
}
103886003 = {
	name="Aron"	# a lord
	dynasty=86003

	religion="rhoynar_pagan"
	culture="rhoynar"

	father=103486003
	mother=403486003

	6783.1.1 = {birth="6783.1.1"}
	6799.1.1 = {add_trait=skilled_warrior}
	6820.1.1 = {death = {death_reason = death_accident}}
}
103986003 = {
	name="Anders"	# not a lord
	dynasty=86003

	religion="rhoynar_pagan"
	culture="rhoynar"

	father=103486003
	mother=403486003

	6785.1.1 = {birth="6785.1.1"}
	6801.1.1 = {add_trait=trained_warrior}
	6847.1.1 = {death="6847.1.1"}
}
104086003 = {
	name="Gasoyne"	# not a lord
	dynasty=86003

	religion="rhoynar_pagan"
	culture="rhoynar"

	father=103486003
	mother=403486003

	6788.1.1 = {birth="6788.1.1"}
	6804.1.1 = {add_trait=trained_warrior}
	6833.1.1 = {death="6833.1.1"}
}






## Ghoyan Drohe ##
#House Ghoylen

1000008 = {
	name="Rycas"	# a lord
	dynasty=86008

	religion="rhoynar_pagan"
	culture="rhoynar"

	6442.1.1 = {birth="6442.1.1"}
	6458.1.1 = {add_trait=poor_warrior}
	6460.1.1 = {add_spouse=4000008}
	6500.1.1 = {death="6500.1.1"}
}
4000008 = {
	name="Beyandra"
	female=yes

	religion="rhoynar_pagan"
	culture="rhoynar"

	6442.1.1 = {birth="6442.1.1"}
	6500.1.1 = {death="6500.1.1"}
}
1001008 = {
	name="Bors"	# a lord
	dynasty=86008

	religion="rhoynar_pagan"
	culture="rhoynar"

	father=1000008
	mother=4000008

	6475.1.1 = {birth="6475.1.1"}
	6491.1.1 = {add_trait=trained_warrior}
	6493.1.1 = {add_spouse=4001008}
	6529.1.1 = {death="6529.1.1"}
}
4001008 = {
	name="Nysterica"
	female=yes

	religion="rhoynar_pagan"
	culture="rhoynar"

	6475.1.1 = {birth="6475.1.1"}
	6529.1.1 = {death="6529.1.1"}
}
1002008 = {
	name="Leyla"	# not a lord
	female=yes
	dynasty=86008

	religion="rhoynar_pagan"
	culture="rhoynar"

	father=1000008
	mother=4000008

	6478.1.1 = {birth="6478.1.1"}
	6538.1.1 = {death="6538.1.1"}
}
1003008 = {
	name="Caleyen"	# a lord
	dynasty=86008

	religion="rhoynar_pagan"
	culture="rhoynar"

	father=1001008
	mother=4001008

	6507.1.1 = {birth="6507.1.1"}
	6523.1.1 = {add_trait=skilled_warrior}
	6525.1.1 = {add_spouse=4003008}
	6563.1.1 = {death="6563.1.1"}
}
4003008 = {
	name="Dorea"
	female=yes

	religion="rhoynar_pagan"
	culture="rhoynar"

	6507.1.1 = {birth="6507.1.1"}
	6563.1.1 = {death="6563.1.1"}
}
1004008 = {
	name="Daeron"	# not a lord
	dynasty=86008

	religion="rhoynar_pagan"
	culture="rhoynar"

	father=1001008
	mother=4001008

	6510.1.1 = {birth="6510.1.1"}
	6526.1.1 = {add_trait=skilled_warrior}
	6568.1.1 = {death="6568.1.1"}
}
1005008 = {
	name="Sylva"	# not a lord
	female=yes
	dynasty=86008

	religion="rhoynar_pagan"
	culture="rhoynar"

	father=1001008
	mother=4001008

	6513.1.1 = {birth="6513.1.1"}
	6566.1.1 = {death="6566.1.1"}
}
1006008 = {
	name="Alyse"	# not a lord
	female=yes
	dynasty=86008

	religion="rhoynar_pagan"
	culture="rhoynar"

	father=1003008
	mother=4003008

	6540.1.1 = {birth="6540.1.1"}
	6620.1.1 = {death="6620.1.1"}
}
1007008 = {
	name="Trebor"	# a lord
	dynasty=86008

	religion="rhoynar_pagan"
	culture="rhoynar"

	father=1003008
	mother=4003008

	6543.1.1 = {birth="6543.1.1"}
	6559.1.1 = {add_trait=skilled_warrior}
	6561.1.1 = {add_spouse=4007008}
	6589.1.1 = {death="6589.1.1"}
}
4007008 = {
	name="Obara"
	female=yes

	religion="rhoynar_pagan"
	culture="rhoynar"

	6543.1.1 = {birth="6543.1.1"}
	6589.1.1 = {death="6589.1.1"}
}
1008008 = {
	name="Trystane"	# not a lord
	dynasty=86008

	religion="rhoynar_pagan"
	culture="rhoynar"

	father=1003008
	mother=4003008

	6546.1.1 = {birth="6546.1.1"}
	6562.1.1 = {add_trait=master_warrior}
	6603.1.1 = {death="6603.1.1"}
}
1009008 = {
	name="Ysilla"	# not a lord
	female=yes
	dynasty=86008

	religion="rhoynar_pagan"
	culture="rhoynar"

	father=1003008
	mother=4003008

	6549.1.1 = {birth="6549.1.1"}
	6606.1.1 = {death="6606.1.1"}
}
1010008 = {
	name="Marya"	# not a lord
	female=yes
	dynasty=86008

	religion="rhoynar_pagan"
	culture="rhoynar"

	father=1007008
	mother=4007008

	6561.1.1 = {birth="6561.1.1"}
	6619.1.1 = {death="6619.1.1"}
}
1011008 = {
	name="Allyria"	# not a lord
	female=yes
	dynasty=86008

	religion="rhoynar_pagan"
	culture="rhoynar"

	father=1007008
	mother=4007008

	6563.1.1 = {birth="6563.1.1"}
	6597.1.1 = {death = {death_reason = death_accident}}
}
1012008 = {
	name="Alleras"	# a lord
	dynasty=86008

	religion="rhoynar_pagan"
	culture="rhoynar"

	father=1007008
	mother=4007008

	6565.1.1 = {birth="6565.1.1"}
	6581.1.1 = {add_trait=trained_warrior}
	6583.1.1 = {add_spouse=4012008}
	6603.1.1 = {death = {death_reason = death_execution}}
}
4012008 = {
	name="Alyse"
	female=yes

	religion="rhoynar_pagan"
	culture="rhoynar"

	6565.1.1 = {birth="6565.1.1"}
	6603.1.1 = {death="6603.1.1"}
}
1013008 = {
	name="Obella"	# not a lord
	female=yes
	dynasty=86008

	religion="rhoynar_pagan"
	culture="rhoynar"

	father=1007008
	mother=4007008

	6566.1.1 = {birth="6566.1.1"}
	6626.1.1 = {death="6626.1.1"}
}
1014008 = {
	name="Tanselia"	# not a lord
	female=yes
	dynasty=86008

	religion="rhoynar_pagan"
	culture="rhoynar"

	father=1007008
	mother=4007008

	6568.1.1 = {birth="6568.1.1"}
	6625.1.1 = {death="6625.1.1"}
}
1015008 = {
	name="Garyn"	# a lord
	dynasty=86008

	religion="rhoynar_pagan"
	culture="rhoynar"

	father=1012008
	mother=4012008

	6599.1.1 = {birth="6599.1.1"}
	6615.1.1 = {add_trait=poor_warrior}
	6617.1.1 = {add_spouse=4015008}
	6653.1.1 = {death="6653.1.1"}
}
4015008 = {
	name="Melessa"
	female=yes

	religion="rhoynar_pagan"
	culture="rhoynar"

	6599.1.1 = {birth="6599.1.1"}
	6653.1.1 = {death="6653.1.1"}
}
1016008 = {
	name="Nymella"	# not a lord
	female=yes
	dynasty=86008

	religion="rhoynar_pagan"
	culture="rhoynar"

	father=1012008
	mother=4012008

	6602.1.1 = {birth="6602.1.1"}
	6663.1.1 = {death="6663.1.1"}
}
1017008 = {
	name="Yandry"	# a lord
	dynasty=86008

	religion="rhoynar_pagan"
	culture="rhoynar"

	father=1015008
	mother=4015008

	6617.1.1 = {birth="6617.1.1"}
	6633.1.1 = {add_trait=trained_warrior}
	6635.1.1 = {add_spouse=4017008}
	6673.1.1 = {death="6673.1.1"}
}
4017008 = {
	name="Obella"
	female=yes

	religion="rhoynar_pagan"
	culture="rhoynar"

	6617.1.1 = {birth="6617.1.1"}
	6673.1.1 = {death="6673.1.1"}
}
1018008 = {
	name="Ashara"	# not a lord
	female=yes
	dynasty=86008

	religion="rhoynar_pagan"
	culture="rhoynar"

	father=1017008
	mother=4017008

	6642.1.1 = {birth="6642.1.1"}
	6709.1.1 = {death="6709.1.1"}
}
1019008 = {
	name="Casyos"	# a lord
	dynasty=86008

	religion="rhoynar_pagan"
	culture="rhoynar"

	father=1017008
	mother=4017008

	6644.1.1 = {birth="6644.1.1"}
	6660.1.1 = {add_trait=poor_warrior}
	6662.1.1 = {add_spouse=4019008}
	6680.1.1 = {death="6680.1.1"}
}
4019008 = {
	name="Nymeria"
	female=yes

	religion="rhoynar_pagan"
	culture="rhoynar"

	6644.1.1 = {birth="6644.1.1"}
	6680.1.1 = {death="6680.1.1"}
}
1020008 = {
	name="Allyria"	# not a lord
	female=yes
	dynasty=86008

	religion="rhoynar_pagan"
	culture="rhoynar"

	father=1017008
	mother=4017008

	6646.1.1 = {birth="6646.1.1"}
	6705.1.1 = {death="6705.1.1"}
}
1021008 = {
	name="Gerrys"	# not a lord
	dynasty=86008

	religion="rhoynar_pagan"
	culture="rhoynar"

	father=1017008
	mother=4017008

	6647.1.1 = {birth="6647.1.1"}
	6663.1.1 = {add_trait=trained_warrior}
	6687.1.1 = {death="6687.1.1"}
}
1022008 = {
	name="Bors"	# a lord
	dynasty=86008

	religion="rhoynar_pagan"
	culture="rhoynar"

	father=1019008
	mother=4019008

	6664.1.1 = {birth="6664.1.1"}
	6680.1.1 = {add_trait=trained_warrior}
	6682.1.1 = {add_spouse=4022008}
	6698.1.1 = {death="6698.1.1"}
}
4022008 = {
	name="Tyene"
	female=yes

	religion="rhoynar_pagan"
	culture="rhoynar"

	6664.1.1 = {birth="6664.1.1"}
	6698.1.1 = {death="6698.1.1"}
}
1023008 = {
	name="Aron"	# not a lord
	dynasty=86008

	religion="rhoynar_pagan"
	culture="rhoynar"

	father=1019008
	mother=4019008

	6667.1.1 = {birth="6667.1.1"}
	6683.1.1 = {add_trait=poor_warrior}
	6716.1.1 = {death = {death_reason = death_accident}}
}
1024008 = {
	name="Peyos"	# not a lord
	dynasty=86008

	religion="rhoynar_pagan"
	culture="rhoynar"

	father=1019008
	mother=4019008

	6670.1.1 = {birth="6670.1.1"}
	6686.1.1 = {add_trait=trained_warrior}
	6709.1.1 = {death="6709.1.1"}
}
1025008 = {
	name="Bors"	# not a lord
	dynasty=86008

	religion="rhoynar_pagan"
	culture="rhoynar"

	father=1019008
	mother=4019008

	6673.1.1 = {birth="6673.1.1"}
	6689.1.1 = {add_trait=skilled_warrior}
	6723.1.1 = {death="6723.1.1"}
}
1026008 = {
	name="Dygos"	# a lord
	dynasty=86008

	religion="rhoynar_pagan"
	culture="rhoynar"

	father=1022008
	mother=4022008

	6685.1.1 = {birth="6685.1.1"}
	6701.1.1 = {add_trait=skilled_warrior}
	6703.1.1 = {add_spouse=4026008}
	6733.1.1 = {death="6733.1.1"}
}
4026008 = {
	name="Alyse"
	female=yes

	religion="rhoynar_pagan"
	culture="rhoynar"

	6685.1.1 = {birth="6685.1.1"}
	6733.1.1 = {death="6733.1.1"}
}
1027008 = {
	name="Gulyan"	# a lord
	dynasty=86008

	religion="rhoynar_pagan"
	culture="rhoynar"

	father=1026008
	mother=4026008

	6706.1.1 = {birth="6706.1.1"}
	6722.1.1 = {add_trait=poor_warrior}
	6724.1.1 = {add_spouse=4027008}
	6774.1.1 = {death="6774.1.1"}
}
4027008 = {
	name="Dorea"
	female=yes

	religion="rhoynar_pagan"
	culture="rhoynar"

	6706.1.1 = {birth="6706.1.1"}
	6774.1.1 = {death="6774.1.1"}
}
1028008 = {
	name="Peyos"	# not a lord
	dynasty=86008

	religion="rhoynar_pagan"
	culture="rhoynar"

	father=1026008
	mother=4026008

	6708.1.1 = {birth="6708.1.1"}
	6724.1.1 = {add_trait=trained_warrior}
	6739.1.1 = {death="6739.1.1"}
}
1029008 = {
	name="Aryanne"	# not a lord
	female=yes
	dynasty=86008

	religion="rhoynar_pagan"
	culture="rhoynar"

	father=1026008
	mother=4026008

	6711.1.1 = {birth="6711.1.1"}
	6747.1.1 = {death="6747.1.1"}
}
1030008 = {
	name="Anders"	# not a lord
	dynasty=86008

	religion="rhoynar_pagan"
	culture="rhoynar"

	father=1027008
	mother=4027008

	6733.1.1 = {birth="6733.1.1"}
	6749.1.1 = {add_trait=trained_warrior}
	6765.1.1 = {death="6765.1.1"}
}
1031008 = {
	name="Maron"	# a lord
	dynasty=86008

	religion="rhoynar_pagan"
	culture="rhoynar"

	father=1027008
	mother=4027008

	6736.1.1 = {birth="6736.1.1"}
	6752.1.1 = {add_trait=skilled_warrior}
	6754.1.1 = {add_spouse=4031008}
	6789.1.1 = {death="6789.1.1"}
}
4031008 = {
	name="Melessa"
	female=yes

	religion="rhoynar_pagan"
	culture="rhoynar"

	6736.1.1 = {birth="6736.1.1"}
	6789.1.1 = {death="6789.1.1"}
}
1032008 = {
	name="Mellei"	# not a lord
	female=yes
	dynasty=86008

	religion="rhoynar_pagan"
	culture="rhoynar"

	father=1027008
	mother=4027008

	6737.1.1 = {birth="6737.1.1"}
	6782.1.1 = {death="6782.1.1"}
}
1033008 = {
	name="Cerenya"	# not a lord
	female=yes
	dynasty=86008

	religion="rhoynar_pagan"
	culture="rhoynar"

	father=1027008
	mother=4027008

	6740.1.1 = {birth="6740.1.1"}
	6789.1.1 = {death="6789.1.1"}
}
1034008 = {
	name="Laria"	# not a lord
	female=yes
	dynasty=86008

	religion="rhoynar_pagan"
	culture="rhoynar"

	father=1031008
	mother=4031008

	6755.1.1 = {birth="6755.1.1"}
	6800.1.1 = {death="6800.1.1"}
}
1035008 = {
	name="Belyar"	# a lord
	dynasty=86008

	religion="rhoynar_pagan"
	culture="rhoynar"

	father=1031008
	mother=4031008

	6758.1.1 = {birth="6758.1.1"}
	6774.1.1 = {add_trait=poor_warrior}
	6776.1.1 = {add_spouse=4035008}
	6828.1.1 = {death="6828.1.1"}
}
4035008 = {
	name="Beyandra"
	female=yes

	religion="rhoynar_pagan"
	culture="rhoynar"

	6758.1.1 = {birth="6758.1.1"}
	6828.1.1 = {death="6828.1.1"}
}
1036008 = {
	name="Anders"	# not a lord
	dynasty=86008

	religion="rhoynar_pagan"
	culture="rhoynar"

	father=1031008
	mother=4031008

	6761.1.1 = {birth="6761.1.1"}
	6777.1.1 = {add_trait=trained_warrior}
	6795.1.1 = {death = {death_reason = death_battle}}
}
1037008 = {
	name="Marya"	# not a lord
	female=yes
	dynasty=86008

	religion="rhoynar_pagan"
	culture="rhoynar"

	father=1035008
	mother=4035008

	6793.1.1 = {birth="6793.1.1"}
	6825.1.1 = {death="6825.1.1"}
}
1038008 = {
	name="Alysanne"	# not a lord
	female=yes
	dynasty=86008

	religion="rhoynar_pagan"
	culture="rhoynar"

	father=1035008
	mother=4035008

	6794.1.1 = {birth="6794.1.1"}
	6863.1.1 = {death="6863.1.1"}
}
1039008 = {
	name="Anders"	# a lord
	dynasty=86008

	religion="rhoynar_pagan"
	culture="rhoynar"

	father=1035008
	mother=4035008

	6796.1.1 = {birth="6796.1.1"}
	6812.1.1 = {add_trait=trained_warrior}
	6874.1.1 = {death="6874.1.1"}
}
1040008 = {
	name="Allar"	# not a lord
	dynasty=86008

	religion="rhoynar_pagan"
	culture="rhoynar"

	father=1035008
	mother=4035008

	6798.1.1 = {birth="6798.1.1"}
	6814.1.1 = {add_trait=poor_warrior}
	6849.1.1 = {death="6849.1.1"}
}
1041008 = {
	name="Timyon"	# not a lord
	dynasty=86008

	religion="rhoynar_pagan"
	culture="rhoynar"

	father=1035008
	mother=4035008

	6799.1.1 = {birth="6799.1.1"}
	6815.1.1 = {add_trait=poor_warrior}
	6843.1.1 = {death="6843.1.1"}
}




####Sar Mell###
#House Yandros


1000015 = {
	name="Dezyel"	# a lord
	dynasty=86015

	religion="rhoynar_pagan"
	culture="rhoynar"

	6450.1.1 = {birth="6450.1.1"}
	6466.1.1 = {add_trait=poor_warrior}
	6468.1.1 = {add_spouse=4000015}
	6492.1.1 = {death="6492.1.1"}
}
4000015 = {
	name="Obara"
	female=yes

	religion="rhoynar_pagan"
	culture="rhoynar"

	6450.1.1 = {birth="6450.1.1"}
	6492.1.1 = {death="6492.1.1"}
}
1001015 = {
	name="Ellaria"	# not a lord
	female=yes
	dynasty=86015

	religion="rhoynar_pagan"
	culture="rhoynar"

	father=1000015
	mother=4000015

	6469.1.1 = {birth="6469.1.1"}
	6547.1.1 = {death="6547.1.1"}
}
1002015 = {
	name="Obella"	# not a lord
	female=yes
	dynasty=86015

	religion="rhoynar_pagan"
	culture="rhoynar"

	father=1000015
	mother=4000015

	6471.1.1 = {birth="6471.1.1"}
	6515.1.1 = {death="6515.1.1"}
}
1003015 = {
	name="Ysilla"	# not a lord
	female=yes
	dynasty=86015

	religion="rhoynar_pagan"
	culture="rhoynar"

	father=1000015
	mother=4000015

	6472.1.1 = {birth="6472.1.1"}
	6510.1.1 = {death="6510.1.1"}
}
1004015 = {
	name="Caleyen"	# a lord
	dynasty=86015

	religion="rhoynar_pagan"
	culture="rhoynar"

	father=1000015
	mother=4000015

	6475.1.1 = {birth="6475.1.1"}
	6491.1.1 = {add_trait=trained_warrior}
	6493.1.1 = {add_spouse=4004015}
	6532.1.1 = {death="6532.1.1"}
}
4004015 = {
	name="Wylia"
	female=yes

	religion="rhoynar_pagan"
	culture="rhoynar"

	6475.1.1 = {birth="6475.1.1"}
	6532.1.1 = {death="6532.1.1"}
}
1005015 = {
	name="Rycas"	# not a lord
	dynasty=86015

	religion="rhoynar_pagan"
	culture="rhoynar"

	father=1000015
	mother=4000015

	6477.1.1 = {birth="6477.1.1"}
	6493.1.1 = {add_trait=poor_warrior}
	6518.1.1 = {death="6518.1.1"}
}
1006015 = {
	name="Mors"	# a lord
	dynasty=86015

	religion="rhoynar_pagan"
	culture="rhoynar"

	father=1004015
	mother=4004015

	6507.1.1 = {birth="6507.1.1"}
	6523.1.1 = {add_trait=poor_warrior}
	6525.1.1 = {add_spouse=4006015}
	6577.1.1 = {death="6577.1.1"}
}
4006015 = {
	name="Elia"
	female=yes

	religion="rhoynar_pagan"
	culture="rhoynar"

	6507.1.1 = {birth="6507.1.1"}
	6577.1.1 = {death="6577.1.1"}
}
1007015 = {
	name="Garyn"	# not a lord
	dynasty=86015

	religion="rhoynar_pagan"
	culture="rhoynar"

	father=1004015
	mother=4004015

	6510.1.1 = {birth="6510.1.1"}
	6526.1.1 = {add_trait=poor_warrior}
	6557.1.1 = {death="6557.1.1"}
}
1008015 = {
	name="Laria"	# not a lord
	female=yes
	dynasty=86015

	religion="rhoynar_pagan"
	culture="rhoynar"

	father=1004015
	mother=4004015

	6513.1.1 = {birth="6513.1.1"}
	6551.1.1 = {death="6551.1.1"}
}
1009015 = {
	name="Caleyen"	# not a lord
	dynasty=86015

	religion="rhoynar_pagan"
	culture="rhoynar"

	father=1004015
	mother=4004015

	6516.1.1 = {birth="6516.1.1"}
	6532.1.1 = {add_trait=trained_warrior}
	6575.1.1 = {death="6575.1.1"}
}
1010015 = {
	name="Timyon"	# a lord
	dynasty=86015

	religion="rhoynar_pagan"
	culture="rhoynar"

	father=1006015
	mother=4006015

	6535.1.1 = {birth="6535.1.1"}
	6551.1.1 = {add_trait=trained_warrior}
	6553.1.1 = {add_spouse=4010015}
	6598.1.1 = {death="6598.1.1"}
}
4010015 = {
	name="Leyla"
	female=yes

	religion="rhoynar_pagan"
	culture="rhoynar"

	6535.1.1 = {birth="6535.1.1"}
	6598.1.1 = {death="6598.1.1"}
}
1011015 = {
	name="Alleras"	# not a lord
	dynasty=86015

	religion="rhoynar_pagan"
	culture="rhoynar"

	father=1006015
	mother=4006015

	6538.1.1 = {birth="6538.1.1"}
	6554.1.1 = {add_trait=skilled_warrior}
	6592.1.1 = {death="6592.1.1"}
}
1012015 = {
	name="Symon"	# not a lord
	dynasty=86015

	religion="rhoynar_pagan"
	culture="rhoynar"

	father=1010015
	mother=4010015

	6557.1.1 = {birth="6557.1.1"}
	6573.1.1 = {add_trait=poor_warrior}
	6581.1.1 = {death="6581.1.1"}
}
1013015 = {
	name="Elia"	# not a lord
	female=yes
	dynasty=86015

	religion="rhoynar_pagan"
	culture="rhoynar"

	father=1010015
	mother=4010015

	6559.1.1 = {birth="6559.1.1"}
	6618.1.1 = {death="6618.1.1"}
}
1014015 = {
	name="Doran"	# a lord
	dynasty=86015

	religion="rhoynar_pagan"
	culture="rhoynar"

	father=1010015
	mother=4010015

	6560.1.1 = {birth="6560.1.1"}
	6576.1.1 = {add_trait=skilled_warrior}
	6578.1.1 = {add_spouse=4014015}
	6614.1.1 = {death="6614.1.1"}
}
4014015 = {
	name="Loreza"
	female=yes

	religion="rhoynar_pagan"
	culture="rhoynar"

	6560.1.1 = {birth="6560.1.1"}
	6614.1.1 = {death="6614.1.1"}
}
1015015 = {
	name="Lynesse"	# not a lord
	female=yes
	dynasty=86015

	religion="rhoynar_pagan"
	culture="rhoynar"

	father=1010015
	mother=4010015

	6561.1.1 = {birth="6561.1.1"}
	6625.1.1 = {death="6625.1.1"}
}
1016015 = {
	name="Rycas"	# a lord
	dynasty=86015

	religion="rhoynar_pagan"
	culture="rhoynar"

	father=1014015
	mother=4014015

	6578.1.1 = {birth="6578.1.1"}
	6594.1.1 = {add_trait=trained_warrior}
	6596.1.1 = {add_spouse=4016015}
	6640.1.1 = {death="6640.1.1"}
}
4016015 = {
	name="Cyrenna"
	female=yes

	religion="rhoynar_pagan"
	culture="rhoynar"

	6578.1.1 = {birth="6578.1.1"}
	6640.1.1 = {death="6640.1.1"}
}
1017015 = {
	name="Anders"	# not a lord
	dynasty=86015

	religion="rhoynar_pagan"
	culture="rhoynar"

	father=1014015
	mother=4014015

	6579.1.1 = {birth="6579.1.1"}
	6595.1.1 = {add_trait=poor_warrior}
	6642.1.1 = {death="6642.1.1"}
}
1018015 = {
	name="Belyar"	# a lord
	dynasty=86015

	religion="rhoynar_pagan"
	culture="rhoynar"

	father=1016015
	mother=4016015

	6598.1.1 = {birth="6598.1.1"}
	6614.1.1 = {add_trait=poor_warrior}
	6616.1.1 = {add_spouse=4018015}
	6665.1.1 = {death="6665.1.1"}
}
4018015 = {
	name="Marya"
	female=yes

	religion="rhoynar_pagan"
	culture="rhoynar"

	6598.1.1 = {birth="6598.1.1"}
	6665.1.1 = {death="6665.1.1"}
}
1019015 = {
	name="Caleyen"	# a lord
	dynasty=86015

	religion="rhoynar_pagan"
	culture="rhoynar"

	father=1018015
	mother=4018015

	6621.1.1 = {birth="6621.1.1"}
	6637.1.1 = {add_trait=poor_warrior}
	6639.1.1 = {add_spouse=4019015}
	6685.1.1 = {death="6685.1.1"}
}
4019015 = {
	name="Melessa"
	female=yes

	religion="rhoynar_pagan"
	culture="rhoynar"

	6621.1.1 = {birth="6621.1.1"}
	6685.1.1 = {death="6685.1.1"}
}
1020015 = {
	name="Nymeria"	# not a lord
	female=yes
	dynasty=86015

	religion="rhoynar_pagan"
	culture="rhoynar"

	father=1018015
	mother=4018015

	6624.1.1 = {birth="6624.1.1"}
	6685.1.1 = {death="6685.1.1"}
}
1021015 = {
	name="Tyene"	# not a lord
	female=yes
	dynasty=86015

	religion="rhoynar_pagan"
	culture="rhoynar"

	father=1018015
	mother=4018015

	6627.1.1 = {birth="6627.1.1"}
	6674.1.1 = {death="6674.1.1"}
}
1022015 = {
	name="Cyrenna"	# not a lord
	female=yes
	dynasty=86015

	religion="rhoynar_pagan"
	culture="rhoynar"

	father=1018015
	mother=4018015

	6630.1.1 = {birth="6630.1.1"}
	6672.1.1 = {death="6672.1.1"}
}
1023015 = {
	name="Allyria"	# not a lord
	female=yes
	dynasty=86015

	religion="rhoynar_pagan"
	culture="rhoynar"

	father=1018015
	mother=4018015

	6633.1.1 = {birth="6633.1.1"}
	6691.1.1 = {death="6691.1.1"}
}
1024015 = {
	name="Alleras"	# a lord
	dynasty=86015

	religion="rhoynar_pagan"
	culture="rhoynar"

	father=1019015
	mother=4019015

	6642.1.1 = {birth="6642.1.1"}
	6658.1.1 = {add_trait=poor_warrior}
	6660.1.1 = {add_spouse=4024015}
	6697.1.1 = {death="6697.1.1"}
}
4024015 = {
	name="Morra"
	female=yes

	religion="rhoynar_pagan"
	culture="rhoynar"

	6642.1.1 = {birth="6642.1.1"}
	6697.1.1 = {death="6697.1.1"}
}
1025015 = {
	name="Morra"	# not a lord
	female=yes
	dynasty=86015

	religion="rhoynar_pagan"
	culture="rhoynar"

	father=1024015
	mother=4024015

	6667.1.1 = {birth="6667.1.1"}
	6710.1.1 = {death="6710.1.1"}
}
1026015 = {
	name="Timyon"	# a lord
	dynasty=86015

	religion="rhoynar_pagan"
	culture="rhoynar"

	father=1024015
	mother=4024015

	6669.1.1 = {birth="6669.1.1"}
	6685.1.1 = {add_trait=trained_warrior}
	6687.1.1 = {add_spouse=4026015}
	6747.1.1 = {death="6747.1.1"}
}
4026015 = {
	name="Leyla"
	female=yes

	religion="rhoynar_pagan"
	culture="rhoynar"

	6669.1.1 = {birth="6669.1.1"}
	6747.1.1 = {death="6747.1.1"}
}
1027015 = {
	name="Beyandra"	# not a lord
	female=yes
	dynasty=86015

	religion="rhoynar_pagan"
	culture="rhoynar"

	father=1026015
	mother=4026015

	6702.1.1 = {birth="6702.1.1"}
	6764.1.1 = {death="6764.1.1"}
}
1028015 = {
	name="Morra"	# not a lord
	female=yes
	dynasty=86015

	religion="rhoynar_pagan"
	culture="rhoynar"

	father=1026015
	mother=4026015

	6704.1.1 = {birth="6704.1.1"}
	6731.1.1 = {death = {death_reason = death_accident}}
}
1029015 = {
	name="Sylva"	# not a lord
	female=yes
	dynasty=86015

	religion="rhoynar_pagan"
	culture="rhoynar"

	father=1026015
	mother=4026015

	6706.1.1 = {birth="6706.1.1"}
	6774.1.1 = {death="6774.1.1"}
}
1030015 = {
	name="Gasoyne"	# a lord
	dynasty=86015

	religion="rhoynar_pagan"
	culture="rhoynar"

	father=1026015
	mother=4026015

	6707.1.1 = {birth="6707.1.1"}
	6723.1.1 = {add_trait=trained_warrior}
	6725.1.1 = {add_spouse=4030015}
	6765.1.1 = {death="6765.1.1"}
}
4030015 = {
	name="Dorea"
	female=yes

	religion="rhoynar_pagan"
	culture="rhoynar"

	6707.1.1 = {birth="6707.1.1"}
	6765.1.1 = {death="6765.1.1"}
}
1031015 = {
	name="Nymella"	# not a lord
	female=yes
	dynasty=86015

	religion="rhoynar_pagan"
	culture="rhoynar"

	father=1030015
	mother=4030015

	6735.1.1 = {birth="6735.1.1"}
	6803.1.1 = {death="6803.1.1"}
}
1032015 = {
	name="Mors"	# a lord
	dynasty=86015

	religion="rhoynar_pagan"
	culture="rhoynar"

	father=1030015
	mother=4030015

	6737.1.1 = {birth="6737.1.1"}
	6753.1.1 = {add_trait=poor_warrior}
	6755.1.1 = {add_spouse=4032015}
	6784.1.1 = {death="6784.1.1"}
}
4032015 = {
	name="Jynessa"
	female=yes

	religion="rhoynar_pagan"
	culture="rhoynar"

	6737.1.1 = {birth="6737.1.1"}
	6784.1.1 = {death="6784.1.1"}
}
1033015 = {
	name="Marya"	# not a lord
	female=yes
	dynasty=86015

	religion="rhoynar_pagan"
	culture="rhoynar"

	father=1032015
	mother=4032015

	6755.1.1 = {birth="6755.1.1"}
	6808.1.1 = {death="6808.1.1"}
}
1034015 = {
	name="Quentyn"	# a lord
	dynasty=86015

	religion="rhoynar_pagan"
	culture="rhoynar"

	father=1032015
	mother=4032015

	6757.1.1 = {birth="6757.1.1"}
	6773.1.1 = {add_trait=poor_warrior}
	6775.1.1 = {add_spouse=4034015}
	6794.1.1 = {death="6794.1.1"}
}
4034015 = {
	name="Myria"
	female=yes

	religion="rhoynar_pagan"
	culture="rhoynar"

	6757.1.1 = {birth="6757.1.1"}
	6794.1.1 = {death="6794.1.1"}
}
1035015 = {
	name="Yandry"	# a lord
	dynasty=86015

	religion="rhoynar_pagan"
	culture="rhoynar"

	father=1034015
	mother=4034015

	6780.1.1 = {birth="6780.1.1"}
	6796.1.1 = {add_trait=poor_warrior}
	6824.1.1 = {death="6824.1.1"}
}
1036015 = {
	name="Rycas"	# not a lord
	dynasty=86015

	religion="rhoynar_pagan"
	culture="rhoynar"

	father=1034015
	mother=4034015

	6781.1.1 = {birth="6781.1.1"}
	6797.1.1 = {add_trait=trained_warrior}
	6856.1.1 = {death="6856.1.1"}
}
1037015 = {
	name="Mors"	# not a lord
	dynasty=86015

	religion="rhoynar_pagan"
	culture="rhoynar"

	father=1034015
	mother=4034015

	6782.1.1 = {birth="6782.1.1"}
	6798.1.1 = {add_trait=poor_warrior}
	6842.1.1 = {death="6842.1.1"}
}
1038015 = {
	name="Quentyn"	# not a lord
	dynasty=86015

	religion="rhoynar_pagan"
	culture="rhoynar"

	father=1034015
	mother=4034015

	6783.1.1 = {birth="6783.1.1"}
	6799.1.1 = {add_trait=trained_warrior}
	6820.1.1 = {death = {death_reason = death_battle}}
}

