##  House Tumitis


155300544 = {
	name="Denzo"	# a lord
	dynasty=300544

	religion="trios"
	culture="tyroshi"

	6441.1.1 = {birth="6441.1.1"}
	6465.1.1 = {add_spouse=250300544}
	6502.1.1 = {death="6502.1.1"}
}
250300544 = {
	name="Shae"
	female=yes

	religion="trios"
	culture="tyroshi"

	6439.1.1 = {birth="6439.1.1"}
	6497.1.1 = {death="6497.1.1"}
}
100300544 = {
	name="Doniphos"	# a lord
	dynasty=300544

	religion="trios"
	culture="tyroshi"

	father=155300544
	mother=250300544

	6472.1.1 = {birth="6472.1.1"}
	6494.1.1 = {add_trait=poor_warrior}
	6496.1.1 = {add_spouse=200300544}
	6524.1.1 = {death="6524.1.1"}
}
200300544 = {
	name="Gylora"
	female=yes

	religion="trios"
	culture="tyroshi"

	6478.1.1 = {birth="6478.1.1"}
	6524.1.1 = {death="6524.1.1"}
}
101300544 = {
	name="Jaqen"	# a lord
	dynasty=300544

	religion="trios"
	culture="tyroshi"

	father=100300544
	mother=200300544

	6496.1.1 = {birth="6496.1.1"}
	6512.1.1 = {add_trait=trained_warrior}
	6514.1.1 = {add_spouse=201300544}
	6557.1.1 = {death="6557.1.1"}
}
201300544 = {
	name="Orios"
	female=yes

	religion="trios"
	culture="tyroshi"

	6496.1.1 = {birth="6496.1.1"}
	6557.1.1 = {death="6557.1.1"}
}
102300544 = {
	name="Syrio"	# not a lord
	dynasty=300544

	religion="trios"
	culture="tyroshi"

	father=100300544
	mother=200300544

	6499.1.1 = {birth="6499.1.1"}
	6515.1.1 = {add_trait=trained_warrior}
	6517.1.1 = {add_spouse=202300544}
	6563.1.1 = {death="6563.1.1"}
}
202300544 = {
	name="Mera"
	female=yes

	religion="trios"
	culture="tyroshi"

	6499.1.1 = {birth="6499.1.1"}
	6563.1.1 = {death="6563.1.1"}
}
103300544 = {
	name="Roro"	# not a lord
	dynasty=300544

	religion="trios"
	culture="tyroshi"

	father=102300544
	mother=202300544

	6522.1.1 = {birth="6522.1.1"}
	6538.1.1 = {add_trait=master_warrior}
	6554.1.1 = {death="6554.1.1"}
}
104300544 = {
	name="Brusco"	# not a lord
	dynasty=300544

	religion="trios"
	culture="tyroshi"

	father=102300544
	mother=202300544

	6524.1.1 = {birth="6524.1.1"}
	6540.1.1 = {add_trait=skilled_warrior}
	6570.1.1 = {death="6570.1.1"}
}
105300544 = {
	name="Bellonara"	# not a lord
	female=yes
	dynasty=300544

	religion="trios"
	culture="tyroshi"

	father=101300544
	mother=201300544

	6521.1.1 = {birth="6521.1.1"}
	6584.1.1 = {death="6584.1.1"}
}
106300544 = {
	name="Ordello"	# a lord
	dynasty=300544

	religion="trios"
	culture="tyroshi"

	father=101300544
	mother=201300544

	6523.1.1 = {birth="6523.1.1"}
	6539.1.1 = {add_trait=skilled_warrior}
	6541.1.1 = {add_spouse=206300544}
	6589.1.1 = {death="6589.1.1"}
}
206300544 = {
	name="Syrea"
	female=yes

	religion="trios"
	culture="tyroshi"

	6523.1.1 = {birth="6523.1.1"}
	6589.1.1 = {death="6589.1.1"}
}
107300544 = {
	name="Denia"	# not a lord
	female=yes
	dynasty=300544

	religion="trios"
	culture="tyroshi"

	father=101300544
	mother=201300544

	6526.1.1 = {birth="6526.1.1"}
	6567.1.1 = {death="6567.1.1"}
}
108300544 = {
	name="Izembaro"	# not a lord
	dynasty=300544

	religion="trios"
	culture="tyroshi"

	father=101300544
	mother=201300544

	6529.1.1 = {birth="6529.1.1"}
	6545.1.1 = {add_trait=skilled_warrior}
	6547.1.1 = {add_spouse=208300544}
	6587.1.1 = {death="6587.1.1"}
}
208300544 = {
	name="Bellegere"
	female=yes

	religion="trios"
	culture="tyroshi"

	6529.1.1 = {birth="6529.1.1"}
	6587.1.1 = {death="6587.1.1"}
}
109300544 = {
	name="Orios"	# not a lord
	female=yes
	dynasty=300544

	religion="trios"
	culture="tyroshi"

	father=106300544
	mother=206300544

	6542.1.1 = {birth="6542.1.1"}
	6587.1.1 = {death="6587.1.1"}
}
110300544 = {
	name="Pynto"	# a lord
	dynasty=300544

	religion="trios"
	culture="tyroshi"

	father=106300544
	mother=206300544

	6545.1.1 = {birth="6545.1.1"}
	6561.1.1 = {add_trait=trained_warrior}
	6563.1.1 = {add_spouse=210300544}
	6612.1.1 = {death = {death_reason = death_accident}}
}
210300544 = {
	name="Myrmellios"
	female=yes

	religion="trios"
	culture="tyroshi"

	6545.1.1 = {birth="6545.1.1"}
	6612.1.1 = {death="6612.1.1"}
}
111300544 = {
	name="Izembaro"	# not a lord
	dynasty=300544

	religion="trios"
	culture="tyroshi"

	father=106300544
	mother=206300544

	6546.1.1 = {birth="6546.1.1"}
	6562.1.1 = {add_trait=poor_warrior}
	6564.1.1 = {add_spouse=211300544}
	6583.1.1 = {death="6583.1.1"}
}
211300544 = {
	name="Tagganaria"
	female=yes

	religion="trios"
	culture="tyroshi"

	6546.1.1 = {birth="6546.1.1"}
	6583.1.1 = {death="6583.1.1"}
}
112300544 = {
	name="Moredea"	# not a lord
	female=yes
	dynasty=300544

	religion="trios"
	culture="tyroshi"

	father=110300544
	mother=210300544

	6566.1.1 = {birth="6566.1.1"}
	6612.1.1 = {death="6612.1.1"}
}
113300544 = {
	name="Pynto"	# not a lord
	dynasty=300544

	religion="trios"
	culture="tyroshi"

	father=110300544
	mother=210300544

	6573.1.1 = {birth="6573.1.1"}
	6624.1.1 = {death="6624.1.1"}
}
114300544 = {
	name="Tormo"	# a lord
	dynasty=300544

	religion="trios"
	culture="tyroshi"

	father=110300544
	mother=210300544

	6572.1.1 = {birth="6572.1.1"}
	6588.1.1 = {add_trait=poor_warrior}
	6613.1.1 = {death="6613.1.1"}
}
115300544 = {
	name="Tagganaria"	# not a lord
	female=yes
	dynasty=300544

	religion="trios"
	culture="tyroshi"

	father=110300544
	mother=210300544

	6575.1.1 = {birth="6575.1.1"}
	6634.1.1 = {death="6634.1.1"}
}
116300544 = {
	name="Lucerre"	# a lord
	female=yes
	dynasty=300544

	religion="trios"
	culture="tyroshi"

	father=111300544
	mother=211300544

	6568.1.1 = {birth="6568.1.1"}
	6619.1.1 = {death="6619.1.1"}
}
216300544 = {
	name="Ollo"

	religion="trios"
	culture="tyroshi"

	6568.1.1 = {birth="6568.1.1"}
	6584.1.1 = {add_trait=poor_warrior}
	6586.1.1 = {add_spouse=116300544}
	6619.1.1 = {death="6619.1.1"}
}
117300544 = {
	name="Ferrego"	# a lord
	dynasty=300544

	religion="trios"
	culture="tyroshi"

	father=216300544
	mother=116300544

	6595.1.1 = {birth="6595.1.1"}
	6611.1.1 = {add_trait=trained_warrior}
	6613.1.1 = {add_spouse=217300544}
	6645.1.1 = {death="6645.1.1"}
}
217300544 = {
	name="Serra"
	female=yes

	religion="trios"
	culture="tyroshi"

	6595.1.1 = {birth="6595.1.1"}
	6645.1.1 = {death="6645.1.1"}
}
118300544 = {
	name="Allaquo"	# a lord
	dynasty=300544

	religion="trios"
	culture="tyroshi"

	father=117300544
	mother=217300544

	6624.1.1 = {birth="6624.1.1"}
	6640.1.1 = {add_trait=poor_warrior}
	6642.1.1 = {add_spouse=218300544}
	6657.1.1 = {death="6657.1.1"}
}
218300544 = {
	name="Orbela"
	female=yes

	religion="trios"
	culture="tyroshi"

	6624.1.1 = {birth="6624.1.1"}
	6657.1.1 = {death="6657.1.1"}
}
119300544 = {
	name="Serenei"	# not a lord
	female=yes
	dynasty=300544

	religion="trios"
	culture="tyroshi"

	father=117300544
	mother=217300544

	6626.1.1 = {birth="6626.1.1"}
	6687.1.1 = {death="6687.1.1"}
}
120300544 = {
	name="Gylenios"	# not a lord
	female=yes
	dynasty=300544

	religion="trios"
	culture="tyroshi"

	father=118300544
	mother=218300544

	6642.1.1 = {birth="6642.1.1"}
	6661.1.1 = {death="6661.1.1"}
}
121300544 = {
	name="Ordello"	# a lord
	dynasty=300544
	
	martial=8
	stewardship=8

	religion="trios"
	culture="tyroshi"

	father=118300544
	mother=218300544
	
	add_trait=ambitious

	6644.1.1 = {birth="6644.1.1"}
	6660.1.1 = {add_trait=trained_warrior}
	6662.1.1 = {add_spouse=221300544}
	6712.1.1 = {death="6712.1.1"}
}
221300544 = {
	name="Betharios"
	female=yes

	religion="trios"
	culture="tyroshi"

	6644.1.1 = {birth="6644.1.1"}
	6712.1.1 = {death="6712.1.1"}
}
122300544 = {
	name="Yorko"	# not a lord
	dynasty=300544

	religion="trios"
	culture="tyroshi"

	father=118300544
	mother=218300544

	6647.1.1 = {birth="6647.1.1"}
	6663.1.1 = {add_trait=trained_warrior}
	6665.1.1 = {add_spouse=222300544}
	6708.1.1 = {death="6708.1.1"}
}
222300544 = {
	name="Bellonara"
	female=yes

	religion="trios"
	culture="tyroshi"

	6647.1.1 = {birth="6647.1.1"}
	6708.1.1 = {death="6708.1.1"}
}
123300544 = {
	name="Mera"	# not a lord
	female=yes
	dynasty=300544

	religion="trios"
	culture="tyroshi"

	father=118300544
	mother=218300544

	6650.1.1 = {birth="6650.1.1"}
	6699.1.1 = {death="6699.1.1"}
}
124300544 = {
	name="Moreo"	# not a lord
	dynasty=300544

	religion="trios"
	culture="tyroshi"

	father=118300544
	mother=218300544

	6651.1.1 = {birth="6651.1.1"}
	6667.1.1 = {add_trait=skilled_warrior}
	6669.1.1 = {add_spouse=224300544}
	6696.1.1 = {death="6696.1.1"}
}
224300544 = {
	name="Qarria"
	female=yes

	religion="trios"
	culture="tyroshi"

	6651.1.1 = {birth="6651.1.1"}
	6696.1.1 = {death="6696.1.1"}
}
125300544 = {
	name="Daario"	# not a lord
	dynasty=300544

	religion="trios"
	culture="tyroshi"

	father=121300544
	mother=221300544

	6664.1.1 = {birth="6664.1.1"}
	6680.1.1 = {add_trait=skilled_warrior}
	6707.1.1 = {death="6707.1.1"}
}
126300544 = {
	name="Ezzelyno"	# a lord
	dynasty=300544

	religion="trios"
	culture="tyroshi"

	father=121300544
	mother=221300544

	6667.1.1 = {birth="6667.1.1"}
	6683.1.1 = {add_trait=skilled_warrior}
	6685.1.1 = {add_spouse=226300544}
	6728.1.1 = {death="6728.1.1"}
}
150300544 = {
	name="Kiera"	# married Valarr/Daeron Targaryen
	female=yes
	dynasty=300544

	religion="trios"
	culture="tyroshi"

	father=121300544
	mother=221300544
	
	add_trait=fair

	6668.1.1 = {
		birth="6668.1.1"
		effect = { 
			fertility = -0.4
		}
	}
	6728.1.1 = {death="6728.1.1"}
}
226300544 = {
	name="Serala"
	female=yes

	religion="trios"
	culture="tyroshi"

	6667.1.1 = {birth="6667.1.1"}
	6728.1.1 = {death="6728.1.1"}
}
127300544 = {
	name="Pynto"	# a lord
	dynasty=300544

	religion="trios"
	culture="tyroshi"

	father=126300544
	mother=226300544

	6686.1.1 = {birth="6686.1.1"}
	6702.1.1 = {add_trait=poor_warrior}
	6704.1.1 = {add_spouse=227300544}
	6731.1.1 = {death="6731.1.1"}
}
227300544 = {
	name="Umma"
	female=yes

	religion="trios"
	culture="tyroshi"

	6686.1.1 = {birth="6686.1.1"}
	6731.1.1 = {death="6731.1.1"}
}
128300544 = {
	name="Moredea"	# not a lord
	female=yes
	dynasty=300544

	religion="trios"
	culture="tyroshi"

	father=126300544
	mother=226300544

	6688.1.1 = {birth="6688.1.1"}
	6768.1.1 = {death="6768.1.1"}
}
129300544 = {
	name="Tagganaro"	# a lord
	dynasty=300544

	religion="trios"
	culture="tyroshi"

	father=127300544
	mother=227300544

	6713.1.1 = {birth="6713.1.1"}
	6729.1.1 = {add_trait=trained_warrior}
	6731.1.1 = {add_spouse=229300544}
	6752.1.1 = {death="6752.1.1"}
}
229300544 = {
	name="Orbela"
	female=yes

	religion="trios"
	culture="tyroshi"

	6713.1.1 = {birth="6713.1.1"}
	6752.1.1 = {death="6752.1.1"}
}
130300544 = {
	name="Lanna"	# not a lord
	female=yes
	dynasty=300544

	religion="trios"
	culture="tyroshi"

	father=129300544
	mother=229300544

	6734.1.1 = {birth="6734.1.1"}
}
131300544 = {
	name="Moreo"	# a lord
	dynasty=300544

	religion="trios"
	culture="tyroshi"

	father=129300544
	mother=229300544

	6736.1.1 = {birth="6736.1.1"}
	6752.1.1 = {add_trait=poor_warrior}
}
132300544 = {
	name="Tregar"	# not a lord
	dynasty=300544

	religion="trios"
	culture="tyroshi"

	father=129300544
	mother=229300544

	6738.1.1 = {birth="6738.1.1"}
	6754.1.1 = {add_trait=skilled_warrior}
}
133300544 = {
	name="Terro"	# not a lord
	dynasty=300544

	religion="trios"
	culture="tyroshi"

	father=129300544
	mother=229300544

	6741.1.1 = {birth="6741.1.1"}
	6757.1.1 = {add_trait=poor_warrior}
}


###  House Adarys

150300543 = {
	name="Belicho"	# not a lord
	dynasty=300543

	religion="trios"
	culture="tyroshi"

	6438.1.1 = {birth="6438.1.1"}
	6459.1.1 = {add_spouse=250300543}
	6506.1.1 = {death="6506.1.1"}
}
250300543 = {
	name="Tysha"
	female=yes

	religion="trios"
	culture="tyroshi"

	6442.1.1 = {birth="6442.1.1"}
	6508.1.1 = {death="6508.1.1"}
}
100300543 = {
	name="Mallaquo"	# a lord
	dynasty=300543

	religion="trios"
	culture="tyroshi"

	father=150300543
	mother=250300543

	6490.1.1 = {birth="6490.1.1"}
	6506.1.1 = {add_trait=poor_warrior}
	6508.1.1 = {add_spouse=200300543}
	6542.1.1 = {death="6542.1.1"}
}
200300543 = {
	name="Izembara"
	female=yes

	religion="trios"
	culture="tyroshi"

	6490.1.1 = {birth="6490.1.1"}
	6542.1.1 = {death="6542.1.1"}
}
101300543 = {
	name="Narba"	# not a lord
	female=yes
	dynasty=300543

	religion="trios"
	culture="tyroshi"

	father=100300543
	mother=200300543

	6513.1.1 = {birth="6513.1.1"}
	6553.1.1 = {death="6553.1.1"}
}
102300543 = {
	name="Doreah"	# not a lord
	female=yes
	dynasty=300543

	religion="trios"
	culture="tyroshi"

	father=100300543
	mother=200300543

	6515.1.1 = {birth="6515.1.1"}
	6561.1.1 = {death="6561.1.1"}
}
103300543 = {
	name="Roggo"	# a lord
	dynasty=300543

	religion="trios"
	culture="tyroshi"

	father=100300543
	mother=200300543

	6518.1.1 = {birth="6518.1.1"}
	6534.1.1 = {add_trait=poor_warrior}
	6536.1.1 = {add_spouse=203300543}
	6576.1.1 = {death="6576.1.1"}
}
203300543 = {
	name="S'vrone"
	female=yes

	religion="trios"
	culture="tyroshi"

	6518.1.1 = {birth="6518.1.1"}
	6576.1.1 = {death="6576.1.1"}
}
104300543 = {
	name="Cossoma"	# not a lord
	female=yes
	dynasty=300543

	religion="trios"
	culture="tyroshi"

	father=100300543
	mother=200300543

	6519.1.1 = {birth="6519.1.1"}
	6570.1.1 = {death="6570.1.1"}
}
105300543 = {
	name="Meralyia"	# not a lord
	female=yes
	dynasty=300543

	religion="trios"
	culture="tyroshi"

	father=103300543
	mother=203300543

	6538.1.1 = {birth="6538.1.1"}
	6555.1.1 = {death="6555.1.1"}
}
106300543 = {
	name="Pynta"	# not a lord
	female=yes
	dynasty=300543

	religion="trios"
	culture="tyroshi"

	father=103300543
	mother=203300543

	6540.1.1 = {birth="6540.1.1"}
	6592.1.1 = {death="6592.1.1"}
}
107300543 = {
	name="Mera"	# not a lord
	female=yes
	dynasty=300543

	religion="trios"
	culture="tyroshi"

	father=103300543
	mother=203300543

	6543.1.1 = {birth="6543.1.1"}
	6557.1.1 = {death="6557.1.1"}
}
108300543 = {
	name="Mero"	# a lord
	dynasty=300543

	religion="trios"
	culture="tyroshi"

	father=103300543
	mother=203300543

	6544.1.1 = {birth="6544.1.1"}
	6560.1.1 = {add_trait=poor_warrior}
	6562.1.1 = {add_spouse=208300543}
	6594.1.1 = {death="6594.1.1"}
}
208300543 = {
	name="Yorka"
	female=yes

	religion="trios"
	culture="tyroshi"

	6544.1.1 = {birth="6544.1.1"}
	6594.1.1 = {death="6594.1.1"}
}
109300543 = {
	name="Lotho"	# a lord
	dynasty=300543

	religion="trios"
	culture="tyroshi"

	father=108300543
	mother=208300543

	6578.1.1 = {birth="6578.1.1"}
	6594.1.1 = {add_trait=trained_warrior}
	6596.1.1 = {add_spouse=209300543}
	6632.1.1 = {death="6632.1.1"}
}
209300543 = {
	name="Umma"
	female=yes

	religion="trios"
	culture="tyroshi"

	6578.1.1 = {birth="6578.1.1"}
	6632.1.1 = {death="6632.1.1"}
}
110300543 = {
	name="Tagganaria"	# not a lord
	female=yes
	dynasty=300543

	religion="trios"
	culture="tyroshi"

	father=108300543
	mother=208300543

	6581.1.1 = {birth="6581.1.1"}
	6613.1.1 = {death="6613.1.1"}
}
111300543 = {
	name="Narba"	# not a lord
	female=yes
	dynasty=300543

	religion="trios"
	culture="tyroshi"

	father=108300543
	mother=208300543

	6583.1.1 = {birth="6583.1.1"}
	6662.1.1 = {death = {death_reason = death_accident}}
}
112300543 = {
	name="Narba"	# not a lord
	female=yes
	dynasty=300543

	religion="trios"
	culture="tyroshi"

	father=109300543
	mother=209300543

	6603.1.1 = {birth="6603.1.1"}
	6637.1.1 = {death="6637.1.1"}
}
113300543 = {
	name="Meralyn"	# a lord
	dynasty=300543

	religion="trios"
	culture="tyroshi"

	father=109300543
	mother=209300543

	6604.1.1 = {birth="6604.1.1"}
	6620.1.1 = {add_trait=trained_warrior}
	6622.1.1 = {add_spouse=213300543}
	6642.1.1 = {death="6642.1.1"}
}
213300543 = {
	name="Rogga"
	female=yes

	religion="trios"
	culture="tyroshi"

	6604.1.1 = {birth="6604.1.1"}
	6642.1.1 = {death="6642.1.1"}
}
114300543 = {
	name="Byan"	# not a lord
	dynasty=300543

	religion="trios"
	culture="tyroshi"

	father=109300543
	mother=209300543

	6606.1.1 = {birth="6606.1.1"}
	6622.1.1 = {add_trait=trained_warrior}
	6624.1.1 = {add_spouse=214300543}
	6652.1.1 = {death="6652.1.1"}
}
214300543 = {
	name="Ternesia"
	female=yes

	religion="trios"
	culture="tyroshi"

	6606.1.1 = {birth="6606.1.1"}
	6652.1.1 = {death="6652.1.1"}
}
115300543 = {
	name="Byan"	# not a lord
	dynasty=300543

	religion="trios"
	culture="tyroshi"

	father=114300543
	mother=214300543

	6625.1.1 = {birth="6625.1.1"}
	6641.1.1 = {add_trait=poor_warrior}
	6643.1.1 = {add_spouse=215300543}
	6691.1.1 = {death="6691.1.1"}
}
215300543 = {
	name="Lothea"
	female=yes

	religion="trios"
	culture="tyroshi"

	6625.1.1 = {birth="6625.1.1"}
	6691.1.1 = {death="6691.1.1"}
}
116300543 = {
	name="Ezzere"	# not a lord
	female=yes
	dynasty=300543

	religion="trios"
	culture="tyroshi"

	father=114300543
	mother=214300543

	6628.1.1 = {birth="6628.1.1"}
	6675.1.1 = {death="6675.1.1"}
}
117300543 = {
	name="Areo"	# a lord
	dynasty=300543

	religion="trios"
	culture="tyroshi"

	father=113300543
	mother=213300543

	6630.1.1 = {birth="6630.1.1"}
	6646.1.1 = {add_trait=poor_warrior}
	6648.1.1 = {add_spouse=217300543}
	6681.1.1 = {death="6681.1.1"}
}
217300543 = {
	name="Cossoma"
	female=yes

	religion="trios"
	culture="tyroshi"

	6630.1.1 = {birth="6630.1.1"}
	6681.1.1 = {death="6681.1.1"}
}
118300543 = {
	name="Tycha"	# not a lord
	female=yes
	dynasty=300543

	religion="trios"
	culture="tyroshi"

	father=113300543
	mother=213300543

	6632.1.1 = {birth="6632.1.1"}
	6677.1.1 = {death="6677.1.1"}
}
119300543 = {
	name="Tycha"	# not a lord
	female=yes
	dynasty=300543

	religion="trios"
	culture="tyroshi"

	father=113300543
	mother=213300543

	6635.1.1 = {birth="6635.1.1"}
	6687.1.1 = {death="6687.1.1"}
}
120300543 = {
	name="Byan"	# a lord
	dynasty=300543

	religion="trios"
	culture="tyroshi"

	father=117300543
	mother=217300543

	6656.1.1 = {birth="6656.1.1"}
	6672.1.1 = {add_trait=trained_warrior}
	6674.1.1 = {add_spouse=220300543}
	6723.1.1 = {death="6723.1.1"}
}
220300543 = {
	name="Serala"
	female=yes

	religion="trios"
	culture="tyroshi"

	6656.1.1 = {birth="6656.1.1"}
	6723.1.1 = {death="6723.1.1"}
}
121300543 = {
	name="Orbelo"	# not a lord
	dynasty=300543

	religion="trios"
	culture="tyroshi"

	father=117300543
	mother=217300543

	6659.1.1 = {birth="6659.1.1"}
	6675.1.1 = {add_trait=skilled_warrior}
	6677.1.1 = {add_spouse=221300543}
	6705.1.1 = {death="6705.1.1"}
}
221300543 = {
	name="Gylora"
	female=yes

	religion="trios"
	culture="tyroshi"

	6659.1.1 = {birth="6659.1.1"}
	6705.1.1 = {death="6705.1.1"}
}
122300543 = {
	name="Tregar"	# a lord
	dynasty=300543

	religion="trios"
	culture="tyroshi"

	father=120300543
	mother=220300543

	6683.1.1 = {birth="6683.1.1"}
	6699.1.1 = {add_trait=poor_warrior}
	6725.1.1 = {death="6725.1.1"}
}
600000059 = {
	name="Alequo"
	dynasty = 300543
	
	religion="trios"
	culture="tyroshi"
	
	martial=2
	diplomacy=7
	intrigue=5
	stewardship=5
	add_trait="scholar"
	add_trait="ambitious"
	add_trait="charismatic_negotiator"
	
	father=120300543
	mother=220300543
	
	6707.1.1={birth="6707.1.1"}
	6733.1.1 = {
		give_nickname = nick_silvertounge
		add_spouse = 126300533
		effect = { 
			set_character_flag = band_of_nine
			liege = {
				reverse_opinion = {
					who = ROOT
					modifier = opinion_band_of_nine
					years = 20
				}
			}	
			spouse = {
				opinion = {
					who = ROOT
					modifier = opinion_forced_marriage
				}
			}
		} 
	}
	6737.1.1={
		effect = {
			if = {
				limit = { has_landed_title = c_tyrosh }
				b_tyrosh = { gain_title = ROOT }
			}	
		}
	}
	6743.6.1 = { 
		death = {
			death_reason = death_murder
			killer = 126300533 #His Queen
		}
	}
}
123300543 = {
	name="Yorko"	# not a lord
	dynasty=300543

	religion="trios"
	culture="tyroshi"

	father=120300543
	mother=220300543

	6685.1.1 = {birth="6685.1.1"}
	6701.1.1 = {add_trait=trained_warrior}
	6703.1.1 = {add_spouse=223300543}
	6754.1.1 = {death="6754.1.1"}
}
223300543 = {
	name="Jaqea"
	female=yes

	religion="trios"
	culture="tyroshi"

	6685.1.1 = {birth="6685.1.1"}
	6754.1.1 = {death="6754.1.1"}
}
124300543 = {
	name="Byan"	# not a lord
	dynasty=300543

	religion="trios"
	culture="tyroshi"

	father=123300543
	mother=223300543

	6712.1.1 = {birth="6712.1.1"}
	6728.1.1 = {add_trait=skilled_warrior}
	6754.1.1 = {death = {death_reason = death_murder}}
}
125300543 = {
	name="Luco"	# a lord
	dynasty=300543

	religion="trios"
	culture="tyroshi"

	father=123300543
	mother=223300543

	6714.1.1 = {birth="6714.1.1"}
	6730.1.1 = {add_trait=trained_warrior}
	6732.1.1 = {add_spouse=225300543}
}
225300543 = {
	name="Yorka"
	female=yes

	religion="trios"
	culture="tyroshi"

	6714.1.1 = {birth="6714.1.1"}
	6777.1.1 = {death="6777.1.1"}
}
126300543 = {
	name="Brea"	# not a lord
	female=yes
	dynasty=300543

	religion="trios"
	culture="tyroshi"

	father=125300543
	mother=225300543

	6742.1.1 = {birth="6742.1.1"}
}
127300543 = {
	name="Tycho"	# not a lord
	dynasty=300543

	religion="trios"
	culture="tyroshi"

	father=125300543
	mother=225300543

	6745.1.1 = {birth="6745.1.1"}
	6761.1.1 = {add_trait=skilled_warrior}
	6776.1.1 = {death="6776.1.1"}
}
128300543 = {
	name="Myrmellios"	# not a lord
	female=yes
	dynasty=300543

	religion="trios"
	culture="tyroshi"

	father=125300543
	mother=225300543

	6746.1.1 = {birth="6746.1.1"}
}
129300543 = {
	name="Qarro"	# not a lord
	dynasty=300543

	religion="trios"
	culture="tyroshi"

	father=125300543
	mother=225300543

	6748.1.1 = {birth="6748.1.1"}
	6749.1.1 = {death = {death_reason = death_murder}}
}


###  House Uhoris

150300542 = {
	name="Vogarro"	# a lord
	dynasty=300542

	religion="trios"
	culture="tyroshi"

	6436.1.1 = {birth="6436.1.1"}
	6450.1.1 = {add_spouse=250300542}
	6497.1.1 = {death="6497.1.1"}
}
250300542 = {
	name="Bellegere"
	female=yes

	religion="trios"
	culture="tyroshi"

	6436.1.1 = {birth="6436.1.1"}
	6502.1.1 = {death="6502.1.1"}
}
100300542 = {
	name="Moreo"	# a lord
	dynasty=300542

	religion="trios"
	culture="tyroshi"

	father=150300542
	mother=250300542

	6469.1.1 = {birth="6469.1.1"}
	6495.1.1 = {add_trait=poor_warrior}
	6497.1.1 = {add_spouse=200300542}
	6530.1.1 = {death="6530.1.1"}
}
200300542 = {
	name="Bellonara"
	female=yes

	religion="trios"
	culture="tyroshi"

	6479.1.1 = {birth="6479.1.1"}
	6530.1.1 = {death="6530.1.1"}
}
101300542 = {
	name="Ezzere"	# not a lord
	female=yes
	dynasty=300542

	religion="trios"
	culture="tyroshi"

	father=100300542
	mother=200300542

	6501.1.1 = {birth="6501.1.1"}
	6539.1.1 = {death="6539.1.1"}
}
102300542 = {
	name="Tycho"	# a lord
	dynasty=300542

	religion="trios"
	culture="tyroshi"

	father=100300542
	mother=200300542

	6503.1.1 = {birth="6503.1.1"}
	6519.1.1 = {add_trait=poor_warrior}
	6521.1.1 = {add_spouse=202300542}
	6549.1.1 = {death="6549.1.1"}
}
202300542 = {
	name="Yna"
	female=yes

	religion="trios"
	culture="tyroshi"

	6503.1.1 = {birth="6503.1.1"}
	6549.1.1 = {death="6549.1.1"}
}
103300542 = {
	name="Mera"	# not a lord
	female=yes
	dynasty=300542

	religion="trios"
	culture="tyroshi"

	father=100300542
	mother=200300542

	6506.1.1 = {birth="6506.1.1"}
	6550.1.1 = {death="6550.1.1"}
}
104300542 = {
	name="Noho"	# not a lord
	dynasty=300542

	religion="trios"
	culture="tyroshi"

	father=100300542
	mother=200300542

	6509.1.1 = {birth="6509.1.1"}
	6525.1.1 = {add_trait=trained_warrior}
	6527.1.1 = {add_spouse=204300542}
	6560.1.1 = {death="6560.1.1"}
}
204300542 = {
	name="Doreah"
	female=yes

	religion="trios"
	culture="tyroshi"

	6509.1.1 = {birth="6509.1.1"}
	6560.1.1 = {death="6560.1.1"}
}
105300542 = {
	name="Syrio"	# a lord
	dynasty=300542

	religion="trios"
	culture="tyroshi"

	father=102300542
	mother=202300542

	6527.1.1 = {birth="6527.1.1"}
	6543.1.1 = {add_trait=trained_warrior}
	6545.1.1 = {add_spouse=205300542}
	6586.1.1 = {death="6586.1.1"}
}
205300542 = {
	name="Doreah"
	female=yes

	religion="trios"
	culture="tyroshi"

	6527.1.1 = {birth="6527.1.1"}
	6586.1.1 = {death="6586.1.1"}
}
106300542 = {
	name="Gyloro"	# not a lord
	dynasty=300542

	religion="trios"
	culture="tyroshi"

	father=102300542
	mother=202300542

	6528.1.1 = {birth="6528.1.1"}
	6544.1.1 = {add_trait=poor_warrior}
	6546.1.1 = {add_spouse=206300542}
	6578.1.1 = {death="6578.1.1"}
}
206300542 = {
	name="Yna"
	female=yes

	religion="trios"
	culture="tyroshi"

	6528.1.1 = {birth="6528.1.1"}
	6578.1.1 = {death="6578.1.1"}
}
107300542 = {
	name="Jaqen"	# not a lord
	dynasty=300542

	religion="trios"
	culture="tyroshi"

	father=102300542
	mother=202300542

	6531.1.1 = {birth="6531.1.1"}
	6547.1.1 = {add_trait=skilled_warrior}
	6549.1.1 = {add_spouse=207300542}
	6592.1.1 = {death="6592.1.1"}
}
207300542 = {
	name="Moredea"
	female=yes

	religion="trios"
	culture="tyroshi"

	6531.1.1 = {birth="6531.1.1"}
	6592.1.1 = {death="6592.1.1"}
}
108300542 = {
	name="Gyloro"	# not a lord
	dynasty=300542

	religion="trios"
	culture="tyroshi"

	father=102300542
	mother=202300542

	6534.1.1 = {birth="6534.1.1"}
	6550.1.1 = {add_trait=skilled_warrior}
	6552.1.1 = {add_spouse=208300542}
	6585.1.1 = {death="6585.1.1"}
}
208300542 = {
	name="Tagganaria"
	female=yes

	religion="trios"
	culture="tyroshi"

	6534.1.1 = {birth="6534.1.1"}
	6585.1.1 = {death="6585.1.1"}
}
109300542 = {
	name="Mellario"	# not a lord
	female=yes
	dynasty=300542

	religion="trios"
	culture="tyroshi"

	father=105300542
	mother=205300542

	6551.1.1 = {birth="6551.1.1"}
	6603.1.1 = {death="6603.1.1"}
}
110300542 = {
	name="Yorka"	# not a lord
	female=yes
	dynasty=300542

	religion="trios"
	culture="tyroshi"

	father=105300542
	mother=205300542

	6554.1.1 = {birth="6554.1.1"}
	6570.1.1 = {death="6570.1.1"}
}
111300542 = {
	name="Serala"	# not a lord
	female=yes
	dynasty=300542

	religion="trios"
	culture="tyroshi"

	father=105300542
	mother=205300542

	6556.1.1 = {birth="6556.1.1"}
	6580.1.1 = {death="6580.1.1"}
}
112300542 = {
	name="Tormo"	# a lord
	dynasty=300542

	religion="trios"
	culture="tyroshi"

	father=105300542
	mother=205300542

	6558.1.1 = {birth="6558.1.1"}
	6574.1.1 = {add_trait=poor_warrior}
	6576.1.1 = {add_spouse=212300542}
	6614.1.1 = {death="6614.1.1"}
}
212300542 = {
	name="Gylenios"
	female=yes

	religion="trios"
	culture="tyroshi"

	6558.1.1 = {birth="6558.1.1"}
	6614.1.1 = {death="6614.1.1"}
}
113300542 = {
	name="Beqqo"	# a lord
	dynasty=300542

	religion="trios"
	culture="tyroshi"

	father=112300542
	mother=212300542

	6587.1.1 = {birth="6587.1.1"}
	6603.1.1 = {add_trait=trained_warrior}
	6605.1.1 = {add_spouse=213300542}
	6643.1.1 = {death="6643.1.1"}
}
213300542 = {
	name="Umma"
	female=yes

	religion="trios"
	culture="tyroshi"

	6587.1.1 = {birth="6587.1.1"}
	6643.1.1 = {death="6643.1.1"}
}
114300542 = {
	name="Illyrio"	# not a lord
	dynasty=300542

	religion="trios"
	culture="tyroshi"

	father=112300542
	mother=212300542

	6590.1.1 = {birth="6590.1.1"}
	6603.1.1 = {death="6603.1.1"}
}
115300542 = {
	name="Jaqea"	# not a lord
	female=yes
	dynasty=300542

	religion="trios"
	culture="tyroshi"

	father=112300542
	mother=212300542

	6591.1.1 = {birth="6591.1.1"}
	6648.1.1 = {death="6648.1.1"}
}
116300542 = {
	name="Betharios"	# not a lord
	female=yes
	dynasty=300542

	religion="trios"
	culture="tyroshi"

	father=112300542
	mother=212300542

	6593.1.1 = {birth="6593.1.1"}
	6633.1.1 = {death="6633.1.1"}
}
117300542 = {
	name="Syrio"	# not a lord
	dynasty=300542

	religion="trios"
	culture="tyroshi"

	father=112300542
	mother=212300542

	6595.1.1 = {birth="6595.1.1"}
	6611.1.1 = {add_trait=skilled_warrior}
	6613.1.1 = {add_spouse=217300542}
	6633.1.1 = {death="6633.1.1"}
}
217300542 = {
	name="Denia"
	female=yes

	religion="trios"
	culture="tyroshi"

	6595.1.1 = {birth="6595.1.1"}
	6633.1.1 = {death="6633.1.1"}
}
118300542 = {
	name="Qarro"	# a lord
	dynasty=300542

	religion="trios"
	culture="tyroshi"

	father=113300542
	mother=213300542

	6611.1.1 = {birth="6611.1.1"}
	6627.1.1 = {add_trait=trained_warrior}
	6629.1.1 = {add_spouse=218300542}
	6656.1.1 = {death="6656.1.1"}
}
218300542 = {
	name="Ternesia"
	female=yes

	religion="trios"
	culture="tyroshi"

	6611.1.1 = {birth="6611.1.1"}
	6656.1.1 = {death="6656.1.1"}
}
119300542 = {
	name="Lanna"	# not a lord
	female=yes
	dynasty=300542

	religion="trios"
	culture="tyroshi"

	father=113300542
	mother=213300542

	6612.1.1 = {birth="6612.1.1"}
	6662.1.1 = {death="6662.1.1"}
}
120300542 = {
	name="Daario"	# not a lord
	dynasty=300542

	religion="trios"
	culture="tyroshi"

	father=113300542
	mother=213300542

	6613.1.1 = {birth="6613.1.1"}
	6629.1.1 = {add_trait=master_warrior}
	6656.1.1 = {death="6656.1.1"}
}
121300542 = {
	name="Roro"	# not a lord
	dynasty=300542

	religion="trios"
	culture="tyroshi"

	father=113300542
	mother=213300542

	6616.1.1 = {birth="6616.1.1"}
	6632.1.1 = {add_trait=poor_warrior}
	6674.1.1 = {death="6674.1.1"}
}
122300542 = {
	name="Ordello"	# not a lord
	dynasty=300542

	religion="trios"
	culture="tyroshi"

	father=113300542
	mother=213300542

	6619.1.1 = {birth="6619.1.1"}
	6635.1.1 = {add_trait=poor_warrior}
	6662.1.1 = {death="6662.1.1"}
}
123300542 = {
	name="Narba"	# not a lord
	female=yes
	dynasty=300542

	religion="trios"
	culture="tyroshi"

	father=118300542
	mother=218300542

	6639.1.1 = {birth="6639.1.1"}
	6694.1.1 = {death="6694.1.1"}
}
124300542 = {
	name="Torma"	# not a lord
	female=yes
	dynasty=300542

	religion="trios"
	culture="tyroshi"

	father=118300542
	mother=218300542

	6641.1.1 = {birth="6641.1.1"}
	6709.1.1 = {death="6709.1.1"}
}
125300542 = {
	name="Gyleno"	# a lord
	dynasty=300542

	religion="trios"
	culture="tyroshi"

	father=118300542
	mother=218300542

	6642.1.1 = {birth="6642.1.1"}
	6658.1.1 = {add_trait=poor_warrior}
	6660.1.1 = {add_spouse=225300542}
	6702.1.1 = {death="6702.1.1"}
}
225300542 = {
	name="Lanna"
	female=yes

	religion="trios"
	culture="tyroshi"

	6642.1.1 = {birth="6642.1.1"}
	6702.1.1 = {death="6702.1.1"}
}
126300542 = {
	name="Orbela"	# not a lord
	female=yes
	dynasty=300542

	religion="trios"
	culture="tyroshi"

	father=118300542
	mother=218300542

	6645.1.1 = {birth="6645.1.1"}
	6678.1.1 = {death = {death_reason = death_execution}}
}
127300542 = {
	name="Izembara"	# not a lord
	female=yes
	dynasty=300542

	religion="trios"
	culture="tyroshi"

	father=125300542
	mother=225300542

	6668.1.1 = {birth="6668.1.1"}
	6734.1.1 = {death="6734.1.1"}
}
128300542 = {
	name="Ordello"	# a lord
	dynasty=300542

	religion="trios"
	culture="tyroshi"

	father=125300542
	mother=225300542

	6669.1.1 = {birth="6669.1.1"}
	6685.1.1 = {add_trait=poor_warrior}
	6687.1.1 = {add_spouse=228300542}
	6715.1.1 = {death="6715.1.1"}
}
228300542 = {
	name="Tycha"
	female=yes

	religion="trios"
	culture="tyroshi"

	6669.1.1 = {birth="6669.1.1"}
	6715.1.1 = {death="6715.1.1"}
}
129300542 = {
	name="Qarro"	# a lord
	dynasty=300542

	religion="trios"
	culture="tyroshi"

	father=128300542
	mother=228300542

	6698.1.1 = {birth="6698.1.1"}
	6714.1.1 = {add_trait=skilled_warrior}
	6716.1.1 = {add_spouse=229300542}
	6771.1.1 = {death="6771.1.1"}
}
229300542 = {
	name="Narba"
	female=yes

	religion="trios"
	culture="tyroshi"

	6698.1.1 = {birth="6698.1.1"}
	6771.1.1 = {death="6771.1.1"}
}
130300542 = {
	name="Yna"	# not a lord
	female=yes
	dynasty=300542

	religion="trios"
	culture="tyroshi"

	father=128300542
	mother=228300542

	6701.1.1 = {birth="6701.1.1"}
	6769.1.1 = {death="6769.1.1"}
}
131300542 = {
	name="Cossoma"	# not a lord
	female=yes
	dynasty=300542

	religion="trios"
	culture="tyroshi"

	father=129300542
	mother=229300542

	6718.1.1 = {birth="6718.1.1"}
	6776.1.1 = {death="6776.1.1"}
}
132300542 = {
	name="Myrmello"	# a lord
	dynasty=300542

	religion="trios"
	culture="tyroshi"

	father=129300542
	mother=229300542

	6720.1.1 = {birth="6720.1.1"}
	6736.1.1 = {add_trait=trained_warrior}
	6738.1.1 = {add_spouse=232300542}
	6774.1.1 = {death="6774.1.1"}
}
232300542 = {
	name="Nohia"
	female=yes

	religion="trios"
	culture="tyroshi"

	6720.1.1 = {birth="6720.1.1"}
	6774.1.1 = {death="6774.1.1"}
}
133300542 = {
	name="Groleo"	# not a lord
	dynasty=300542

	religion="trios"
	culture="tyroshi"

	father=129300542
	mother=229300542

	6721.1.1 = {birth="6721.1.1"}
	6737.1.1 = {add_trait=trained_warrior}
	6769.1.1 = {death="6769.1.1"}
}
134300542 = {
	name="Ordello"	# not a lord
	dynasty=300542

	religion="trios"
	culture="tyroshi"

	father=129300542
	mother=229300542

	6723.1.1 = {birth="6723.1.1"}
	6739.1.1 = {add_trait=skilled_warrior}
	6748.1.1 = {death="6748.1.1"}
}
135300542 = {
	name="Mellario"	# not a lord
	female=yes
	dynasty=300542

	religion="trios"
	culture="tyroshi"

	father=132300542
	mother=232300542

	6744.1.1 = {birth="6744.1.1"}
}
136300542 = {
	name="Oro"	# a lord
	dynasty=300542

	religion="trios"
	culture="tyroshi"

	father=132300542
	mother=232300542

	6745.1.1 = {birth="6745.1.1"}
	6761.1.1 = {add_trait=trained_warrior}
}


###  House Lectris

150300533 = {
	name="Illyrio"	# a lord
	dynasty=300533

	religion="trios"
	culture="tyroshi"

	6439.1.1 = {birth="6439.1.1"}
	6461.1.1 = {add_spouse=250300533}
	6493.1.1 = {death="6493.1.1"}
}
250300533 = {
	name="Cassadora"
	female=yes

	religion="trios"
	culture="tyroshi"

	6443.1.1 = {birth="6443.1.1"}
	6498.1.1 = {death="6498.1.1"}
}
100300533 = {
	name="Groleo"	# a lord
	dynasty=300533

	religion="trios"
	culture="tyroshi"

	father=150300533
	mother=250300533

	6463.1.1 = {birth="6463.1.1"}
	6499.1.1 = {add_trait=poor_warrior}
	6501.1.1 = {add_spouse=200300533}
	6529.1.1 = {death="6529.1.1"}
}
200300533 = {
	name="Cossoma"
	female=yes

	religion="trios"
	culture="tyroshi"

	6483.1.1 = {birth="6483.1.1"}
	6529.1.1 = {death="6529.1.1"}
}
101300533 = {
	name="Alia"	# not a lord
	female=yes
	dynasty=300533

	religion="trios"
	culture="tyroshi"

	father=100300533
	mother=200300533

	6502.1.1 = {birth="6502.1.1"}
	6511.1.1 = {death = {death_reason = death_murder}}
}
102300533 = {
	name="Ferrego"	# a lord
	dynasty=300533

	religion="trios"
	culture="tyroshi"

	father=100300533
	mother=200300533

	6503.1.1 = {birth="6503.1.1"}
	6519.1.1 = {add_trait=poor_warrior}
	6521.1.1 = {add_spouse=202300533}
	6540.1.1 = {death = {death_reason = death_battle}}
}
202300533 = {
	name="Tagganaria"
	female=yes

	religion="trios"
	culture="tyroshi"

	6503.1.1 = {birth="6503.1.1"}
	6540.1.1 = {death="6540.1.1"}
}
103300533 = {
	name="Tycha"	# a lord
	female=yes
	dynasty=300533

	religion="trios"
	culture="tyroshi"

	father=102300533
	mother=202300533

	6532.1.1 = {birth="6532.1.1"}
	6575.1.1 = {death="6575.1.1"}
}
104300533 = {
	name="Meralyn"	# a lord
	dynasty=300533

	religion="trios"
	culture="tyroshi"

	father=102300533
	mother=202300533

	6533.1.1 = {birth="6533.1.1"}
	6549.1.1 = {add_trait=skilled_warrior}
	6551.1.1 = {add_spouse=204300533}
	6574.1.1 = {add_trait=widowed}
	6584.1.1 = {death="6584.1.1"}
}
204300533 = {
	name="Syrea"
	female=yes

	religion="trios"
	culture="tyroshi"

	6533.1.1 = {birth="6533.1.1"}
	6574.1.1 = {death="6574.1.1"}
}
105300533 = {
	name="Narba"	# not a lord
	female=yes
	dynasty=300533

	religion="trios"
	culture="tyroshi"

	father=102300533
	mother=202300533

	6536.1.1 = {birth="6536.1.1"}
	6583.1.1 = {death="6583.1.1"}
}
106300533 = {
	name="Umma"	# not a lord
	female=yes
	dynasty=300533

	religion="trios"
	culture="tyroshi"

	father=102300533
	mother=202300533

	6538.1.1 = {birth="6538.1.1"}
	6598.1.1 = {death = {death_reason = death_murder}}
}
107300533 = {
	name="Bellonara"	# not a lord
	female=yes
	dynasty=300533

	religion="trios"
	culture="tyroshi"

	father=104300533
	mother=204300533

	6552.1.1 = {birth="6552.1.1"}
	6579.1.1 = {death="6579.1.1"}
}
108300533 = {
	name="Qarro"	# a lord
	dynasty=300533

	religion="trios"
	culture="tyroshi"

	father=104300533
	mother=204300533
	
	6554.1.1 = {birth="6554.1.1"}
	6572.1.1 = {add_trait=trained_warrior}
	6574.1.1 = {add_spouse=208300533}
	6612.1.1 = {death="6612.1.1"}
}
208300533 = {
	name="Narba"
	female=yes

	religion="trios"
	culture="tyroshi"

	6556.1.1 = {birth="6556.1.1"}
	6612.1.1 = {death="6612.1.1"}
}
105030533 = {
	name="Racallio"	# a lord, Admiral and Later Pirate King
	dynasty=300533

	religion="trios"
	culture="tyroshi"

	father=104300533
	mother=204300533
	
	add_trait = skilled_tactician
	add_trait = ruthless
	add_trait = greedy
	add_trait = ambitious

	6557.1.1 = {birth="6557.1.1"}
	6573.1.1 = {add_trait=trained_warrior}
	6610.1.1 = { #Goes Pirate
		effect = { religion = pirate }
		add_trait = pirate
	}
	6618.1.1 = {
		death="6618.1.1"
		religion = pirate
	}
}
109300533 = {
	name="Areo"	# a lord
	dynasty=300533

	religion="trios"
	culture="tyroshi"

	father=108300533
	mother=208300533

	6576.1.1 = {birth="6576.1.1"}
	6592.1.1 = {add_trait=poor_warrior}
	6594.1.1 = {add_spouse=209300533}
	6632.1.1 = {death="6632.1.1"}
}
209300533 = {
	name="Brea"
	female=yes

	religion="trios"
	culture="tyroshi"

	6576.1.1 = {birth="6576.1.1"}
	6632.1.1 = {death="6632.1.1"}
}
110300533 = {
	name="Lucerre"	# not a lord
	female=yes
	dynasty=300533

	religion="trios"
	culture="tyroshi"

	father=108300533
	mother=208300533

	6579.1.1 = {birth="6579.1.1"}
	6635.1.1 = {death="6635.1.1"}
}
111300533 = {
	name="Qarria"	# not a lord
	female=yes
	dynasty=300533

	religion="trios"
	culture="tyroshi"

	father=108300533
	mother=208300533

	6580.1.1 = {birth="6580.1.1"}
	6639.1.1 = {death="6639.1.1"}
}
112300533 = {
	name="Brea"	# not a lord
	female=yes
	dynasty=300533

	religion="trios"
	culture="tyroshi"

	father=109300533
	mother=209300533

	6598.1.1 = {birth="6598.1.1"}
	6645.1.1 = {death="6645.1.1"}
}
113300533 = {
	name="Jaqea"	# not a lord
	female=yes
	dynasty=300533

	religion="trios"
	culture="tyroshi"

	father=109300533
	mother=209300533

	6600.1.1 = {birth="6600.1.1"}
	6657.1.1 = {death="6657.1.1"}
}
114300533 = {
	name="Denyo"	# a lord
	dynasty=300533

	religion="trios"
	culture="tyroshi"

	father=109300533
	mother=209300533

	6603.1.1 = {birth="6603.1.1"}
	6619.1.1 = {add_trait=trained_warrior}
	6621.1.1 = {add_spouse=214300533}
	6637.1.1 = {death="6637.1.1"}
}
214300533 = {
	name="Cossoma"
	female=yes

	religion="trios"
	culture="tyroshi"

	6603.1.1 = {birth="6603.1.1"}
	6637.1.1 = {death="6637.1.1"}
}
115300533 = {
	name="Luco"	# not a lord
	dynasty=300533

	religion="trios"
	culture="tyroshi"

	father=109300533
	mother=209300533

	6605.1.1 = {birth="6605.1.1"}
	6621.1.1 = {add_trait=skilled_warrior}
	6623.1.1 = {add_spouse=215300533}
	6674.1.1 = {death="6674.1.1"}
}
215300533 = {
	name="Nohia"
	female=yes

	religion="trios"
	culture="tyroshi"

	6605.1.1 = {birth="6605.1.1"}
	6674.1.1 = {death="6674.1.1"}
}
116300533 = {
	name="Myrmellios"	# not a lord
	female=yes
	dynasty=300533

	religion="trios"
	culture="tyroshi"

	father=114300533
	mother=214300533

	6621.1.1 = {birth="6621.1.1"}
	6678.1.1 = {death="6678.1.1"}
}
117300533 = {
	name="Yna"	# not a lord
	female=yes
	dynasty=300533

	religion="trios"
	culture="tyroshi"

	father=114300533
	mother=214300533

	6623.1.1 = {birth="6623.1.1"}
	6677.1.1 = {death="6677.1.1"}
}
118300533 = {
	name="Byan"	# a lord
	dynasty=300533

	religion="trios"
	culture="tyroshi"

	father=114300533
	mother=214300533

	6625.1.1 = {birth="6625.1.1"}
	6641.1.1 = {add_trait=skilled_warrior}
	6643.1.1 = {add_spouse=218300533}
	6696.1.1 = {death="6696.1.1"}
}
218300533 = {
	name="Mellario"
	female=yes

	religion="trios"
	culture="tyroshi"

	6625.1.1 = {birth="6625.1.1"}
	6696.1.1 = {death="6696.1.1"}
}
119300533 = {
	name="Nohia"	# not a lord
	female=yes
	dynasty=300533

	religion="trios"
	culture="tyroshi"

	father=118300533
	mother=218300533

	6650.1.1 = {birth="6650.1.1"}
	6685.1.1 = {death="6685.1.1"}
}
121300533 = {
	name="Serenei"	# not a lord
	female=yes
	dynasty=300533

	religion="trios"
	culture="tyroshi"

	father=118300533
	mother=218300533

	6654.1.1 = { birth="6654.1.1" }
	6690.1.1 = {death="6690.1.1"}
}
122300533 = {
	name="Illyrio"	# a lord
	dynasty=300533

	religion="trios"
	culture="tyroshi"

	father=118300533
	mother=218300533

	6654.1.1 = { birth="6654.1.1" }
	6670.1.1 = {add_trait=skilled_warrior}
	6672.1.1 = {add_spouse=222300533}
	6706.1.1 = {death="6706.1.1"}
}
222300533 = {
	name="Pynta"
	female=yes

	religion="trios"
	culture="tyroshi"

	6654.1.1 = {birth="6654.1.1"}
	6706.1.1 = {death="6706.1.1"}
}
123300533 = {
	name="Roggo"	# a lord
	dynasty=300533

	religion="trios"
	culture="tyroshi"

	father=122300533
	mother=222300533

	6676.1.1 = {birth="6676.1.1"}
	6692.1.1 = {add_trait=skilled_warrior}
	6755.1.1 = {death="6755.1.1"}
}
124300533 = {
	name="Yorka"	# not a lord
	female=yes
	dynasty=300533

	religion="trios"
	culture="tyroshi"

	father=122300533
	mother=222300533

	6678.1.1 = {birth="6678.1.1"}
	6681.1.1 = {death = {death_reason = death_accident}}
}
125300533 = {
	name="Lotho"	# not a lord
	dynasty=300533

	religion="trios"
	culture="tyroshi"

	father=122300533
	mother=222300533

	6680.1.1 = {birth="6680.1.1"}
	6696.1.1 = {add_trait=poor_warrior}
	6698.1.1 = {add_spouse=225300533}
	6734.1.1 = {death="6734.1.1"}
}
225300533 = {
	name="Doreah"
	female=yes

	religion="trios"
	culture="tyroshi"

	6680.1.1 = {birth="6680.1.1"}
	6734.1.1 = {death="6734.1.1"}
}
126300533 = {
	name="Narba"	# not a lord, Queen of Alequo Goldentongue
	female=yes
	dynasty=300533

	religion="trios"
	culture="tyroshi"

	father=125300533
	mother=225300533
	
	add_trait = proud
	add_trait = fair
	add_trait = ruthless
	add_trait = intricate_webweaver
	
	6711.1.1 = {birth="6711.1.1"}
	6743.6.1 = { #Kills her husband
		#add_trait=dishonorable1
		effect = {		
			set_variable = { which = "dishonorable" value = 10 }
			hidden_tooltip = { character_event = { id = maintenance.3 } }#dishonour trait
		}
	}
	6774.1.1 = {death="6774.1.1"}
}
127300533 = {
	name="Ollo"	# a lord
	dynasty=300533

	religion="trios"
	culture="tyroshi"

	father=125300533
	mother=225300533

	6714.1.1 = {birth="6714.1.1"}
	6730.1.1 = {add_trait=skilled_warrior}
}
128300533 = {
	name="Moredea"	# not a lord
	female=yes
	dynasty=300533

	religion="trios"
	culture="tyroshi"

	father=125300533
	mother=225300533

	6716.1.1 = {birth="6716.1.1"}
}


###  House Zokan
250300024 = {
	name="Lotho"	# a lord
	dynasty=300024

	religion="trios"
	culture="tyroshi"

	6410.1.1 = {birth="6410.1.1"}
	6439.1.1 = {add_spouse=450300024} 
	6463.1.1 = {death="6463.1.1"}
}
450300024 = {
	name="Rogga"
	female=yes

	religion="trios"
	culture="tyroshi"

	6410.1.1 = {birth="6410.1.1"}
	6463.1.1 = {death="6463.1.1"}
}
150300024 = {
	name="Myrmello"	# a lord
	dynasty=300024

	religion="trios"
	culture="tyroshi"
	
	father = 250300024
	mother = 450300024

	6440.1.1 = {birth="6440.1.1"}
	6471.1.1 = {add_spouse=101300012} #Tycha Arsenys
	6477.1.1 = {
		effect = {
			if = {
				limit = {
					NOT = { year = 8000 }				
				}
				character_event = { id = bleeding_years.1 days = 50 }
			}
		}
	}
	6506.1.1 = {death="6506.1.1"}
}
251300024 = {
	name="Pynto"	# Not a lord
	dynasty=300024

	religion="trios"
	culture="tyroshi"
	
	father = 250300024
	mother = 450300024

	6442.1.1 = {birth="6442.1.1"}
	6503.1.1 = {death="6503.1.1"}
}
100300024 = {
	name="Illyrio"	# a lord
	dynasty=300024

	religion="trios"
	culture="tyroshi"

	father=150300024
	mother=101300012

	6472.1.1 = {birth="6472.1.1"}
	6494.1.1 = {add_trait=poor_warrior}
	6496.1.1 = {add_spouse=200300024}
	6531.1.1 = {death="6531.1.1"}
}
200300024 = {
	name="Tagganaria"
	female=yes

	religion="trios"
	culture="tyroshi"

	6478.1.1 = {birth="6478.1.1"}
	6531.1.1 = {death="6531.1.1"}
}
101300024 = {
	name="Mellario"	# not a lord
	female=yes
	dynasty=300024

	religion="trios"
	culture="tyroshi"

	father=100300024
	mother=200300024

	6500.1.1 = {birth="6500.1.1"}
	6557.1.1 = {death="6557.1.1"}
}
102300024 = {
	name="Tycho"	# a lord
	dynasty=300024

	religion="trios"
	culture="tyroshi"

	father=100300024
	mother=200300024

	6503.1.1 = {birth="6503.1.1"}
	6519.1.1 = {add_trait=trained_warrior}
	6521.1.1 = {add_spouse=202300024}
	6543.1.1 = {death="6543.1.1"}
}
202300024 = {
	name="Lothea"
	female=yes

	religion="trios"
	culture="tyroshi"

	6503.1.1 = {birth="6503.1.1"}
	6543.1.1 = {death="6543.1.1"}
}
103300024 = {
	name="Tycha"	# not a lord
	female=yes
	dynasty=300024

	religion="trios"
	culture="tyroshi"

	father=100300024
	mother=200300024

	6505.1.1 = {birth="6505.1.1"}
	6536.1.1 = {death="6536.1.1"}
}
104300024 = {
	name="Tagganaria"	# not a lord
	female=yes
	dynasty=300024

	religion="trios"
	culture="tyroshi"

	father=100300024
	mother=200300024

	6507.1.1 = {birth="6507.1.1"}
	6563.1.1 = {death="6563.1.1"}
}
105300024 = {
	name="Collio"	# a lord
	dynasty=300024

	religion="trios"
	culture="tyroshi"

	father=102300024
	mother=202300024

	6531.1.1 = {birth="6531.1.1"}
	6547.1.1 = {add_trait=trained_warrior}
	6549.1.1 = {add_spouse=205300024}
	6589.1.1 = {death="6589.1.1"}
}
205300024 = {
	name="Orbela"
	female=yes

	religion="trios"
	culture="tyroshi"

	6531.1.1 = {birth="6531.1.1"}
	6589.1.1 = {death="6589.1.1"}
}
106300024 = {
	name="Yna"	# not a lord
	female=yes
	dynasty=300024

	religion="trios"
	culture="tyroshi"

	father=102300024
	mother=202300024

	6533.1.1 = {birth="6533.1.1"}
	6560.1.1 = {death="6560.1.1"}
}
107300024 = {
	name="Nohia"	# not a lord
	female=yes
	dynasty=300024

	religion="trios"
	culture="tyroshi"

	father=102300024
	mother=202300024

	6535.1.1 = {birth="6535.1.1"}
	6578.1.1 = {death="6578.1.1"}
}
108300024 = {
	name="Qarro"	# not a lord
	dynasty=300024

	religion="trios"
	culture="tyroshi"

	father=102300024
	mother=202300024

	6538.1.1 = {birth="6538.1.1"}
	6554.1.1 = {add_trait=trained_warrior}
	6556.1.1 = {add_spouse=208300024}
	6613.1.1 = {death="6613.1.1"}
}
208300024 = {
	name="Cossoma"
	female=yes

	religion="trios"
	culture="tyroshi"

	6538.1.1 = {birth="6538.1.1"}
	6613.1.1 = {death="6613.1.1"}
}
109300024 = {
	name="Ordello"	# a lord
	dynasty=300024

	religion="trios"
	culture="tyroshi"

	father=105300024
	mother=205300024

	6557.1.1 = {birth="6557.1.1"}
	6573.1.1 = {add_trait=poor_warrior}
	6624.1.1 = {death="6624.1.1"}
}
110300024 = {
	name="Ollo"	# not a lord
	dynasty=300024

	religion="trios"
	culture="tyroshi"

	father=105300024
	mother=205300024

	6560.1.1 = {birth="6560.1.1"}
	6576.1.1 = {add_trait=trained_warrior}
	6578.1.1 = {add_spouse=210300024}
	6624.1.1 = {death="6624.1.1"}
}
210300024 = {
	name="Yorka"
	female=yes

	religion="trios"
	culture="tyroshi"

	6560.1.1 = {birth="6560.1.1"}
	6624.1.1 = {death="6624.1.1"}
}
111300024 = {
	name="Ferrego"	# not a lord
	dynasty=300024

	religion="trios"
	culture="tyroshi"

	father=105300024
	mother=205300024

	6562.1.1 = {birth="6562.1.1"}
	6578.1.1 = {add_trait=poor_warrior}
	6623.1.1 = {death="6623.1.1"}
}
112300024 = {
	name="Ferrego"	# not a lord
	dynasty=300024

	religion="trios"
	culture="tyroshi"

	father=105300024
	mother=205300024

	6564.1.1 = {birth="6564.1.1"}
	6580.1.1 = {add_trait=trained_warrior}
	6582.1.1 = {add_spouse=212300024}
	6643.1.1 = {death="6643.1.1"}
}
212300024 = {
	name="Orios"
	female=yes

	religion="trios"
	culture="tyroshi"

	6564.1.1 = {birth="6564.1.1"}
	6643.1.1 = {death="6643.1.1"}
}
113300024 = {
	name="Cossoma"	# a lord
	female=yes
	dynasty=300024

	religion="trios"
	culture="tyroshi"

	father=110300024
	mother=210300024

	6595.1.1 = {birth="6595.1.1"}
	6663.1.1 = {death="6663.1.1"}
}
213300024 = {
	name="Beqqo"

	religion="trios"
	culture="tyroshi"

	6595.1.1 = {birth="6595.1.1"}
	6611.1.1 = {add_trait=poor_warrior}
	6613.1.1 = {add_spouse=113300024}
	6663.1.1 = {death="6663.1.1"}
}
114300024 = {
	name="Orbela"	# not a lord
	female=yes
	dynasty=300024

	religion="trios"
	culture="tyroshi"

	father=110300024
	mother=210300024

	6597.1.1 = {birth="6597.1.1"}
	6631.1.1 = {death="6631.1.1"}
}
115300024 = {
	name="Taena"	# not a lord
	female=yes
	dynasty=300024

	religion="trios"
	culture="tyroshi"

	father=110300024
	mother=210300024

	6599.1.1 = {birth="6599.1.1"}
	6653.1.1 = {death="6653.1.1"}
}
116300024 = {
	name="Yna"	# not a lord
	female=yes
	dynasty=300024

	religion="trios"
	culture="tyroshi"

	father=110300024
	mother=210300024

	6602.1.1 = {birth="6602.1.1"}
	6631.1.1 = {death="6631.1.1"}
}
117300024 = {
	name="Tycha"	# not a lord
	female=yes
	dynasty=300024

	religion="trios"
	culture="tyroshi"

	father=112300024
	mother=212300024

	6586.1.1 = {birth="6586.1.1"}
	6645.1.1 = {death="6645.1.1"}
}
118300024 = {
	name="Mera"	# not a lord
	female=yes
	dynasty=300024

	religion="trios"
	culture="tyroshi"

	father=112300024
	mother=212300024

	6589.1.1 = {birth="6589.1.1"}
	6665.1.1 = {death="6665.1.1"}
}
119300024 = {
	name="Denia"	# not a lord
	female=yes
	dynasty=300024

	religion="trios"
	culture="tyroshi"

	father=112300024
	mother=212300024

	6590.1.1 = {birth="6590.1.1"}
	6614.1.1 = {death="6614.1.1"}
}
120300024 = {
	name="Orbelo"	# not a lord
	dynasty=300024

	religion="trios"
	culture="tyroshi"

	father=112300024
	mother=212300024

	6591.1.1 = {birth="6591.1.1"}
	6607.1.1 = {add_trait=skilled_warrior}
	6655.1.1 = {death="6655.1.1"}
}
121300024 = {
	name="Myrmello"	# not a lord
	dynasty=300024

	religion="trios"
	culture="tyroshi"

	father=213300024
	mother=113300024

	6614.1.1 = {birth="6614.1.1"}
	6630.1.1 = {add_trait=poor_warrior}
	6632.1.1 = {add_spouse=221300024}
	6656.1.1 = {death="6656.1.1"}
}
221300024 = {
	name="Moredea"
	female=yes

	religion="trios"
	culture="tyroshi"

	6614.1.1 = {birth="6614.1.1"}
	6656.1.1 = {death="6656.1.1"}
}
122300024 = {
	name="Oro"	# a lord
	dynasty=300024

	religion="trios"
	culture="tyroshi"

	father=213300024
	mother=113300024

	6629.1.1 = {birth="6629.1.1"}
	6645.1.1 = {add_trait=poor_warrior}
	6647.1.1 = {add_spouse=222300024}
	6681.1.1 = {death="6681.1.1"}
}
222300024 = {
	name="Nohia"
	female=yes

	religion="trios"
	culture="tyroshi"

	6629.1.1 = {birth="6629.1.1"}
	6681.1.1 = {death="6681.1.1"}
}
123300024 = {
	name="Moreo"	# a lord
	dynasty=300024

	religion="trios"
	culture="tyroshi"

	father=122300024
	mother=222300024
	
	add_trait = twin

	6648.1.1 = {birth="6648.1.1"}
	6664.1.1 = {add_trait=poor_warrior}
	6666.1.1 = {add_spouse=223300024}
	6703.1.1 = {death="6703.1.1"}
}
77024496 = {
	name="Rohanne" # Lady of Tyrosh, married Daemon Blackfyre
	dynasty=300024
	female=yes

	religion="trios"
	culture="tyroshi"
	
	father=122300024
	mother=222300024
	
	add_trait = twin
	
	6648.1.1={ 
		birth="6648.1.1" 
		effect = { fertility = 0.4 } #had many children
	} 
	6698.1.1={
		death="6698.1.1"
	}
}
223300024 = {
	name="Moredea"
	female=yes

	religion="trios"
	culture="tyroshi"

	6648.1.1 = {birth="6648.1.1"}
	6703.1.1 = {death="6703.1.1"}
}
124300024 = {
	name="Lothea"	# not a lord
	female=yes
	dynasty=300024

	religion="trios"
	culture="tyroshi"

	father=122300024
	mother=222300024

	6651.1.1 = {birth="6651.1.1"}
	6700.1.1 = {death="6700.1.1"}
}
125300024 = {
	name="Roggo"	# not a lord
	dynasty=300024

	religion="trios"
	culture="tyroshi"

	father=122300024
	mother=222300024

	6653.1.1 = {birth="6653.1.1"}
	6669.1.1 = {add_trait=trained_warrior}
	6671.1.1 = {add_spouse=225300024}
	6692.1.1 = {death = {death_reason = death_accident}}
}
225300024 = {
	name="Serala"
	female=yes

	religion="trios"
	culture="tyroshi"

	6653.1.1 = {birth="6653.1.1"}
	6692.1.1 = {death="6692.1.1"}
}
126300024 = {
	name="Yna"	# not a lord
	female=yes
	dynasty=300024

	religion="trios"
	culture="tyroshi"

	father=122300024
	mother=222300024

	6656.1.1 = {birth="6656.1.1"}
	6710.1.1 = {death="6710.1.1"}
}
127300024 = {
	name="Narba"	# not a lord
	female=yes
	dynasty=300024

	religion="trios"
	culture="tyroshi"

	father=123300024
	mother=223300024

	6672.1.1 = {birth="6672.1.1"}
	6683.1.1 = {death = {death_reason = death_accident}}
}
128300024 = {
	name="Tycho"	# a lord
	dynasty=300024

	religion="trios"
	culture="tyroshi"

	father=123300024
	mother=223300024

	6674.1.1 = {birth="6674.1.1"}
	6690.1.1 = {add_trait=master_warrior}
	6692.1.1 = {add_spouse=228300024}
	6748.1.1 = {death="6748.1.1"}
}
228300024 = {
	name="Serenei"
	female=yes

	religion="trios"
	culture="tyroshi"

	6674.1.1 = {birth="6674.1.1"}
	6748.1.1 = {death="6748.1.1"}
}
129300024 = {
	name="Serala"	# not a lord
	female=yes
	dynasty=300024

	religion="trios"
	culture="tyroshi"

	father=128300024
	mother=228300024

	6702.1.1 = {birth="6702.1.1"}
	6725.1.1 = {death="6725.1.1"}
}
130300024 = {
	name="Gyloro"	# a lord
	dynasty=300024

	religion="trios"
	culture="tyroshi"

	father=128300024
	mother=228300024

	6703.1.1 = {birth="6703.1.1"}
	6719.1.1 = {add_trait=trained_warrior}
	6721.1.1 = {add_spouse=230300024}
	6756.1.1 = {death="6756.1.1"}
}
230300024 = {
	name="Betharios"
	female=yes

	religion="trios"
	culture="tyroshi"

	6703.1.1 = {birth="6703.1.1"}
	6756.1.1 = {death="6756.1.1"}
}
131300024 = {
	name="Syrio"	# a lord
	dynasty=300024

	religion="trios"
	culture="tyroshi"

	father=130300024
	mother=230300024

	6731.1.1 = {birth="6731.1.1"}
	6747.1.1 = {add_trait=poor_warrior}
	6753.1.1 = {
		add_spouse = 43130024
	}
}
43130024 = {
	name="Gylora"
	female=yes

	religion="trios"
	culture="tyroshi"

	6731.1.1 = {birth="6731.1.1"}
}
132300024 = {
	name="Bellegere"	# not a lord
	female=yes
	dynasty=300024

	religion="trios"
	culture="tyroshi"

	father=130300024
	mother=230300024

	6734.1.1 = {birth="6734.1.1"}
}
133300024 = {
	name="Pynta"	# not a lord
	female=yes
	dynasty=300024

	religion="trios"
	culture="tyroshi"

	father=130300024
	mother=230300024

	6737.1.1 = {birth="6737.1.1"}
	6756.1.1 = {death="6756.1.1"}
}
134300024 = {
	name="Gyloro"	# not a lord
	dynasty=300024

	religion="trios"
	culture="tyroshi"

	father=130300024
	mother=230300024

	6738.1.1 = {birth="6738.1.1"}
	6754.1.1 = {
		add_trait=poor_warrior
	}
}

105030024 = {
	name="Tysha"
	female = yes
	dynasty=300024

	religion="trios"
	culture="tyroshi"

	father=131300024
	mother=43130024

	6754.1.1 = {birth="6754.1.1"}
}
105130024 = {
	name="Mallaquo"
	dynasty=300024

	religion="trios"
	culture="tyroshi"

	father=131300024
	mother=43130024

	6758.1.1 = {birth="6758.1.1"}
	6774.1.1 = {
		add_trait=poor_warrior
	}
}
#Pirates of Torturers Deep
100300206 = {
	name="Ordello"	# a lord
	dynasty=300206

	religion="pirate"
	culture="tyroshi"

	6447.1.1 = {birth="6447.1.1"}
	6463.1.1 = {add_trait=trained_warrior}
	6465.1.1 = {add_spouse=400300206}
	6493.1.1 = {death="6493.1.1"}
}
400300206 = {
	name="Mellario"
	female=yes

	religion="pirate"
	culture="tyroshi"

	6447.1.1 = {birth="6447.1.1"}
	6493.1.1 = {death="6493.1.1"}
}
101300206 = {
	name="Pynto"	# a lord
	dynasty=300206

	religion="pirate"
	culture="tyroshi"

	father=100300206
	mother=400300206

	6472.1.1 = {birth="6472.1.1"}
	6488.1.1 = {add_trait=poor_warrior}
	6490.1.1 = {add_spouse=401300206}
	6518.1.1 = {death="6518.1.1"}
}
401300206 = {
	name="Orbela"
	female=yes

	religion="pirate"
	culture="tyroshi"

	6472.1.1 = {birth="6472.1.1"}
	6518.1.1 = {death="6518.1.1"}
}
102300206 = {
	name="Lotho"	# a lord
	dynasty=300206

	religion="pirate"
	culture="tyroshi"

	father=101300206
	mother=401300206

	6492.1.1 = {birth="6492.1.1"}
	6508.1.1 = {add_trait=poor_warrior}
	6510.1.1 = {add_spouse=402300206}
	6550.1.1 = {death="6550.1.1"}
}
402300206 = {
	name="Syrea"
	female=yes

	religion="pirate"
	culture="tyroshi"

	6492.1.1 = {birth="6492.1.1"}
	6550.1.1 = {death="6550.1.1"}
}
103300206 = {
	name="Nohia"	# not a lord
	female=yes
	dynasty=300206

	religion="pirate"
	culture="tyroshi"

	father=101300206
	mother=401300206

	6495.1.1 = {birth="6495.1.1"}
	6574.1.1 = {death="6574.1.1"}
}
104300206 = {
	name="Narbo"	# not a lord
	dynasty=300206

	religion="pirate"
	culture="tyroshi"

	father=101300206
	mother=401300206

	6498.1.1 = {birth="6498.1.1"}
	6514.1.1 = {add_trait=trained_warrior}
	6574.1.1 = {death="6574.1.1"}
}
105300206 = {
	name="Moredo"	# a lord
	dynasty=300206

	religion="pirate"
	culture="tyroshi"

	father=102300206
	mother=402300206

	6518.1.1 = {birth="6518.1.1"}
	6534.1.1 = {add_trait=skilled_warrior}
	6536.1.1 = {add_spouse=405300206}
	6588.1.1 = {death="6588.1.1"}
}
405300206 = {
	name="Alia"
	female=yes

	religion="pirate"
	culture="tyroshi"

	6518.1.1 = {birth="6518.1.1"}
	6588.1.1 = {death="6588.1.1"}
}
106300206 = {
	name="Bellonara"	# not a lord
	female=yes
	dynasty=300206

	religion="pirate"
	culture="tyroshi"

	father=102300206
	mother=402300206

	6520.1.1 = {birth="6520.1.1"}
	6557.1.1 = {death="6557.1.1"}
}
108300206 = {
	name="Orbela"	# not a lord
	female=yes
	dynasty=300206

	religion="pirate"
	culture="tyroshi"

	father=105300206
	mother=405300206

	6549.1.1 = {birth="6549.1.1"}
	6618.1.1 = {death="6618.1.1"}
}
109300206 = {
	name="Areo"	# a lord
	dynasty=300206

	religion="pirate"
	culture="tyroshi"

	father=105300206
	mother=405300206

	6550.1.1 = {birth="6550.1.1"}
	6566.1.1 = {add_trait=trained_warrior}
	6568.1.1 = {add_spouse=409300206}
	6621.1.1 = {death="6621.1.1"}
}
409300206 = {
	name="Tagganaria"
	female=yes

	religion="pirate"
	culture="tyroshi"

	6550.1.1 = {birth="6550.1.1"}
	6621.1.1 = {death="6621.1.1"}
}
111300206 = {
	name="Syrio"	# not a lord
	dynasty=300206

	religion="pirate"
	culture="tyroshi"

	father=105300206
	mother=405300206

	6554.1.1 = {birth="6554.1.1"}
	6570.1.1 = {add_trait=poor_warrior}
	6592.1.1 = {death="6592.1.1"}
}
112300206 = {
	name="Lotho"	# a lord
	dynasty=300206

	religion="pirate"
	culture="tyroshi"

	father=109300206
	mother=409300206

	6574.1.1 = {birth="6574.1.1"}
	6590.1.1 = {add_trait=trained_warrior}
	6592.1.1 = {add_spouse=412300206}
	6624.1.1 = {death="6624.1.1"}
}
412300206 = {
	name="Izembara"
	female=yes

	religion="pirate"
	culture="tyroshi"

	6574.1.1 = {birth="6574.1.1"}
	6624.1.1 = {death="6624.1.1"}
}
113300206 = {
	name="Tregar"	# a lord
	dynasty=300206

	religion="pirate"
	culture="tyroshi"

	father=112300206
	mother=412300206

	6593.1.1 = {birth="6593.1.1"}
	6609.1.1 = {add_trait=skilled_warrior}
	6611.1.1 = {add_spouse=413300206}
	6653.1.1 = {death="6653.1.1"}
}
413300206 = {
	name="Alia"
	female=yes

	religion="pirate"
	culture="tyroshi"

	6593.1.1 = {birth="6593.1.1"}
	6653.1.1 = {death="6653.1.1"}
}
114300206 = {
	name="Beqqo"	# not a lord
	dynasty=300206

	religion="pirate"
	culture="tyroshi"

	father=113300206
	mother=413300206

	6616.1.1 = {birth="6616.1.1"}
	6632.1.1 = {add_trait=poor_warrior}
	6651.1.1 = {death="6651.1.1"}
}
115300206 = {
	name="Izembaro"	# a lord
	dynasty=300206

	religion="pirate"
	culture="tyroshi"

	father=113300206
	mother=413300206

	6617.1.1 = {birth="6617.1.1"}
	6633.1.1 = {add_trait=skilled_warrior}
	6635.1.1 = {add_spouse=415300206}
	6660.1.1 = {death="6660.1.1"}
}
415300206 = {
	name="Izembara"
	female=yes

	religion="pirate"
	culture="tyroshi"

	6617.1.1 = {birth="6617.1.1"}
	6660.1.1 = {death="6660.1.1"}
}
116300206 = {
	name="Pynto"	# not a lord
	dynasty=300206

	religion="pirate"
	culture="tyroshi"

	father=113300206
	mother=413300206

	6618.1.1 = {birth="6618.1.1"}
	6634.1.1 = {add_trait=trained_warrior}
	6657.1.1 = {death="6657.1.1"}
}
117300206 = {
	name="Syrea"	# not a lord
	female=yes
	dynasty=300206

	religion="pirate"
	culture="tyroshi"

	father=115300206
	mother=415300206

	6642.1.1 = {birth="6642.1.1"}
	6672.1.1 = {death="6672.1.1"}
}
118300206 = {
	name="Syrio"	# a lord
	dynasty=300206

	religion="pirate"
	culture="tyroshi"

	father=115300206
	mother=415300206

	6643.1.1 = {birth="6643.1.1"}
	6659.1.1 = {add_trait=trained_warrior}
	6661.1.1 = {add_spouse=418300206}
	6678.1.1 = {death="6678.1.1"}
}
418300206 = {
	name="Serra"
	female=yes

	religion="pirate"
	culture="tyroshi"

	6643.1.1 = {birth="6643.1.1"}
	6678.1.1 = {death="6678.1.1"}
}
119300206 = {
	name="Groleo"	# not a lord
	dynasty=300206

	religion="pirate"
	culture="tyroshi"

	father=115300206
	mother=415300206

	6646.1.1 = {birth="6646.1.1"}
	6662.1.1 = {add_trait=poor_warrior}
	6683.1.1 = {death="6683.1.1"}
}
120300206 = {
	name="Cossomo"	# a lord
	dynasty=300206

	religion="pirate"
	culture="tyroshi"

	father=118300206
	mother=418300206

	6670.1.1 = {birth="6670.1.1"}
	6686.1.1 = {add_trait=skilled_warrior}
	6688.1.1 = {add_spouse=420300206}
	6732.1.1 = {death="6732.1.1"}
}
420300206 = {
	name="Serala"
	female=yes

	religion="pirate"
	culture="tyroshi"

	6670.1.1 = {birth="6670.1.1"}
	6732.1.1 = {death="6732.1.1"}
}
121300206 = {
	name="Ternesia"	# not a lord
	female=yes
	dynasty=300206

	religion="pirate"
	culture="tyroshi"

	father=118300206
	mother=418300206

	6673.1.1 = {birth="6673.1.1"}
	6726.1.1 = {death="6726.1.1"}
}
122300206 = {
	name="Joss"	# a lord
	dynasty=300206

	religion="pirate"
	culture="tyroshi"

	father=120300206
	mother=420300206

	6697.1.1 = {birth="6697.1.1"}
	6713.1.1 = {add_trait=trained_warrior}
	6715.1.1 = {add_spouse=422300206}
	6769.1.1 = {death="6769.1.1"}
}
422300206 = {
	name="Taena"
	female=yes

	religion="pirate"
	culture="tyroshi"

	6697.1.1 = {birth="6697.1.1"}
	6769.1.1 = {death="6769.1.1"}
}
123300206 = {
	name="Allaquo"	# not a lord
	dynasty=300206

	religion="pirate"
	culture="tyroshi"

	father=120300206
	mother=420300206

	6699.1.1 = {birth="6699.1.1"}
	6715.1.1 = {add_trait=skilled_warrior}
	6741.1.1 = {death="6741.1.1"}
}
124300206 = {
	name="Yna"	# not a lord
	female=yes
	dynasty=300206

	religion="pirate"
	culture="tyroshi"

	father=120300206
	mother=420300206

	6700.1.1 = {birth="6700.1.1"}
	6747.1.1 = {death="6747.1.1"}
}
125300206 = {
	name="Daario"	# a lord
	dynasty=300206

	religion="pirate"
	culture="tyroshi"

	father=122300206
	mother=422300206

	6731.1.1 = {birth="6731.1.1"}
	6747.1.1 = {add_trait=poor_warrior}
	6749.1.1 = {add_spouse=425300206}
}
425300206 = {
	name="Gylora"
	female=yes

	religion="pirate"
	culture="tyroshi"

	6731.1.1 = {birth="6731.1.1"}
}
126300206 = {
	name="Izembaro"	# not a lord
	dynasty=300206

	religion="pirate"
	culture="tyroshi"

	father=122300206
	mother=422300206

	6734.1.1 = {birth="6734.1.1"}
	6750.1.1 = {add_trait=skilled_warrior}
}
127300206 = {
	name="Gyloro"	# not a lord
	dynasty=300206

	religion="pirate"
	culture="tyroshi"

	father=125300206
	mother=425300206

	6759.1.1 = {birth="6759.1.1"}
	6775.1.1 = {add_trait=skilled_warrior}
}
128300206 = {
	name="Brea"	# not a lord
	female=yes
	dynasty=300206

	religion="pirate"
	culture="tyroshi"

	father=125300206
	mother=425300206

	6761.1.1 = {birth="6761.1.1"}
}

