religion_nature = {
	buttons = { nature }
	
	religion_peaceful = {
		picture = GFX_religion_feature_peaceful
		effect = {
			custom_tooltip = { text = tooltip_religion_feature_pacifist }
			custom_tooltip = { text = tooltip_religion_feature_peace_piety }
			custom_tooltip = { text = tooltip_religion_feature_no_looting }
			#custom_tooltip = { text = tooltip_religion_feature_no_crusade }
			custom_tooltip = { text = tooltip_religion_feature_opinion_boost }
			set_character_modifier = {
				global_revolt_risk = -0.02
				westerosi_religion_opinion = 5
				wildling_religion_opinion = 5
				drowned_god_group_opinion = 5
				essos_group_opinion = 5
				sarnor_rel_opinion = 5
				qarth_rel_opinion = 5
				ghiscar_rel_opinion = 5
				far_east_group_opinion = 5
				ibben_rel_opinion = 5
				dothraki_rel_group_opinion = 5
				jogos_rel_group_opinion = 5
				lhazar_rel_group_opinion = 5
				summer_rel_group_opinion = 5
				valyrian_rel_group_opinion = 5
				pirate_group_opinion = 5
				corsair_group_opinion = 5
				islands_rel_opinion = 5
				sothoryos_rel_group_opinion = 5
				pagan_group_opinion = 5
				key = "peaceful_RELIGION"
			}
			hidden_tooltip = { 
				set_allow_looting = no
				set_can_call_crusade = no
				set_hard_to_convert = no
				set_pacifist = yes
				set_raised_vassal_opinion_loss = yes
				set_peace_prestige_loss = no
				set_piety_loss_for_attacking_same_religion = no
				set_peace_piety_gain = 1
				set_convert_other_groups = 0
				set_convert_same_group = 0
				set_ai_aggression = 0.1
			}
		}
		ai_will_do = {
			factor = 100
			modifier = { 	
				factor = 0.01
				FROM = {
					character = yes 
					NOT = { religion = nath_pagan } 
				}
			}
			# modifier = { #Handles feature randomization in AltStart to make unreformed pagans still have "paganish" features.
				# factor = 0
				# has_game_started = no
				# religion_group = pagan_group
			# }
			modifier = { #Handles feature randomization in AltStart to make unreformed pagans still have "paganish" features.
				factor = 0.25		#Pacifists should be rarer in general in Random World.
				has_game_started = no
			}
		}
	}
	religion_warlike = {
		picture = GFX_religion_feature_warlike
		effect = {
			custom_tooltip = { text = tooltip_religion_feature_war_levies }
			#custom_tooltip = { text = tooltip_religion_feature_crusade }
			custom_tooltip = { text = tooltip_religion_feature_warlike }
			custom_tooltip = { text = tooltip_religion_feature_prestige_loss }
			if = { #Warlike Jogos removes inter war prohibition
				limit = { religion = jogos_pagan_reformed }
				custom_tooltip = { text = tooltip_jogos_pagan_reformed_WARLIKE }
			}
			hidden_tooltip = {
				set_pacifist = no
				set_allow_looting = yes
				set_hard_to_convert = no
				set_peace_piety_gain = 0
				set_raised_vassal_opinion_loss = no
				set_piety_loss_for_attacking_same_religion = no
				set_peace_prestige_loss = yes
				set_convert_other_groups = 0
				#set_convert_same_group = 1
				set_ai_aggression = 2.0
			}
		}
		ai_will_do = {
			factor = 100
			
			modifier = { 	
				factor = 3
				FROM = { 	
					character = yes 
					religion = lady_of_the_waves
				}
			}
			# modifier = { 	
				# factor = 3
				# FROM = { 
					# character = yes
					# religion = bakkalon
				# }
			# }
			modifier = { 	
				factor = 0.01
				FROM = { 
					character = yes
					religion = nath_pagan 
				}
			}
			modifier = { 	
				factor = 5
				FROM = {
					character = yes 
					trait = zealous 
				}
			}
			modifier = { 	
				factor = 5
				FROM = { 
					character = yes 
					trait = lunatic 
				}
			}
			modifier = { 	
				factor = 5
				FROM = { 
					character = yes 
					trait = possessed 
				}
			}
			modifier = { 	
				factor = 5
				FROM = { 
					character = yes 
					trait = wroth 
				}
			}
			modifier = { 	
				factor = 0.1
				FROM = { 
					character = yes 
					trait = craven 
				}
			}
			modifier = { 	
				factor = 0.1
				FROM = { 
					character = yes 
					trait = patient 
				}
			}
			modifier = { 	
				factor = 0.1
				FROM = { 
					character = yes 
					trait = cynical 
				}
			}
		}
	}
	religion_defensive = {
		picture = GFX_religion_feature_defensive
		effect = {
			custom_tooltip = { text = tooltip_religion_feature_defensive }
			custom_tooltip = { text = tooltip_religion_feature_hard_conversion }
			#custom_tooltip = { text = tooltip_religion_feature_crusade }
			hidden_tooltip = { 
				set_pacifist = no
				set_peace_piety_gain = 0
				set_raised_vassal_opinion_loss = yes
				set_piety_loss_for_attacking_same_religion = no
				set_peace_prestige_loss = no
				set_allow_looting = yes
				set_hard_to_convert = yes
				#set_convert_other_groups = 1
				#set_convert_same_group = 1
				set_ai_aggression = 0.5
				set_unit_modifier = {		
					garrison_size = 0.3
					levy_size = 0.2
					
					key = "DEF_RELIGION"
				}
				set_unit_home_modifier = {
					land_morale = 0.8
					light_infantry_defensive = 0.8
					heavy_infantry_defensive = 0.8
					pikemen_defensive = 0.8
					light_cavalry_defensive = 0.8
					knights_defensive = 0.8
					archers_defensive = 0.8
					horse_archers_defensive = 0.8
					camel_cavalry_defensive = 0.8
					war_elephants_defensive = 0.8
					
					garrison_size = 0.4
					
					key = "DEF_RELIGION_HOME_TERRITORY"
				}
			}
		}
		ai_will_do = {
			factor = 100
			modifier = { 	
				factor = 0.1
				FROM = { 
					character = yes 
					OR = { 
						religion = drowned_god
					}
				}
			}
			modifier = { 	
				factor = 0.001
				FROM = { 
					character = yes 
					religion = aztec 
				}
			}
			modifier = { 	
				factor = 0.1
				FROM = { 
					character = yes 
					trait = zealous 
				}
			}
			modifier = { 	
				factor = 0.1
				FROM = {
					character = yes 
					trait = lunatic 
				}
			}
			modifier = { 	
				factor = 0.1
				FROM = { 
					character = yes 
					trait = possessed 
				}
			}
			modifier = { 	
				factor = 5
				FROM = { 
					character = yes 
					trait = craven 
				}
			}
			modifier = { 	
				factor = 5
				FROM = { 
					character = yes 
					trait = patient 
				}
			}
			modifier = { 	
				factor = 5
				FROM = { 
					character = yes 
					trait = cynical 
				}
			}
		}
	}
	religion_proselytizing = {
		picture = GFX_religion_feature_proselytizing
		effect = {
			custom_tooltip = { text = tooltip_religion_feature_proselytizing }
			#custom_tooltip = { text = tooltip_religion_feature_crusade }
			custom_tooltip = { text = tooltip_religion_feature_piety_same_religion_loss }
			hidden_tooltip = { 
				set_pacifist = no
				set_peace_piety_gain = 0
				set_raised_vassal_opinion_loss = yes
				set_peace_prestige_loss = no
				set_allow_looting = yes
				set_hard_to_convert = no
				set_piety_loss_for_attacking_same_religion = yes
				#set_convert_other_groups = 2
				#set_convert_same_group = 2
				set_ai_aggression = 1.0
			}
		}
		ai_will_do = {
			factor = 80
			# modifier = { 	
				# factor = 0.1
				# FROM = { 
					# character = yes 
					# NOR = { 
						# religion = zun_pagan
						# religion = hellenic_pagan
						# religion = west_african_pagan
					# }
				# }
			# }
			modifier = { 	
				factor = 0.01
				FROM = { 
					character = yes 
					religion = nath_pagan 
				}
			}
			modifier = { 	
				factor = 5
				FROM = { 
					character = yes 
					trait = zealous 
				}
			}
			modifier = { 	
				factor = 5
				FROM = { 
					character = yes 
					trait = gregarious 
				}
			}
			modifier = { 	
				factor = 5
				FROM = { 
					character = yes 
					trait = socializer 
				}
			}
			modifier = { 	
				factor = 0.1
				FROM = { 
					character = yes 
					trait = wroth 
				}
			}
			modifier = { 	
				factor = 0.1
				FROM = { 
					character = yes 
					trait = possessed 
				}
			}
			modifier = { 	
				factor = 0.1
				FROM = { 
					character = yes 
					trait = brave 
				}
			}
			modifier = { 	
				factor = 0.1
				FROM = { 
					character = yes 
					trait = cynical 
				}
			}
			# modifier = { #Handles feature randomization in AltStart to make unreformed pagans still have "paganish" features.
				# factor = 0
				# has_game_started = no
				# religion_group = pagan_group
			# }
		}
	}
	religion_dogmatic = {
		picture = GFX_religion_feature_dogmatic
		trigger = {
			NOR = {
				has_selected_religion_feature = religion_syncretic
				has_selected_religion_feature = religion_no_leader
				has_selected_religion_feature = religion_feature_moonsingers
			}
		}
		effect = {
			custom_tooltip = { text = tooltip_religion_feature_dogmatic_1 }
			#custom_tooltip = { text = tooltip_religion_feature_crusade }
			custom_tooltip = { text = tooltip_religion_feature_dogmatic_2 }
			custom_tooltip = { text = tooltip_religion_feature_piety_same_religion_loss }
			hidden_tooltip = { 
				set_pacifist = no
				set_peace_piety_gain = 0
				set_raised_vassal_opinion_loss = yes
				set_peace_prestige_loss = no
				set_allow_looting = yes
				set_hard_to_convert = yes
				set_piety_loss_for_attacking_same_religion = yes
				#set_convert_other_groups = 0
				#set_convert_same_group = 2
				set_ai_aggression = 1.5
			}
		}
		ai_will_do = {
			factor = 50
			modifier = { 	
				factor = 0.1
				FROM = { 
					character = yes 
					# NOR = { 
						# religion = zun_pagan
						# religion = west_african_pagan
					# }
				}
			}
			modifier = { 	
				factor = 0.01
				FROM = { 
					character = yes 
					religion = nath_pagan 
				}
			}
			modifier = { 	
				factor = 5
				FROM = { 
					character = yes 
					trait = paranoid 
				}
			}
			modifier = { 	
				factor = 5
				FROM = { 
					character = yes 
					trait = cruel 
				}
			}
			modifier = { 	
				factor = 0.1
				FROM = { 
					character = yes 
					trait = kind 
				}
			}
			modifier = { 	
				factor = 0.1
				FROM = { 
					character = yes 
					trait = cynical 
				}
			}
			# modifier = { #Handles feature randomization in AltStart to make unreformed pagans still have "paganish" features.
				# factor = 0
				# has_game_started = no
				# religion_group = pagan_group
			# }
			modifier = { #Handles feature randomization in AltStart to make unreformed pagans still have "paganish" features.
				factor = 0.5		#Should be rarer than regular ones.
				has_game_started = no
			}
		}
	}
	religion_cosmopolitan = {
		picture = GFX_religion_feature_cosmopolitan
		effect = {
			custom_tooltip = { text = tooltip_religion_feature_cosmopolitan_2 }
			#custom_tooltip = { text = tooltip_religion_feature_crusade }
			custom_tooltip = { text = tooltip_religion_feature_impotent }
			custom_tooltip = { text = tooltip_religion_feature_cosmopolitan_1 }
			custom_tooltip = { text = tooltip_religion_feature_opinion_boost }
			set_character_modifier = {
				global_revolt_risk = -0.02
				westerosi_religion_opinion = 5
				wildling_religion_opinion = 5
				drowned_god_group_opinion = 5
				valyrian_rel_group_opinion = 5
				essos_group_opinion = 5
				sarnor_rel_opinion = 5
				qarth_rel_opinion = 5
				ghiscar_rel_opinion = 5
				far_east_group_opinion = 5
				ibben_rel_opinion = 5
				dothraki_rel_group_opinion = 5
				jogos_rel_group_opinion = 5
				lhazar_rel_group_opinion = 5
				summer_rel_group_opinion = 5
				pirate_group_opinion = 5
				corsair_group_opinion = 5
				islands_rel_opinion = 5
				sothoryos_rel_group_opinion = 5
				pagan_group_opinion = 5
				key = "cosmopolitan_RELIGION"
			}
			hidden_tooltip = { 
				set_pacifist = no
				set_peace_piety_gain = 0
				set_raised_vassal_opinion_loss = yes
				set_peace_prestige_loss = no
				set_allow_looting = yes
				set_hard_to_convert = no
				set_piety_loss_for_attacking_same_religion = no
				set_convert_other_groups = 0
				set_convert_same_group = 0
				set_ai_aggression = 0.5
			}
		}
		ai_will_do = {
			factor = 50
			modifier = { 	
				factor = 6
				FROM = { 
					character = yes 
					OR = {
						religion = valyrian_rel
						religion = moonsingers
					}	
				}
			}
			# modifier = { 	
				# factor = 0.1
				# FROM = { 
					# character = yes 
					# NOR = { 
						# religion = hellenic_pagan
						# religion = west_african_pagan
						# religion = slavic_pagan
					# }
				# }
			# }
			# modifier = { 	
				# factor = 2
				# FROM = { 
					# character = yes 
					# religion = hellenic_pagan 
				# }
			# }
			modifier = { 	
				factor = 0.1
				FROM = { 
					character = yes 
					trait = paranoid 
				}
			}
			modifier = { 	
				factor = 0.1
				FROM = { 
					character = yes 
					trait = zealous 
				}
			}
			modifier = { 	
				factor = 5
				FROM = { 
					character = yes 
					trait = gregarious 
				}
			}
			modifier = { 	
				factor = 5
				FROM = { 
					character = yes 
					trait = kind 
				}
			}
			modifier = { 	
				factor = 5
				FROM = { 
					character = yes 
					trait = cynical 
				}
			}
			# modifier = { #Handles feature randomization in AltStart to make unreformed pagans still have "paganish" features.
				# factor = 0
				# has_game_started = no
				# religion_group = pagan_group
			# }
			modifier = { #Handles feature randomization in AltStart to make unreformed pagans still have "paganish" features.
				factor = 0.5		#Should be rarer than regular ones.
				has_game_started = no
			}
		}
	}
}

religion_doctrine = {
	buttons = { doctrine1 doctrine2 }
	
	#religion_ravager = {
	#	picture = GFX_religion_feature_ravager
	#	effect = {
	#		FROM = { wealth = 1000 }
	#	}
	#	trigger = {
	#		NOT = {
	#			has_selected_religion_feature = religion_peaceful
	#		}
	#	}
	#}

	religion_holy_family = {
		picture = GFX_religion_feature_holy_family
		trigger = {
			NOR = { 
				has_selected_religion_feature = religion_feature_valyrian_rel #Redundant
				religion = valyrian_rel #Random World.
			} 
		}
		effect = {
			custom_tooltip = { text = tooltip_religion_feature_incest }
			custom_tooltip = { text = tooltip_religion_feature_holy_family }
			hidden_tooltip = { 
				set_divine_blood = yes
				set_psc_marriage = yes
				set_bs_marriage = yes
				set_cousin_marriage = yes
				#set_pc_marriage = yes
			}
		}
		ai_will_do = {
			factor = 1
			modifier = { 	
				factor = 0.02
				FROM = { 
					character = yes 
				}
			}
			# modifier = { #Handles feature randomization in AltStart to make unreformed pagans still have "paganish" features.
				# factor = 0
				# has_game_started = no
				# religion_group = pagan_group
			# }
		}
	}
	religion_harems = {
		picture = GFX_religion_feature_harems
		trigger = {
			NOR = { 
				has_selected_religion_feature = religion_matriarchal #Incompatible
				has_selected_religion_feature = religion_feature_valyrian_rel #Redundant
			} 
		}
		effect = {
			custom_tooltip = { text = tooltip_religion_feature_harems }
			hidden_tooltip = { 
				set_max_consorts = 0
				set_max_wives = 4
			}
		}
		ai_will_do = {
			factor = 1
			modifier = { 	
				factor = 0.2
				FROM = { 
					character = yes 
				}
			}
		}
	}
	religion_meritocratic = {
		picture = GFX_religion_feature_meritocratic
		trigger = {
			NOR = { 
				has_selected_religion_feature = religion_patriarchal # Incompatible
				has_selected_religion_feature = religion_matriarchal # Incompatible
			}
		}
		effect = {
			custom_tooltip = { text = tooltip_religion_feature_meritocratic }
			hidden_tooltip = {
				set_heir_designation = yes
			}
		}
		ai_will_do = {
			factor = 1
			# modifier = { #Handles feature randomization in AltStart to make unreformed pagans still have "paganish" features.
				# factor = 0
				# has_game_started = no
				# religion_group = pagan_group
			# }
		}
	}
	religion_stable = {
		picture = GFX_religion_feature_stable
		trigger = {
			# NOR = { 
				# has_selected_religion_feature = religion_feature_slavic # Redundant Doctrine
				# has_selected_religion_feature = religion_feature_finnish # Redundant Doctrine
			# }
			NOT = { has_selected_religion_feature = religion_feature_nath_pagan }
		}
		effect = {
			custom_tooltip = { text = tooltip_religion_feature_stable }
			custom_tooltip = { text = tooltip_religion_feature_meliorism } 
			custom_tooltip = { text = tooltip_religion_feature_revolt_risk }
			hidden_tooltip = { 
				set_short_reign_opinion_year_mult = 0
				set_character_modifier = {
					global_revolt_risk = -0.02
				}			
			}
		}
		ai_will_do = {
			factor = 1
			# modifier = { #Handles feature randomization in AltStart to make unreformed pagans still have "paganish" features.
				# factor = 0
				# has_game_started = no
				# religion_group = pagan_group
			# }
		}
	}
	# religion_jizya = {
		# picture = GFX_religion_feature_jizya
		# trigger = {
			# NOR = {
				# has_selected_religion_feature = religion_syncretic
				# has_selected_religion_feature = religion_feature_west_african
			# }
		# }
		# effect = {
			# custom_tooltip = { text = tooltip_religion_feature_jizya }
			# hidden_tooltip = { 
				# set_jizya_tax = yes
			# }
		# }
		# ai_will_do = {
			# factor = 1
			# modifier = { #Handles feature randomization in AltStart to make unreformed pagans still have "paganish" features.
				# factor = 0
				# has_game_started = no
				# religion_group = pagan_group
			# }
		# }
	# }
	religion_monastic = {
		picture = GFX_religion_feature_monastic
		trigger = {
			NOT = {
				#has_selected_religion_feature = religion_feature_west_african
			}
		}
		effect = {
			custom_tooltip = { text = tooltip_religion_feature_monastic }
			custom_tooltip = { text = tooltip_religion_feature_learning_boost }
			#custom_tooltip = { text = tooltip_religion_feature_celibate_priests }
			hidden_tooltip = { 
				#set_can_retire_to_monastery = yes
				set_priests_can_marry = no
				set_priests_can_inherit = no
			}
			set_character_modifier = {
				learning = 2
				key = "MONASTIC_ATTR_RELIGION"
			}
		}
		ai_will_do = {
			factor = 1
			# modifier = { #Handles feature randomization in AltStart to make unreformed pagans still have "paganish" features.
				# factor = 0
				# has_game_started = no
				# religion_group = pagan_group
			# }
		}
	}
	religion_syncretic = { #Gives option for each ruler to pick one of the sympathy_for_traits via decision.
		picture = GFX_religion_feature_syncretic
		trigger = {
			NOR = {
				#has_selected_religion_feature = religion_jizya
				has_selected_religion_feature = religion_dogmatic
				has_selected_religion_feature = religion_feature_valyrian_rel # Redundant Doctrine
				has_selected_religion_feature = religion_feature_moonsingers
			}
		}
		effect = {
			custom_tooltip = { text = tooltip_religion_feature_syncretic }
		}
		ai_will_do = {
			factor = 1
			modifier = { 	
				factor = 0.5
				FROM = { 
					character = yes 
					OR = { 
						religion = aztec
					}
				}
			}
			# modifier = { #Handles feature randomization in AltStart to make unreformed pagans still have "paganish" features.
				# factor = 0
				# has_game_started = no
				# religion_group = pagan_group
			# }
		}
	}
	
	#AGOT- Blood magic
	#uses elements of astrology, devil worshipper powers and rhllor magic type powers
	religion_haruspicy = { #Gives option to divinate the future before waging a war.
		picture = GFX_religion_feature_haruspicy
		potential = {
		}
		trigger = {
			NOT = { 
				has_selected_religion_feature = religion_feature_valyrian_rel
			}
		}
		effect = {
			custom_tooltip = { text = tooltip_religion_feature_rhllor_magic }
			if = {
				limit = { has_dlc = "Mystics" }
				custom_tooltip = { text = tooltip_religion_feature_blood_magic }
			}	
			custom_tooltip = { text = tooltip_religion_feature_haruspicy }			
		}
		ai_will_do = {
			factor = 1
			
			modifier = {
				factor = 5
				FROM = {
					character = yes
					OR = {
						religion = great_shepherd
						religion = shadowbinders
					}
				}
			}
		}
	}
	# religion_astrology = {
		# picture = GFX_religion_feature_astrology
		# potential = {
		# }

		# effect = {
			# custom_tooltip = { text = tooltip_religion_feature_astrology }
			# custom_tooltip = { text = tooltip_religion_feature_hermetics }
		# }
		# ai_will_do = {
			# factor = 1
			# modifier = { 	
				# factor = 0.01 
				# FROM = { 
					# character = yes 
				# }
			# }
		# }

	# }
	religion_patriarchal = {
		picture = GFX_religion_feature_patriarchal
		trigger = {
			NOR = {
				has_selected_religion_feature = religion_matriarchal
				has_selected_religion_feature = religion_equal
				has_selected_religion_feature = religion_meritocratic
				has_selected_religion_feature = religion_feature_rhoynar_pagan
			}
			religion_allows_male_temple_holders = yes
		}
		effect = {
			custom_tooltip = { text = tooltip_religion_feature_patriarchal }
			#custom_tooltip = { text = tooltip_religion_feature_open_succession }
			custom_tooltip = { text = tooltip_religion_feature_patriarchal_negatives }
			custom_tooltip = { text = tooltip_religion_feature_no_matrimarriage }
			hidden_tooltip = { 
				set_allows_matrilineal_marriage = no
				set_feminist = no
				set_female_temple_holders = no
				set_male_temple_holders = yes
				#set_women_can_take_consorts = no
				set_men_can_take_consorts = yes
				#FROM = { any_demesne_title = { add_law = agnatic_succession add_law = status_of_women_0 } }
			}
		}
		ai_will_do = {
			factor = 1
			modifier = { 	
				factor = 0.01
				FROM = { 
					character = yes 
					is_female = yes 
				}
			}
			modifier = { 	
				factor = 0.1
				FROM = { 
					character = yes 
					current_heir = { is_female = yes } 
				}
			}
		}
	}
	religion_equal = {
		picture = GFX_religion_feature_equal
		trigger = {
			NOR = {
				has_selected_religion_feature = religion_matriarchal
				has_selected_religion_feature = religion_patriarchal
				has_selected_religion_feature = religion_feature_rhoynar_pagan
			}
		}
		effect = {
			custom_tooltip = { text = tooltip_religion_feature_cognatic }
			custom_tooltip = { text = tooltip_religion_feature_feminist }
			hidden_tooltip = { 
				set_allows_matrilineal_marriage = yes
				set_feminist = yes
				set_women_can_take_consorts = yes
				set_men_can_take_consorts = yes
				set_female_temple_holders = yes
				#set_male_temple_holders = yes
				#FROM = { any_demesne_title = { add_law = status_of_women_4 } } 
			}
		}
		ai_will_do = {
			factor = 1
			modifier = { 	
				factor = 0.01
				NOT = { 
					FROM = { 
						character = yes 
						OR = {
							trait = just
							AND = { 
								is_female = yes 
								trait = ambitious
							}
						}   
					} 
				}
			}
		}
	}
	religion_matriarchal = {
		picture = GFX_religion_feature_matriarchal
		trigger = {
			NOR = {
				has_selected_religion_feature = religion_patriarchal
				has_selected_religion_feature = religion_equal
				has_selected_religion_feature = religion_meritocratic
				has_selected_religion_feature = religion_feature_rhoynar_pagan
				# trigger_if = {
					# limit = { has_game_started = yes }
					# FROM = { 
						# character = yes 
						# government = merchant_republic_government 
					# }
				# }
			}
		}
		effect = {
			custom_tooltip = { text = tooltip_religion_feature_matriarchal }
			#custom_tooltip = { text = tooltip_religion_feature_open_succession }
			custom_tooltip = { text = tooltip_religion_feature_matriarchal_negatives }
			hidden_tooltip = { 
				set_allows_matrilineal_marriage = yes
				set_feminist = yes 
				set_women_can_take_consorts = yes
				#set_men_can_take_consorts = no
				set_female_temple_holders = yes
				#set_male_temple_holders = no
			}
			#hidden_tooltip = { FROM = { any_demesne_title = { add_law = enatic_succession add_law = status_of_women_4 } } }
		}
		ai_will_do = {
			factor = 1
			modifier = { 	
				factor = 0.001
				NOT = { 
					FROM = { 
						character = yes 
						is_female = yes 
						OR = {
							trait = lunatic
							trait = possessed
							trait = ambitious
						}   
					} 
				}
			}
		}
	}
	religion_ritual_sacrifice = {
		picture = GFX_religion_feature_ritual_sacrifice
		trigger = {
			NOR = {
				religion_openly_aztec_or_reformed_trigger = yes
				has_selected_religion_feature = religion_peaceful
				has_selected_religion_feature = religion_proselytizing
				has_selected_religion_feature = religion_feature_norse
			}
		}
		effect = {
			custom_tooltip = { text = tooltip_religion_feature_aztec_sacrifices }
			custom_tooltip = { text = tooltip_religion_feature_bloodthirsty_mechanics }
		}
		ai_will_do = {
			factor = 1
			modifier = { 	
				factor = 5
				FROM = { 
					character = yes 
					has_sacrifice_religion_trigger = yes
				}
			}
			modifier = { 	
				factor = 0.1
				FROM = { 
					character = yes 
					NOR = { 
						has_sacrifice_religion_trigger = yes
						trait = cruel 
						trait = impaler 
					} 
				}
			}
		}
	}
	religion_adventuring = {
		picture = GFX_religion_feature_adventuring
		trigger = {
			NOR = {
				has_selected_religion_feature = religion_peaceful
				has_selected_religion_feature = religion_feature_norse
			}
			OR = {
				has_selected_religion_feature = religion_seafaring
				has_selected_religion_feature = religion_feature_rhoynar_pagan
			}	
		}
		effect = {
			#custom_tooltip = { text = tooltip_religion_feature_adventuring }
			custom_tooltip = { text = tooltip_religion_feature_pirating_desc }
			custom_tooltip = { text = tooltip_religion_feature_ironborn_invasion }
			#hidden_tooltip = { enable_prepared_invasion = ROOT }
		}
		ai_will_do = {
			factor = 1
			modifier = { 	
				factor = 10
				FROM = { 	
					character = yes 
					religion = lady_of_the_waves
				}
			}
			modifier = { 	
				factor = 1.5
				FROM = { 	
					character = yes 
					religion = drowned_god
				}
			}
			# modifier = { 	
				# factor = 1.5
				# FROM = { 	
					# character = yes 
					# religion = baltic_pagan
				# }
			# }
		}
	}
	religion_seafaring = {
		picture = GFX_religion_feature_seafaring
		trigger = {
			NOR = {
				has_selected_religion_feature = religion_peaceful
				has_selected_religion_feature = religion_feature_norse #Redundant
				has_selected_religion_feature = religion_feature_aztec
				has_selected_religion_feature = religion_feature_rhoynar_pagan
			}
		}
		effect = {
			custom_tooltip = { text = tooltip_religion_feature_rivermovement }
			custom_tooltip = { text = tooltip_religion_feature_ship_maintenance }
			custom_tooltip = { text = tooltip_religion_feature_seafaring }
			hidden_tooltip = {
				set_seafaring = yes
				set_allow_rivermovement = yes
				if = {
					limit = { #Unlock looting for religions which do not have it already.
						FROM = { 
							character = yes 
							NOT = { has_selected_religion_feature = religion_peaceful }
							OR = { 
								religion = pagan 
								religion = old_gods
								religion = aztec
								religion = black_goat
								religion = gods_lorath
								religion_group = essos_group
								religion = valyrian_rel
								religion = gods_sarnor
								religion = qarth_warlocks
								religion = harpy
								religion = yiti_gods
								religion = starry_wisdom
								religion = shadowbinders
								religion = gods_bone_mountains
								religion = gods_nghai
								religion = stone_cow
								religion = jogos_pagan
								religion = great_shepherd
								religion = summer_rel
								religion = nath_pagan
								religion = lady_of_the_waves
							}
							
						}
					}
					set_allow_looting = yes
				}
			}
		}
		ai_will_do = {
			factor = 1
			
			modifier = { 	
				factor = 10
				FROM = { 	
					character = yes 
					religion = lady_of_the_waves
				}
			}
			modifier = { 	
				factor = 1.5
				FROM = { 
					character = yes 
					religion = drowned_god
				}
			}
			modifier = { 	
				factor = 1.5
				FROM = { 
					character = yes 
					religion = aztec
				}
			}
			modifier = { 	
				factor = 0.1
				FROM = { 
					character = yes 
					government = nomadic_government
				}
			}
			modifier = { 	
				factor = 0
				FROM = { 
					character = yes 
					NOT = { 
						any_demesne_province = { 
							port = yes 
						}
					}
				}
			}
		}
	}
	religion_relentless = {
		picture = GFX_religion_feature_relentless
		trigger = {
			NOR = {
				has_selected_religion_feature = religion_peaceful
				has_selected_religion_feature = religion_defensive
				has_selected_religion_feature = religion_feature_aztec #Redundant
				#has_selected_religion_feature = religion_feature_tengri
			}
		}
		effect = {
			custom_tooltip = { text = tooltip_religion_feature_anti_attrition }
			custom_tooltip = { text = tooltip_religion_feature_offensive }
			hidden_tooltip = { 
				set_ignores_defensive_attrition = yes
				set_unit_modifier = { 
					light_infantry_offensive = 0.1
					heavy_infantry_offensive = 0.1
					light_cavalry_offensive = 0.1 
					knights_offensive = 0.1 
					pikemen_offensive = 0.1 
					archers_offensive = 0.1
					horse_archers_offensive = 0.1
					camel_cavalry_offensive = 0.1
					war_elephants_offensive = 0.1
					key = "RELENTLESS_RELIGION"
				}
			}
		}
		ai_will_do = {
			factor = 1
			modifier = { 	
				factor = 1.5
				FROM = { 
					character = yes 
					religion = aztec
				}
			}
			modifier = { 	
				factor = 1.5
				FROM = { 
					character = yes 
					religion = dothraki_pagan
				}
			}
		}
	}
	religion_animistic = {
		picture = GFX_religion_feature_animistic
		potential = {
			# NOR = {
				# religion = west_african_pagan #Redundant
				# religion = west_african_pagan_reformed #Redundant
			# }
		}
		effect = {
			custom_tooltip = { text = tooltip_religion_feature_land_morale }
			custom_tooltip = { text = tooltip_religion_feature_adulthood_rite }
			hidden_tooltip = { 
				set_unit_modifier = { 
					land_morale = 0.05
					key = "ANIMISTIC_RELIGION"
				}
			}
		}
		ai_will_do = {
			factor = 1
			modifier = { 
				factor = 4
				FROM = { 
					character = yes 
					is_old_gods_religion_trigger = yes
				}
			}
			modifier = { 	
				factor = 1.5
				FROM = { 
					character = yes 
					religion = aztec
				}
			}
			modifier = { 	
				factor = 1.5
				FROM = { 
					character = yes 
					religion = dothraki_pagan
				}
			}
		}
	}
	religion_beatification = {
		picture = GFX_religion_feature_beatification
		trigger = {
			NOR = {
				has_selected_religion_feature = religion_no_leader
			}
		}
		effect = {
			custom_tooltip = { text = tooltip_religion_feature_beatification }
			custom_tooltip = { text = tooltip_religion_feature_eldership }
		}
		ai_will_do = {
			factor = 1
			modifier = { 
				factor = 2
				FROM = { 
					character = yes 
					OR = {			
						religion_group = wildling_religion
						religion = black_goat
						religion = aztec
					}
				}
			}
			# modifier = { #Handles feature randomization in AltStart to make unreformed pagans still have "paganish" features.
				# factor = 0
				# has_game_started = no
				# religion_group = pagan_group
			# }
		}
	}
	religion_feature_norse = { #drowned_god_reformed
		picture = GFX_religion_feature_norse
		potential = {
			has_game_started = yes
			religion = drowned_god_reformed
			NOT = {
				has_alternate_start_parameter = { key = religion_names value = random }
			}
		}
		trigger = {
			religion = drowned_god_reformed
			NOR = { 
				has_selected_religion_feature = religion_peaceful
				has_selected_religion_feature = religion_adventuring
				has_selected_religion_feature = religion_seafaring
				has_selected_religion_feature = religion_feature_elective
				has_selected_religion_feature = religion_ritual_sacrifice
				has_selected_religion_feature = religion_feature_the_seven
			}
		}
		effect = {
			#custom_tooltip = { text = tooltip_religion_feature_adventuring }
			custom_tooltip = { text = tooltip_religion_feature_rivermovement }
			custom_tooltip = { text = tooltip_religion_feature_ship_maintenance }
			custom_tooltip = { text = tooltip_religion_feature_seafaring }
			custom_tooltip = { text = tooltip_religion_feature_elective }
			custom_tooltip = { text = tooltip_religion_feature_aztec_sacrifices }
			hidden_tooltip = { 
				#enable_prepared_invasion = yes
				set_seafaring = yes
				set_allow_rivermovement = yes
				FROM = {
					if = {
						limit = {
							higher_tier_than = DUKE
							government = feudal_government
						}
						primary_title = {
							add_law_w_cooldown = succ_kingsmoot_elective
						}
						recalc_succession = yes
					}
				}	
			}
		}
		ai_will_do = {
			factor = 50
		}
	}
	# religion_feature_tengri = {
		# picture = GFX_religion_feature_tengri
		# potential = {
			# has_game_started = yes
			# religion = dothraki_pagan_reformed
			# NOT = {
				# has_alternate_start_parameter = { key = religion_names value = random }
			# }
		# }
		# trigger = {
			# religion = dothraki_pagan_reformed
			# NOR = { 
				# has_selected_religion_feature = religion_relentless
				# has_selected_religion_feature = religion_harems
			# }
		# }
		# effect = {
			# custom_tooltip = { text = tooltip_religion_feature_anti_attrition }
			# custom_tooltip = { text = tooltip_religion_feature_offensive }
			# custom_tooltip = { text = tooltip_religion_feature_harems }
			# hidden_tooltip = {
				# set_max_consorts = 0
				# set_max_wives = 4
				# set_ignores_defensive_attrition = yes
				# set_unit_modifier = { 
					# light_infantry_offensive = 0.1
					# heavy_infantry_offensive = 0.1
					# light_cavalry_offensive = 0.1 
					# knights_offensive = 0.1 
					# pikemen_offensive = 0.1 
					# archers_offensive = 0.1
					# horse_archers_offensive = 0.1
					# camel_cavalry_offensive = 0.1
					# war_elephants_offensive = 0.1
					# key = "TENGRI_RELENTLESS_RELIGION"
				# }
			# }
		# }
		# ai_will_do = {
			# factor = 50
		# }
	# }
	
	religion_feature_aztec = {
		picture = GFX_religion_feature_aztec
		potential = {
			has_game_started = yes
			religion = aztec_reformed
			NOR = {
				has_alternate_start_parameter = { key = religion_names value = random }
			}
		}
		trigger = {
			religion = aztec_reformed
			NOR = { 
				has_selected_religion_feature = religion_seafaring #Redundant
				has_selected_religion_feature = religion_ritual_sacrifice #Redundant
				has_selected_religion_feature = religion_relentless #Redundant
			}
		}
		effect = {
			custom_tooltip = { text = tooltip_religion_feature_aztec_sacrifices }
			custom_tooltip = { text = tooltip_religion_feature_bloodthirsty_mechanics }
			custom_tooltip = { text = tooltip_religion_feature_anti_attrition }
			custom_tooltip = { text = tooltip_religion_feature_offensive }
			custom_tooltip = { text = tooltip_religion_feature_rivermovement }
			#custom_tooltip = { text = tooltip_religion_feature_seafaring }
			custom_tooltip = { text = tooltip_religion_feature_ship_maintenance }
			hidden_tooltip = { 
				set_ignores_defensive_attrition = yes
				set_seafaring = yes
				set_allow_rivermovement = yes
				set_unit_modifier = { 
					light_infantry_offensive = 0.1
					heavy_infantry_offensive = 0.1
					light_cavalry_offensive = 0.1 
					knights_offensive = 0.1 
					pikemen_offensive = 0.1 
					archers_offensive = 0.1
					horse_archers_offensive = 0.1
					camel_cavalry_offensive = 0.1
					war_elephants_offensive = 0.1
					key = "AZTEC_RELENTLESS_RELIGION"
				}
			}
		}
		ai_will_do = {
			factor = 50
		}
	}
		
	# religion_feature_pyramids = {
		# picture = GFX_religion_feature_pyramids
		# potential = {
			# has_game_started = yes
			# NOT = { religion = aztec }
		# }
		# effect = {
			# custom_tooltip = { text = tooltip_religion_feature_pyramids }
		# }
	# }
	
}

religion_leadership = {
	buttons = { leadership }
	
	religion_temporal_head = {
		picture = GFX_religion_feature_temporal_head
		potential = {
			has_game_started = yes
		}
		trigger = {
			FROM = {
				character = yes
			}
		}
		effect = {
			custom_tooltip = { text = tooltip_religion_feature_temporal_head }
			hidden_tooltip = {
				set_can_excommunicate = no
				set_can_grant_divorce = no
				set_can_grant_claim = no
				make_reformer_head_of_religion = yes
			}
		}
		ai_will_do = {
			factor = 50
			# modifier = { 	
				# factor = 0.1
				# FROM = { 
					# NOR = { 
						# religion = drowned_god
						# religion = aztec
					# }
				# }
			# }
		}
	}
	religion_theocratic_head = {
		picture = GFX_religion_feature_theocratic_head
		potential = {
			has_game_started = yes
		}
		effect = {
			custom_tooltip = { text = tooltip_religion_feature_theocratic_head }
			hidden_tooltip = { 
				#set_can_excommunicate = yes
				set_can_grant_divorce = yes
				#set_can_grant_invasion_cb = yes
				#set_can_grant_claim = yes
			}
		}
		ai_will_do = {
			factor = 50
			# modifier = { 	
				# factor = 0.1
				# FROM = { 
					# character = yes 
					# NOR = { 
						# religion = dothraki_pagan
						# religion = zun_pagan
					# }
				# }
			# }
		}
	}
	religion_autocephaly = {
		picture = GFX_religion_feature_autocephaly
		potential = {
			has_game_started = yes
		}
		effect = {
			custom_tooltip = { text = tooltip_religion_feature_autocephaly }
			hidden_tooltip = { 
				set_autocephaly = yes
				#set_can_excommunicate = yes
				set_can_grant_divorce = yes
				#set_can_grant_invasion_cb = yes
				#set_can_grant_claim = yes
			}
		}
		ai_will_do = {
			factor = 50
			# modifier = { 	
				# factor = 0.1
				# FROM = { 
					# character = yes 
					# NOR = { 
						# religion = finnish_pagan
						# religion = slavic_pagan
						# religion = baltic_pagan
						# religion = hellenic_pagan
					# }
				# }
			# }
		}
	}

	religion_no_leader = {
		picture = GFX_religion_feature_no_leader
		potential = {
			has_game_started = yes
		}
		trigger = {
			NOT = {
				has_selected_religion_feature = religion_dogmatic
				has_selected_religion_feature = religion_beatification
			}
		}
		effect = {
			#custom_tooltip = { text = tooltip_religion_feature_branches }
			custom_tooltip = { text = tooltip_religion_feature_dynamic }
			custom_tooltip = { text = tooltip_religion_feature_no_leader }
			#custom_tooltip = { text = tooltip_religion_feature_no_crusade }
			hidden_tooltip = { 
				set_no_head_of_religion = yes
				set_religion_head = none
				set_can_call_crusade = no
				#set_religious_branch = pagan_reformation
			}
			if = {
				limit = { 
					FROM = { 
						character = yes 
					}
					has_selected_religion_feature = religion_monastic
				}
				set_character_modifier = {
					martial = 1
					learning = 1
					key = "MONASTIC_AUTONOMOUS_ATTR_RELIGION"
				}
			}
			else_if = { 
				limit = { 
					FROM = { 
						character = yes 
					} 
				}
				set_character_modifier = {
					martial = 1
					key = "AUTONOMOUS_ATTR_RELIGION"
				}
			}
		}
		ai_will_do = {
			factor = 50
			modifier = { 	
				factor = 0.1
				FROM = { 
					character = yes 
					# NOR = { 
						# religion = nath_pagan
						# religion = west_african_pagan
					# }
				}
			}
			modifier = { 	
				factor = 0.1
				FROM = { 
					character = yes 
					trait = zealous
				}
			}
			modifier = { 	
				factor = 0.1
				FROM = { 
					character = yes 
					trait = lunatic 
				}
			}
			modifier = { 	
				factor = 0.1
				FROM = { 
					character = yes 
					trait = possessed 
				}
			}
			modifier = { 	
				factor = 5
				FROM = { 
					character = yes 
					trait = cynical 
				}
			}
		}
	}
	# This purely exists not to mess with the head structures in Shattered World, as that causes very weird results
	religion_leader_unchanged = {
		picture = GFX_religion_feature_default
		potential = {
			has_game_started = no
		}
		effect = {
			custom_tooltip = { text = tooltip_religion_feature_default_head_dynamic }
			custom_tooltip = { text = tooltip_religion_feature_default_autocephaly_dynamic }
			custom_tooltip = { text = tooltip_religion_feature_default_excommunication_dynamic }
			custom_tooltip = { text = tooltip_religion_feature_default_divorce_dynamic }
			custom_tooltip = { text = tooltip_religion_feature_default_invasion_dynamic }
			custom_tooltip = { text = tooltip_religion_feature_default_claim_dynamic }
			hidden_tooltip = {
				if = {
					limit = { 
						OR = {
							religion = the_seven
							religion = rhllor
						}	
					}
					set_can_excommunicate = yes
				}
				if = {
					limit = { 
						religion = rhllor
					}
					set_autocephaly = yes
				}
				if = {
					limit = { 
						OR = {
							religion = the_seven
							religion = rhllor
						}	
					}
					set_can_grant_divorce = yes
				}
				# if = {
					# limit = { 
						# OR = { 
							# religion = catholic
							# religion = fraticelli
							# religion = orthodox
							# religion = miaphysite
							# religion = monophysite
							# religion = monothelite
							# religion = iconoclast
							# religion = paulician
							# religion = nestorian
							# religion_group = zoroastrian_group
							# religion_group = jewish_group
						# } 
					# }
					# set_can_grant_invasion_cb = yes
				# }
				# if = {
					# limit = { 
						# OR = { 
							# religion = catholic
							# religion = fraticelli
						# } 
					# }
					# set_can_grant_claim = yes
				# }
			}
		}
	}
}