########################################
###Written by Ogaburan aka Ran Miller###
########################################

###################################
#####Knight & Squire Events########
namespace = knight
###################################

#knight.1 - Offered to be Knighted.
#knight.2 - Ward, wants to become a squire.
#knight.3 - Guardian, Child wants to squire for you.
#knight.4 - Too old to be a squire.
#knight.5 - Battelfield Promotion (siege).
#knight.6 - Battelfield Promotion (battle).
#knight.7 - Child notification, refused to be a squire.
#knight.8 - Squire Training Events.
#knight.9 - Knight Son, bribe Septon. (Father Notification)
#knight.10 - Knight Son, bribe Septon. (Son Notification)
#knight.11 - Knight Son, as a Knight. (Father Notification)
#knight.12 - Knight Son, as a Knight. (Son Notification)
#knight.13 - Knight Daughter, as a Knight. (Father Notification)
#knight.14 - Knight Daughter, as a Knight. (Daughter Notification)
#knight.15 - Knight Yourself, bribe Septon. (Notification)
#knight.16 - Accepted Squiersihp (Ward Notification)
#knight.17 - Sering.

##To do - Add more triggers for the prowess chian.

##################################

#knight.1 - Offered to be Knighted.
character_event = {
	id = knight.1
	desc = "EVTDESCknight.1" #Offered to be a knight
	picture = "GFX_knight"
	
	is_triggered_only = yes
	
	min_age = 14
	capable_only = yes
	prisoner = no
	
	trigger = {
		NOT = { trait = knight }
		OR = {
			is_female = no
			has_ambition = obj_become_a_knight
		}
		OR = {
			trait = squire
			AND = {
				OR = {
					has_knighthood_religion_trigger = yes
					has_ambition = obj_become_a_knight
				}	
				OR = {
					combat_rating = 40
					higher_tier_than = BARON
				}	
			}	
		}
		is_ill = no		
		NOT = { has_severe_disability_trigger = yes }
		NOT = { trait = maester }
		NOT = { trait = archmaester }
		NOT = { has_priest_trait_trigger = yes }
	}
	
	weight_multiplier = {
		days = 1
		
		modifier = {
			factor = 0.33
			NOR = {
				has_knighthood_religion_trigger = yes
				trait = squire
			}	
		}
		modifier = {
			factor = 0.1
			is_female = yes
		}
		modifier = {
			factor = 0.1
			dynasty = 0
		}
		modifier = {
			factor = 2
			tier = COUNT
		}
		modifier = {
			factor = 3
			tier = DUKE
		}
		modifier = {
			factor = 5
			higher_tier_than = DUKE
		}
		modifier = {
			factor = 2
			trait = squire
		}
		modifier = {
			factor = 5
			trait = kingsguard
		}
		modifier = {
			factor = 2.5
			has_ambition = obj_become_a_knight
		}
		
		modifier = {
			factor = 0.05
			NOT = { combat_rating = 0 }
		}
		modifier = {
			factor = 0.5
			NOT = { combat_rating = 20 }
		}
		modifier = {
			factor = 2.5
			combat_rating = 40
		}
		modifier = {
			factor = 3.5
			combat_rating = 60
		}
		modifier = {
			factor = 5
			combat_rating = 65
		}
		modifier = {
			factor = 10
			combat_rating = 70
		}	
		modifier = {
			factor = 2.5
			trait = duelist
		}	
		
		modifier = {
			factor = 2
			trait = honorable
		}	
		modifier = {
			factor = 0.5
			trait = ruthless
		}		
		modifier = {
			factor = 2
			trait = honest
		}	
		modifier = {
			factor = 0.5
			trait = deceitful
		}
		modifier = {
			factor = 2
			trait = just
		}	
		modifier = {
			factor = 0.5
			trait = arbitrary
		}
		modifier = {
			factor = 2
			trait = zealous
		}	
		modifier = {
			factor = 0.5
			trait = cynical
		}
	}
	
	option = {
		name = "EVTOPTAknight.1" #Accept - Normal
		trigger = { 
			NAND = {
				trait = zealous 
				has_knighthood_religion_trigger = yes
			}	
		}
		ai_chance = { factor = 50 }
		prestige = 40
		if = {
			limit = { has_knighthood_religion_trigger = yes }
			piety = 40
		}
		knight_character_effect = yes
	}
	
	option = {
		name = "EVTOPTBknight.1" #Decline - Normal
		trigger = {
			NAND = {
				trait = zealous 
				has_knighthood_religion_trigger = yes
			}
		}
		ai_chance = {
			factor = 50
			
			modifier = {
				factor = 0
				has_ambition = obj_become_a_knight
			}
			modifier = {
				factor = 0
				has_knighthood_religion_trigger = yes
				NOT = { trait = cynical }
			}
			modifier = {
				factor = 0.5
				has_knighthood_religion_trigger = yes
			}
			modifier = {
				factor = 0.66
				OR = {
					culture_group = first_men
					culture_group = valyrian
				}
			}
			modifier = {
				factor = 0.33
				OR = {
					culture_group = andal
					culture_group = dornish
				}
			}
			modifier = {
				factor = 0.33
				trait = cynical
				NOT = { has_knighthood_religion_trigger = yes }
			}
			modifier = {
				factor = 3
				trait = zealous
				NOT = { has_knighthood_religion_trigger = yes }
			}
		}
		if = {
			limit = { trait = squire }
			remove_trait = squire
		}
		if = {
			limit = { has_knighthood_religion_trigger = yes }
			piety = -50
		}
		if = {
			limit = { NOT = { has_knighthood_religion_trigger = yes } }
			piety = 25
		}
	}
	
	option = {
		name = "EVTOPTCknight.1" #Accept - Zealous
		trigger = { 
			trait = zealous 
			has_knighthood_religion_trigger = yes
		}
		tooltip_info = zealous
		knight_character_effect = yes
		prestige = 75
		piety = 100	
	}
}

#knight.2 - Child wants to become a squire.
character_event = {
	id = knight.2
	desc = "EVTDESCknight.2" #Child has an opportunity to squire for his guardian.
	picture = "GFX_squire"
	
	min_age = 8
	max_age = 16
	only_men = yes
	#has_knighthood_religion_trigger = yes
	
	is_triggered_only=yes
	
	trigger = {	
		has_guardian = yes
		has_epidemic = no
		is_ill = no
		has_severe_disability_trigger = no
		NOT = { is_short_trigger = yes }
		NOT = { is_weak_trigger = yes }
		NOT = { is_lazy_trigger = yes }
		NOT = { trait = squire }
		NOT = { trait = knight }
		educator = { 
			trait = knight
			#is_female = no
		}	
		OR = {
			AND = {
				martial = 3 
				age = 6
			}
			AND = {
				martial = 6
				age = 11
			}
		}	
		NOT = { has_character_modifier = squiering_refused }
	}
	
	weight_multiplier = {
		days = 1
		
		###good modifiers###
		modifier = {
			factor = 10
			is_strong_trigger = yes
		}
		modifier = {
			factor = 10
			is_agile_trigger = yes
		}
		
		modifier = {
			factor = 5
			trait = brave
		}
		
		###bad modifiers###
		modifier = {
			factor = 0.33
			NOT = {
				has_knighthood_religion_trigger = yes
			}	
		}
		modifier = {
			factor = 0.25
			OR = {
				trait = clubfooted
				trait = hunchback
			}
		}
		
		modifier = {
			factor = 0.5
			OR = {
				trait = slothful
				trait = craven
			}
		}
		
	}
	
	option = {
		name = "I shall be a famous knight!"
		hidden_tooltip = {
			educator = {character_event = {id = knight.3}}
		}
	}
	
}

#knight.3 - Guardian, Child wants to squire for you.
character_event = {
	id = knight.3
	desc = "EVTDESCknight.3" #Child wants to squire for you.
	picture = "GFX_squire"
	
	is_triggered_only = yes
	
	option = {
		name = "EVTOPTAknight.3" #Accept
		
		ai_chance = {factor = 1.2}
		
		if = {
			limit = {trait = diligent}
			FROM = {hidden_tooltip = {character_event = { id = knight.8 days = 365}} }
		}
		
		if = {
			limit = {trait = duelist}
			FROM = {hidden_tooltip = {character_event = { id = knight.8 days = 365}} }
		}
		
		if = {
			limit = {trait = proud}
			prestige = 10
		}
		
		FROM = {
			add_trait = squire
			hidden_tooltip = {character_event = { id = knight.16 } }
			opinion = {
				modifier = opinion_happy_with_guardian
				who = ROOT
				years = 2
			}
		}
	}
	
	option = {
		name = "EVTOPTBknight.3" #Decline.
		ai_chance = {factor = 0.1}
		prestige = -10
		
		random_list = {
			20 = {}
			40 = {
				FROM =  {
					if = {
						limit = {
							NOT = { trait="shy" }
							NOT = { trait="gregarious" }
						}
						add_trait="shy"
						hidden_tooltip = {
							ROOT = { 
								character_event = {
									id = 38163
								}
							} 
							character_event = {
								id = 38263
							}
						}
					}	
				}
			}
			40 = {
				FROM =  {
					if = {
						limit = {
							NOT = { trait="wroth" }
							NOT = { trait="patient" }
						}
						add_trait="wroth"
						hidden_tooltip = {
							ROOT = { 
								character_event = {
									id = 38154
								}
							} 
							character_event = {
								id = 38254
							}
						}
					}	
				}
			}
			40 = {
				FROM =  {
					if = {
						limit = {
							NOT = { trait="humble" }
							NOT = { trait="proud" }
						}
						add_trait="humble"
						hidden_tooltip = {
							ROOT = { 
								character_event = {
									id = 38160
								}
							} 
							character_event = {
								id = 38260
							}
						}
					}	
				}
			}
		}
		
		FROM = {
			add_character_modifier = {
				name = squiering_refused
				duration = -1
			}
			
			hidden_tooltip = {
				character_event = { id = knight.7 }
			}
		}
		
	}
	
}

#knight.4 - Too old to be a squire.
character_event = {
	id = knight.4
	desc = "EVTDESCknight.4" #Getting too old to be a squire
	picture = "GFX_old_squire"
	
	min_age = 35
	capable_only = yes
	is_triggered_only = yes
	
	trigger = { trait = squire }
	
	weight_multiplier = {
		days = 1
		
		modifier = {
			factor = 10
			has_severe_disability_trigger = yes
		}		
		
		modifier = {
			factor = 5
			OR = {
				trait = slothful
				trait = depressed
				trait = wounded
			}
		}

		modifier = {
			factor = 3
			OR = {
				trait = craven
				trait = drunkard
			}
		}
		
		modifier = {
			factor = 1.5
			OR = {
				trait = clubfooted
				trait = hunchback
			}
		}
		
		modifier = {
			factor = 1.2
			OR = {
				trait = scholar
				trait = gardener
				trait = poet
			}
		}
		
	}
	
	option = {
		name = "EVTOPTAknight.4" #Bloody assholes wont knight me.
		trigger = { 
			has_knighthood_religion_trigger = yes
			NOT = { trait = cynical }
			NOT = { trait = content }
		}
		remove_trait = squire
		prestige = -20
		if = {
			limit = { 
				NOT = { trait = kind } 
				NOT = { trait = envious } 
				NOT = { personality_traits = 6 }
			}	
			add_trait = envious
		}
		random = {
			chance = 33
			add_trait = depressed 
			hidden_tooltip = { character_event = { id = 38288 } }
		}		
	}
	
	option = {
		name = "I care not" 
		trigger = { 
			OR = {
				NOT = { has_knighthood_religion_trigger = yes } 
				trait = cynical
				trait = content
			}	
		}
		remove_trait = squire
		prestige = -20
	}	
}

#knight.5 - Battelfield Promotion (siege).
character_event = {
	id = knight.5
	desc = "EVTDESCknight.5" #Battlefield Promotion (siege)
	picture = "GFX_battle_promotion"
	
	is_triggered_only = yes
	capable_only = yes
	
	trigger = {
		martial = 6
		OR = {
			is_female = no
			has_ambition = obj_become_a_knight
		}
		in_siege = yes
		has_epidemic = no
		is_ill = no
		has_severe_disability_trigger = no
		OR = {
			has_knighthood_religion_trigger = yes
			trait = squire
			has_ambition = obj_become_a_knight
			any_liege = { 			
				at_location = ROOT
				trait = knight
				prisoner = no
				NOT = { trait = incapable }
				opinion = { who = ROOT value = 0 }
			}	
		}	
		NOT = { is_short_trigger = yes }
		NOT = { is_weak_trigger = yes }
		NOT = { is_lazy_trigger = yes }
		NOT = { trait = knight }
		NOT = { trait = maester }
		NOT = { trait = archmaester }
		NOT = { has_priest_trait_trigger = yes }
	}

	weight_multiplier = {
		days = 1
		
		modifier = {
			factor = 0.1
			is_female = yes
		}
		###good modifiers###
		modifier = {
			factor = 2.5
			has_ambition = obj_become_a_knight
		}
		modifier = {
			factor = 10
			is_agile_trigger = yes
		}
		modifier = {
			factor = 10
			is_strong_trigger = yes
		}
		
		modifier = {
			factor = 2.5
			OR = {
				trait = poor_warrior
				trait = trained_warrior
				trait = skilled_warrior
				trait = master_warrior
				trait = impaler
				trait = duelist
			}
		}
		
		modifier = {
			factor = 2
			trait = brave
		}		
		
		modifier = {
			factor = 1.5
			OR = {
				trait = misguided_warrior
				trait = tough_soldier
				trait = skilled_tactician
				trait = brilliant_strategist
			}
		}
		
		modifier = {
			factor = 1.2
			OR = {
				is_smart_incl_genius_trigger = yes
				trait = diligent
			}
		}
		
		###bad modifiers###
		modifier = {
			factor = 0.25
			NOT = { has_knighthood_religion_trigger = yes }
		}
		
		modifier = {
			factor = 0.25
			OR = {
				trait = clubfooted
				trait = hunchback
			}
		}
		
		modifier = {
			factor = 0.5
			OR = {
				trait = slothful
				trait = craven
			}
		}
		
		modifier = {
			factor = 0.4
			OR = {
				trait = detached_priest
				trait = martial_cleric
				trait = scholarly_theologian
				trait = mastermind_theologian
				trait = scholar
				trait = gardener
				trait = poet
			}
		}
	}

	immediate = {
		siege = {
			morale = 0.5
			troops = -0.025
		}
	}

	option = {
		name = "EVTOPTAknight.1" #Accept - Normal
		ai_chance = {
			factor = 1.2
			modifier = {
				factor = 3
				has_knighthood_religion_trigger = yes
				trait = zealous
			}
		}
		prestige = 40
		if = {
			limit = { has_knighthood_religion_trigger = yes }
			piety = 40
		}	
		knight_character_effect = yes
		any_liege = { 
			limit = {	
				at_location = ROOT
				trait = knight
				prisoner = no
				NOT = { trait = incapable }
				opinion = { who = ROOT value = 0 }
			}	
			tooltip = { show_portrait = yes }
		}	
	}
	
	option = {
		name = "EVTOPTBknight.1" #Decline - Normal
		ai_chance = {
			factor = 0.25
			modifier = {
				factor = 8
				NOT = { has_knighthood_religion_trigger = yes }
			}
			modifier = {
				factor = 3
				has_knighthood_religion_trigger = yes
				trait = cynical
			}
		}
		prestige = 50
		if = {
			limit = { trait = squire }
			remove_trait = squire	
		}
	}	
}

#knight.5 - Battelfield Promotion (battle).
character_event = {
	id = knight.6
	desc = "EVTDESCknight.6" #Battlefield Promotion
	picture = "GFX_battle_promotion"
	
	is_triggered_only = yes
	capable_only = yes
	
	option = {
		name = "EVTOPTAknight.1" #Accept - Normal
		ai_chance = {
			factor = 1.2
			modifier = {
				factor = 3
				has_knighthood_religion_trigger = yes
				trait = zealous
			}
		}
		prestige = 40
		if = {
			limit = { has_knighthood_religion_trigger = yes }
			piety = 40
		}	
		knight_character_effect = yes
		any_liege = { 
			limit = {	
				at_location = ROOT
				in_command = yes
				trait = knight
				prisoner = no
				NOT = { trait = incapable }
				opinion = { who = ROOT value = 0 }
			}	
			tooltip = { show_portrait = yes }
		}
	}
	
	option = {
		name = "EVTOPTBknight.1" #Decline - Normal
		ai_chance = {
			factor = 0.25
			modifier = {
				factor = 8
				NOT = { has_knighthood_religion_trigger = yes }
			}
			modifier = {
				factor = 3
				has_knighthood_religion_trigger = yes
				trait = cynical
			}
		}
		prestige = 50
	}
	
}

#knight.7 - Child notification, refused to be a squire.
character_event = {
	id = knight.7
	desc = "EVTDESCknight.7" 	#THE SHAME!!!!
	picture = "GFX_sad_aria" 	#Should change, but too lazy atm.
	
	is_triggered_only = yes
	
	option = {
		name = "EVTOPTA2200002" #Disapointment - should be generic unless some assholes messed with my localisations files.
	}
}

#knight.8 - Squire Training Events.
character_event = {
	id = knight.8
	desc = "EVTDESCknight.8" #Getting Drilled.
	picture = "GFX_knights"
	
	is_triggered_only = yes
	
	trigger = {
		NOT = { trait = master_warrior }
		NOT = { trait = skilled_warrior }
	}
	
	option = {
		name = "Argh..."
		if = {
			limit = { trait = trained_warrior }
			random = {
				chance = 10
				hidden_tooltip = { character_event = { id = trait_notification.21 } }
				tooltip = { add_trait = skilled_warrior }
			}
		}
		if = {
			limit = { trait = poor_warrior }
			random = {
				chance = 25
				hidden_tooltip = { character_event = { id = trait_notification.21 } }
				tooltip = { add_trait = trained_warrior }
			}
		}
		if = {
			limit = {
				NOT = { trait = poor_warrior }
				NOT = { trait = trained_warrior }
			}
			random = {
				chance = 50
				hidden_tooltip = { character_event = { id = trait_notification.21 } }
				tooltip = { add_trait = poor_warrior }
			}
		}
	}
}

#knight.9 - Knight Son, bribe Sept. (Father - Notification)
character_event = {
	id = knight.9
	desc = "EVTDESCknight.9"
	picture = "GFX_knighted"
	
	is_triggered_only = yes
	
	option = { name = "Ok" }
}

#knight.10 - Knight Son, bribe Septon. (Son Notification)
character_event = {
	id = knight.10
	desc = "EVTDESCknight.10"
	picture = "GFX_knighted"
	
	is_triggered_only = yes
	
	option = { name = "Ok" }
}

#knight.11 - Knight Son, as a Knight. (Father Notification)
narrative_event = {
	id = knight.11
	title = "EVTTITLEknight.12"
	picture = "GFX_knighted"
	
	desc = {
		text = EVTDESCknight.11
		trigger = { 
			FROM = { 
				is_female = no 
				NOT = { dynasty = 0 }
			} 
		}
	}
	
	desc = {
		text = EVTDESCknight.11B
		trigger = { 
			FROM = { 
				is_female = yes
				NOT = { dynasty = 0 }
			} 
		}
	}
	
	desc = {
		text = EVTDESCknight.11C
		trigger = { 
			FROM = { 
				is_female = no 
				dynasty = 0
			} 
		}
	}
	
	desc = {
		text = EVTDESCknight.11D
		trigger = { 
			FROM = { 
				is_female = yes 
				dynasty = 0
			} 
		}
	}
	
	is_triggered_only = yes
	ai = no
	
	option = { 
		name = {
			text = EVTOPTAknight.11
			trigger = { FROM = { is_female = no } }
		}
		name = {
			text = EVTOPTAknight.11B
			trigger = { FROM = { is_female = yes } }
		}
	}
}

#knight.12 - Knight Son, as a Knight. (Son Notification)
narrative_event = {
	id = knight.12
	title = "EVTTITLEknight.12"
	desc = "EVTDESCknight.12"
	picture = "GFX_knighted"
	
	is_triggered_only = yes
	show_from_from = yes
	
	option = { 
		name = "EVTOPTAknight.12" 
		if = {
			limit = { NOT = { has_character_flag = no_prestige } }
			if = {
				limit = { is_female = yes }		
				if = {
					limit = { NOT = { culture_group = dornish } }
					prestige = -100
				}
				if = {
					limit = { culture_group = dornish } 
					prestige = -50
				}				
			}		
			if = {
				limit = { 		
					NOT = { trait = squire }
					trait = poor_warrior 
				}
				prestige = -100
			}
			if = {
				limit = { 		
					NOT = { trait = squire }
					NOT = {
						OR = {
							trait = master_warrior 
							trait = skilled_warrior 
							trait = trained_warrior 
							trait = poor_warrior 
						}	
					}
				}
				prestige = -150
			}
			if = {
				limit = { trait = squire }
				prestige = 40
			}
			knight_character_effect = yes
		}
		clr_character_flag = no_prestige		
	}
}

# #knight.13 - Knight Daughter, as a Knight. (Father Notification)
# character_event = {
	# id = knight.13
	# desc = "EVTDESCknight.13"
	# picture = "GFX_knighted"
	
	# is_triggered_only = yes
	
	# option = { name = "Ok" }
# }

# #knight.14 - Knight Daughter, as a Knight. (Daughter Notification)
# character_event = {
	# id = knight.14
	# desc = "EVTDESCknight.12"
	# picture = "GFX_knighted"
	
	# is_triggered_only = yes
	# show_from_from = yes
	
	# option = { 
		# name = "Ok" 
		# knight_character_effect = yes
	# }
# }

#knight.15 - Knight Yourself, bribe Septon. (Notification)
character_event = {
	id = knight.15
	desc = "EVTDESCknight.15"
	picture = "GFX_knighted"
	
	is_triggered_only = yes
	
	option = { name = "Ok" }
}

#knight.16 - Accepted Knighthood (Ward Notification)
character_event = {
	id = knight.16
	desc = "EVTDESCknight.16"
	picture = "GFX_squire"
	
	is_triggered_only = yes
	
	option = { name = "Ok" }
}

#knight.17 - Sering. remove title when character becomes landed
character_event = {
	id = knight.17
	desc = "EVTDESCknight.17"
	picture = "GFX_knight"
	
	is_triggered_only = yes
	hide_window = yes
	#only_men = yes
	
	trigger = { 
		trait = knight
	}
	
	option = {
		name = "Ok"
		remove_special_character_title = title_ser
		remove_special_character_title = title_lady
	}
	
}
#Sering. add title when character becomes unlanded
character_event = {
	id = knight.179

	is_triggered_only = yes
	hide_window = yes
	
	trigger = { 
		trait = knight
	}
	
	option = {
		name = "Ok"
		if = {
			limit = { is_female = no }
			set_special_character_title = title_ser
		}
		if = {
			limit = { is_female = yes }
			set_special_character_title = title_lady
		}
	}
	
}
#knight.18 - Guardian chooses whether to knight squire
character_event = {
	id = knight.18
	
	is_triggered_only = yes
	hide_window = yes
	
	min_age = 15
	max_age = 17
	
	trigger = { 
		trait = squire	
	}
	
	immediate = {
		educator = {
			character_event = { id = knight.19 days = 500 random = 200 }
		}
	}
	
	option = {
		name = "Ok"	
	}
}
character_event = {
	id = knight.19
	desc = "EVTDESCknight.19"
	picture = "GFX_knight"
	
	is_triggered_only = yes
	
	trigger = { 
		trait = knight
		prisoner = no
		NOT = { trait = incapable }
		FROM = {
			is_alive = yes
			NOT = { is_child_of = ROOT }
			trait = squire
			NOT = { trait = knight }
			prisoner = no
			NOT = { has_severe_disability_trigger = yes }
			NOT = { trait = maester }
		}
	}
	
	option = {
		name = "OPTAknight.19"	
		ai_chance = {
			factor = 80
			modifier = {
				factor = 1.2
				opinion = { who = FROM value = 15 }
			}
			modifier = {
				factor = 1.2
				opinion = { who = FROM value = 5 }
			}
			modifier = {
				factor = 2
				trait = zealous
			}
			modifier = {
				factor = 2.5
				FROM = { is_ruler = yes }
			}
			modifier = {
				factor = 5
				FROM = { trait = master_warrior }
			}
			modifier = {
				factor = 2.5
				FROM = { trait = skilled_warrior }
			}
			modifier = {
				factor = 5
				trait = honorable
				FROM = { trait = honorable }
			}
			modifier = {
				factor = 2.5
				trait = honorable
				FROM = { trait = kind }
			}
			modifier = {
				factor = 2.5
				trait = honorable
				FROM = { trait = brave }
			}
		}
		FROM = {
			tooltip = { knight_character_effect = yes }
			hidden_tooltip = {
				character_event = { id = knight.20 }			
			}
			if = {
				limit = { tier = EMPEROR }
				ROOT = { prestige = 100 }
			}
			if = {
				limit = { 
					NOT = { tier = EMPEROR }
					OR = {
						tier = KING
						trait = master_warrior
						any_dynasty_member = { is_close_relative = PREV tier = EMPEROR }
					}	
				}
				ROOT = { prestige = 75 }
			}
			if = {
				limit = { 
					NOT = { 
						OR = {
							higher_tier_than = DUKE
							trait = master_warrior
							any_dynasty_member = { is_close_relative = PREV tier = EMPEROR }
						}	
					}
					OR = {
						tier = DUKE
						trait = skilled_warrior
						any_dynasty_member = { is_close_relative = PREV higher_tier_than = DUKE }
					}					
				}
				ROOT = { prestige = 40 }
			}
			if = {
				limit = { 
					NOT = { 
						OR = {
							higher_tier_than = COUNT
							trait = master_warrior
							trait = skilled_warrior
							any_dynasty_member = { is_close_relative = PREV higher_tier_than = DUKE }
						}	
					}
					OR = {
						tier = COUNT
						trait = trained_warrior
						any_dynasty_member = { is_close_relative = PREV higher_tier_than = COUNT }
					}					
				}
				ROOT = { prestige = 20 }
			}
			if = {
				limit = { 
					NOT = { 
						OR = {
							is_ruler = yes
							trait = master_warrior
							trait = skilled_warrior
							trait = trained_warrior
							trait = poor_warrior
							any_dynasty_member = { is_close_relative = PREV higher_tier_than = BARON }
						}	
					}				
				}
				ROOT = { prestige = -40 }
			}
			opinion = {
				who = ROOT
				modifier = opinion_happy_with_guardian
				years = 2
			}
		}
	}
	option = {
		name = "OPTBknight.19"
		ai_chance = {
			factor = 20
			modifier = {
				factor = 0
				opinion = { who = FROM value = 25 }
			}
			modifier = {
				factor = 1.3
				NOT = { opinion = { who = FROM value = -20 } }
			}
			modifier = {
				factor = 1.3
				NOT = { opinion = { who = FROM value = -40 } }
			}
			modifier = {
				factor = 1.3
				NOT = { opinion = { who = FROM value = -60 } }
			}
			modifier = {
				factor = 1.3
				NOT = { opinion = { who = FROM value = -80 } }
			}
			modifier = {
				factor = 1.5
				NOT = { opinion = { who = FROM value = -99 } }
			}
			modifier = {
				factor = 2
				trait = cynical
			}
			modifier = {
				factor = 3
				FROM = { 
					NOT = { 
						OR = {
							is_ruler = yes
							trait = master_warrior
							trait = skilled_warrior
							trait = trained_warrior
							trait = poor_warrior
							any_dynasty_member = { is_close_relative = PREV higher_tier_than = BARON }
						}	
					}	
				}
			}
			modifier = {
				factor = 5
				trait = honorable
				FROM = { trait = ruthless }
			}
			modifier = {
				factor = 2.5
				trait = honorable
				FROM = { trait = cruel }
			}
			modifier = {
				factor = 2.5
				trait = honorable
				FROM = { trait = craven }
			}
			modifier = {
				factor = 2.5
				trait = honorable
				FROM = { is_weak_trigger = yes }
			}
			modifier = {
				factor = 2.5
				trait = honorable
				FROM = { is_lazy_trigger = yes }
			}
		}
		reverse_opinion = {
			modifier = opinion_mad_at_guardian
			who = FROM
			years = 5
		}	
	}	
}
#Inform Knighted by Guardian
character_event = {
	id = knight.20
	desc = "EVTDESCknight.20"
	picture = "GFX_knight"
	
	is_triggered_only = yes
	
	option = {
		name = "OPTAknight.20"	
		ai_chance = { factor = 50 }
		knight_character_effect = yes
		hidden_tooltip = { 
			set_character_flag = no_prestige
			narrative_event = { id = knight.12 } 
			FROM = { narrative_event = { id = knight.11 } } 
		}
		FROM = {
			if = {
				limit = { tier = EMPEROR }
				ROOT = { prestige = 100 }
			}
			if = {
				limit = { 
					NOT = { tier = EMPEROR }
					OR = {
						tier = KING
						trait = master_warrior
						trait = kingsguard
						any_dynasty_member = { is_close_relative = PREV tier = EMPEROR }
					}	
				}
				ROOT = { prestige = 75 }
			}
			if = {
				limit = { 
					NOT = { 
						OR = {
							higher_tier_than = DUKE
							trait = master_warrior
							trait = kingsguard
							any_dynasty_member = { is_close_relative = PREV tier = EMPEROR }
						}	
					}
					OR = {
						tier = DUKE
						trait = skilled_warrior
						any_dynasty_member = { is_close_relative = PREV higher_tier_than = DUKE }
					}					
				}
				ROOT = { prestige = 40 }
			}
			if = {
				limit = { 
					NOT = { 
						OR = {
							higher_tier_than = COUNT
							trait = master_warrior
							trait = skilled_warrior
							trait = kingsguard
							any_dynasty_member = { is_close_relative = PREV higher_tier_than = DUKE }
						}	
					}
					OR = {
						tier = COUNT
						trait = trained_warrior
						any_dynasty_member = { is_close_relative = PREV higher_tier_than = COUNT }
					}					
				}
				ROOT = { prestige = 20 }
			}
			if = {
				limit = { 
					NOT = { 
						OR = {
							is_ruler = yes
							trait = master_warrior
							trait = skilled_warrior
							trait = trained_warrior
							trait = poor_warrior
							trait = kingsguard
							any_dynasty_member = { is_close_relative = PREV higher_tier_than = BARON }
						}	
					}				
				}
				ROOT = { prestige = -40 }
			}
		}
	}
	option = {
		name = "OPTBknight.20"	
		trigger = { NOT = { has_knighthood_religion_trigger = yes } }
		ai_chance = {
			factor = 50
			
			modifier = {
				factor = 0
				has_ambition = obj_become_a_knight
			}
			modifier = {
				factor = 0.66
				OR = {
					culture_group = first_men
					culture_group = valyrian
				}
			}
			modifier = {
				factor = 0.33
				OR = {
					culture_group = andal
					culture_group = dornish
				}
			}
			modifier = {
				factor = 0.33
				trait = cynical
			}
			modifier = {
				factor = 3
				trait = zealous
			}
			modifier = {
				factor = 0.66
				FROM = { tier = EMPEROR }
			}
			modifier = {
				factor = 0.66
				FROM = { 
					OR = {
						tier = KING
						trait = master_warrior
						trait = kingsguard
						any_dynasty_member = { is_close_relative = PREV tier = EMPEROR }
					}
				}
			}
			modifier = {
				factor = 0.75
				FROM = { 
					OR = {
						tier = DUKE
						trait = skilled_warrior
						any_dynasty_member = { is_close_relative = PREV higher_tier_than = DUKE }
					}
				}
			}
			modifier = {
				factor = 2
				NOT = { opinion = { who = FROM value = -50 } }
			}
			modifier = {
				factor = 2
				NOT = { opinion = { who = FROM value = -25 } }
			}
			modifier = {
				factor = 0.5
				opinion = { who = FROM value = 25 }
			}
			modifier = {
				factor = 0.5
				opinion = { who = FROM value = 50 }
			}
		}
		remove_trait = squire
		hidden_tooltip = { remove_trait = knight }
		FROM = {
			opinion = {
				who = ROOT
				modifier = opinion_insulted
				months = 60
			}
			hidden_tooltip = { character_event = { id = knight.21 } }
		}
	}	
}	
character_event = { #inform knighthood rejected
	id = knight.21
	desc = "EVTDESCknight.21"
	picture = GFX_evt_courtiers_talking
	
	is_triggered_only = yes
	
	option = {
		name = "OPTAknight.21"	
		FROM = {
			if = {
				limit = { tier = EMPEROR }
				ROOT = { prestige = -100 }
			}
			if = {
				limit = { 
					NOT = { tier = EMPEROR }
					OR = {
						tier = KING
						trait = master_warrior
						any_dynasty_member = { is_close_relative = PREV tier = EMPEROR }
					}	
				}
				ROOT = { prestige = -75 }
			}
			if = {
				limit = { 
					NOT = { 
						OR = {
							higher_tier_than = DUKE
							trait = master_warrior
							any_dynasty_member = { is_close_relative = PREV tier = EMPEROR }
						}	
					}
					OR = {
						tier = DUKE
						trait = skilled_warrior
						any_dynasty_member = { is_close_relative = PREV higher_tier_than = DUKE }
					}					
				}
				ROOT = { prestige = -40 }
			}
			if = {
				limit = { 
					NOT = { 
						OR = {
							higher_tier_than = COUNT
							trait = master_warrior
							trait = skilled_warrior
							any_dynasty_member = { is_close_relative = PREV higher_tier_than = DUKE }
						}	
					}
					OR = {
						tier = COUNT
						trait = trained_warrior
						any_dynasty_member = { is_close_relative = PREV higher_tier_than = COUNT }
					}					
				}
				ROOT = { prestige = -20 }
			}
		}
	}
}	
###Order of the Greenhand###
##Induct character into the order?##
character_event = {
	id = knight.30
	desc = "EVTDESCknight.30" 
	picture = "GFX_knight"
	
	is_triggered_only = yes
	
	trigger = { 
		FROM = { NOT = { has_character_flag = title_knight_of_the_greenhand } } 
		OR = {
			AND = {
				capital_scope = { region = world_reach }
				culture_group = andal
			}
			dynasty = 1254 #Gardener
			has_landed_title = e_reach
		}
	}
	
	immediate = { FROM = { remove_title = title_knight_of_the_greenhand } }
	
	option = {
		name = "EVTOPTAknight.30" #Yes, from is worthy
		trigger = {
			FROM = {
				OR = {
					trait = trained_warrior
					trait = skilled_warrior
					trait = master_warrior
				}
				OR = {
					trait = honorable
					trait = chaste
					trait = honest
					trait = zealous
					trait = brave
					piety = 250
				}
				NOT = { trait = craven }
				NOT = { trait = cruel }
				NOT = { trait = arbitrary }
				NOT = { trait = cynical }
				NOT = { trait = excommunicated }
			}
		}
		ai_chance = {
			factor = 70
			modifier = {
				factor = 0
				NOT = { wealth = 150 }
				FROM = { ai = yes }
			}
			modifier = {
				factor = 2
				trait = charitable
			}
			modifier = {
				factor = 2
				trait = kind
			}
			modifier = {
				factor = 2
				trait = humble
			}
			modifier = {
				factor = 1.5
				opinion = { who = FROM value = 25 }
			}
			modifier = {
				factor = 1.5
				opinion = { who = FROM value = 50 }
			}
			modifier = {
				factor = 1.5
				opinion = { who = FROM value = 75 }
			}
			modifier = {
				factor = 1.5
				opinion = { who = FROM value = 100 }
			}
			modifier = {
				factor = 3
				FROM = { is_close_relative = ROOT }
			}
			modifier = {
				factor = 3
				FROM = { dynasty = ROOT }
			}
		}
		wealth = -40
		clr_character_flag = knight_greenhand_grant_cooldown
		FROM = {
			set_character_flag = title_knight_of_the_greenhand
			give_minor_title = title_knight_of_the_greenhand
			tooltip = { prestige = 50 }
			opinion = {
				who = ROOT
				modifier = opinion_knight_of_the_greenhand
			}
			hidden_tooltip = { letter_event = { id = knight.31 } }
		}
	}
	
	option = {
		name = "EVTOPTCknight.30" #Yes, from is NOT worthy
		trigger = {
			NOT = {
				FROM = {
					OR = {
						trait = trained_warrior
						trait = skilled_warrior
						trait = master_warrior
					}
					OR = {
						trait = honorable
						trait = chaste
						trait = honest
						trait = zealous
						trait = brave
						piety = 250
					}
					NOT = { trait = craven }
					NOT = { trait = cruel }
					NOT = { trait = arbitrary }
					NOT = { trait = cynical }
					NOT = { trait = excommunicated }
				}
			}	
		}
		ai_chance = {
			factor = 30
			modifier = {
				factor = 0
				NOT = { wealth = 150 }
				FROM = { ai = yes }
			}
			modifier = {
				factor = 2
				trait = arbitrary
			}
			modifier = {
				factor = 2
				trait = ruthless
			}
			modifier = {
				factor = 2
				trait = cynical
			}
			modifier = {
				factor = 1.5
				opinion = { who = FROM value = 25 }
			}
			modifier = {
				factor = 1.5
				opinion = { who = FROM value = 50 }
			}
			modifier = {
				factor = 1.5
				opinion = { who = FROM value = 75 }
			}
			modifier = {
				factor = 1.5
				opinion = { who = FROM value = 100 }
			}
			modifier = {
				factor = 3
				FROM = { is_close_relative = ROOT }
			}
			modifier = {
				factor = 3
				FROM = { dynasty = ROOT }
			}
		}
		wealth = -40
		prestige = -75
		clr_character_flag = knight_greenhand_grant_cooldown
		FROM = {
			set_character_flag = title_knight_of_the_greenhand
			give_minor_title = title_knight_of_the_greenhand
			tooltip = { prestige = 50 }
			opinion = {
				who = ROOT
				modifier = opinion_knight_of_the_greenhand
			}
			hidden_tooltip = { letter_event = { id = knight.31 } }
		}
	}
	
	option = {
		name = "EVTOPTBknight.30" #No
		ai_chance = {
			factor = 30
			
			modifier = {
				factor = 0
				FROM = { ai = no }
			}
			modifier = {
				factor = 2
				trait = greedy
			}
			modifier = {
				factor = 2
				trait = cruel
			}
			modifier = {
				factor = 2
				trait = proud
			}
			modifier = {
				factor = 2
				NOT = { opinion = { who = FROM value = -24 } }
			}
			modifier = {
				factor = 2
				NOT = { opinion = { who = FROM value = -49 } }
			}
			modifier = {
				factor = 2
				NOT = { opinion = { who = FROM value = -74 } }
			}
			modifier = {
				factor = 2
				NOT = { opinion = { who = FROM value = -99 } }
			}
		}
		FROM = { hidden_tooltip = { remove_title = title_knight_of_the_greenhand } }
		if = {
			limit = { ai = yes }
			set_character_flag = knight_greenhand_grant_cooldown
		}
	}
}

#Inform inducted into order of greenhand
letter_event = {
	id = knight.31
	desc = "EVTDESCknight.31"
	
	is_triggered_only = yes
	
	immediate = {
		hidden_tooltip = {
			any_playable_ruler = {
				limit = { 
					ai = no 
					NOT = { character = ROOT }
					NOT = { character = FROM }
					is_close_relative = ROOT
				}
				character_event = { id = knight.36 }
			}
		}	
	}
	
	option = {
		name = "OPTAknight.31"	
		set_character_flag = title_knight_of_the_greenhand
		give_minor_title = title_knight_of_the_greenhand
		prestige = 50
	}
}	

##Induct tourney winner into the order?##
character_event = {
	id = knight.32
	desc = "EVTDESCknight.32" 
	picture = "GFX_knight"
	
	is_triggered_only = yes
	show_from_from = yes
	
	trigger = { 
		FROMFROM = { 
			NOT = { has_character_flag = title_knight_of_the_greenhand } 
			trait = knight
			NOT = { trait = slave }
		} 
	}
	
	option = {
		name = "EVTOPTAknight.32" #Yes,
		ai_chance = {
			factor = 100
			
			modifier = {
				factor = 0.1
				NOT = {
					FROMFROM = {
						OR = {
							trait = honorable
							trait = chaste
							trait = honest
							trait = zealous
							trait = brave
							piety = 250
						}
						NOT = { trait = craven }
						NOT = { trait = cruel }
						NOT = { trait = arbitrary }
						NOT = { trait = cynical }
						NOT = { trait = excommunicated }
					}
				}	
			}
			modifier = {
				factor = 2
				FROM = { higher_tier_than = DUKE }	
			}
			modifier = {
				factor = 2
				trait = charitable
			}
			modifier = {
				factor = 2
				trait = kind
			}
			modifier = {
				factor = 2
				trait = humble
			}
			modifier = {
				factor = 1.5
				opinion = { who = FROMFROM value = 25 }
			}
			modifier = {
				factor = 1.5
				opinion = { who = FROMFROM value = 50 }
			}
			modifier = {
				factor = 1.5
				opinion = { who = FROMFROM value = 75 }
			}
			modifier = {
				factor = 1.5
				opinion = { who = FROMFROM value = 100 }
			}
			modifier = {
				factor = 2
				FROMFROM = { 
					is_ruler = yes 
					liege = { character = ROOT }
				}
			}
			modifier = {
				factor = 3
				FROMFROM = { is_close_relative = ROOT }
			}
			modifier = {
				factor = 3
				FROMFROM = { dynasty = ROOT }
			}
		}
		if = {
			limit = { #If isnt worthy lose prestige
				NOT = {
					FROMFROM = {
						OR = {
							trait = honorable
							trait = chaste
							trait = honest
							trait = zealous
							trait = brave
							piety = 250
						}
						NOT = { trait = craven }
						NOT = { trait = cruel }
						NOT = { trait = arbitrary }
						NOT = { trait = cynical }
						NOT = { trait = excommunicated }
					}
				}	
			}
			prestige = -50
		}
		FROMFROM = {
			set_character_flag = title_knight_of_the_greenhand
			give_minor_title = title_knight_of_the_greenhand
			tooltip = { prestige = 50 }
			hidden_tooltip = { letter_event = { id = knight.33 } }
		}
	}
	
	option = {
		name = "EVTOPTBknight.32" #No
		ai_chance = {
			factor = 30
			
			modifier = {
				factor = 2
				trait = greedy
			}
			modifier = {
				factor = 2
				trait = cruel
			}
			modifier = {
				factor = 2
				trait = proud
			}
			modifier = {
				factor = 2
				NOT = { opinion = { who = FROMFROM value = -24 } }
			}
			modifier = {
				factor = 2
				NOT = { opinion = { who = FROMFROM value = -49 } }
			}
			modifier = {
				factor = 2
				NOT = { opinion = { who = FROMFROM value = -74 } }
			}
			modifier = {
				factor = 2
				NOT = { opinion = { who = FROMFROM value = -99 } }
			}
		}
		FROMFROM = { 
			opinion = {
				who = ROOT
				modifier = opinion_knight_of_the_greenhand_refused
			}
			hidden_tooltip = { character_event = { id = knight.34 } }
		}
	}
}

#Inform inducted into order of greenhand after tourney
letter_event = {
	id = knight.33
	desc = "EVTDESCknight.33"
	
	is_triggered_only = yes
	
	immediate = {
		hidden_tooltip = {
			any_playable_ruler = {
				limit = { 
					ai = no 
					NOT = { character = ROOT }
					NOT = { character = FROM }
					is_close_relative = ROOT
				}
				character_event = { id = knight.36 }
			}
		}	
	}
	
	option = {
		name = "OPTAknight.31"	
		set_character_flag = title_knight_of_the_greenhand
		give_minor_title = title_knight_of_the_greenhand
		prestige = 50
	}
}	
#Inform NOT inducted into order of greenhand after tourney
character_event = {
	id = knight.34
	desc = "EVTDESCknight.34"
	
	is_triggered_only = yes
	
	option = {
		name = "OPTAknight.34"	
		prestige = -25
	}
}
#Head of House Manderly claims to be in the order
character_event = {
	id = knight.35
	
	is_triggered_only = yes
	hide_window = yes
	only_playable = yes
	only_men = yes
	
	trigger = {
		dynasty = 80
		dynasty_head = { character = ROOT }
		trait = knight
		NOT = { has_minor_title = title_knight_of_the_greenhand_manderly }
		NOT = {
			liege = {
				tier = EMPEROR
				OR = {
					AND = {
						capital_scope = { region = world_reach }
						culture_group = andal
					}
					dynasty = 1254 #Gardener
					has_landed_title = e_reach
				}
				NOT = { character = ROOT }
			}
		}	
	}
	
	immediate = {
		give_minor_title = title_knight_of_the_greenhand_manderly
	}
	
	option = {
		name = "OK"
	}
}
#Inform relative inducted into order of greenhand
character_event = {
	id = knight.36
	desc = "EVTDESCknight.36"
	
	is_triggered_only = yes
	
	option = {
		name = "OPTAknight.36"	
		tooltip = { FROM = { give_minor_title = title_knight_of_the_greenhand } }
	}
}