namespace = mbs_old_gods_blessing_development		

#mbs_old_gods_blessing_development.1
narrative_event = {
	id = mbs_old_gods_blessing_development.1
	title = "EVTtitlembs_old_gods_blessing_development.1"
	desc = "EVTDESCmbs_old_gods_blessing_development.1"
	picture = "GFX_green_dream"
	
	is_triggered_only = yes

	immediate = {
		father = { character_event = { id = mbs_old_gods_blessing_parent.101 } }
		mother = { character_event = { id = mbs_old_gods_blessing_parent.101 } }
		random_list = {
			90 = { 
				character_event = { id = more_bloodlines.82 }
				set_character_flag = flag_mbs_not_greenseer
			}
			10 = { 
				create_bloodline = {
					type = greenseer_bloodline
				}
				add_trait = greenseer	
				trait = crow
				character_event = { id = more_bloodlines.81 }
				change_learning = 6
			}
		}
	}
	
	option = {
		name = "EVTOPTAmbs_old_gods_blessing_development.1" #
		
		ai_chance = {
			factor = 2
		}
		if = {
			limit = { 
				NOT = {
					is_old_gods_religion_trigger = yes
				}	
			}	
			religion = old_gods
			character_event = { id = more_bloodlines.99 days = 1 }
			piety = 15
		}
		add_trait = greensight
		add_trait = mystic
		random_list = {
			30 = {
				add_trait = dog 
			}
			30 = { 
				add_trait = cata 
			}
			30 = {
				add_trait = fox_mbs 
			}
			30 = { 
				add_trait = deer 
			}
			30 = { 
				add_trait = goat 
			}
			30 = { 
				add_trait = boar 
			}
		}
	}
}
narrative_event = {
	id = mbs_old_gods_blessing_development.3
	title = "EVTtitlembs_old_gods_blessing_development.3"
	desc = "EVTDESCmbs_old_gods_blessing_development.3"
	picture = "GFX_green_dream"
	
	is_triggered_only = yes

	immediate = {
		father = { character_event = { id = mbs_old_gods_blessing_parent.103 } }
		mother = { character_event = { id = mbs_old_gods_blessing_parent.103 } }
		random_list = {
			90 = { 
				character_event = { id = more_bloodlines.82 }
				set_character_flag = flag_mbs_not_greenseer
			}
			10 = { 
				create_bloodline = {
					type = greenseer_bloodline
				}
				add_trait = greenseer	
				character_event = { id = more_bloodlines.81 }
				change_learning = 6
			}
		}
	}
	
	option = {
		name = "EVTOPTAmbs_old_gods_blessing_development.3" #
		
		ai_chance = {
			factor = 2
		}
		if = {
			limit = { 
				NOT = {
					is_old_gods_religion_trigger = yes
				}	
			}	
			religion = old_gods
			character_event = { id = more_bloodlines.99 days = 1 }
			piety = 15
		}
		add_trait = greensight
		add_trait = mystic
		random_list = {
			30 = {
				add_trait = dog 
			}
			30 = { 
				add_trait = cata 
			}
			30 = { 
				add_trait = fox_mbs 
			}
			30 = { 
				add_trait = deer 
			}
			30 = { 
				add_trait = goat 
			}
			30 = { 
				add_trait = boar 
			}
		}
	}
}
narrative_event = {
	id = mbs_old_gods_blessing_development.4
	title = "EVTtitlembs_old_gods_blessing_development.4"
	desc = "EVTDESCmbs_old_gods_blessing_development.4"
	picture = "GFX_green_dream"
	
	is_triggered_only = yes

	immediate = {
		father = { character_event = { id = mbs_old_gods_blessing_parent.104 } }
		mother = { character_event = { id = mbs_old_gods_blessing_parent.104 } }
		random_list = {
			90 = { 
				character_event = { id = more_bloodlines.82 }
				set_character_flag = flag_mbs_not_greenseer
			}
			10 = { 
				create_bloodline = {
					type = greenseer_bloodline
				}
				add_trait = greenseer	
				character_event = { id = more_bloodlines.81 }
				change_learning = 6
			}
		}
	}
	
	option = {
		name = "EVTOPTAmbs_old_gods_blessing_development.4" #
		
		ai_chance = {
			factor = 2
		}
		if = {
			limit = { 
				NOT = {
					is_old_gods_religion_trigger = yes
				}	
			}	
			religion = old_gods
			character_event = { id = more_bloodlines.99 days = 1 }
			piety = 15
		}
		add_trait = greensight
		add_trait = mystic
		random_list = {
			30 = {
				add_trait = dog 
			}
			70 = { 
				add_trait = wolf 
			}
		}
	}
}
narrative_event = {
	id = mbs_old_gods_blessing_development.5
	title = "EVTtitlembs_old_gods_blessing_development.5"
	desc = "EVTDESCmbs_old_gods_blessing_development.5"
	picture = "GFX_green_dream"
	
	is_triggered_only = yes

	immediate = {
		father = { character_event = { id = mbs_old_gods_blessing_parent.105 } }
		mother = { character_event = { id = mbs_old_gods_blessing_parent.105 } }
		random_list = {
			90 = { 
				character_event = { id = more_bloodlines.82 }
				set_character_flag = flag_mbs_not_greenseer
			}
			10 = { 
				create_bloodline = {
					type = greenseer_bloodline
				}
				add_trait = greenseer	
				character_event = { id = more_bloodlines.81 }
				change_learning = 6
			}
		}
	}
	
	option = {
		name = "EVTOPTAmbs_old_gods_blessing_development.5" #
		
		ai_chance = {
			factor = 2
		}
		if = {
			limit = { 
				NOT = {
					is_old_gods_religion_trigger = yes
				}	
			}	
			religion = old_gods
			character_event = { id = more_bloodlines.99 days = 1 }
			piety = 15
		}
		add_trait = greensight
		add_trait = mystic
		random_list = {
			30 = {
				add_trait = dog 
			}
			30 = { 
				add_trait = cata 
			}
			30 = { 
				add_trait = fox_mbs 
			}
			30 = { 
				add_trait = deer 
			}
			30 = { 
				add_trait = goat 
			}
			30 = { 
				add_trait = boar 
			}
		}
	}
}
narrative_event = {
	id = mbs_old_gods_blessing_development.6
	title = "EVTtitlembs_old_gods_blessing_development.6"
	desc = "EVTDESCmbs_old_gods_blessing_development.6"
	picture = "GFX_green_dream"
	
	is_triggered_only = yes

	immediate = {
		father = { character_event = { id = mbs_old_gods_blessing_parent.106 } }
		mother = { character_event = { id = mbs_old_gods_blessing_parent.106 } }
		random_list = {
			90 = { 
				character_event = { id = more_bloodlines.82 }
				set_character_flag = flag_mbs_not_greenseer
			}
			10 = { 
				create_bloodline = {
					type = greenseer_bloodline
				}
				add_trait = greenseer	
				character_event = { id = more_bloodlines.81 }
				change_learning = 6
			}
		}
	}
	
	option = {
		name = "EVTOPTAmbs_old_gods_blessing_development.6" #
		
		ai_chance = {
			factor = 2
		}
		if = {
			limit = { 
				NOT = {
					is_old_gods_religion_trigger = yes
				}	
			}	
			religion = old_gods
			character_event = { id = more_bloodlines.99 days = 1 }
			piety = 15
		}
		add_trait = greensight
		add_trait = mystic
		random_list = {
			30 = {
				add_trait = dog 
			}
			30 = { 
				add_trait = cata 
			}
			30 = { 
				add_trait = fox_mbs 
			}
			30 = { 
				add_trait = deer 
			}
			30 = { 
				add_trait = goat 
			}
			30 = { 
				add_trait = boar 
			}
		}
	}
}
####################
narrative_event = {
	id = mbs_old_gods_blessing_development.100
	title = "EVTtitlembs_old_gods_blessing_development.100"
	desc = "EVTDESCmbs_old_gods_blessing_development.100"
	picture = "GFX_brownbear"
	
	is_triggered_only = yes

	trigger = {
		NOT = {
			trait = brave
		}
		has_character_flag = blessed_mormont_siblings
	}

	immediate = {
		father = { character_event = { id = mbs_old_gods_blessing_parent.300 } }
		mother = { character_event = { id = mbs_old_gods_blessing_parent.300 } }
	}
	
	option = {
		name = "EVTOPTAmbs_old_gods_blessing_development.100" #
		
		ai_chance = {
			factor = 2
		}
		add_trait = brave
	}
}
################################
narrative_event = {
	id = mbs_old_gods_blessing_development.103
	title = "EVTtitlembs_old_gods_blessing_development.103"
	desc = "EVTDESCmbs_old_gods_blessing_development.103"
	picture = "GFX_crow"
	
	is_triggered_only = yes

	trigger = {
		NOT = {
			trait = brave
		}
		has_character_flag = blessed_blackwood_siblings
	}

	immediate = {
		father = { character_event = { id = mbs_old_gods_blessing_parent.303 } }
		mother = { character_event = { id = mbs_old_gods_blessing_parent.303 } }
	}
	
	option = {
		name = "EVTOPTAmbs_old_gods_blessing_development.103" #
		
		ai_chance = {
			factor = 2
		}
		add_trait = brave
	}
}
################################
narrative_event = {
	id = mbs_old_gods_blessing_development.104
	title = "EVTtitlembs_old_gods_blessing_development.104"
	desc = "EVTDESCmbs_old_gods_blessing_development.104"
	picture = "GFX_wolf"
	
	is_triggered_only = yes

	trigger = {
		NOT = {
			trait = brave
		}
		has_character_flag = blessed_stark_siblings
	}

	immediate = {
		father = { character_event = { id = mbs_old_gods_blessing_parent.304 } }
		mother = { character_event = { id = mbs_old_gods_blessing_parent.304 } }
	}
	
	option = {
		name = "EVTOPTAmbs_old_gods_blessing_development.104" #
		
		ai_chance = {
			factor = 2
		}
		add_trait = brave
	}
}
################################
narrative_event = {
	id = mbs_old_gods_blessing_development.105
	title = "EVTtitlembs_old_gods_blessing_development.105"
	desc = "EVTDESCmbs_old_gods_blessing_development.105"
	picture = "GFX_evt_hunting_scene"
	
	is_triggered_only = yes

	trigger = {
		NOT = {
			trait = brave
		}
		has_character_flag = blessed_reed_siblings
	}

	immediate = {
		father = { character_event = { id = mbs_old_gods_blessing_parent.305 } }
		mother = { character_event = { id = mbs_old_gods_blessing_parent.305 } }
	}
	
	option = {
		name = "EVTOPTAmbs_old_gods_blessing_development.105" #
		
		ai_chance = {
			factor = 2
		}
		add_trait = brave
	}
}
################################
narrative_event = {
	id = mbs_old_gods_blessing_development.106
	title = "EVTtitlembs_old_gods_blessing_development.106"
	desc = "EVTDESCmbs_old_gods_blessing_development.106"
	picture = "GFX_evt_hunting_scene"
	
	is_triggered_only = yes

	trigger = {
		NOT = {
			trait = brave
		}
		has_character_flag = blessed_lion_siblings
	}

	immediate = {
		father = { character_event = { id = mbs_old_gods_blessing_parent.306 } }
		mother = { character_event = { id = mbs_old_gods_blessing_parent.306 } }
	}
	
	option = {
		name = "EVTOPTAmbs_old_gods_blessing_development.106" #
		
		ai_chance = {
			factor = 2
		}
		add_trait = brave
	}
}
################################
narrative_event = {
	id = mbs_old_gods_blessing_development.2001
	title = "EVTtitlembs_old_gods_blessing_development.2001"
	desc = "EVTDESCmbs_old_gods_blessing_development.2001"
	picture = "GFX_brownbear"
	
	min_age = 6

	is_triggered_only = yes

	trigger = {
		NOT = {
			age = 18
		}
		NOT = {
			is_incapable = yes
		}
		NOR = {
			trait = crippled
			trait = poor_warrior
			trait = trained_warrior
			trait = skilled_warrior
			trait = master_warrior
		}
		has_character_flag = blessed_mormont_siblings
	}

	weight_multiplier = {
		modifier = {
			factor = 1.5
			dynasty = 102
		}
		modifier = {
			factor = 1.8
			trait = duelist
		}
		modifier = {
			factor = 1.8
			is_tall_trigger = yes
		}
		modifier = {
			factor = 1.6
			trait = hunter
		}
		modifier = {
			factor = 2
			trait = brave
		}
	}

	immediate = {
		father = { character_event = { id = mbs_old_gods_blessing_parent.4001 } }
		mother = { character_event = { id = mbs_old_gods_blessing_parent.4001 } }
		if = {
			limit = {
				NOT = {
					is_strong_trigger = yes
				}
			}	
			add_trait = strong
		}
	}
	
	option = {
		name = "EVTOPTAmbs_old_gods_blessing_development.2001" #
		
		ai_chance = {
			factor = 2
		}
		add_trait = poor_warrior
	}
}
narrative_event = {
	id = mbs_old_gods_blessing_development.2002
	title = "EVTtitlembs_old_gods_blessing_development.2002"
	desc = "EVTDESCmbs_old_gods_blessing_development.2002"
	picture = "GFX_brownbear"
	
	min_age = 8

	is_triggered_only = yes

	trigger = {
		trait = poor_warrior
		NOT = {
			age = 25
		}
		NOT = {
			is_incapable = yes
		}
		NOR = {
			trait = crippled
			trait = trained_warrior
			trait = skilled_warrior
			trait = master_warrior
		}
		has_character_flag = blessed_mormont_siblings
	}

	weight_multiplier = {
		modifier = {
			factor = 1.5
			dynasty = 102
		}
		modifier = {
			factor = 1.8
			trait = duelist
		}
		modifier = {
			factor = 1.8
			is_tall_trigger = yes
		}
		modifier = {
			factor = 1.6
			trait = hunter
		}
		modifier = {
			factor = 2
			trait = brave
		}
	}

	immediate = {
		father = { character_event = { id = mbs_old_gods_blessing_parent.4002 } }
		mother = { character_event = { id = mbs_old_gods_blessing_parent.4002 } }
		if = {
			limit = {
				NOT = {
					is_strong_trigger = yes
				}	
			}	
			add_trait = strong
		}
	}
	
	option = {
		name = "EVTOPTAmbs_old_gods_blessing_development.2002" #
		
		ai_chance = {
			factor = 2
		}
		add_trait = trained_warrior
	}
}
narrative_event = {
	id = mbs_old_gods_blessing_development.2003
	title = "EVTtitlembs_old_gods_blessing_development.2003"
	desc = "EVTDESCmbs_old_gods_blessing_development.2003"
	picture = "GFX_brownbear"
	
	min_age = 12

	is_triggered_only = yes

	trigger = {
		trait = trained_warrior
		NOT = {
			age = 28
		}
		NOT = {
			is_incapable = yes
		}
		NOR = {
			trait = crippled
			trait = poor_warrior
			trait = skilled_warrior
			trait = master_warrior
		}
		has_character_flag = blessed_mormont_siblings
	}

	weight_multiplier = {
		modifier = {
			factor = 1.5
			dynasty = 102
		}
		modifier = {
			factor = 1.8
			trait = duelist
		}
		modifier = {
			factor = 1.8
			is_tall_trigger = yes
		}
		modifier = {
			factor = 1.6
			trait = hunter
		}
		modifier = {
			factor = 2
			trait = brave
		}
	}

	immediate = {
		father = { character_event = { id = mbs_old_gods_blessing_parent.4003 } }
		mother = { character_event = { id = mbs_old_gods_blessing_parent.4003 } }
		if = {
			limit = {
				NOT = {
					is_strong_trigger = yes
				}
			}	
			add_trait = strong
		}
	}
	
	option = {
		name = "EVTOPTAmbs_old_gods_blessing_development.2003" #
		
		ai_chance = {
			factor = 2
		}
		add_trait = skilled_warrior
	}
}
narrative_event = {
	id = mbs_old_gods_blessing_development.2004
	title = "EVTtitlembs_old_gods_blessing_development.2004"
	desc = "EVTDESCmbs_old_gods_blessing_development.2004"
	picture = "GFX_brownbear"
	
	min_age = 14

	is_triggered_only = yes

	trigger = {
		trait = skilled_warrior
		NOT = {
			age = 32
		}
		NOT = {
			is_incapable = yes
		}
		NOR = {
			trait = crippled
			trait = poor_warrior
			trait = trained_warrior
			trait = master_warrior
		}
		has_character_flag = blessed_mormont_siblings
	}

	weight_multiplier = {
		modifier = {
			factor = 1.5
			dynasty = 102
		}
		modifier = {
			factor = 1.8
			trait = duelist
		}
		modifier = {
			factor = 1.8
			is_tall_trigger = yes
		}
		modifier = {
			factor = 1.6
			trait = hunter
		}
		modifier = {
			factor = 2
			trait = brave
		}
	}

	immediate = {
		father = { character_event = { id = mbs_old_gods_blessing_parent.4004 } }
		mother = { character_event = { id = mbs_old_gods_blessing_parent.4004 } }
		if = {
			limit = {
				NOT = {
					is_strong_trigger = yes
				}
			}	
			add_trait = strong
		}
	}
	
	option = {
		name = "EVTOPTAmbs_old_gods_blessing_development.2004" #
		
		ai_chance = {
			factor = 2
		}
		if = {
			limit = { has_nickname = no }
			give_nickname = nick_of_the_bear_of_location
		}
		if = {
			limit = {
				NOT = { trait = duelist }
			}	
			add_trait = duelist
		}
		add_trait = master_warrior
	}
}
#####################################################
narrative_event = {
	id = mbs_old_gods_blessing_development.2005
	title = "EVTtitlembs_old_gods_blessing_development.2005"
	desc = "EVTDESCmbs_old_gods_blessing_development.2005"
	picture = "GFX_crow"
	
	min_age = 6

	is_triggered_only = yes

	trigger = {
		NOT = {
			age = 18
		}
		NOT = {
			is_incapable = yes
		}
		NOR = {
			trait = crippled
			trait = poor_warrior
			trait = trained_warrior
			trait = skilled_warrior
			trait = master_warrior
		}
		has_character_flag = blessed_blackwood_siblings
	}

	weight_multiplier = {
		modifier = {
			factor = 1.5
			dynasty = 150
		}
		modifier = {
			factor = 1.8
			trait = duelist
		}
		modifier = {
			factor = 1.8
			is_tall_trigger = yes
		}
		modifier = {
			factor = 1.8
			is_strong_trigger = yes
		}
		modifier = {
			factor = 1.6
			trait = hunter
		}
		modifier = {
			factor = 2
			trait = brave
		}
	}

	immediate = {
		father = { character_event = { id = mbs_old_gods_blessing_parent.4005 } }
		mother = { character_event = { id = mbs_old_gods_blessing_parent.4005 } }
	}
	
	option = {
		name = "EVTOPTAmbs_old_gods_blessing_development.2005" #
		
		ai_chance = {
			factor = 2
		}
		add_trait = poor_warrior
	}
}
narrative_event = {
	id = mbs_old_gods_blessing_development.2006
	title = "EVTtitlembs_old_gods_blessing_development.2006"
	desc = "EVTDESCmbs_old_gods_blessing_development.2006"
	picture = "GFX_crow"
	
	min_age = 8

	is_triggered_only = yes

	trigger = {
		trait = poor_warrior
		NOT = {
			age = 25
		}
		NOT = {
			is_incapable = yes
		}
		NOR = {
			trait = crippled
			trait = trained_warrior
			trait = skilled_warrior
			trait = master_warrior
		}
		has_character_flag = blessed_blackwood_siblings
	}

	weight_multiplier = {
		modifier = {
			factor = 1.5
			dynasty = 150
		}
		modifier = {
			factor = 1.8
			trait = duelist
		}
		modifier = {
			factor = 1.8
			is_strong_trigger = yes
		}
		modifier = {
			factor = 1.8
			is_tall_trigger = yes
		}
		modifier = {
			factor = 1.6
			trait = hunter
		}
		modifier = {
			factor = 2
			trait = brave
		}
	}

	immediate = {
		father = { character_event = { id = mbs_old_gods_blessing_parent.4006 } }
		mother = { character_event = { id = mbs_old_gods_blessing_parent.4006 } }
	}
	
	option = {
		name = "EVTOPTAmbs_old_gods_blessing_development.2006" #
		
		ai_chance = {
			factor = 2
		}
		add_trait = trained_warrior
	}
}
narrative_event = {
	id = mbs_old_gods_blessing_development.2007
	title = "EVTtitlembs_old_gods_blessing_development.2007"
	desc = "EVTDESCmbs_old_gods_blessing_development.2007"
	picture = "GFX_crow"
	
	min_age = 12

	is_triggered_only = yes

	trigger = {
		trait = trained_warrior
		NOT = {
			age = 28
		}
		NOT = {
			is_incapable = yes
		}
		NOR = {
			trait = crippled
			trait = poor_warrior
			trait = skilled_warrior
			trait = master_warrior
		}
		has_character_flag = blessed_blackwood_siblings
	}

	weight_multiplier = {
		modifier = {
			factor = 1.5
			dynasty = 150
		}
		modifier = {
			factor = 1.8
			trait = duelist
		}
		modifier = {
			factor = 1.8
			is_strong_trigger = yes
		}
		modifier = {
			factor = 1.8
			is_tall_trigger = yes
		}
		modifier = {
			factor = 1.6
			trait = hunter
		}
		modifier = {
			factor = 2
			trait = brave
		}
	}

	immediate = {
		father = { character_event = { id = mbs_old_gods_blessing_parent.4007 } }
		mother = { character_event = { id = mbs_old_gods_blessing_parent.4007 } }
	}
	
	option = {
		name = "EVTOPTAmbs_old_gods_blessing_development.2007" #
		
		ai_chance = {
			factor = 2
		}
		add_trait = skilled_warrior
	}
}
narrative_event = {
	id = mbs_old_gods_blessing_development.2008
	title = "EVTtitlembs_old_gods_blessing_development.2008"
	desc = "EVTDESCmbs_old_gods_blessing_development.2008"
	picture = "GFX_crow"
	
	min_age = 14

	is_triggered_only = yes

	trigger = {
		trait = skilled_warrior
		NOT = {
			age = 32
		}
		NOT = {
			is_incapable = yes
		}
		NOR = {
			trait = crippled
			trait = poor_warrior
			trait = trained_warrior
			trait = master_warrior
		}
		has_character_flag = blessed_blackwood_siblings
	}

	weight_multiplier = {
		modifier = {
			factor = 1.5
			dynasty = 150
		}
		modifier = {
			factor = 1.8
			trait = duelist
		}
		modifier = {
			factor = 1.8
			is_strong_trigger = yes
		}
		modifier = {
			factor = 1.8
			is_tall_trigger = yes
		}
		modifier = {
			factor = 1.6
			trait = hunter
		}
		modifier = {
			factor = 2
			trait = brave
		}
	}

	immediate = {
		father = { character_event = { id = mbs_old_gods_blessing_parent.4008 } }
		mother = { character_event = { id = mbs_old_gods_blessing_parent.4008 } }
	}
	
	option = {
		name = "EVTOPTAmbs_old_gods_blessing_development.2008" #
		
		ai_chance = {
			factor = 2
		}
		if = {
			limit = { has_nickname = no }
			give_nickname = nick_of_the_raven_of_location
		}
		if = {
			limit = {
				NOT = { trait = duelist }
			}	
			add_trait = duelist
		}
		add_trait = master_warrior
	}
}
#####################################################
narrative_event = {
	id = mbs_old_gods_blessing_development.2009
	title = "EVTtitlembs_old_gods_blessing_development.2009"
	desc = "EVTDESCmbs_old_gods_blessing_development.2009"
	picture = "GFX_wolf"
	
	min_age = 6

	is_triggered_only = yes

	trigger = {
		NOT = {
			age = 18
		}
		NOT = {
			is_incapable = yes
		}
		NOR = {
			trait = crippled
			trait = poor_warrior
			trait = trained_warrior
			trait = skilled_warrior
			trait = master_warrior
		}
		has_character_flag = blessed_stark_siblings
	}

	weight_multiplier = {
		modifier = {
			factor = 1.5
			dynasty = 59
		}
		modifier = {
			factor = 1.8
			trait = duelist
		}
		modifier = {
			factor = 1.8
			is_tall_trigger = yes
		}
		modifier = {
			factor = 1.8
			is_strong_trigger = yes
		}
		modifier = {
			factor = 1.6
			trait = hunter
		}
		modifier = {
			factor = 2
			trait = brave
		}
	}

	immediate = {
		father = { character_event = { id = mbs_old_gods_blessing_parent.4009 } }
		mother = { character_event = { id = mbs_old_gods_blessing_parent.4009 } }
	}
	
	option = {
		name = "EVTOPTAmbs_old_gods_blessing_development.2009" #
		
		ai_chance = {
			factor = 2
		}
		add_trait = poor_warrior
	}
}
narrative_event = {
	id = mbs_old_gods_blessing_development.2010
	title = "EVTtitlembs_old_gods_blessing_development.2010"
	desc = "EVTDESCmbs_old_gods_blessing_development.2010"
	picture = "GFX_wolf"
	
	min_age = 8

	is_triggered_only = yes

	trigger = {
		trait = poor_warrior
		NOT = {
			age = 25
		}
		NOT = {
			is_incapable = yes
		}
		NOR = {
			trait = crippled
			trait = trained_warrior
			trait = skilled_warrior
			trait = master_warrior
		}
		has_character_flag = blessed_stark_siblings
	}

	weight_multiplier = {
		modifier = {
			factor = 1.5
			dynasty = 59
		}
		modifier = {
			factor = 1.8
			trait = duelist
		}
		modifier = {
			factor = 1.8
			is_strong_trigger = yes
		}
		modifier = {
			factor = 1.8
			is_tall_trigger = yes
		}
		modifier = {
			factor = 1.6
			trait = hunter
		}
		modifier = {
			factor = 2
			trait = brave
		}
	}

	immediate = {
		father = { character_event = { id = mbs_old_gods_blessing_parent.4010 } }
		mother = { character_event = { id = mbs_old_gods_blessing_parent.4010 } }
	}
	
	option = {
		name = "EVTOPTAmbs_old_gods_blessing_development.2010" #
		
		ai_chance = {
			factor = 2
		}
		add_trait = trained_warrior
	}
}
narrative_event = {
	id = mbs_old_gods_blessing_development.2011
	title = "EVTtitlembs_old_gods_blessing_development.2011"
	desc = "EVTDESCmbs_old_gods_blessing_development.2011"
	picture = "GFX_wolf"
	
	min_age = 12

	is_triggered_only = yes

	trigger = {
		trait = trained_warrior
		NOT = {
			age = 28
		}
		NOT = {
			is_incapable = yes
		}
		NOR = {
			trait = crippled
			trait = poor_warrior
			trait = skilled_warrior
			trait = master_warrior
		}
		has_character_flag = blessed_stark_siblings
	}

	weight_multiplier = {
		modifier = {
			factor = 1.5
			dynasty = 59
		}
		modifier = {
			factor = 1.8
			trait = duelist
		}
		modifier = {
			factor = 1.8
			is_strong_trigger = yes
		}
		modifier = {
			factor = 1.8
			is_tall_trigger = yes
		}
		modifier = {
			factor = 1.6
			trait = hunter
		}
		modifier = {
			factor = 2
			trait = brave
		}
	}

	immediate = {
		father = { character_event = { id = mbs_old_gods_blessing_parent.4011 } }
		mother = { character_event = { id = mbs_old_gods_blessing_parent.4011 } }
	}
	
	option = {
		name = "EVTOPTAmbs_old_gods_blessing_development.2011" #
		
		ai_chance = {
			factor = 2
		}
		add_trait = skilled_warrior
	}
}
narrative_event = {
	id = mbs_old_gods_blessing_development.2012
	title = "EVTtitlembs_old_gods_blessing_development.2012"
	desc = "EVTDESCmbs_old_gods_blessing_development.2012"
	picture = "GFX_wolf"
	
	min_age = 14

	is_triggered_only = yes

	trigger = {
		trait = skilled_warrior
		NOT = {
			age = 32
		}
		NOT = {
			is_incapable = yes
		}
		NOR = {
			trait = crippled
			trait = poor_warrior
			trait = trained_warrior
			trait = master_warrior
		}
		has_character_flag = blessed_stark_siblings
	}

	weight_multiplier = {
		modifier = {
			factor = 1.5
			dynasty = 59
		}
		modifier = {
			factor = 1.8
			trait = duelist
		}
		modifier = {
			factor = 1.8
			is_tall_trigger = yes
		}
		modifier = {
			factor = 1.8
			is_strong_trigger = yes
		}
		modifier = {
			factor = 1.6
			trait = hunter
		}
		modifier = {
			factor = 2
			trait = brave
		}
	}

	immediate = {
		father = { character_event = { id = mbs_old_gods_blessing_parent.4012 } }
		mother = { character_event = { id = mbs_old_gods_blessing_parent.4012 } }
	}
	
	option = {
		name = "EVTOPTAmbs_old_gods_blessing_development.2012" #
		
		ai_chance = {
			factor = 2
		}
		if = {
			limit = { has_nickname = no }
			give_nickname = nick_of_the_direwolf_of_location
		}
		if = {
			limit = {
				NOT = { trait = duelist }
			}	
			add_trait = duelist
		}
		add_trait = master_warrior
	}
}
#####################################################
narrative_event = {
	id = mbs_old_gods_blessing_development.2013
	title = "EVTtitlembs_old_gods_blessing_development.2013"
	desc = "EVTDESCmbs_old_gods_blessing_development.2013"
	picture = "GFX_evt_hunting_scene"
	
	min_age = 6

	is_triggered_only = yes

	trigger = {
		NOT = {
			age = 18
		}
		NOT = {
			is_incapable = yes
		}
		NOR = {
			trait = crippled
			trait = poor_warrior
			trait = trained_warrior
			trait = skilled_warrior
			trait = master_warrior
		}
		has_character_flag = blessed_reed_siblings
	}

	weight_multiplier = {
		modifier = {
			factor = 1.5
			dynasty = 126
		}
		modifier = {
			factor = 1.8
			trait = duelist
		}
		modifier = {
			factor = 1.8
			is_tall_trigger = yes
		}
		modifier = {
			factor = 1.8
			is_strong_trigger = yes
		}
		modifier = {
			factor = 1.6
			trait = hunter
		}
		modifier = {
			factor = 2
			trait = brave
		}
	}

	immediate = {
		father = { character_event = { id = mbs_old_gods_blessing_parent.4013 } }
		mother = { character_event = { id = mbs_old_gods_blessing_parent.4013 } }
	}
	
	option = {
		name = "EVTOPTAmbs_old_gods_blessing_development.2013" #
		
		ai_chance = {
			factor = 2
		}
		add_trait = poor_warrior
	}
}
narrative_event = {
	id = mbs_old_gods_blessing_development.2014
	title = "EVTtitlembs_old_gods_blessing_development.2014"
	desc = "EVTDESCmbs_old_gods_blessing_development.2014"
	picture = "GFX_evt_hunting_scene"
	
	min_age = 8

	is_triggered_only = yes

	trigger = {
		trait = poor_warrior
		NOT = {
			age = 25
		}
		NOT = {
			is_incapable = yes
		}
		NOR = {
			trait = crippled
			trait = trained_warrior
			trait = skilled_warrior
			trait = master_warrior
		}
		has_character_flag = blessed_reed_siblings
	}

	weight_multiplier = {
		modifier = {
			factor = 1.5
			dynasty = 126
		}
		modifier = {
			factor = 1.8
			trait = duelist
		}
		modifier = {
			factor = 1.8
			is_strong_trigger = yes
		}
		modifier = {
			factor = 1.8
			is_tall_trigger = yes
		}
		modifier = {
			factor = 1.6
			trait = hunter
		}
		modifier = {
			factor = 2
			trait = brave
		}
	}

	immediate = {
		father = { character_event = { id = mbs_old_gods_blessing_parent.4014 } }
		mother = { character_event = { id = mbs_old_gods_blessing_parent.4014 } }
	}
	
	option = {
		name = "EVTOPTAmbs_old_gods_blessing_development.2014" #
		
		ai_chance = {
			factor = 2
		}
		add_trait = trained_warrior
	}
}
narrative_event = {
	id = mbs_old_gods_blessing_development.2015
	title = "EVTtitlembs_old_gods_blessing_development.2015"
	desc = "EVTDESCmbs_old_gods_blessing_development.2015"
	picture = "GFX_evt_hunting_scene"
	
	min_age = 12

	is_triggered_only = yes

	trigger = {
		trait = trained_warrior
		NOT = {
			age = 28
		}
		NOT = {
			is_incapable = yes
		}
		NOR = {
			trait = crippled
			trait = poor_warrior
			trait = skilled_warrior
			trait = master_warrior
		}
		has_character_flag = blessed_reed_siblings
	}

	weight_multiplier = {
		modifier = {
			factor = 1.5
			dynasty = 126
		}
		modifier = {
			factor = 1.8
			trait = duelist
		}
		modifier = {
			factor = 1.8
			is_strong_trigger = yes
		}
		modifier = {
			factor = 1.8
			is_tall_trigger = yes
		}
		modifier = {
			factor = 1.6
			trait = hunter
		}
		modifier = {
			factor = 2
			trait = brave
		}
	}

	immediate = {
		father = { character_event = { id = mbs_old_gods_blessing_parent.4015 } }
		mother = { character_event = { id = mbs_old_gods_blessing_parent.4015 } }
	}
	
	option = {
		name = "EVTOPTAmbs_old_gods_blessing_development.2015" #
		
		ai_chance = {
			factor = 2
		}
		add_trait = skilled_warrior
	}
}
narrative_event = {
	id = mbs_old_gods_blessing_development.2016
	title = "EVTtitlembs_old_gods_blessing_development.2016"
	desc = "EVTDESCmbs_old_gods_blessing_development.2016"
	picture = "GFX_evt_hunting_scene"
	
	min_age = 14

	is_triggered_only = yes

	trigger = {
		trait = skilled_warrior
		NOT = {
			age = 32
		}
		NOT = {
			is_incapable = yes
		}
		NOR = {
			trait = crippled
			trait = poor_warrior
			trait = trained_warrior
			trait = master_warrior
		}
		has_character_flag = blessed_reed_siblings
	}

	weight_multiplier = {
		modifier = {
			factor = 1.5
			dynasty = 126
		}
		modifier = {
			factor = 1.8
			trait = duelist
		}
		modifier = {
			factor = 1.8
			is_tall_trigger = yes
		}
		modifier = {
			factor = 1.8
			is_strong_trigger = yes
		}
		modifier = {
			factor = 1.6
			trait = hunter
		}
		modifier = {
			factor = 2
			trait = brave
		}
	}

	immediate = {
		father = { character_event = { id = mbs_old_gods_blessing_parent.4016 } }
		mother = { character_event = { id = mbs_old_gods_blessing_parent.4016 } }
	}
	
	option = {
		name = "EVTOPTAmbs_old_gods_blessing_development.2016" #
		
		ai_chance = {
			factor = 2
		}
		if = {
			limit = { has_nickname = no }
			give_nickname = nick_of_the_lizardlion_of_location
		}
		if = {
			limit = {
				NOT = { trait = duelist }
			}	
			add_trait = duelist
		}
		add_trait = master_warrior
	}
}
#######################################
narrative_event = {
	id = mbs_old_gods_blessing_development.2017
	title = "EVTtitlembs_old_gods_blessing_development.2017"
	desc = "EVTDESCmbs_old_gods_blessing_development.2017"
	picture = "GFX_evt_hunting_scene"
	
	min_age = 6

	is_triggered_only = yes

	trigger = {
		NOT = {
			age = 18
		}
		NOT = {
			is_incapable = yes
		}
		NOR = {
			trait = crippled
			trait = poor_warrior
			trait = trained_warrior
			trait = skilled_warrior
			trait = master_warrior
		}
		has_character_flag = blessed_lion_siblings
	}

	weight_multiplier = {
		modifier = {
			factor = 1.5
			dynasty = 200
		}
		modifier = {
			factor = 1.8
			trait = duelist
		}
		modifier = {
			factor = 1.8
			is_tall_trigger = yes
		}
		modifier = {
			factor = 1.6
			trait = hunter
		}
		modifier = {
			factor = 2
			trait = brave
		}
	}

	immediate = {
		father = { character_event = { id = mbs_old_gods_blessing_parent.4017 } }
		mother = { character_event = { id = mbs_old_gods_blessing_parent.4017 } }
	}
	
	option = {
		name = "EVTOPTAmbs_old_gods_blessing_development.2017" #
		
		ai_chance = {
			factor = 2
		}
		add_trait = poor_warrior
	}
}
narrative_event = {
	id = mbs_old_gods_blessing_development.2018
	title = "EVTtitlembs_old_gods_blessing_development.2018"
	desc = "EVTDESCmbs_old_gods_blessing_development.2018"
	picture = "GFX_evt_hunting_scene"
	
	min_age = 8

	is_triggered_only = yes

	trigger = {
		trait = poor_warrior
		NOT = {
			age = 25
		}
		NOT = {
			is_incapable = yes
		}
		NOR = {
			trait = crippled
			trait = trained_warrior
			trait = skilled_warrior
			trait = master_warrior
		}
		has_character_flag = blessed_lion_siblings
	}

	weight_multiplier = {
		modifier = {
			factor = 1.5
			dynasty = 200
		}
		modifier = {
			factor = 1.8
			trait = duelist
		}
		modifier = {
			factor = 1.8
			is_tall_trigger = yes
		}
		modifier = {
			factor = 1.6
			trait = hunter
		}
		modifier = {
			factor = 2
			trait = brave
		}
	}

	immediate = {
		father = { character_event = { id = mbs_old_gods_blessing_parent.4018 } }
		mother = { character_event = { id = mbs_old_gods_blessing_parent.4018 } }
	}
	
	option = {
		name = "EVTOPTAmbs_old_gods_blessing_development.2018" #
		
		ai_chance = {
			factor = 2
		}
		add_trait = trained_warrior
	}
}
narrative_event = {
	id = mbs_old_gods_blessing_development.2019
	title = "EVTtitlembs_old_gods_blessing_development.2019"
	desc = "EVTDESCmbs_old_gods_blessing_development.2019"
	picture = "GFX_evt_hunting_scene"
	
	min_age = 12

	is_triggered_only = yes

	trigger = {
		trait = trained_warrior
		NOT = {
			age = 28
		}
		NOT = {
			is_incapable = yes
		}
		NOR = {
			trait = crippled
			trait = poor_warrior
			trait = skilled_warrior
			trait = master_warrior
		}
		has_character_flag = blessed_lion_siblings
	}

	weight_multiplier = {
		modifier = {
			factor = 1.5
			dynasty = 200
		}
		modifier = {
			factor = 1.8
			trait = duelist
		}
		modifier = {
			factor = 1.8
			is_tall_trigger = yes
		}
		modifier = {
			factor = 1.6
			trait = hunter
		}
		modifier = {
			factor = 2
			trait = brave
		}
	}

	immediate = {
		father = { character_event = { id = mbs_old_gods_blessing_parent.4019 } }
		mother = { character_event = { id = mbs_old_gods_blessing_parent.4019 } }
	}
	
	option = {
		name = "EVTOPTAmbs_old_gods_blessing_development.2019" #
		
		ai_chance = {
			factor = 2
		}
		add_trait = skilled_warrior
	}
}
narrative_event = {
	id = mbs_old_gods_blessing_development.2020
	title = "EVTtitlembs_old_gods_blessing_development.2020"
	desc = "EVTDESCmbs_old_gods_blessing_development.2020"
	picture = "GFX_evt_hunting_scene"
	
	min_age = 14

	is_triggered_only = yes

	trigger = {
		trait = skilled_warrior
		NOT = {
			age = 32
		}
		NOT = {
			is_incapable = yes
		}
		NOR = {
			trait = crippled
			trait = poor_warrior
			trait = trained_warrior
			trait = master_warrior
		}
		has_character_flag = blessed_lion_siblings
	}

	weight_multiplier = {
		modifier = {
			factor = 1.5
			dynasty = 200
		}
		modifier = {
			factor = 1.8
			trait = duelist
		}
		modifier = {
			factor = 1.8
			is_tall_trigger = yes
		}
		modifier = {
			factor = 1.6
			trait = hunter
		}
		modifier = {
			factor = 2
			trait = brave
		}
	}

	immediate = {
		father = { character_event = { id = mbs_old_gods_blessing_parent.4020 } }
		mother = { character_event = { id = mbs_old_gods_blessing_parent.4020 } }
	}
	
	option = {
		name = "EVTOPTAmbs_old_gods_blessing_development.2020" #
		
		ai_chance = {
			factor = 2
		}
		if = {
			limit = { has_nickname = no }
			give_nickname = nick_of_the_lion_of_location
		}
		if = {
			limit = {
				NOT = { trait = duelist }
			}	
			add_trait = duelist
		}
		add_trait = master_warrior
	}
}
#######################################
narrative_event = {
	id = mbs_old_gods_blessing_development.300
	title = "EVTtitlembs_old_gods_blessing_development.300"
	desc = "EVTDESCmbs_old_gods_blessing_development.300"
	picture = "GFX_brownbear"
	
	min_age = 12

	is_triggered_only = yes

	trigger = {
		NOT = {
			age = 40
		}
		NOT = {
			is_incapable = yes
		}
		NOT = {
			trait = hunter
		}
		has_character_flag = blessed_mormont_siblings
	}

	weight_multiplier = {
		modifier = {
			factor = 1.5
			dynasty = 102
		}
		modifier = {
			factor = 1.8
			trait = duelist
		}
		modifier = {
			factor = 1.8
			is_tall_trigger = yes
		}
		modifier = {
			factor = 1.6
			trait = master_warrior
		}
		modifier = {
			factor = 2
			trait = brave
		}
		modifier = {
			factor = 2
			trait = falconer
		}
	}

	immediate = {
		father = { character_event = { id = mbs_old_gods_blessing_parent.500 } }
		mother = { character_event = { id = mbs_old_gods_blessing_parent.500 } }
	}
	
	option = {
		name = "EVTOPTAmbs_old_gods_blessing_development.300" #
		
		ai_chance = {
			factor = 2
		}
		add_trait = hunter
	}
}
narrative_event = {
	id = mbs_old_gods_blessing_development.303
	title = "EVTtitlembs_old_gods_blessing_development.303"
	desc = "EVTDESCmbs_old_gods_blessing_development.303"
	picture = "GFX_crow"
	
	min_age = 12

	is_triggered_only = yes

	trigger = {
		NOT = {
			age = 40
		}
		NOT = {
			is_incapable = yes
		}
		NOT = {
			trait = falconer
		}
		has_character_flag = blessed_blackwood_siblings
	}

	weight_multiplier = {
		modifier = {
			factor = 1.5
			dynasty = 150
		}
		modifier = {
			factor = 1.8
			trait = duelist
		}
		modifier = {
			factor = 1.8
			is_tall_trigger = yes
		}
		modifier = {
			factor = 1.6
			trait = master_warrior
		}
		modifier = {
			factor = 2
			trait = brave
		}
		modifier = {
			factor = 2
			trait = hunter
		}
	}

	immediate = {
		father = { character_event = { id = mbs_old_gods_blessing_parent.503 } }
		mother = { character_event = { id = mbs_old_gods_blessing_parent.503 } }
	}
	
	option = {
		name = "EVTOPTAmbs_old_gods_blessing_development.303" #
		
		ai_chance = {
			factor = 2
		}
		add_trait = falconer
	}
}
narrative_event = {
	id = mbs_old_gods_blessing_development.304
	title = "EVTtitlembs_old_gods_blessing_development.304"
	desc = "EVTDESCmbs_old_gods_blessing_development.304"
	picture = "GFX_wolf"
	
	min_age = 12

	is_triggered_only = yes

	trigger = {
		NOT = {
			age = 40
		}
		NOT = {
			is_incapable = yes
		}
		NOT = {
			trait = hunter
		}
		has_character_flag = blessed_stark_siblings
	}

	weight_multiplier = {
		modifier = {
			factor = 1.5
			dynasty = 59
		}
		modifier = {
			factor = 1.8
			trait = duelist
		}
		modifier = {
			factor = 1.8
			is_tall_trigger = yes
		}
		modifier = {
			factor = 1.8
			is_strong_trigger = yes
		}
		modifier = {
			factor = 1.6
			trait = master_warrior
		}
		modifier = {
			factor = 2
			trait = brave
		}
		modifier = {
			factor = 2
			trait = falconer
		}
	}

	immediate = {
		father = { character_event = { id = mbs_old_gods_blessing_parent.504 } }
		mother = { character_event = { id = mbs_old_gods_blessing_parent.504 } }
	}
	
	option = {
		name = "EVTOPTAmbs_old_gods_blessing_development.304" #
		
		ai_chance = {
			factor = 2
		}
		add_trait = hunter
	}
}
narrative_event = {
	id = mbs_old_gods_blessing_development.305
	title = "EVTtitlembs_old_gods_blessing_development.305"
	desc = "EVTDESCmbs_old_gods_blessing_development.305"
	picture = "GFX_evt_hunting_scene"
	
	min_age = 12

	is_triggered_only = yes

	trigger = {
		NOT = {
			age = 40
		}
		NOT = {
			is_incapable = yes
		}
		NOT = {
			trait = hunter
		}
		has_character_flag = blessed_reed_siblings
	}

	weight_multiplier = {
		modifier = {
			factor = 1.5
			dynasty = 126
		}
		modifier = {
			factor = 1.8
			trait = duelist
		}
		modifier = {
			factor = 1.8
			is_tall_trigger = yes
		}
		modifier = {
			factor = 1.8
			is_strong_trigger = yes
		}
		modifier = {
			factor = 1.6
			trait = master_warrior
		}
		modifier = {
			factor = 2
			trait = brave
		}
		modifier = {
			factor = 2
			trait = falconer
		}
	}

	immediate = {
		father = { character_event = { id = mbs_old_gods_blessing_parent.505 } }
		mother = { character_event = { id = mbs_old_gods_blessing_parent.505 } }
	}
	
	option = {
		name = "EVTOPTAmbs_old_gods_blessing_development.305" #
		
		ai_chance = {
			factor = 2
		}
		add_trait = hunter
	}
}
narrative_event = {
	id = mbs_old_gods_blessing_development.306
	title = "EVTtitlembs_old_gods_blessing_development.306"
	desc = "EVTDESCmbs_old_gods_blessing_development.306"
	picture = "GFX_evt_hunting_scene"
	
	min_age = 12

	is_triggered_only = yes

	trigger = {
		NOT = {
			age = 40
		}
		NOT = {
			is_incapable = yes
		}
		NOT = {
			trait = hunter
		}
		has_character_flag = blessed_lion_siblings
	}

	weight_multiplier = {
		modifier = {
			factor = 1.5
			dynasty = 200
		}
		modifier = {
			factor = 1.8
			trait = duelist
		}
		modifier = {
			factor = 1.8
			is_tall_trigger = yes
		}
		modifier = {
			factor = 1.8
			is_strong_trigger = yes
		}
		modifier = {
			factor = 1.6
			trait = master_warrior
		}
		modifier = {
			factor = 2
			trait = brave
		}
		modifier = {
			factor = 2
			trait = falconer
		}
	}

	immediate = {
		father = { character_event = { id = mbs_old_gods_blessing_parent.506 } }
		mother = { character_event = { id = mbs_old_gods_blessing_parent.506 } }
	}
	
	option = {
		name = "EVTOPTAmbs_old_gods_blessing_development.306" #
		
		ai_chance = {
			factor = 2
		}
		add_trait = hunter
	}
}
##################################
narrative_event = {
	id = mbs_old_gods_blessing_development.400
	title = "EVTtitlembs_old_gods_blessing_development.400"
	desc = "EVTDESCmbs_old_gods_blessing_development.400"
	picture = "GFX_brownbear"
	
	min_age = 12

	is_triggered_only = yes

	trigger = {
		has_character_flag = blessed_mormont_siblings
		OR = {
			trait = misguided_warrior 
			trait = tough_soldier  
		}
		NOT = {
			age = 22
		}
		NOT = {
			is_incapable = yes
		}
		NOR = {
			trait = skilled_tactician 
			trait = brilliant_strategist  
		}
	}

	weight_multiplier = {
		modifier = {
			factor = 25
			trait = misguided_warrior 
		}
		modifier = {
			factor = 1.5
			dynasty = 102
		}
		modifier = {
			factor = 1.8
			trait = duelist
		}
		modifier = {
			factor = 1.8
			is_tall_trigger = yes
		}
		modifier = {
			factor = 1.8
			trait = strategist
		}
		modifier = {
			factor = 1.4
			trait = trained_warrior
		}
		modifier = {
			factor = 1.8
			trait = skilled_warrior
		}
		modifier = {
			factor = 1.8
			trait = master_warrior
		}
		modifier = {
			factor = 1.6
			trait = hunter
		}
		modifier = {
			factor = 1.5
			trait = brave
		}
		modifier = {
			factor = 1.2
			trait = falconer
		}
	}


	immediate = {
		father = { character_event = { id = mbs_old_gods_blessing_parent.600 } }
		mother = { character_event = { id = mbs_old_gods_blessing_parent.600 } }
	}
	
	option = {
		name = "EVTOPTAmbs_old_gods_blessing_development.400" #
		
		ai_chance = {
			factor = 2
		}
		upgrade_education_effect = yes
	}
}
narrative_event = {
	id = mbs_old_gods_blessing_development.401
	title = "EVTtitlembs_old_gods_blessing_development.401"
	desc = "EVTDESCmbs_old_gods_blessing_development.401"
	picture = "GFX_brownbear"
	
	min_age = 12

	is_triggered_only = yes

	trigger = {
		has_character_flag = blessed_mormont_siblings
		trait = skilled_tactician 
		NOT = {
			age = 22
		}
		NOT = {
			is_incapable = yes
		}
		NOT = {
			trait = brilliant_strategist 
		}
	}

	weight_multiplier = {
		modifier = {
			factor = 1.5
			dynasty = 102
		}
		modifier = {
			factor = 1.8
			trait = duelist
		}
		modifier = {
			factor = 1.8
			is_tall_trigger = yes
		}
		modifier = {
			factor = 1.8
			trait = strategist
		}
		modifier = {
			factor = 1.4
			trait = trained_warrior
		}
		modifier = {
			factor = 1.8
			trait = skilled_warrior
		}
		modifier = {
			factor = 1.8
			trait = master_warrior
		}
		modifier = {
			factor = 1.6
			trait = hunter
		}
		modifier = {
			factor = 1.5
			trait = brave
		}
		modifier = {
			factor = 1.2
			trait = falconer
		}
	}


	immediate = {
		father = { character_event = { id = mbs_old_gods_blessing_parent.601 } }
		mother = { character_event = { id = mbs_old_gods_blessing_parent.601 } }
	}
	
	option = {
		name = "EVTOPTAmbs_old_gods_blessing_development.401" #
		
		ai_chance = {
			factor = 2
		}
		if = {
			limit = { has_nickname = no }
			give_nickname = nick_the_young_bear
		}
		if = {
			limit = {
				NOT = { trait = strategist }
			}	
			add_trait = strategist
		}
		remove_trait = skilled_tactician  
		add_trait = brilliant_strategist  
		add_trait = defensive_leader
		add_trait = inspiring_leader
		add_trait = heavy_infantry_leader 
	}
}
#
narrative_event = {
	id = mbs_old_gods_blessing_development.403
	title = "EVTtitlembs_old_gods_blessing_development.403"
	desc = "EVTDESCmbs_old_gods_blessing_development.403"
	picture = "GFX_crow"
	
	min_age = 12

	is_triggered_only = yes

	trigger = {
		has_character_flag = blessed_blackwood_siblings
		OR = {
			trait = misguided_warrior 
			trait = tough_soldier  
		}
		NOT = {
			age = 22
		}
		NOT = {
			is_incapable = yes
		}
		NOR = {
			trait = skilled_tactician 
			trait = brilliant_strategist  
		}
	}

	weight_multiplier = {
		modifier = {
			factor = 25
			trait = misguided_warrior 
		}
		modifier = {
			factor = 1.5
			dynasty = 150
		}
		modifier = {
			factor = 1.8
			trait = duelist
		}
		modifier = {
			factor = 1.8
			is_tall_trigger = yes
		}
		modifier = {
			factor = 1.8
			is_strong_trigger = yes
		}
		modifier = {
			factor = 1.8
			trait = strategist
		}
		modifier = {
			factor = 1.4
			trait = trained_warrior
		}
		modifier = {
			factor = 1.8
			trait = skilled_warrior
		}
		modifier = {
			factor = 1.8
			trait = master_warrior
		}
		modifier = {
			factor = 1.6
			trait = hunter
		}
		modifier = {
			factor = 1.5
			trait = brave
		}
		modifier = {
			factor = 1.2
			trait = falconer
		}
	}


	immediate = {
		father = { character_event = { id = mbs_old_gods_blessing_parent.603 } }
		mother = { character_event = { id = mbs_old_gods_blessing_parent.603 } }
	}
	
	option = {
		name = "EVTOPTAmbs_old_gods_blessing_development.403" #
		
		ai_chance = {
			factor = 2
		}
		upgrade_education_effect = yes
	}
}
narrative_event = {
	id = mbs_old_gods_blessing_development.404
	title = "EVTtitlembs_old_gods_blessing_development.404"
	desc = "EVTDESCmbs_old_gods_blessing_development.404"
	picture = "GFX_crow"
	
	min_age = 12

	is_triggered_only = yes

	trigger = {
		has_character_flag = blessed_blackwood_siblings
		trait = skilled_tactician 
		NOT = {
			age = 22
		}
		NOT = {
			is_incapable = yes
		}
		NOT = {
			trait = brilliant_strategist 
		}
	}

	weight_multiplier = {
		modifier = {
			factor = 1.5
			dynasty = 150
		}
		modifier = {
			factor = 1.8
			trait = duelist
		}
		modifier = {
			factor = 1.8
			is_tall_trigger = yes
		}
		modifier = {
			factor = 1.8
			is_strong_trigger = yes
		}
		modifier = {
			factor = 1.8
			trait = strategist
		}
		modifier = {
			factor = 1.4
			trait = trained_warrior
		}
		modifier = {
			factor = 1.8
			trait = skilled_warrior
		}
		modifier = {
			factor = 1.8
			trait = master_warrior
		}
		modifier = {
			factor = 1.6
			trait = hunter
		}
		modifier = {
			factor = 1.5
			trait = brave
		}
		modifier = {
			factor = 1.2
			trait = falconer
		}
	}


	immediate = {
		father = { character_event = { id = mbs_old_gods_blessing_parent.604 } }
		mother = { character_event = { id = mbs_old_gods_blessing_parent.604 } }
	}
	
	option = {
		name = "EVTOPTAmbs_old_gods_blessing_development.404" #
		
		ai_chance = {
			factor = 2
		}
		if = {
			limit = { has_nickname = no }
			give_nickname = nick_the_young_raven
		}
		if = {
			limit = {
				NOT = { trait = strategist }
			}	
			add_trait = strategist
		}
		remove_trait = skilled_tactician  
		add_trait = brilliant_strategist  
		add_trait = trickster
		add_trait = flanker
		add_trait = light_foot_leader  
	}
}
#
narrative_event = {
	id = mbs_old_gods_blessing_development.405
	title = "EVTtitlembs_old_gods_blessing_development.405"
	desc = "EVTDESCmbs_old_gods_blessing_development.405"
	picture = "GFX_wolf"
	
	min_age = 12

	is_triggered_only = yes

	trigger = {
		has_character_flag = blessed_stark_siblings
		OR = {
			trait = misguided_warrior 
			trait = tough_soldier  
		}
		NOT = {
			age = 22
		}
		NOT = {
			is_incapable = yes
		}
		NOR = {
			trait = skilled_tactician 
			trait = brilliant_strategist  
		}
	}

	weight_multiplier = {
		modifier = {
			factor = 25
			trait = misguided_warrior 
		}
		modifier = {
			factor = 1.5
			dynasty = 59
		}
		modifier = {
			factor = 1.8
			trait = duelist
		}
		modifier = {
			factor = 1.8
			is_tall_trigger = yes
		}
		modifier = {
			factor = 1.8
			is_strong_trigger = yes
		}
		modifier = {
			factor = 1.8
			trait = strategist
		}
		modifier = {
			factor = 1.4
			trait = trained_warrior
		}
		modifier = {
			factor = 1.8
			trait = skilled_warrior
		}
		modifier = {
			factor = 1.8
			trait = master_warrior
		}
		modifier = {
			factor = 1.6
			trait = hunter
		}
		modifier = {
			factor = 1.5
			trait = brave
		}
		modifier = {
			factor = 1.2
			trait = falconer
		}
	}


	immediate = {
		father = { character_event = { id = mbs_old_gods_blessing_parent.605 } }
		mother = { character_event = { id = mbs_old_gods_blessing_parent.605 } }
	}
	
	option = {
		name = "EVTOPTAmbs_old_gods_blessing_development.405" #
		
		ai_chance = {
			factor = 2
		}
		upgrade_education_effect = yes
	}
}
narrative_event = {
	id = mbs_old_gods_blessing_development.406
	title = "EVTtitlembs_old_gods_blessing_development.406"
	desc = "EVTDESCmbs_old_gods_blessing_development.406"
	picture = "GFX_wolf"
	
	min_age = 12

	is_triggered_only = yes

	trigger = {
		has_character_flag = blessed_stark_siblings
		trait = skilled_tactician 
		NOT = {
			age = 22
		}
		NOT = {
			is_incapable = yes
		}
		NOT = {
			trait = brilliant_strategist 
		}
	}

	weight_multiplier = {
		modifier = {
			factor = 1.5
			dynasty = 59
		}
		modifier = {
			factor = 1.8
			trait = duelist
		}
		modifier = {
			factor = 1.8
			is_tall_trigger = yes
		}
		modifier = {
			factor = 1.8
			is_strong_trigger = yes
		}
		modifier = {
			factor = 1.8
			trait = strategist
		}
		modifier = {
			factor = 1.4
			trait = trained_warrior
		}
		modifier = {
			factor = 1.8
			trait = skilled_warrior
		}
		modifier = {
			factor = 1.8
			trait = master_warrior
		}
		modifier = {
			factor = 1.6
			trait = hunter
		}
		modifier = {
			factor = 1.5
			trait = brave
		}
		modifier = {
			factor = 1.2
			trait = falconer
		}
	}


	immediate = {
		father = { character_event = { id = mbs_old_gods_blessing_parent.606 } }
		mother = { character_event = { id = mbs_old_gods_blessing_parent.606 } }
	}
	
	option = {
		name = "EVTOPTAmbs_old_gods_blessing_development.406" #
		
		ai_chance = {
			factor = 2
		}
		if = {
			limit = { has_nickname = no }
			give_nickname = nick_the_young_wolf
		}
		if = {
			limit = {
				NOT = { trait = strategist }
			}	
			add_trait = strategist
		}
		remove_trait = skilled_tactician  
		add_trait = brilliant_strategist  
		add_trait = unyielding_leader
		add_trait = inspiring_leader
		add_trait = cavalry_leader  
	}
}
narrative_event = {
	id = mbs_old_gods_blessing_development.407
	title = "EVTtitlembs_old_gods_blessing_development.407"
	desc = "EVTDESCmbs_old_gods_blessing_development.407"
	picture = "GFX_evt_hunting_scene"
	
	min_age = 12

	is_triggered_only = yes

	trigger = {
		has_character_flag = blessed_reed_siblings
		OR = {
			trait = misguided_warrior 
			trait = tough_soldier  
		}
		NOT = {
			age = 22
		}
		NOT = {
			is_incapable = yes
		}
		NOR = {
			trait = skilled_tactician 
			trait = brilliant_strategist  
		}
	}

	weight_multiplier = {
		modifier = {
			factor = 25
			trait = misguided_warrior 
		}
		modifier = {
			factor = 1.5
			dynasty = 126
		}
		modifier = {
			factor = 1.8
			trait = duelist
		}
		modifier = {
			factor = 1.8
			is_tall_trigger = yes
		}
		modifier = {
			factor = 1.8
			is_strong_trigger = yes
		}
		modifier = {
			factor = 1.8
			trait = strategist
		}
		modifier = {
			factor = 1.4
			trait = trained_warrior
		}
		modifier = {
			factor = 1.8
			trait = skilled_warrior
		}
		modifier = {
			factor = 1.8
			trait = master_warrior
		}
		modifier = {
			factor = 1.6
			trait = hunter
		}
		modifier = {
			factor = 1.5
			trait = brave
		}
		modifier = {
			factor = 1.2
			trait = falconer
		}
	}


	immediate = {
		father = { character_event = { id = mbs_old_gods_blessing_parent.607 } }
		mother = { character_event = { id = mbs_old_gods_blessing_parent.607 } }
	}
	
	option = {
		name = "EVTOPTAmbs_old_gods_blessing_development.407" #
		
		ai_chance = {
			factor = 2
		}
		upgrade_education_effect = yes
	}
}
narrative_event = {
	id = mbs_old_gods_blessing_development.408
	title = "EVTtitlembs_old_gods_blessing_development.408"
	desc = "EVTDESCmbs_old_gods_blessing_development.408"
	picture = "GFX_evt_hunting_scene"
	
	min_age = 12

	is_triggered_only = yes

	trigger = {
		has_character_flag = blessed_reed_siblings
		trait = skilled_tactician 
		NOT = {
			age = 22
		}
		NOT = {
			is_incapable = yes
		}
		NOT = {
			trait = brilliant_strategist 
		}
	}

	weight_multiplier = {
		modifier = {
			factor = 1.5
			dynasty = 126
		}
		modifier = {
			factor = 1.8
			trait = duelist
		}
		modifier = {
			factor = 1.8
			is_tall_trigger = yes
		}
		modifier = {
			factor = 1.8
			is_strong_trigger = yes
		}
		modifier = {
			factor = 1.8
			trait = strategist
		}
		modifier = {
			factor = 1.4
			trait = trained_warrior
		}
		modifier = {
			factor = 1.8
			trait = skilled_warrior
		}
		modifier = {
			factor = 1.8
			trait = master_warrior
		}
		modifier = {
			factor = 1.6
			trait = hunter
		}
		modifier = {
			factor = 1.5
			trait = brave
		}
		modifier = {
			factor = 1.2
			trait = falconer
		}
	}


	immediate = {
		father = { character_event = { id = mbs_old_gods_blessing_parent.608 } }
		mother = { character_event = { id = mbs_old_gods_blessing_parent.608 } }
	}
	
	option = {
		name = "EVTOPTAmbs_old_gods_blessing_development.408" #
		
		ai_chance = {
			factor = 2
		}
		if = {
			limit = { has_nickname = no }
			give_nickname = nick_the_young_lizardlion
		}
		if = {
			limit = {
				NOT = { trait = strategist }
			}	
			add_trait = strategist
		}
		remove_trait = skilled_tactician  
		add_trait = brilliant_strategist  
		add_trait = aggressive_leader
		add_trait = trickster
		add_trait = light_foot_leader  
	}
}
narrative_event = {
	id = mbs_old_gods_blessing_development.409
	title = "EVTtitlembs_old_gods_blessing_development.409"
	desc = "EVTDESCmbs_old_gods_blessing_development.409"
	picture = "GFX_evt_hunting_scene"
	
	min_age = 12

	is_triggered_only = yes

	trigger = {
		has_character_flag = blessed_lion_siblings
		OR = {
			trait = misguided_warrior 
			trait = tough_soldier  
		}
		NOT = {
			age = 22
		}
		NOT = {
			is_incapable = yes
		}
		NOR = {
			trait = skilled_tactician 
			trait = brilliant_strategist  
		}
	}

	weight_multiplier = {
		modifier = {
			factor = 25
			trait = misguided_warrior 
		}
		modifier = {
			factor = 1.5
			dynasty = 59
		}
		modifier = {
			factor = 1.8
			trait = duelist
		}
		modifier = {
			factor = 1.8
			is_tall_trigger = yes
		}
		modifier = {
			factor = 1.8
			is_strong_trigger = yes
		}
		modifier = {
			factor = 1.8
			trait = strategist
		}
		modifier = {
			factor = 1.4
			trait = trained_warrior
		}
		modifier = {
			factor = 1.8
			trait = skilled_warrior
		}
		modifier = {
			factor = 1.8
			trait = master_warrior
		}
		modifier = {
			factor = 1.6
			trait = hunter
		}
		modifier = {
			factor = 1.5
			trait = brave
		}
		modifier = {
			factor = 1.2
			trait = falconer
		}
	}


	immediate = {
		father = { character_event = { id = mbs_old_gods_blessing_parent.609 } }
		mother = { character_event = { id = mbs_old_gods_blessing_parent.609 } }
	}
	
	option = {
		name = "EVTOPTAmbs_old_gods_blessing_development.409" #
		
		ai_chance = {
			factor = 2
		}
		upgrade_education_effect = yes
	}
}
narrative_event = {
	id = mbs_old_gods_blessing_development.410
	title = "EVTtitlembs_old_gods_blessing_development.410"
	desc = "EVTDESCmbs_old_gods_blessing_development.410"
	picture = "GFX_evt_hunting_scene"
	
	min_age = 12

	is_triggered_only = yes

	trigger = {
		has_character_flag = blessed_lion_siblings
		trait = skilled_tactician 
		NOT = {
			age = 22
		}
		NOT = {
			is_incapable = yes
		}
		NOT = {
			trait = brilliant_strategist 
		}
	}

	weight_multiplier = {
		modifier = {
			factor = 1.5
			dynasty = 200
		}
		modifier = {
			factor = 1.8
			trait = duelist
		}
		modifier = {
			factor = 1.8
			is_tall_trigger = yes
		}
		modifier = {
			factor = 1.8
			is_strong_trigger = yes
		}
		modifier = {
			factor = 1.8
			trait = strategist
		}
		modifier = {
			factor = 1.4
			trait = trained_warrior
		}
		modifier = {
			factor = 1.8
			trait = skilled_warrior
		}
		modifier = {
			factor = 1.8
			trait = master_warrior
		}
		modifier = {
			factor = 1.6
			trait = hunter
		}
		modifier = {
			factor = 1.5
			trait = brave
		}
		modifier = {
			factor = 1.2
			trait = falconer
		}
	}


	immediate = {
		father = { character_event = { id = mbs_old_gods_blessing_parent.610 } }
		mother = { character_event = { id = mbs_old_gods_blessing_parent.610 } }
	}
	
	option = {
		name = "EVTOPTAmbs_old_gods_blessing_development.410" #
		
		ai_chance = {
			factor = 2
		}
		if = {
			limit = { has_nickname = no }
			give_nickname = nick_the_young_lion
		}
		if = {
			limit = {
				NOT = { trait = strategist }
			}	
			add_trait = strategist
		}
		remove_trait = skilled_tactician  
		add_trait = brilliant_strategist  
		add_trait = unyielding_leader
		add_trait = inspiring_leader
		add_trait = cavalry_leader  
	}
}
#####################################
narrative_event = {
	id = mbs_old_gods_blessing_development.500
	title = "EVTtitlembs_old_gods_blessing_development.500"
	desc = "EVTDESCmbs_old_gods_blessing_development.500"
	picture = "GFX_brownbear"
	
	min_age = 12

	is_triggered_only = yes

	trigger = {
		has_character_flag = blessed_mormont_siblings
		trait = bastard 
		OR = {
			trait = misguided_warrior 
			trait = tough_soldier  
		}
		NOT = {
			has_character_flag = flag_bastard_blessed
		}
		NOT = {
			age = 25
		}
		NOT = {
			is_incapable = yes
		}
		NOR = {
			trait = skilled_tactician 
			trait = brilliant_strategist  
		}
	}

	weight_multiplier = {
		modifier = {
			factor = 1.5
			dynasty = 102
		}
		modifier = {
			factor = 1.8
			trait = duelist
		}
		modifier = {
			factor = 1.8
			is_tall_trigger = yes
		}
		modifier = {
			factor = 1.8
			trait = strategist
		}
		modifier = {
			factor = 1.4
			trait = trained_warrior
		}
		modifier = {
			factor = 1.8
			trait = skilled_warrior
		}
		modifier = {
			factor = 1.8
			trait = master_warrior
		}
		modifier = {
			factor = 1.6
			trait = hunter
		}
		modifier = {
			factor = 1.5
			trait = brave
		}
		modifier = {
			factor = 1.2
			trait = falconer
		}
		modifier = {
			factor = 1.2
			trait = proud
		}
		modifier = {
			factor = 1.2
			trait = honorable
		}
		modifier = {
			factor = 1.6
			trait = tough_soldier
		}
	}


	immediate = {
		father = { character_event = { id = mbs_old_gods_blessing_parent.700 } }
		mother = { character_event = { id = mbs_old_gods_blessing_parent.700 } }
	}
	
	option = {
		name = "EVTOPTAmbs_old_gods_blessing_development.500" #
		
		ai_chance = {
			factor = 2
		}
		upgrade_education_effect = yes
		set_character_flag = flag_bastard_blessed
		if = {
			limit = {
				OR = {
					has_nickname = no
					has_nickname = nick_the_bastard
					has_nickname = nick_waters
					has_nickname = nick_snow
					has_nickname = nick_rivers
					has_nickname = nick_stone
					has_nickname = nick_hill
					has_nickname = nick_flowers
					has_nickname = nick_storm
					has_nickname = nick_sand
					has_nickname = nick_pyke
					has_nickname = nick_tanner
				}
			}
			give_nickname = nick_the_bastard_bear
		}
		if = {
			limit = {
				NOT = { trait = duelist }
			}	
			add_trait = duelist
		}
		if = {
			limit = {
				NOT = { trait = proud }
			}	
			add_trait = proud
		}
		if = {
			limit = {
				NOT = { trait = honorable }
			}	
			add_trait = honorable
		}
		if = {
			limit = {
				NOR = { 
					trait = skilled_warrior 
					trait = master_warrior 
				}
			}	
			add_trait = skilled_warrior
		}
		if = {
			limit = {
				NOT = { trait = brave }
			}	
			add_trait = brave
		}
	}
}
#
narrative_event = {
	id = mbs_old_gods_blessing_development.503
	title = "EVTtitlembs_old_gods_blessing_development.503"
	desc = "EVTDESCmbs_old_gods_blessing_development.503"
	picture = "GFX_crow"
	
	min_age = 12

	is_triggered_only = yes

	trigger = {
		has_character_flag = blessed_blackwood_siblings
		trait = bastard 
		OR = {
			trait = misguided_warrior 
			trait = tough_soldier  
		}
		NOT = {
			has_character_flag = flag_bastard_blessed
		}
		NOT = {
			age = 25
		}
		NOT = {
			is_incapable = yes
		}
		NOR = {
			trait = skilled_tactician 
			trait = brilliant_strategist  
		}
	}

	weight_multiplier = {
		modifier = {
			factor = 1.5
			dynasty = 150
		}
		modifier = {
			factor = 1.8
			trait = duelist
		}
		modifier = {
			factor = 1.8
			is_tall_trigger = yes
		}
		modifier = {
			factor = 1.8
			is_strong_trigger = yes
		}
		modifier = {
			factor = 1.8
			trait = strategist
		}
		modifier = {
			factor = 1.4
			trait = trained_warrior
		}
		modifier = {
			factor = 1.8
			trait = skilled_warrior
		}
		modifier = {
			factor = 1.8
			trait = master_warrior
		}
		modifier = {
			factor = 1.6
			trait = hunter
		}
		modifier = {
			factor = 1.5
			trait = brave
		}
		modifier = {
			factor = 1.2
			trait = falconer
		}
		modifier = {
			factor = 1.2
			trait = proud
		}
		modifier = {
			factor = 1.2
			trait = honorable
		}
		modifier = {
			factor = 1.6
			trait = tough_soldier
		}
	}


	immediate = {
		father = { character_event = { id = mbs_old_gods_blessing_parent.703 } }
		mother = { character_event = { id = mbs_old_gods_blessing_parent.703 } }
	}
	
	option = {
		name = "EVTOPTAmbs_old_gods_blessing_development.503" #
		
		ai_chance = {
			factor = 2
		}
		upgrade_education_effect = yes
		set_character_flag = flag_bastard_blessed
		if = {
			limit = {
				OR = {
					has_nickname = no
					has_nickname = nick_the_bastard
					has_nickname = nick_waters
					has_nickname = nick_snow
					has_nickname = nick_rivers
					has_nickname = nick_stone
					has_nickname = nick_hill
					has_nickname = nick_flowers
					has_nickname = nick_storm
					has_nickname = nick_sand
					has_nickname = nick_pyke
					has_nickname = nick_tanner
				}
			}
			give_nickname = nick_the_bastard_raven
		}
		if = {
			limit = {
				NOT = { trait = duelist }
			}	
			add_trait = duelist
		}
		if = {
			limit = {
				NOT = { trait = proud }
			}	
			add_trait = proud
		}
		if = {
			limit = {
				NOT = { trait = honorable }
			}	
			add_trait = honorable
		}
		if = {
			limit = {
				NOR = { 
					trait = skilled_warrior 
					trait = master_warrior 
				}
			}	
			add_trait = skilled_warrior
		}
		if = {
			limit = {
				NOT = { trait = brave }
			}	
			add_trait = brave
		}
	}
}
#
narrative_event = {
	id = mbs_old_gods_blessing_development.504
	title = "EVTtitlembs_old_gods_blessing_development.504"
	desc = "EVTDESCmbs_old_gods_blessing_development.504"
	picture = "GFX_wolf"
	
	min_age = 12

	is_triggered_only = yes

	trigger = {
		has_character_flag = blessed_stark_siblings
		trait = bastard 
		OR = {
			trait = misguided_warrior 
			trait = tough_soldier  
		}
		NOT = {
			has_character_flag = flag_bastard_blessed
		}
		NOT = {
			age = 25
		}
		NOT = {
			is_incapable = yes
		}
		NOR = {
			trait = skilled_tactician 
			trait = brilliant_strategist  
		}
	}

	weight_multiplier = {
		modifier = {
			factor = 1.5
			dynasty = 59
		}
		modifier = {
			factor = 1.8
			trait = duelist
		}
		modifier = {
			factor = 1.8
			is_tall_trigger = yes
		}
		modifier = {
			factor = 1.8
			is_strong_trigger = yes
		}
		modifier = {
			factor = 1.8
			trait = strategist
		}
		modifier = {
			factor = 1.4
			trait = trained_warrior
		}
		modifier = {
			factor = 1.8
			trait = skilled_warrior
		}
		modifier = {
			factor = 1.8
			trait = master_warrior
		}
		modifier = {
			factor = 1.6
			trait = hunter
		}
		modifier = {
			factor = 1.5
			trait = brave
		}
		modifier = {
			factor = 1.2
			trait = falconer
		}
		modifier = {
			factor = 1.2
			trait = proud
		}
		modifier = {
			factor = 1.2
			trait = honorable
		}
		modifier = {
			factor = 1.6
			trait = tough_soldier
		}
	}


	immediate = {
		father = { character_event = { id = mbs_old_gods_blessing_parent.704 } }
		mother = { character_event = { id = mbs_old_gods_blessing_parent.704 } }
	}
	
	option = {
		name = "EVTOPTAmbs_old_gods_blessing_development.504" #
		
		ai_chance = {
			factor = 2
		}
		upgrade_education_effect = yes
		set_character_flag = flag_bastard_blessed
		if = {
			limit = {
				OR = {
					has_nickname = no
					has_nickname = nick_the_bastard
					has_nickname = nick_waters
					has_nickname = nick_snow
					has_nickname = nick_rivers
					has_nickname = nick_stone
					has_nickname = nick_hill
					has_nickname = nick_flowers
					has_nickname = nick_storm
					has_nickname = nick_sand
					has_nickname = nick_pyke
					has_nickname = nick_tanner
				}
			}
			give_nickname = nick_the_bastard_wolf
		}
		if = {
			limit = {
				NOT = { trait = duelist }
			}	
			add_trait = duelist
		}
		if = {
			limit = {
				NOT = { trait = proud }
			}	
			add_trait = proud
		}
		if = {
			limit = {
				NOT = { trait = honorable }
			}	
			add_trait = honorable
		}
		if = {
			limit = {
				NOR = { 
					trait = skilled_warrior 
					trait = master_warrior 
				}
			}	
			add_trait = skilled_warrior
		}
		if = {
			limit = {
				NOT = { trait = brave }
			}	
			add_trait = brave
		}
	}
}
#
narrative_event = {
	id = mbs_old_gods_blessing_development.505
	title = "EVTtitlembs_old_gods_blessing_development.505"
	desc = "EVTDESCmbs_old_gods_blessing_development.505"
	picture = "GFX_evt_hunting_scene"
	
	min_age = 12

	is_triggered_only = yes

	trigger = {
		has_character_flag = blessed_reed_siblings
		trait = bastard 
		OR = {
			trait = misguided_warrior 
			trait = tough_soldier  
		}
		NOT = {
			has_character_flag = flag_bastard_blessed
		}
		NOT = {
			age = 25
		}
		NOT = {
			is_incapable = yes
		}
		NOR = {
			trait = skilled_tactician 
			trait = brilliant_strategist  
		}
	}

	weight_multiplier = {
		modifier = {
			factor = 1.5
			dynasty = 126
		}
		modifier = {
			factor = 1.8
			trait = duelist
		}
		modifier = {
			factor = 1.8
			is_tall_trigger = yes
		}
		modifier = {
			factor = 1.8
			is_strong_trigger = yes
		}
		modifier = {
			factor = 1.8
			trait = strategist
		}
		modifier = {
			factor = 1.4
			trait = trained_warrior
		}
		modifier = {
			factor = 1.8
			trait = skilled_warrior
		}
		modifier = {
			factor = 1.8
			trait = master_warrior
		}
		modifier = {
			factor = 1.6
			trait = hunter
		}
		modifier = {
			factor = 1.5
			trait = brave
		}
		modifier = {
			factor = 1.2
			trait = falconer
		}
		modifier = {
			factor = 1.2
			trait = proud
		}
		modifier = {
			factor = 1.2
			trait = honorable
		}
		modifier = {
			factor = 1.6
			trait = tough_soldier
		}
	}


	immediate = {
		father = { character_event = { id = mbs_old_gods_blessing_parent.705 } }
		mother = { character_event = { id = mbs_old_gods_blessing_parent.705 } }
	}
	
	option = {
		name = "EVTOPTAmbs_old_gods_blessing_development.505" #
		
		ai_chance = {
			factor = 2
		}
		upgrade_education_effect = yes
		set_character_flag = flag_bastard_blessed
		if = {
			limit = {
				OR = {
					has_nickname = no
					has_nickname = nick_the_bastard
					has_nickname = nick_waters
					has_nickname = nick_snow
					has_nickname = nick_rivers
					has_nickname = nick_stone
					has_nickname = nick_hill
					has_nickname = nick_flowers
					has_nickname = nick_storm
					has_nickname = nick_sand
					has_nickname = nick_pyke
					has_nickname = nick_tanner
				}
			}
			give_nickname = nick_the_bastard_lizardlion
		}
		if = {
			limit = {
				NOT = { trait = duelist }
			}	
			add_trait = duelist
		}
		if = {
			limit = {
				NOT = { trait = proud }
			}	
			add_trait = proud
		}
		if = {
			limit = {
				NOT = { trait = honorable }
			}	
			add_trait = honorable
		}
		if = {
			limit = {
				NOR = { 
					trait = skilled_warrior 
					trait = master_warrior 
				}
			}	
			add_trait = skilled_warrior
		}
		if = {
			limit = {
				NOT = { trait = brave }
			}	
			add_trait = brave
		}
	}
}
narrative_event = {
	id = mbs_old_gods_blessing_development.506
	title = "EVTtitlembs_old_gods_blessing_development.506"
	desc = "EVTDESCmbs_old_gods_blessing_development.506"
	picture = "GFX_evt_hunting_scene"
	
	min_age = 12

	is_triggered_only = yes

	trigger = {
		has_character_flag = blessed_lion_siblings
		trait = bastard 
		OR = {
			trait = misguided_warrior 
			trait = tough_soldier  
		}
		NOT = {
			has_character_flag = flag_bastard_blessed
		}
		NOT = {
			age = 25
		}
		NOT = {
			is_incapable = yes
		}
		NOR = {
			trait = skilled_tactician 
			trait = brilliant_strategist  
		}
	}

	weight_multiplier = {
		modifier = {
			factor = 1.5
			dynasty = 200
		}
		modifier = {
			factor = 1.8
			trait = duelist
		}
		modifier = {
			factor = 1.8
			is_tall_trigger = yes
		}
		modifier = {
			factor = 1.8
			is_strong_trigger = yes
		}
		modifier = {
			factor = 1.8
			trait = strategist
		}
		modifier = {
			factor = 1.4
			trait = trained_warrior
		}
		modifier = {
			factor = 1.8
			trait = skilled_warrior
		}
		modifier = {
			factor = 1.8
			trait = master_warrior
		}
		modifier = {
			factor = 1.6
			trait = hunter
		}
		modifier = {
			factor = 1.5
			trait = brave
		}
		modifier = {
			factor = 1.2
			trait = falconer
		}
		modifier = {
			factor = 1.2
			trait = proud
		}
		modifier = {
			factor = 1.2
			trait = honorable
		}
		modifier = {
			factor = 1.6
			trait = tough_soldier
		}
	}


	immediate = {
		father = { character_event = { id = mbs_old_gods_blessing_parent.706 } }
		mother = { character_event = { id = mbs_old_gods_blessing_parent.706 } }
	}
	
	option = {
		name = "EVTOPTAmbs_old_gods_blessing_development.506" #
		
		ai_chance = {
			factor = 2
		}
		upgrade_education_effect = yes
		set_character_flag = flag_bastard_blessed
		if = {
			limit = {
				OR = {
					has_nickname = no
					has_nickname = nick_the_bastard
					has_nickname = nick_waters
					has_nickname = nick_snow
					has_nickname = nick_rivers
					has_nickname = nick_stone
					has_nickname = nick_hill
					has_nickname = nick_flowers
					has_nickname = nick_storm
					has_nickname = nick_sand
					has_nickname = nick_pyke
					has_nickname = nick_tanner
				}
			}
			give_nickname = nick_the_bastard_lion
		}
		if = {
			limit = {
				NOT = { trait = duelist }
			}	
			add_trait = duelist
		}
		if = {
			limit = {
				NOT = { trait = proud }
			}	
			add_trait = proud
		}
		if = {
			limit = {
				NOT = { trait = honorable }
			}	
			add_trait = honorable
		}
		if = {
			limit = {
				NOR = { 
					trait = skilled_warrior 
					trait = master_warrior 
				}
			}	
			add_trait = skilled_warrior
		}
		if = {
			limit = {
				NOT = { trait = brave }
			}	
			add_trait = brave
		}
	}
}
##################################
narrative_event = {
	id = mbs_old_gods_blessing_development.603
	title = "EVTtitlembs_old_gods_blessing_development.603"
	desc = "EVTDESCmbs_old_gods_blessing_development.603"
	picture = "GFX_crow"
	
	min_age = 12

	is_triggered_only = yes

	trigger = {
		has_character_flag = blessed_blackwood_siblings
		OR = {
			trait = amateurish_plotter 
			trait = flamboyant_schemer  
		}
		NOT = {
			age = 22
		}
		NOT = {
			is_incapable = yes
		}
		NOR = {
			trait = intricate_webweaver
			trait = elusive_shadow  
		}
	}

	weight_multiplier = {
		modifier = {
			factor = 25
			trait = amateurish_plotter 
		}
		modifier = {
			factor = 1.5
			dynasty = 150
		}
		modifier = {
			factor = 1.8
			trait = schemer
		}
		modifier = {
			factor = 1.8
			is_smart_trigger = yes
		}
		modifier = {
			factor = 1.8
			is_genius_trigger = yes
		}
		modifier = {
			factor = 1.4
			trait = seducer
		}
		modifier = {
			factor = 1.4
			trait = seductress
		}
		modifier = {
			factor = 1.8
			trait = deceitful
		}
		modifier = {
			factor = 1.8
			trait = ambitious
		}
		modifier = {
			factor = 1.6
			trait = brave
		}
	}


	immediate = {
		father = { character_event = { id = mbs_old_gods_blessing_parent.803 } }
		mother = { character_event = { id = mbs_old_gods_blessing_parent.803 } }
	}
	
	option = {
		name = "EVTOPTAmbs_old_gods_blessing_development.603" #
		
		ai_chance = {
			factor = 2
		}
		upgrade_education_effect = yes
	}
}
narrative_event = {
	id = mbs_old_gods_blessing_development.604
	title = "EVTtitlembs_old_gods_blessing_development.604"
	desc = "EVTDESCmbs_old_gods_blessing_development.604"
	picture = "GFX_crow"
	
	min_age = 12

	is_triggered_only = yes

	trigger = {
		has_character_flag = blessed_blackwood_siblings
		trait = intricate_webweaver 
		NOT = {
			age = 22
		}
		NOT = {
			is_incapable = yes
		}
		NOT = {
			trait = elusive_shadow 
		}
	}

	weight_multiplier = {

		modifier = {
			factor = 1.5
			dynasty = 150
		}
		modifier = {
			factor = 1.8
			trait = schemer
		}
		modifier = {
			factor = 1.8
			is_smart_trigger = yes
		}
		modifier = {
			factor = 1.8
			is_genius_trigger = yes
		}
		modifier = {
			factor = 1.4
			trait = seducer
		}
		modifier = {
			factor = 1.4
			trait = seductress
		}
		modifier = {
			factor = 1.8
			trait = deceitful
		}
		modifier = {
			factor = 1.8
			trait = ambitious
		}
		modifier = {
			factor = 1.6
			trait = brave
		}
	}

	immediate = {
		father = { character_event = { id = mbs_old_gods_blessing_parent.804 } }
		mother = { character_event = { id = mbs_old_gods_blessing_parent.804 } }
	}
	
	option = {
		name = "EVTOPTAmbs_old_gods_blessing_development.604" #
		
		ai_chance = {
			factor = 2
		}
		if = {
			limit = { has_nickname = no }
			give_nickname = nick_the_cunning_raven
		}
		if = {
			limit = {
				NOT = { trait = schemer }
			}	
			add_trait = schemer
		}
		add_trait = elusive_shadow 
		remove_trait = intricate_webweaver 
	}
}
###############################
##################################
narrative_event = {
	id = mbs_old_gods_blessing_development.605
	title = "EVTtitlembs_old_gods_blessing_development.605"
	desc = "EVTDESCmbs_old_gods_blessing_development.605"
	picture = "GFX_wolf"
	
	min_age = 12

	is_triggered_only = yes

	trigger = {
		has_character_flag = blessed_stark_siblings
		OR = {
			trait = amateurish_plotter 
			trait = flamboyant_schemer  
		}
		NOT = {
			age = 22
		}
		NOT = {
			is_incapable = yes
		}
		NOR = {
			trait = intricate_webweaver
			trait = elusive_shadow  
		}
	}

	weight_multiplier = {
		modifier = {
			factor = 25
			trait = amateurish_plotter 
		}
		modifier = {
			factor = 1.5
			dynasty = 59
		}
		modifier = {
			factor = 1.8
			trait = schemer
		}
		modifier = {
			factor = 1.8
			is_smart_trigger = yes
		}
		modifier = {
			factor = 1.8
			is_genius_trigger = yes
		}
		modifier = {
			factor = 1.4
			trait = seducer
		}
		modifier = {
			factor = 1.4
			trait = seductress
		}
		modifier = {
			factor = 1.8
			trait = deceitful
		}
		modifier = {
			factor = 1.8
			trait = ambitious
		}
		modifier = {
			factor = 1.6
			trait = brave
		}
	}


	immediate = {
		father = { character_event = { id = mbs_old_gods_blessing_parent.805 } }
		mother = { character_event = { id = mbs_old_gods_blessing_parent.805 } }
	}
	
	option = {
		name = "EVTOPTAmbs_old_gods_blessing_development.605" #
		
		ai_chance = {
			factor = 2
		}
		upgrade_education_effect = yes
	}
}
narrative_event = {
	id = mbs_old_gods_blessing_development.606
	title = "EVTtitlembs_old_gods_blessing_development.606"
	desc = "EVTDESCmbs_old_gods_blessing_development.606"
	picture = "GFX_wolf"
	
	min_age = 12

	is_triggered_only = yes

	trigger = {
		has_character_flag = blessed_stark_siblings
		trait = intricate_webweaver 
		NOT = {
			age = 22
		}
		NOT = {
			is_incapable = yes
		}
		NOT = {
			trait = elusive_shadow 
		}
	}

	weight_multiplier = {

		modifier = {
			factor = 1.5
			dynasty = 59
		}
		modifier = {
			factor = 1.8
			trait = schemer
		}
		modifier = {
			factor = 1.8
			is_smart_trigger = yes
		}
		modifier = {
			factor = 1.8
			is_genius_trigger = yes
		}
		modifier = {
			factor = 1.4
			trait = seducer
		}
		modifier = {
			factor = 1.4
			trait = seductress
		}
		modifier = {
			factor = 1.8
			trait = deceitful
		}
		modifier = {
			factor = 1.8
			trait = ambitious
		}
		modifier = {
			factor = 1.6
			trait = brave
		}
	}

	immediate = {
		father = { character_event = { id = mbs_old_gods_blessing_parent.806 } }
		mother = { character_event = { id = mbs_old_gods_blessing_parent.806 } }
	}
	
	option = {
		name = "EVTOPTAmbs_old_gods_blessing_development.606" #
		
		ai_chance = {
			factor = 2
		}
		if = {
			limit = { has_nickname = no }
			give_nickname = nick_the_cunning_wolf
		}
		if = {
			limit = {
				NOT = { trait = schemer }
			}	
			add_trait = schemer
		}
		add_trait = elusive_shadow 
		remove_trait = intricate_webweaver 
	}
}
##################################
narrative_event = {
	id = mbs_old_gods_blessing_development.607
	title = "EVTtitlembs_old_gods_blessing_development.607"
	desc = "EVTDESCmbs_old_gods_blessing_development.607"
	picture = "GFX_evt_hunting_scene"
	
	min_age = 12

	is_triggered_only = yes

	trigger = {
		has_character_flag = blessed_reed_siblings
		OR = {
			trait = amateurish_plotter 
			trait = flamboyant_schemer  
		}
		NOT = {
			age = 22
		}
		NOT = {
			is_incapable = yes
		}
		NOR = {
			trait = intricate_webweaver
			trait = elusive_shadow  
		}
	}

	weight_multiplier = {
		modifier = {
			factor = 25
			trait = amateurish_plotter 
		}
		modifier = {
			factor = 1.5
			dynasty = 126
		}
		modifier = {
			factor = 1.8
			trait = schemer
		}
		modifier = {
			factor = 1.8
			is_smart_trigger = yes
		}
		modifier = {
			factor = 1.8
			is_genius_trigger = yes
		}
		modifier = {
			factor = 1.4
			trait = seducer
		}
		modifier = {
			factor = 1.4
			trait = seductress
		}
		modifier = {
			factor = 1.8
			trait = deceitful
		}
		modifier = {
			factor = 1.8
			trait = ambitious
		}
		modifier = {
			factor = 1.6
			trait = brave
		}
	}


	immediate = {
		father = { character_event = { id = mbs_old_gods_blessing_parent.807 } }
		mother = { character_event = { id = mbs_old_gods_blessing_parent.807 } }
	}
	
	option = {
		name = "EVTOPTAmbs_old_gods_blessing_development.607" #
		
		ai_chance = {
			factor = 2
		}
		upgrade_education_effect = yes
	}
}
narrative_event = {
	id = mbs_old_gods_blessing_development.608
	title = "EVTtitlembs_old_gods_blessing_development.608"
	desc = "EVTDESCmbs_old_gods_blessing_development.608"
	picture = "GFX_evt_hunting_scene"
	
	min_age = 12

	is_triggered_only = yes

	trigger = {
		has_character_flag = blessed_reed_siblings
		trait = intricate_webweaver 
		NOT = {
			age = 22
		}
		NOT = {
			is_incapable = yes
		}
		NOT = {
			trait = elusive_shadow 
		}
	}

	weight_multiplier = {

		modifier = {
			factor = 1.5
			dynasty = 126
		}
		modifier = {
			factor = 1.8
			trait = schemer
		}
		modifier = {
			factor = 1.8
			is_smart_trigger = yes
		}
		modifier = {
			factor = 1.8
			is_genius_trigger = yes
		}
		modifier = {
			factor = 1.4
			trait = seducer
		}
		modifier = {
			factor = 1.4
			trait = seductress
		}
		modifier = {
			factor = 1.8
			trait = deceitful
		}
		modifier = {
			factor = 1.8
			trait = ambitious
		}
		modifier = {
			factor = 1.6
			trait = brave
		}
	}

	immediate = {
		father = { character_event = { id = mbs_old_gods_blessing_parent.808 } }
		mother = { character_event = { id = mbs_old_gods_blessing_parent.808 } }
	}
	
	option = {
		name = "EVTOPTAmbs_old_gods_blessing_development.608" #
		
		ai_chance = {
			factor = 2
		}
		if = {
			limit = { has_nickname = no }
			give_nickname = nick_the_cunning_lizardlion
		}
		if = {
			limit = {
				NOT = { trait = schemer }
			}	
			add_trait = schemer
		}
		add_trait = elusive_shadow 
		remove_trait = intricate_webweaver 
	}
}
narrative_event = {
	id = mbs_old_gods_blessing_development.609
	title = "EVTtitlembs_old_gods_blessing_development.609"
	desc = "EVTDESCmbs_old_gods_blessing_development.609"
	picture = "GFX_evt_hunting_scene"
	
	min_age = 12

	is_triggered_only = yes

	trigger = {
		has_character_flag = blessed_lion_siblings
		OR = {
			trait = amateurish_plotter 
			trait = flamboyant_schemer  
		}
		NOT = {
			age = 22
		}
		NOT = {
			is_incapable = yes
		}
		NOR = {
			trait = intricate_webweaver
			trait = elusive_shadow  
		}
	}

	weight_multiplier = {
		modifier = {
			factor = 25
			trait = amateurish_plotter 
		}
		modifier = {
			factor = 1.5
			dynasty = 200
		}
		modifier = {
			factor = 1.8
			trait = schemer
		}
		modifier = {
			factor = 1.8
			is_smart_trigger = yes
		}
		modifier = {
			factor = 1.8
			is_genius_trigger = yes
		}
		modifier = {
			factor = 1.4
			trait = seducer
		}
		modifier = {
			factor = 1.4
			trait = seductress
		}
		modifier = {
			factor = 1.8
			trait = deceitful
		}
		modifier = {
			factor = 1.8
			trait = ambitious
		}
		modifier = {
			factor = 1.6
			trait = brave
		}
	}


	immediate = {
		father = { character_event = { id = mbs_old_gods_blessing_parent.809 } }
		mother = { character_event = { id = mbs_old_gods_blessing_parent.809 } }
	}
	
	option = {
		name = "EVTOPTAmbs_old_gods_blessing_development.609" #
		
		ai_chance = {
			factor = 2
		}
		upgrade_education_effect = yes
	}
}
narrative_event = {
	id = mbs_old_gods_blessing_development.610
	title = "EVTtitlembs_old_gods_blessing_development.610"
	desc = "EVTDESCmbs_old_gods_blessing_development.610"
	picture = "GFX_evt_hunting_scene"
	
	min_age = 12

	is_triggered_only = yes

	trigger = {
		has_character_flag = blessed_lion_siblings
		trait = intricate_webweaver 
		NOT = {
			age = 22
		}
		NOT = {
			is_incapable = yes
		}
		NOT = {
			trait = elusive_shadow 
		}
	}

	weight_multiplier = {

		modifier = {
			factor = 1.5
			dynasty = 200
		}
		modifier = {
			factor = 1.8
			trait = schemer
		}
		modifier = {
			factor = 1.8
			is_smart_trigger = yes
		}
		modifier = {
			factor = 1.8
			is_genius_trigger = yes
		}
		modifier = {
			factor = 1.4
			trait = seducer
		}
		modifier = {
			factor = 1.4
			trait = seductress
		}
		modifier = {
			factor = 1.8
			trait = deceitful
		}
		modifier = {
			factor = 1.8
			trait = ambitious
		}
		modifier = {
			factor = 1.6
			trait = brave
		}
	}

	immediate = {
		father = { character_event = { id = mbs_old_gods_blessing_parent.810 } }
		mother = { character_event = { id = mbs_old_gods_blessing_parent.810 } }
	}
	
	option = {
		name = "EVTOPTAmbs_old_gods_blessing_development.608" #
		
		ai_chance = {
			factor = 2
		}
		if = {
			limit = { has_nickname = no }
			give_nickname = nick_the_cunning_lion
		}
		if = {
			limit = {
				NOT = { trait = schemer }
			}	
			add_trait = schemer
		}
		add_trait = elusive_shadow 
		remove_trait = intricate_webweaver 
	}
}
