###########################################
#
# Hermetics decisions for Monks and Mystics
#
###########################################

targeted_decisions = {
	brew_happiness_potion = {
		is_in_society = yes
		is_high_prio = yes
		filter = realm_including_me
		ai_target_filter = realm_including_me
		ai_check_interval = 24

		from_potential = {
			has_dlc = "Mystics"
			society_member_of = hermetics
			trigger_if = { #AI optimisation
				limit = { ai = yes }
				society_rank = 2
				has_society_currency_minor_trigger = yes 
				custom_tooltip = {
					text = TOOLTIPbrew_happiness_potion_LINKS
					any_artifact = { artifact_type = silver_link count = 2 } #Medicine
				}
			}
		}

		potential = {		
			OR = {
				liege = {
					character = FROM
				}
				character = FROM
			}
			OR = {
				FROM = { ai = no }
				character = FROM
				is_close_relative = FROM
				is_friend = FROM
				is_lover = FROM
			}
		}

		allow = {
			FROM = { 
				society_rank = 2
				has_society_currency_minor_trigger = yes 
				custom_tooltip = {
					text = TOOLTIPbrew_happiness_potion_LINKS
					any_artifact = { artifact_type = silver_link count = 2 } #Medicine
				}
			}
			OR = {
				trait = stressed
				trait = depressed
			}
			trigger_if = {
				limit = { NOT = { character = FROM } }
				OR = {
					custom_tooltip = {
						text = TOOLTIPVISITCOMMANDLOCATION
						hidden_tooltip = {					
							OR = {
								location = { owner = { character = FROM } } 			
								location = { owner = { character = ROOT } } 				
							}
						}	
					}
					FROM = { in_command = no }
					is_liege_or_above = FROM
				}
			}	
			custom_tooltip = {
				text = must_have_ingredients_tt
				hidden_tooltip = {
					FROM = {
						any_artifact = {
							count = 2
							has_artifact_flag = ingredient
						}
					}
				}
			}
			custom_tooltip = {
				text = must_not_already_be_preparing_potion_tt
				hidden_tooltip = { FROM = { NOT = { has_character_flag = preparing_potion } } }
			}
		}

		effect = {
			FROM = { detract_society_currency_minor_effect = yes }
			FROM = { set_character_flag = preparing_potion }

			if = {
				limit = { character = FROM } #Making yourself a potion
				custom_tooltip = {
					text = brew_happiness_potion_effect_self
					set_character_flag = potion_target_is_self
					character_event = { id = MNM.5115 }
				}
			}

			if = {
				limit = { NOT = { character = FROM } } #Making someone else a potion
				save_event_target_as = potion_target
				custom_tooltip = {
					text = brew_happiness_potion_effect_other
					FROM = { character_event = { id = MNM.5115 } }
				}
			}

			tooltip = {
				if = { 
					limit = { trait = stressed }
					remove_trait = stressed
				}
				if = { 
					limit = { trait = depressed }
					remove_trait = depressed
				}
				if = {
					limit = { has_character_modifier = apathetic }
					remove_character_modifier = apathetic
				}
			}
		}

		revoke_allowed = { always = no }

		ai_will_do = {

			factor = 0.01
			modifier = {	
				factor = 100
				character = FROM
			}
			modifier = {
				factor = 10
				reverse_opinion = {
					who = FROM
					value = 30
				}
			}
		}
	}

	# hermetics_perform_scrying = {
		# is_in_society = yes
		
		# filter = self
		# ai_target_filter = self
		# ai_check_interval = 10
		
		# potential = {
			# character = FROM
			# has_dlc = "Mystics"
			# society_member_of = hermetics
			# society_rank >= 2
		# }

		# allow = {
			# has_society_currency_minor_trigger = yes
			# custom_tooltip = {
				# text = hermetics_scrying_cooldown_tooltip
				# has_an_omen_modifier_trigger = no
				# #NOT = { has_character_modifier = scrying_cooldown }
			# }
		# }

		# effect = {
			# hidden_effect = {
				# add_character_modifier = {
					# name = scrying_cooldown
					# years = 1
					# hidden = yes
				# }
				# character_event = { id = MNM.1200 days = 1 }
			# }
			# detract_society_currency_minor_effect = yes
		# }

		# revoke_allowed = { always = no }

		# ai_will_do = {
			# factor = 0.5

			# modifier = {
				# factor = 0.5
				# is_dumb_trigger = yes
			# }
			# modifier = {
				# factor = 0.5
				# trait = content
			# }
			# modifier = {
				# factor = 0.5
				# trait = cynical
			# }
			# modifier = {
				# factor = 1.5
				# trait = ambitious
			# }
			# modifier = {
				# factor = 1.5
				# trait = trusting
			# }
		# }
	# }

	hermetics_make_horoscope = {
		is_in_society = yes
		only_playable = yes
		is_high_prio = yes
		ai_target_filter = court

		ai_check_interval = 10
		
		from_potential = {
			has_dlc = "Mystics"
			society_member_of = hermetics
		}

		potential = {
    		is_child_of = FROM
		}

		allow = {
    		is_adult = no
			custom_tooltip = {
				text = hermetics_horoscope_cooldown_tooltip
				NOT = { has_character_modifier = horoscope_cooldown }
			}
			FROM = { 
				has_society_currency_medium_trigger = yes 
				custom_tooltip = {
					text = TOOLTIPhermetics_make_horoscope_LINKS
					any_artifact = { artifact_type = bronze_link count = 2 } #Astronomy
				}
			}
		}

		effect = {
			hidden_effect = {
				add_character_modifier = {
					name = horoscope_cooldown
					duration =-1 #not actually a cooldown, but blocks decision until cleared (which does happen, promise)
					hidden = yes
				}
				save_event_target_as = horoscope_child
				FROM = { character_event = { id = MNM.1250 days = 5 } }
			}
			FROM = { detract_society_currency_medium_effect = yes }
		}

		revoke_allowed = { always = no }

		ai_will_do = {
			factor = 0.1

			modifier = {
				factor = 1.5
				is_dumb_trigger = yes
			}
			modifier = {
				factor = 1.5
				is_smart_trigger = yes
			}
			modifier = {
				factor = 10
				is_primary_heir = FROM
			}
			modifier = {
				factor = 1.5
				FROM = { trait = trusting }
			}
			modifier = {
				factor = 0.5
				FROM = { trait = cynical }
			}
		}
	}
	
	choose_hermetic_art = {
		is_in_society = yes
		is_high_prio = yes
		
		filter = self
		ai_target_filter = self
		third_party_filter = artifacts
		ai_third_party_filter = artifacts
		third_party = ROOT
		
		ai_check_interval = 60
		
		potential = {
			character = FROM
			#has_dlc = "Mystics"
			#is_playable = yes
			#is_adult = yes
			society_member_of = hermetics
			OR = {
				is_ruler = yes
				society_rank = 3
			}	
		}
		third_party_potential = {
			FROMFROM = { has_artifact_flag = maester_link }
		}
		
		allow = {
			custom_tooltip = {
				text = choose_hermetic_art_allow_tooltip				
				NOT = { has_character_flag = choosing_hermetic_art }		
			}		
			trigger_if = {
				limit = { NOT = { society_rank = 3 } }
				has_links_for_maester_rank_trigger = yes
			}
			has_society_currency_minor_trigger = yes
		}
		third_party_allow = {
			custom_tooltip = {
				text = choose_hermetic_art_allow_tooltipB
				any_artifact = { 
					is_artifact_same_type_as = FROMFROM
					count = 2 
				}
			}
		}
		
		effect = {
			hidden_tooltip = {
				FROMFROM = { save_event_target_as = maester_link }
				character_event = { id = maester.43 }
			}
			set_character_flag = choosing_hermetic_art
			detract_society_currency_minor_effect = yes
		}

		ai_will_do = {
			factor = 1
		}
	}

	# #Power: write Magnum Opus
	hermetics_write_magnum_opus = {
		is_in_society = yes
		is_high_prio = yes
		filter = self
		ai_target_filter = self

		ai_check_interval = 12

		potential = {
			society_member_of = hermetics
			OR = {
				society_rank = 4
				is_playable = yes
			}			
		}

		allow = {
			FROM = {
				custom_tooltip = {
					text = TOOLTIPhermetics_SPECIALISATION
					has_character_flag = choosing_hermetic_art
				}
				trigger_if = {
					limit = { NOT = { society_rank = 4 } }
					custom_tooltip = {
						text = TOOLTIPhermetics_write_magnum_opus_LINKS
						OR = {
							AND = {
								has_character_flag = specialisation_ravenry
								any_artifact = { artifact_type = black_iron_link count = 3 }
							}
							AND = {
								has_character_flag = specialisation_history
								any_artifact = { artifact_type = copper_link count = 3 }
							}
							AND = {
								has_character_flag = specialisation_astronomy
								any_artifact = { artifact_type = bronze_link count = 3 }
							}
							AND = {
								has_character_flag = specialisation_seasons
								any_artifact = { artifact_type = brass_link count = 3 }
							}
							AND = {
								has_character_flag = specialisation_geography
								any_artifact = { artifact_type = electrum_link count = 3 }
							}
							AND = {
								has_character_flag = specialisation_math
								any_artifact = { artifact_type = yellow_gold_link count = 3 }
							}
							AND = {
								has_character_flag = specialisation_warcraft
								any_artifact = { artifact_type = iron_link count = 3 }
							}
							AND = {
								has_character_flag = specialisation_castles
								any_artifact = { artifact_type = lead_link count = 3 }
							}
							AND = {
								has_character_flag = specialisation_culture
								any_artifact = { artifact_type = pewter_link count = 3 }
							}
							AND = {
								has_character_flag = specialisation_languages
								any_artifact = { artifact_type = platinum_link count = 3 }
							}
							AND = {
								has_character_flag = specialisation_law
								any_artifact = { artifact_type = red_gold_link count = 3 }
							}
							AND = {
								has_character_flag = specialisation_medicine
								any_artifact = { artifact_type = silver_link count = 3 }
							}
							AND = {
								has_character_flag = specialisation_metallurgy
								any_artifact = { artifact_type = steel_link count = 3 }
							}
							AND = {
								has_character_flag = specialisation_herblore
								any_artifact = { artifact_type = tin_link count = 3 }
							}
							AND = {
								has_character_flag = specialisation_mysteries
								any_artifact = { artifact_type = valyrian_steel_link count = 3 }
							}
						}
					}
				}
				custom_tooltip = {
					text = hermetics_wrote_magnum_opus_cd_tooltip
					NOT = { has_character_flag = wrote_magnum_opus }
				}
				prisoner = no
				NOT = { trait = incapable }
				has_society_currency_major_trigger = yes
				# custom_tooltip = {
					# text = hermetics_wrote_magnum_opus_duplicate
					# OR = {
    					# NOR = {
    						# has_artifact = magnum_opus_theurgy_ritual_1
							# has_artifact = magnum_opus_theurgy_ritual_2
							# has_artifact = magnum_opus_theurgy_ritual_3
							# has_artifact = magnum_opus_theurgy_ritual_4
    					# }
    					# NOR = {
    						# has_artifact = magnum_opus_theurgy_contemplation_1
							# has_artifact = magnum_opus_theurgy_contemplation_2
							# has_artifact = magnum_opus_theurgy_contemplation_3
							# has_artifact = magnum_opus_theurgy_contemplation_4
    					# }
    					# NOR = {
    						# has_artifact = magnum_opus_astrology_stars_1
							# has_artifact = magnum_opus_astrology_stars_2
							# has_artifact = magnum_opus_astrology_stars_3
							# has_artifact = magnum_opus_astrology_stars_4
    					# }
    					# NOR = {
    						# has_artifact = magnum_opus_astrology_planets_1
							# has_artifact = magnum_opus_astrology_planets_2
							# has_artifact = magnum_opus_astrology_planets_3
							# has_artifact = magnum_opus_astrology_planets_4
    					# }
    					# NOR = {
    						# has_artifact = magnum_opus_alchemy_panacea_1
							# has_artifact = magnum_opus_alchemy_panacea_2
							# has_artifact = magnum_opus_alchemy_panacea_3
							# has_artifact = magnum_opus_alchemy_panacea_4
    					# }
    					# NOR = {
    						# has_artifact = magnum_opus_alchemy_transmutation_1
							# has_artifact = magnum_opus_alchemy_transmutation_2
							# has_artifact = magnum_opus_alchemy_transmutation_3
							# has_artifact = magnum_opus_alchemy_transmutation_4
    					# }
    				# }
    			# }
			}
		}

		effect = {
			hidden_effect = { 
				character_event = { id = MNM.1610 days = 1 }
				set_character_flag = wrote_magnum_opus
			}
			detract_society_currency_major_effect = yes
		}
		revoke_allowed = {
			always = no
		}
	}
	
	invite_hermetic_to_stargazing = {
		only_playable = yes
		ai_check_interval = 36
		
		from_potential = {
			has_dlc = "Mystics"
			is_playable = yes
			is_adult = yes			
			society_member_of = hermetics
		}
		
		potential = {
			NOT = { character = FROM }
			is_adult = yes		
			society_member_of = hermetics
			is_within_diplo_range = FROM
		}
		
		allow = {
			war = no
			NOT = { trait = incapable }
			NOT = { trait = blinded }
			NOT = { trait = blinded_age }
			has_epidemic = no
			prisoner = no
			NOT = { is_inaccessible_trigger = yes }
			custom_tooltip = {
				text = tooltip_not_busy
				NOT = { has_character_flag = do_not_disturb }
			}
			FROM = {
				war = no
				NOT = { trait = incapable }
				NOT = { trait = blinded }
				NOT = { trait = blinded_age }
				has_epidemic = no
				NOT = { is_inaccessible_trigger = yes }
				prisoner = no
				custom_tooltip = {
					text = TOOLTIPinvite_hermetic_to_stargazing_LINKS
					OR = {
						any_artifact = { artifact_type = bronze_link count = 2 } #Astronomy
						any_artifact = { artifact_type = copper_link count = 2 } #Seasons
					}	
				}
				custom_tooltip = {
					text = has_not_recently_performed_stargazing
					NOT = { has_character_modifier = stargazing_timer }
					NOT = { has_character_modifier = inviting_to_stargazing }
				}
				custom_tooltip = {
					text = tooltip_not_busy
					NOT = { has_character_flag = do_not_disturb }
				}
			}
		}
		
		effect = {
			FROM = {
				if = {
					limit = {
						NOT = { has_character_modifier = inviting_to_stargazing }
					}
					add_character_modifier = {
						modifier = inviting_to_stargazing
						duration = 182
						hidden = yes
					}
					set_character_flag = inviting_guests_to_stargazing_timer
				}
				set_character_flag = do_not_disturb
			}
			hidden_tooltip = {
				letter_event = { id = MNM.1920 days = 7 } # Invitation
			}
		}
		
		ai_will_do = {
			factor = 1
			
			modifier = {
				factor = 0.005 # Slow down
			}
			modifier = {
				factor = 0
				NOT = { reverse_opinion = { who = FROM value = -19 } }
			}
			modifier = {
				factor = 2
				reverse_opinion = { who = FROM value = 20 }
			}
			modifier = {
				factor = 5
				OR = {
					trait = astronomer
					trait = time_keeper
					has_character_flag = specialisation_astronomy
					has_character_flag = specialisation_seasons
				}	
			}
		}
	}
	
	
	perform_necromancy = {
		is_in_society = yes
		filter = realm
		ai_target_filter = realm
		ai_check_interval = 24

		from_potential = {
			society_member_of = hermetics
			has_character_modifier = necromancer_maester
		}

		potential = {
			NOT_mythical_creature_trigger = yes
			OR = {
				FROM = { ai = no }
				is_close_relative = FROM
				is_friend = FROM
				is_lover = FROM
				is_liege_of = FROM
			}
			NOT = { character = FROM }
		}

		allow = {
			FROM = { 
				has_character_modifier = necromancer_maester	
				has_society_currency_medium_trigger = yes
				magic_returned_trigger = yes
				NOT = { is_inaccessible_trigger = yes }
				is_incapable = no
				NOT = { has_opinion_modifier = { who = ROOT modifier = opinion_rejected_necromancy } }
			}
			at_location = FROM
			NOT = { is_inaccessible_trigger = yes }
			prisoner = no
			OR = {
				custom_tooltip = {
					text = TOOLTIPVISITCOMMANDLOCATION
					hidden_tooltip = {					
						OR = {
							location = { owner = { character = FROM } } 			
							location = { owner = { character = ROOT } } 				
						}
					}	
				}
				FROM = { in_command = no }
				is_liege_or_above = FROM
			}
			custom_tooltip = { #Not already targetted
				text = TOOLTIPperform_necromancyA
				NAND = { 
					has_character_flag = necromancy_target 
					persistent_event_target:necromancer = { is_alive = yes }
				}
			}
			custom_tooltip = {
				text = TOOLTIPperform_necromancyB
				hidden_tooltip = { FROM = { NOT = { has_character_flag = preparing_necromancy } } }
			}
		}

		effect = {
			FROM = { 
				set_character_flag = preparing_necromancy 
				detract_society_currency_medium_effect = yes
			}
			character_event = { id = maester.100 tooltip = TOOLTIPmaester.100 }
			persistent_event_target:necromancy_target = { #existing taregt will be annoyed
				if = {
					limit = {
						is_alive = yes
					}
					custom_tooltip = {
						text = TOOLTIPperform_necromancyC
					}
				}
			}	
		}

		revoke_allowed = { always = no }

		ai_will_do = {

			factor = 0.01
			modifier = {	
				factor = 100
				character = FROM
			}
			modifier = {
				factor = 10
				reverse_opinion = {
					who = FROM
					value = 30
				}
			}
		}
	}
	
}

society_decisions = {
	hermetics_acquire_ingredients_decision = {
		ai_check_interval = 24

		potential = {
			OR = {
				society_member_of = hermetics
				society_member_of = alchemists_guild
			}	
		}
		
		allow = {
			trigger_if = {
				limit = { society_member_of = hermetics }
				custom_tooltip = {
					text = TOOLTIPhermetics_acquire_ingredients_decision_LINKS
					OR = {
						any_artifact = { artifact_type = tin_link count = 2 } #Herblore
						any_artifact = { artifact_type = silver_link count = 2 } #Medicine
						any_artifact = { artifact_type = steel_link count = 2 } #Metallurgy
						any_artifact = { artifact_type = valyrian_steel_link count = 2 } #Mysteries
					}	
				}
			}	
			custom_tooltip = {
				text = tooltip_not_busy
				hidden_trigger = {
					block_general_event_trigger = no
				}
			}
			custom_tooltip = {
				text = acquire_ingredients_decision_cooldown_timer_tt
				hidden_trigger = {
					NOT = {
						has_character_modifier = acquire_ingredients_decision_cooldown_timer
					}
				}
			}
			# custom_tooltip = {
				# text = acquire_ingredients_decision_apprentice_requirement
				# hidden_trigger = {
					# any_courtier_or_vassal = {
						# liege = { character = ROOT }
						# has_minor_title = title_hermetics_apprentice
					# }
				# }
			# }
			custom_tooltip = {
				text = acquire_ingredients_decision_too_many_ingredients
				hidden_trigger = {
					NOT = {
						any_artifact = {
							count = 5
							has_artifact_flag = ingredient
						}
					}
				}
			}
		}
		
		effect = {
			custom_tooltip = {
				text = acquire_ingredients_effect_tooltip
			}
			add_character_modifier = {
				modifier = acquire_ingredients_decision_cooldown_timer
				years = 5
				hidden = yes
			}
			character_event = { id = MNM.1800 }
		}
		
		revoke_allowed = { always = no }
		
		ai_will_do = {
			factor = 1
			modifier = {
				factor = 0.01 # Slow down
			}
			modifier = {
				factor = 0 # Already have ingredients
				any_artifact = {
					has_artifact_flag = ingredient
					count = 2
				}
			}
		}
	}

	#Write a Theory Paper
	hermetics_write_theory_paper = {
		ai_check_interval = 24

		potential = {
			society_member_of = hermetics
		}

		allow = {
			trigger_if = {
				limit = { NOT = { society_rank = 3 } }
				has_links_for_maester_rank_trigger = yes
			}
			prisoner = no
			custom_tooltip = {
				text = write_theory_paper_decision_cooldown_timer_tt
				hidden_trigger = {
					NOT = {
						has_character_modifier = write_theory_paper_decision_cooldown_timer
					}
				}
			}
			NOT = { is_inaccessible_trigger = yes }
			NOT = { trait = incapable }
		}

		effect = {
			custom_tooltip = {
				text = write_theory_paper_decision_effect_tt
				add_character_modifier = {
					modifier = write_theory_paper_decision_cooldown_timer
					years = 5
					hidden = yes
				}
				character_event = { id = MNM.1630 }
			}
		}

		ai_will_do = {
			factor = 1
			modifier = {
				factor = 0.001 # Slow down
			}
		}
	}
	
	hermetic_grand_debate = {
		only_playable = yes
		is_high_prio = yes
		ai_check_interval = 24
		
		potential = {
			has_dlc = "Mystics"
			is_playable = yes
			is_adult = yes
			society_member_of = hermetics	
			any_society_member = { ai = no } #optimisation
		}
		
		allow = {
			trigger_if = {
				limit = { NOT = { society_rank == 4 } }
				custom_tooltip = {
					text = TOOLTIPhermetics_SPECIALISATION
					has_character_flag = choosing_hermetic_art
				}
				has_links_level_3_trigger = yes
			}
			wealth = 100
			prestige = 400
			prisoner = no
			NOT = { is_inaccessible_trigger = yes }
			NOT = { trait = incapable }
			custom_tooltip = {
				text = is_not_busy_trigger_tooltip
				hidden_tooltip = { NOT = { has_character_flag = do_not_disturb } }
			}
			custom_tooltip = {
				text = GRAND_DEBATE_HOLDING_TOOLTIP
				OR = {
					NOT = { has_global_flag = holding_grand_debate }
					had_global_flag = { flag = holding_grand_debate days = 150 }
				}
			}
			custom_tooltip = {
				text = GRAND_DEBATE_COOLDOWN_TOOLTIP
				OR = {
					NOT = { has_global_flag = held_grand_debate }
					had_global_flag = { flag = held_grand_debate days = 3650 }
				}
			}
		}
		
		effect = {
			character_event = { id = MNM.1980 tooltip = GRAND_DEBATE_INVITE_TOOLTIP }
			wealth = -100
			hidden_tooltip = {
				clr_character_flag = grand_debate_has_ended
				set_character_flag = do_not_disturb
				set_global_flag = holding_grand_debate
				character_event = { id = MNM.1982 days = 300 } # Safety catch flag clearing
			}
		}
		
		ai_will_do = {
			factor = 1
			
			modifier = {
				factor = 0.01 # Slow down
			}
		}
	}
}