
hermetics = { #The Citadel
	primary_attribute = learning
	society_ranks_gfx = generic_ranks
	opinion_to_other_members = +10
	opinion_per_rank_above = +5
	sound = hermetic_society_interface
	society_influence = no
	non_interference = {
		always = yes
	}
	
	active = {
		
	}
	indestructible = yes
	
	can_join_society = {
		hidden_trigger = {
			NAND = {
				ai = yes
				is_society_rank_full = { 
					society = hermetics
					rank = 1
				}
			}
			OR = {
				is_landed = yes
				is_patrician = yes
			}
		}
		trigger_if = {
			limit = { ai = no }
			has_dlc = "Mystics"
		}
		has_maester_society_prerequisites = yes
		NOT = { has_tribal_or_nomadic_government_trigger = yes	}
		hidden_trigger = {
			NOT = { has_character_flag = society_join_block }
		}
		trigger_if = {
			limit = { prisoner = yes }
			prisoner = no
		}
	}

	show_society = {
		always = yes
	}
	
	potential = {
		#If something is added here, it could break apprenticeship. Create an event if they can get kicked out. title_hermetics_apprentice
	}
	
	society_rank = {
		level = 1
		limit = 75
		startup_limit = 10
		modifier = {
			#church_opinion = -10
			#economy_techpoints = 0.05
		}
		decisions = {
		}
	}
	
	society_rank = {
		level = 2
		limit = 75
		startup_limit = 6
		modifier = { 
			learning = 1
			#church_opinion = -10
		}
		decisions = {
			#hermetics_perform_scrying # Enables you to perform a scrying and gain an omen
			hermetics_write_theory_paper # Enables you to write a theorem paper that, if approved, gives you society power
			brew_happiness_potion # Enables you to brew a potion
			hermetics_make_horoscope # Enables you to "predict" your children's future
			invite_hermetic_to_stargazing
			hermetics_acquire_ingredients_decision
		}
	}
	
	society_rank = {
		level = 3
		limit = 9999
		startup_limit = 4
		modifier = {
			#learning = 2
			#church_opinion = -10
		}
		decisions = {
			choose_hermetic_art # Enables you to pick/change your lifestyle trait					
		}
	}

	society_rank = {
		level = 4
		limit = 20
		startup_limit = 2
		modifier = { 
			#learning = 3
			#church_opinion = -10
		}
		decisions = {		
			hermetics_write_magnum_opus # Write an enciphered book of lore (artifact)
			hermetic_grand_debate
		}
	}
	
	plots = {
	}
	
	monthly_currency_gain = {
		name = currency_name_hermetics
		
		per_attribute = {
    		name = learning
    		value = 0.5
    	}
		has_trait = {
			value = 2
			trait = diligent
		}
		has_trait = {
			value = 1
			trait = scholar
		}
		has_trait = {
			value = 1
			trait = mystic
		}
		has_trait = {
			value = 1
			trait = erudite
		}
		has_trait = {
			value = 1
			trait = stubborn
		}
		has_trait = {
			value = 1
			trait = patient
		}
		has_trait = {
			value = 1
			trait = genius
		}
		has_trait = {
			value = 1
			trait = quick
		}
		has_trait = {
			value = 1
			trait = shrewd
		}
		has_trait = {
			value = 1
			trait = just
		}
		society_rank = {
			rank = 4
			value = 10
		}
	}

	member_score_per_attribute = 3
	member_score_per_rank = 100

	member_score = {
		value = 10

		modifier = {
			factor = 2
			trait = diligent
		}
		modifier = {
			factor = 1.5
			trait = scholar
		}
		modifier = {
			factor = 1.5
			trait = mystic
		}
		modifier = {
			factor = 1.5
			trait = erudite
		}
		modifier = {
			factor = 1.5
			trait = stubborn
		}
		modifier = {
			factor = 1.5
			trait = patient
		}
		modifier = {
			factor = 1.5
			OR = {
				trait = genius
				trait = quick
				trait = shrewd
			}
		}
		modifier = {
			factor = 1.5
			trait = just
		}
	}
	
	startup_populate = {
	    trigger = {
			always = no	
		}
	}
}

###DEVIL WORSHIPERS###
the_satanists = { #The Great Other
	primary_attribute = intrigue
	is_secret = yes
	criminal = yes
	devil_worshipper = yes
	opinion_to_other_members = +5
	opinion_to_pretenders = -40			#Pretenders is the opinion you have of people perceived/discovered to be in your society.
	opinion_to_perceived_members = -40	#Perceived is the opinion you have of people perceived/discovered to be of a society you're not part of
	opinion_per_rank_above = +10
	sound = devil_worshippers_interface
	society_ranks_gfx = devil_ranks
	
	active = {
		has_dlc = "Mystics"
		NOT = { has_game_rule = { name = devil_worshipers value = none } }
	}
	indestructible = yes
	
	can_join_society = {
		hidden_trigger = {
			NOT = { has_game_rule = { name = devil_worshipers value = none } }
			NAND = {
				ai = yes
				is_society_rank_full = { 
					society = the_satanists
					rank = 1
				}
			}
			NOT_mythical_creature_trigger = yes
		}
		has_satanists_prerequisites = yes
		hidden_trigger = {
			NOT = { has_character_flag = society_join_block }
		}
		trigger_if = {
			limit = { prisoner = yes }
			prisoner = no
		}
	}

	show_society = {
		NOT = { has_game_rule = { name = devil_worshipers value = none } }
		age = 16
		religion = rhllor
	}

	potential = { } #no rules

	society_rank = {
		level = 1
		limit = 100 
		startup_limit = 5
		decisions = {
			decision_abduct
			prisoner_dark_sacrifice #Available Decision: Sacrifice Prisoner
			#Over time, lose virtues, gain vices. A Soul Corruption-effect is on a yearly pulse (with a chance to do nothing)
		}
		
		#custom_tooltip = unlockable_DW_powers_at_rank_2;
	}
	
	society_rank = { 
		level = 2
		limit = 50
		startup_limit = 3
		modifier = { 
			is_visible = {
				OR = {
					society_member_of = the_satanists
					FROM = { is_society_discovered = yes }
				}
			}
			intrigue = 1
		}
		decisions = {
			devil_worshipers_summon_familiar #Available Power: Summon Familiar
			the_devil_worshipers_tainted_touch #Available Power: Curse people with disease
			devil_worshipers_demonic_possession #Available Power: Possess someone to make fanatically loyal
			#Available Power: Abduction plot
			#unlock new options in Seduction and Spy On?
		}
		
		#custom_tooltip = unlockable_DW_powers_at_rank_3;
	}
	
	society_rank = {
		level = 3
		limit = 25 
		startup_limit = 2
		modifier = {
			is_visible = {
				OR = {
					society_member_of = the_satanists
					FROM = { is_society_discovered = yes }
				}
			}
			intrigue = 2
		}
		decisions = {
			devil_worshipers_dark_divorce #Available Power: Dark Divorce
			devil_worshipers_dark_healing #Available Power: Demonic Healing. Sacrifice a prisoner to heal a random illness or maiming.
			devil_worshipers_invite_disciple_of_devil #Available Decision: Invite a witch to court
			#Available Power: Love Potion
		}
		
		#custom_tooltip = unlockable_DW_powers_at_rank_4;
	}

	society_rank = {
		level = 4
		limit = 1 
		startup_limit = 1
		modifier = { 
			is_visible = {
				OR = {
					society_member_of = the_satanists
					FROM = { is_society_discovered = yes }
				}
			}
			intrigue = 3
		}
		decisions = {		
			DW_prolong_life #Available Power: Prolong Life
			DW_demonic_impregnation #Available power: Unholy Impregnation
		}
		obedience_tooltip = obedience_tooltip #this can be unique per rank/society 
		obedient = {
			ROOT = {
				always = yes
			}
		}
	}

	plots = {
		plot1_tag
		plot2_tag
	}
    
	ambitions = {
		ambition1_tag
		ambition2_tag
	}
    
	monthly_currency_gain = {
		name = currency_name_the_satanists
		
		has_trait = {
			trait = red_priest
			value = 3
		}
		has_trait = {
			trait = fire_obsessed
			value = -3
		}
		
		per_attribute = {
			name = intrigue
			value = 0.5
		}
		has_trait = {
			trait = ambitious
			value = 5
		}
		has_trait = {
			trait = genius
			value = 3
		}
		has_trait = {
			trait = quick
			value = 3
		}
		has_trait = {
			trait = shrewd
			value = 3
		}
		has_trait = {
			trait = hedonist
			value = 3
		}
		has_trait = {
			trait = mystic
			value = 3
		}
		has_trait = {
			trait = seducer
			value = 3
		}
		has_trait = {
			trait = seductress
			value = 3
		}
		has_trait = {
			trait = schemer
			value = 3
		}
		has_trait = {
			trait = impaler
			value = 3
		}	
		has_trait = {
			trait = lustful
			value = 1
		}
		has_trait = {
			trait = proud
			value = 1
		}
		has_trait = {
			trait = greedy
			value = 1
		}
		has_trait = {
			trait = deceitful
			value = 1
		}
		has_trait = {
			trait = arbitrary
			value = 1
		}
		has_trait = {
			trait = ruthless
			value = 1
		}
		society_rank = {
			rank = 4
			value = 10
		}
	}


	member_score_per_attribute = 3
	member_score_per_rank = 100


	member_score = {
		value = 10
		
		modifier = {
			trait = red_priest
			factor = 1.5
		}
		modifier = {
			trait = fire_obsessed
			factor = 0.66
		}
		
		modifier = {
			trait = ambitious
			factor = 1.5
		}
		modifier = {
			trait = genius
			factor = 1.3
		}
		modifier = {
			trait = quick
			factor = 1.3
		}
		modifier = {
			trait = shrewd
			factor = 1.3
		}
		modifier = {
			trait = hedonist
			factor = 1.3
		}
		modifier = {
			trait = mystic
			factor = 1.3
		}
		modifier = {
			trait = seducer
			factor = 1.3
		}
		modifier = {
			trait = seductress
			factor = 1.3
		}
		modifier = {
			trait = schemer
			factor = 1.3
		}
		modifier = {
			trait = impaler
			factor = 1.3
		}
		modifier = {
			trait = ruthless
			factor = 1.3
		}
		modifier = {
			trait = lustful
			factor = 1.1
		}
		modifier = {
			trait = proud
			factor = 1.1
		}
		modifier = {
			trait = greedy
			factor = 1.1
		}
		modifier = {
			trait = deceitful
			factor = 1.1
		}
		modifier = {
			trait = arbitrary
			factor = 1.1
		}
	}
	
	startup_populate = {
	    trigger = {
			NOT = { has_game_rule = { name = devil_worshipers value = none } }
			ai = yes
	    	controls_religion = no
			has_satanists_prerequisites = yes
			age = 16
			is_in_society = no
			NOT_mythical_creature_trigger = yes
			NOT = { trait = fire_obsessed }
			NOT = { higher_tier_than = COUNT }
			NOT = { father_even_if_dead = { higher_tier_than = COUNT } }
			NAND = {
				liege = {
					higher_tier_than = COUNT
					is_close_relative = PREV
				}
			}
			NOR = {
				mercenary = yes
				holy_order = yes
			}
		}
	}
}

the_trollcrafters = { #Cult of the Starry Wisdom
	primary_attribute = intrigue
	is_secret = yes
	criminal = yes
	devil_worshipper = yes
	opinion_to_other_members = +5
	opinion_to_pretenders = -40			#Pretenders is the opinion you have of people perceived/discovered to be in your society.
	opinion_to_perceived_members = -40	#Perceived is the opinion you have of people perceived/discovered to be of a society you're not part of
	opinion_per_rank_above = +10
	sound = devil_worshippers_interface
	society_ranks_gfx = devil_ranks
	
	active = {
		has_dlc = "Mystics"
		NOT = { has_game_rule = { name = devil_worshipers value = none } }
	}
	indestructible = yes
	
	can_join_society = {
		hidden_trigger = {
			NOT = { has_game_rule = { name = devil_worshipers value = none } }
			NAND = {
				ai = yes
				is_society_rank_full = { 
					society = the_trollcrafters
					rank = 1
				}
			}
			NOT_mythical_creature_trigger = yes
		}
		has_trollcrafters_prerequisites = yes
		hidden_trigger = {
			NOT = { has_character_flag = society_join_block }
		}
		trigger_if = {
			limit = { prisoner = yes }
			prisoner = no
		}
	}
	
	show_society = {
		NOT = { has_game_rule = { name = devil_worshipers value = none } }
		age = 16
		NOR = {
			religion = rhllor
			is_drowned_god_religion_trigger = yes
			is_old_gods_religion_trigger = yes
			religion = the_seven
		}
	}
	
	potential = { } #no rules
	
	society_rank = {
		level = 1
		limit = 100 
		startup_limit = 10
		decisions = {
			decision_abduct
			prisoner_dark_sacrifice #Available Decision: Sacrifice Prisoner
			#Over time, lose virtues, gain vices. A Soul Corruption-effect is on a yearly pulse (with a chance to do nothing)
		}
		
		#custom_tooltip = unlockable_DW_powers_at_rank_2;
	}
	
	society_rank = { 
		level = 2
		limit = 50
		startup_limit = 6
		modifier = { 
			is_visible = {
				OR = {
					society_member_of = the_satanists
					FROM = { is_society_discovered = yes }
				}
			}
			intrigue = 1
		}
		decisions = {
			devil_worshipers_summon_familiar #Available Power: Summon Familiar
			the_devil_worshipers_tainted_touch #Available Power: Curse people with disease
			devil_worshipers_demonic_possession #Available Power: Possess someone to make fanatically loyal
			#Available Power: Abduction plot
			#unlock new options in Seduction and Spy On?
		}
		
		#custom_tooltip = unlockable_DW_powers_at_rank_3;
	}
	
	society_rank = {
		level = 3
		limit = 25 
		startup_limit = 3
		modifier = {
			is_visible = {
				OR = {
					society_member_of = the_satanists
					FROM = { is_society_discovered = yes }
				}
			}
			intrigue = 2
		}
		decisions = {
			devil_worshipers_dark_divorce #Available Power: Dark Divorce
			devil_worshipers_dark_healing #Available Power: Demonic Healing. Sacrifice a prisoner to heal a random illness or maiming.
			devil_worshipers_invite_disciple_of_devil #Available Decision: Invite a witch to court
			#Available Power: Love Potion
		}
		
		#custom_tooltip = unlockable_DW_powers_at_rank_4;
	}

	society_rank = {
		level = 4
		limit = 1 
		startup_limit = 1
		modifier = { 
			is_visible = {
				OR = {
					society_member_of = the_satanists
					FROM = { is_society_discovered = yes }
				}
			}
			intrigue = 3
		}
		decisions = {		
			DW_prolong_life #Available Power: Prolong Life
			DW_demonic_impregnation #Available power: Unholy Impregnation
		}
		obedience_tooltip = obedience_tooltip #this can be unique per rank/society 
		obedient = {
			ROOT = {
				always = yes
			}
		}
	}

	plots = {
		plot1_tag
		plot2_tag
	}
    
	ambitions = {
		ambition1_tag
		ambition2_tag
	}
    
	monthly_currency_gain = {
		name = currency_name_the_trollcrafters
    
		per_attribute = {
			name = intrigue
			value = 0.5
		}
		has_trait = {
			trait = ambitious
			value = 5
		}
		has_trait = {
			trait = genius
			value = 3
		}
		has_trait = {
			trait = quick
			value = 3
		}
		has_trait = {
			trait = shrewd
			value = 3
		}
		has_trait = {
			trait = hedonist
			value = 3
		}
		has_trait = {
			trait = mystic
			value = 3
		}
		has_trait = {
			trait = seducer
			value = 3
		}
		has_trait = {
			trait = seductress
			value = 3
		}
		has_trait = {
			trait = schemer
			value = 3
		}
		has_trait = {
			trait = impaler
			value = 3
		}
		has_trait = {
			trait = one_eyed
			value = 3
		}
		has_trait = {
			trait = lustful
			value = 1
		}
		has_trait = {
			trait = proud
			value = 1
		}
		has_trait = {
			trait = greedy
			value = 1
		}
		has_trait = {
			trait = deceitful
			value = 1
		}
		has_trait = {
			trait = arbitrary
			value = 1
		}
		has_trait = {
			trait = ruthless
			value = 1
		}
		society_rank = {
			rank = 4
			value = 10
		}
	}


	member_score_per_attribute = 3
	member_score_per_rank = 100


	member_score = {
		value = 10

		modifier = {
			trait = ambitious
			factor = 1.5
		}
		modifier = {
			trait = genius
			factor = 1.3
		}
		modifier = {
			trait = quick
			factor = 1.3
		}
		modifier = {
			trait = shrewd
			factor = 1.3
		}
		modifier = {
			trait = hedonist
			factor = 1.3
		}
		modifier = {
			trait = mystic
			factor = 1.3
		}
		modifier = {
			trait = seducer
			factor = 1.3
		}
		modifier = {
			trait = seductress
			factor = 1.3
		}
		modifier = {
			trait = schemer
			factor = 1.3
		}
		modifier = {
			trait = impaler
			factor = 1.3
		}
		modifier = {
			trait = ruthless
			factor = 1.3
		}
		modifier = {
			trait = one_eyed
			factor = 1.3
		}
		modifier = {
			trait = lustful
			factor = 1.1
		}
		modifier = {
			trait = proud
			factor = 1.1
		}
		modifier = {
			trait = greedy
			factor = 1.1
		}
		modifier = {
			trait = deceitful
			factor = 1.1
		}
		modifier = {
			trait = arbitrary
			factor = 1.1
		}
	}
	
	startup_populate = {
	    trigger = {
			NOT = { has_game_rule = { name = devil_worshipers value = none } }
			ai = yes
	    	controls_religion = no 
			has_trollcrafters_prerequisites = yes
			age = 16
			is_in_society = no
			NOT_mythical_creature_trigger = yes
			NOT = { higher_tier_than = COUNT }
			NOT = { father_even_if_dead = { higher_tier_than = COUNT } }
			NAND = {
				liege = {
					higher_tier_than = COUNT
					is_close_relative = PREV
				}
			}
			NOR = {
				mercenary = yes
				holy_order = yes
			}
		}
	}
}


the_cult_of_kali = { #The Storm God
	primary_attribute = intrigue
	is_secret = yes
	criminal = yes
	devil_worshipper = yes
	opinion_to_other_members = +5
	opinion_to_pretenders = -40			#Pretenders is the opinion you have of people perceived/discovered to be in your society.
	opinion_to_perceived_members = -40	#Perceived is the opinion you have of people perceived/discovered to be of a society you're not part of
	opinion_per_rank_above = +10
	sound = devil_worshippers_interface
	society_ranks_gfx = devil_ranks
	
	active = {
		has_dlc = "Mystics"
		NOT = { has_game_rule = { name = devil_worshipers value = none } }
	}
	indestructible = yes
	
	can_join_society = {
		hidden_trigger = {
			NOT = { has_game_rule = { name = devil_worshipers value = none } }
			NAND = {
				ai = yes
				is_society_rank_full = { 
					society = the_cult_of_kali
					rank = 1
				}
			}
			NOT_mythical_creature_trigger = yes
		}
		has_cult_of_kali_prerequisites = yes
		hidden_trigger = {
			NOT = { has_character_flag = society_join_block }
		}
		trigger_if = {
			limit = { prisoner = yes }
			prisoner = no
		}
	}
	
	show_society = {
		NOT = { has_game_rule = { name = devil_worshipers value = none } }
		age = 16
		is_drowned_god_religion_trigger = yes
	}
	
	potential = { } #no rules

	society_rank = {
		level = 1
		limit = 100 
		startup_limit = 5
		decisions = {
			decision_abduct
			prisoner_dark_sacrifice #Available Decision: Sacrifice Prisoner
			#Over time, lose virtues, gain vices. A Soul Corruption-effect is on a yearly pulse (with a chance to do nothing)
		}
		
		#custom_tooltip = unlockable_DW_powers_at_rank_2;
	}
	
	society_rank = { 
		level = 2
		limit = 50
		startup_limit = 3
		modifier = { 
			is_visible = {
				OR = {
					society_member_of = the_satanists
					FROM = { is_society_discovered = yes }
				}
			}
			intrigue = 1
		}
		decisions = {
			devil_worshipers_summon_familiar #Available Power: Summon Familiar
			the_devil_worshipers_tainted_touch #Available Power: Curse people with disease
			devil_worshipers_demonic_possession #Available Power: Possess someone to make fanatically loyal
			#Available Power: Abduction plot
			#unlock new options in Seduction and Spy On?
		}
		
		#custom_tooltip = unlockable_DW_powers_at_rank_3;
	}
	
	society_rank = {
		level = 3
		limit = 25 
		startup_limit = 2
		modifier = {
			is_visible = {
				OR = {
					society_member_of = the_satanists
					FROM = { is_society_discovered = yes }
				}
			}
			intrigue = 2
		}
		decisions = {
			devil_worshipers_dark_divorce #Available Power: Dark Divorce
			devil_worshipers_dark_healing #Available Power: Demonic Healing. Sacrifice a prisoner to heal a random illness or maiming.
			devil_worshipers_invite_disciple_of_devil #Available Decision: Invite a witch to court
			#Available Power: Love Potion
		}
		
		#custom_tooltip = unlockable_DW_powers_at_rank_4;
	}

	society_rank = {
		level = 4
		limit = 1 
		startup_limit = 1
		modifier = { 
			is_visible = {
				OR = {
					society_member_of = the_satanists
					FROM = { is_society_discovered = yes }
				}
			}
			intrigue = 3
		}
		decisions = {		
			DW_prolong_life #Available Power: Prolong Life
			DW_demonic_impregnation #Available power: Unholy Impregnation
		}
		obedience_tooltip = obedience_tooltip #this can be unique per rank/society 
		obedient = {
			ROOT = {
				always = yes
			}
		}
	}

	plots = {
		plot1_tag
		plot2_tag
	}
    
	ambitions = {
		ambition1_tag
		ambition2_tag
	}
    
	monthly_currency_gain = {
		name = currency_name_the_cult_of_kali
    
		per_attribute = {
			name = intrigue
			value = 0.5
		}
		has_trait = {
			trait = ambitious
			value = 5
		}
		has_trait = {
			trait = genius
			value = 3
		}
		has_trait = {
			trait = quick
			value = 3
		}
		has_trait = {
			trait = shrewd
			value = 3
		}
		has_trait = {
			trait = hedonist
			value = 3
		}
		has_trait = {
			trait = mystic
			value = 3
		}
		has_trait = {
			trait = seducer
			value = 3
		}
		has_trait = {
			trait = seductress
			value = 3
		}
		has_trait = {
			trait = schemer
			value = 3
		}
		has_trait = {
			trait = impaler
			value = 3
		}
		has_trait = {
			trait = lustful
			value = 1
		}
		has_trait = {
			trait = proud
			value = 1
		}
		has_trait = {
			trait = greedy
			value = 1
		}
		has_trait = {
			trait = deceitful
			value = 1
		}
		has_trait = {
			trait = arbitrary
			value = 1
		}
		has_trait = {
			trait = ruthless
			value = 1
		}
		society_rank = {
			rank = 4
			value = 10
		}
	}

	member_score_per_attribute = 3
	member_score_per_rank = 100

	member_score = {
		value = 10

		modifier = {
			trait = ambitious
			factor = 1.5
		}
		modifier = {
			trait = genius
			factor = 1.3
		}
		modifier = {
			trait = quick
			factor = 1.3
		}
		modifier = {
			trait = shrewd
			factor = 1.3
		}
		modifier = {
			trait = hedonist
			factor = 1.3
		}
		modifier = {
			trait = mystic
			factor = 1.3
		}
		modifier = {
			trait = seducer
			factor = 1.3
		}
		modifier = {
			trait = seductress
			factor = 1.3
		}
		modifier = {
			trait = schemer
			factor = 1.3
		}
		modifier = {
			trait = impaler
			factor = 1.3
		}
		modifier = {
			trait = ruthless
			factor = 1.3
		}
		modifier = {
			trait = lustful
			factor = 1.1
		}
		modifier = {
			trait = proud
			factor = 1.1
		}
		modifier = {
			trait = greedy
			factor = 1.1
		}
		modifier = {
			trait = deceitful
			factor = 1.1
		}
		modifier = {
			trait = arbitrary
			factor = 1.1
		}
	}
	
	startup_populate = {
	    trigger = {
			NOT = { has_game_rule = { name = devil_worshipers value = none } }
			ai = yes
	    	controls_religion = no
    		has_cult_of_kali_prerequisites = yes
			age = 16
			is_in_society = no
			NOT_mythical_creature_trigger = yes
			NOT = { higher_tier_than = COUNT }
			NOT = { father_even_if_dead = { higher_tier_than = COUNT } }
			NAND = {
				liege = {
					higher_tier_than = COUNT
					is_close_relative = PREV
				}
			}
			NOR = {
				mercenary = yes
				holy_order = yes
			}
		}
	}
}

the_cold_ones = { #The Others
	primary_attribute = intrigue
	is_secret = yes
	criminal = yes
	devil_worshipper = yes
	opinion_to_other_members = +5
	opinion_to_pretenders = -40			#Pretenders is the opinion you have of people perceived/discovered to be in your society.
	opinion_to_perceived_members = -40	#Perceived is the opinion you have of people perceived/discovered to be of a society you're not part of
	opinion_per_rank_above = +10
	sound = devil_worshippers_interface
	society_ranks_gfx = devil_ranks
	
	active = {
		has_dlc = "Mystics"
		NOT = { has_game_rule = { name = devil_worshipers value = none } }
	}
	indestructible = yes
	
	can_join_society = {
		hidden_trigger = {
			NOT = { has_game_rule = { name = devil_worshipers value = none } }
			NAND = {
				ai = yes
				is_society_rank_full = { 
					society = the_cold_ones
					rank = 1
				}
			}
			NOT_mythical_creature_trigger = yes
		}
		has_cold_ones_prerequisites = yes
		hidden_trigger = {
			NOT = { has_character_flag = society_join_block }
		}
		trigger_if = {
			limit = { prisoner = yes }
			prisoner = no
		}
	}

	show_society = {
		NOT = { has_game_rule = { name = devil_worshipers value = none } }
		age = 16
		is_old_gods_religion_trigger = yes
	}

	society_rank = {
		level = 1
		limit = 100 
		startup_limit = 5
		decisions = {
			decision_abduct
			prisoner_dark_sacrifice #Available Decision: Sacrifice Prisoner
			#Over time, lose virtues, gain vices. A Soul Corruption-effect is on a yearly pulse (with a chance to do nothing)
		}
		
		#custom_tooltip = unlockable_DW_powers_at_rank_2;
	}
	
	society_rank = { 
		level = 2
		limit = 50
		startup_limit = 3
		modifier = { 
			is_visible = {
				OR = {
					society_member_of = the_satanists
					FROM = { is_society_discovered = yes }
				}
			}
			intrigue = 1
		}
		decisions = {
			devil_worshipers_summon_familiar #Available Power: Summon Familiar
			the_devil_worshipers_tainted_touch #Available Power: Curse people with disease
			devil_worshipers_demonic_possession #Available Power: Possess someone to make fanatically loyal
			#Available Power: Abduction plot
			#unlock new options in Seduction and Spy On?
		}
		
		#custom_tooltip = unlockable_DW_powers_at_rank_3;
	}
	
	society_rank = {
		level = 3
		limit = 25 
		startup_limit = 2
		modifier = {
			is_visible = {
				OR = {
					society_member_of = the_satanists
					FROM = { is_society_discovered = yes }
				}
			}
			intrigue = 2
		}
		decisions = {
			devil_worshipers_dark_divorce #Available Power: Dark Divorce
			devil_worshipers_dark_healing #Available Power: Demonic Healing. Sacrifice a prisoner to heal a random illness or maiming.
			devil_worshipers_invite_disciple_of_devil #Available Decision: Invite a witch to court
			#Available Power: Love Potion
		}
		
		#custom_tooltip = unlockable_DW_powers_at_rank_4;
	}

	society_rank = {
		level = 4
		limit = 1 
		startup_limit = 1
		modifier = { 
			is_visible = {
				OR = {
					society_member_of = the_satanists
					FROM = { is_society_discovered = yes }
				}
			}
			intrigue = 3
		}
		decisions = {		
			DW_prolong_life #Available Power: Prolong Life
			DW_demonic_impregnation #Available power: Unholy Impregnation
		}
		obedience_tooltip = obedience_tooltip #this can be unique per rank/society 
		obedient = {
			ROOT = {
				always = yes
			}
		}
	}
    
	
	monthly_currency_gain = {
		name = currency_name_the_cold_ones
    
		per_attribute = {
			name = intrigue
			value = 0.5
		}
		has_trait = {
			trait = ambitious
			value = 5
		}
		has_trait = {
			trait = genius
			value = 3
		}
		has_trait = {
			trait = quick
			value = 3
		}
		has_trait = {
			trait = shrewd
			value = 3
		}
		has_trait = {
			trait = hedonist
			value = 3
		}
		has_trait = {
			trait = mystic
			value = 3
		}
		has_trait = {
			trait = seducer
			value = 3
		}
		has_trait = {
			trait = seductress
			value = 3
		}
		has_trait = {
			trait = schemer
			value = 3
		}
		has_trait = {
			trait = impaler
			value = 3
		}
		has_trait = {
			trait = lustful
			value = 1
		}
		has_trait = {
			trait = proud
			value = 1
		}
		has_trait = {
			trait = greedy
			value = 1
		}
		has_trait = {
			trait = deceitful
			value = 1
		}
		has_trait = {
			trait = arbitrary
			value = 1
		}
		has_trait = {
			trait = ruthless
			value = 1
		}
		society_rank = {
			rank = 4
			value = 10
		}
	}


	member_score_per_attribute = 3
	member_score_per_rank = 100


	member_score = {
		value = 10

		modifier = {
			trait = ambitious
			factor = 1.5
		}
		modifier = {
			trait = genius
			factor = 1.3
		}
		modifier = {
			trait = quick
			factor = 1.3
		}
		modifier = {
			trait = shrewd
			factor = 1.3
		}
		modifier = {
			trait = hedonist
			factor = 1.3
		}
		modifier = {
			trait = mystic
			factor = 1.3
		}
		modifier = {
			trait = seducer
			factor = 1.3
		}
		modifier = {
			trait = seductress
			factor = 1.3
		}
		modifier = {
			trait = schemer
			factor = 1.3
		}
		modifier = {
			trait = impaler
			factor = 1.3
		}
		modifier = {
			trait = ruthless
			factor = 1.3
		}
		modifier = {
			trait = lustful
			factor = 1.1
		}
		modifier = {
			trait = proud
			factor = 1.1
		}
		modifier = {
			trait = greedy
			factor = 1.1
		}
		modifier = {
			trait = deceitful
			factor = 1.1
		}
		modifier = {
			trait = arbitrary
			factor = 1.1
		}
	}

	startup_populate = {
	    trigger = {
			NOT = { has_game_rule = { name = devil_worshipers value = none } }
			ai = yes
	    	controls_religion = no
			has_cold_ones_prerequisites = yes
			age = 16
			is_in_society = no
			NOT_mythical_creature_trigger = yes
			NOT = { higher_tier_than = COUNT }
			NOT = { father_even_if_dead = { higher_tier_than = COUNT } }
			NAND = {
				liege = {
					higher_tier_than = COUNT
					is_close_relative = PREV
				}
			}
			NOR = {
				mercenary = yes
				holy_order = yes
			}
		}
	}
	
}

the_plaguebringers = { #The Stranger
	primary_attribute = intrigue
	is_secret = yes
	criminal = yes
	devil_worshipper = yes
	opinion_to_other_members = +5
	opinion_to_pretenders = -40			#Pretenders is the opinion you have of people perceived/discovered to be in your society.
	opinion_to_perceived_members = -40	#Perceived is the opinion you have of people perceived/discovered to be of a society you're not part of
	opinion_per_rank_above = +10
	sound = devil_worshippers_interface
	society_ranks_gfx = devil_ranks
	
	active = {
		has_dlc = "Mystics"
		NOT = { has_game_rule = { name = devil_worshipers value = none } }
	}
	indestructible = yes
	
	can_join_society = {
		hidden_trigger = {
			NOT = { has_game_rule = { name = devil_worshipers value = none } }
			NAND = {
				ai = yes
				is_society_rank_full = { 
					society = the_plaguebringers
					rank = 1
				}
			}
			NOT_mythical_creature_trigger = yes
		}
		has_plaguebringers_prerequisites = yes
		hidden_trigger = {
			NOT = { has_character_flag = society_join_block }
		}
		trigger_if = {
			limit = { prisoner = yes }
			prisoner = no
		}
	}
	
	show_society = {
		NOT = { has_game_rule = { name = devil_worshipers value = none } }
		age = 16
		religion = the_seven
	}
	
	society_rank = {
		level = 1
		limit = 100 
		startup_limit = 5
		decisions = {
			decision_abduct
			prisoner_dark_sacrifice #Available Decision: Sacrifice Prisoner
			#Over time, lose virtues, gain vices. A Soul Corruption-effect is on a yearly pulse (with a chance to do nothing)
		}
		
		#custom_tooltip = unlockable_DW_powers_at_rank_2;
	}
	
	society_rank = { 
		level = 2
		limit = 50
		startup_limit = 3
		modifier = { 
			is_visible = {
				OR = {
					society_member_of = the_satanists
					FROM = { is_society_discovered = yes }
				}
			}
			intrigue = 1
		}
		decisions = {
			devil_worshipers_summon_familiar #Available Power: Summon Familiar
			the_devil_worshipers_tainted_touch #Available Power: Curse people with disease
			devil_worshipers_demonic_possession #Available Power: Possess someone to make fanatically loyal
			#Available Power: Abduction plot
			#unlock new options in Seduction and Spy On?
		}
		
		#custom_tooltip = unlockable_DW_powers_at_rank_3;
	}
	
	society_rank = {
		level = 3
		limit = 25 
		startup_limit = 2
		modifier = {
			is_visible = {
				OR = {
					society_member_of = the_satanists
					FROM = { is_society_discovered = yes }
				}
			}
			intrigue = 2
		}
		decisions = {
			devil_worshipers_dark_divorce #Available Power: Dark Divorce
			devil_worshipers_dark_healing #Available Power: Demonic Healing. Sacrifice a prisoner to heal a random illness or maiming.
			devil_worshipers_invite_disciple_of_devil #Available Decision: Invite a witch to court
			#Available Power: Love Potion
		}
		
		#custom_tooltip = unlockable_DW_powers_at_rank_4;
	}

	society_rank = {
		level = 4
		limit = 1 
		startup_limit = 1
		modifier = { 
			is_visible = {
				OR = {
					society_member_of = the_satanists
					FROM = { is_society_discovered = yes }
				}
			}
			intrigue = 3
		}
		decisions = {		
			DW_prolong_life #Available Power: Prolong Life
			DW_demonic_impregnation #Available power: Unholy Impregnation
		}
		obedience_tooltip = obedience_tooltip #this can be unique per rank/society 
		obedient = {
			ROOT = {
				always = yes
			}
		}
	}

	plots = {
		plot1_tag
		plot2_tag
	}
    
	ambitions = {
		ambition1_tag
		ambition2_tag
	}
    
	monthly_currency_gain = {
		name = currency_name_the_plaguebringers
    
		per_attribute = {
			name = intrigue
			value = 0.5
		}
		has_trait = {
			trait = ambitious
			value = 5
		}
		has_trait = {
			trait = genius
			value = 3
		}
		has_trait = {
			trait = quick
			value = 3
		}
		has_trait = {
			trait = shrewd
			value = 3
		}
		has_trait = {
			trait = hedonist
			value = 3
		}
		has_trait = {
			trait = mystic
			value = 3
		}
		has_trait = {
			trait = seducer
			value = 3
		}
		has_trait = {
			trait = seductress
			value = 3
		}
		has_trait = {
			trait = schemer
			value = 3
		}
		has_trait = {
			trait = impaler
			value = 3
		}
		has_trait = {
			trait = lustful
			value = 1
		}
		has_trait = {
			trait = proud
			value = 1
		}
		has_trait = {
			trait = greedy
			value = 1
		}
		has_trait = {
			trait = deceitful
			value = 1
		}
		has_trait = {
			trait = arbitrary
			value = 1
		}
		has_trait = {
			trait = ruthless
			value = 1
		}
		society_rank = {
			rank = 4
			value = 10
		}
	}


	member_score_per_attribute = 3
	member_score_per_rank = 100


	member_score = {
		value = 10

		modifier = {
			trait = ambitious
			factor = 1.5
		}
		modifier = {
			trait = genius
			factor = 1.3
		}
		modifier = {
			trait = quick
			factor = 1.3
		}
		modifier = {
			trait = shrewd
			factor = 1.3
		}
		modifier = {
			trait = hedonist
			factor = 1.3
		}
		modifier = {
			trait = mystic
			factor = 1.3
		}
		modifier = {
			trait = seducer
			factor = 1.3
		}
		modifier = {
			trait = seductress
			factor = 1.3
		}
		modifier = {
			trait = schemer
			factor = 1.3
		}
		modifier = {
			trait = impaler
			factor = 1.3
		}
		modifier = {
			trait = ruthless
			factor = 1.3
		}
		modifier = {
			trait = lustful
			factor = 1.1
		}
		modifier = {
			trait = proud
			factor = 1.1
		}
		modifier = {
			trait = greedy
			factor = 1.1
		}
		modifier = {
			trait = deceitful
			factor = 1.1
		}
		modifier = {
			trait = arbitrary
			factor = 1.1
		}
	}
	
	startup_populate = {
	    trigger = {
			NOT = { has_game_rule = { name = devil_worshipers value = none } }
			ai = yes
	    	controls_religion = no 
		    has_plaguebringers_prerequisites = yes
			age = 16
			is_in_society = no
			NOT_mythical_creature_trigger = yes
			NOT = { higher_tier_than = COUNT }
			NOT = { father_even_if_dead = { higher_tier_than = COUNT } }
			NAND = {
				liege = {
					higher_tier_than = COUNT
					is_close_relative = PREV
				}
			}
			NOR = {
				mercenary = yes
				holy_order = yes
			}	
		}
	}
}

#WARRIOR LODGES:
#warrior_lodge_norse	IRONBORN
#warrior_lodge_tengri	DOTHRAKI
#warrior_lodge_finnish	WILDLING
#warrior_lodge_bon		HYRKOON

warrior_lodge_norse = { #IRONBORN
	primary_attribute = martial
	opinion_to_other_members = +10
	opinion_per_rank_above = +5
	sound = warrior_lodge_ambient_01
	society_ranks_gfx = warriors_ranks
	society_influence = no
	
	non_interference = {
		always = yes
	}
    
	active = {
		has_dlc = "Holy Fury"
	}
	indestructible = yes
	
	can_join_society = {
		hidden_trigger = {
			NAND = {
				ai = yes
				is_society_rank_full = { 
					society = warrior_lodge_norse
					rank = 1
				}
			}
		}
		is_adult = yes
		custom_tooltip = {
			text = has_not_angered_society_tt
			hidden_trigger = { NOT = { has_character_modifier = warrior_lodge_failed_joining_cd } }
		}
		NOT = { has_character_modifier = warrior_lodge_failed_joining_cd }
		hidden_trigger = {
			NOT = { has_character_flag = society_join_block }
		}
		trigger_if = {
			limit = { prisoner = yes }
			prisoner = no
		}
		OR = {
			culture_group = iron_isles_culture
			AND = {
				custom_tooltip = {
					text = society_has_at_least_10_members_tt
					FROM = { num_of_society_members >= 10 }
				}
				NOT = { trait = proud }
				is_drowned_god_religion_trigger = yes
				custom_tooltip = {
					text = special_join_warrior_lodge_trigger_tt
					special_join_warrior_lodge_trigger = yes
				}
			}
		}
		NOT = { trait = kingsguard }
		NOT = { trait = nightswatch }
		NOT = { trait = maester }
		NOT = { trait = archmaester }
	}

	show_society = {
		OR = {
			#You are this religion: will show only this lodge (the other "show_society"'s will make sure)
			culture_group = iron_isles_culture	
			is_drowned_god_religion_trigger = yes
			AND = {
				#You are of a religion that doesn't match *any* warrior lodge
				has_religion_matching_available_warrior_lodge_trigger = no
				
				OR = {
					#You have neighbors, etc, of the correct religion...
					any_vassal = { culture_group = iron_isles_culture }
					any_liege = { culture_group = iron_isles_culture }
					any_neighbor_independent_ruler = { culture_group = iron_isles_culture }
				}
			}
			NAND = { #Hide if: you don't have a religion that corresponds to this lodge, but there is another society available to you already
				NOT = { culture_group = iron_isles_culture }
				has_religion_matching_available_warrior_lodge_trigger = yes
			}
			#Always show if: You are already a member. Duh.
			society_member_of = warrior_lodge_norse
		}
	}

	potential = { #if you change religion or become zealous while NOT pagan, you are kicked out
		OR = {
			culture_group = iron_isles_culture
			AND = {
				NOT = { culture_group = iron_isles_culture }
				NOT = { trait = proud }
			}
		}
	}

	society_rank = { #"Fledling"
		level = 1
		limit = 50 
		startup_limit = 10
		modifier = {
			monthly_character_prestige = 0.25
		}
		powers = {
			warrior_lodge_duel #Passive Power: Unlocks Duel
			#warrior_lodge_shieldmaiden #Passive Power: Unlocks Shieldmaidens
			warrior_lodge_survivor #Passive Power: Survivor
			warrior_lodge_lifetime_of_war #Passive Power: A Lifetime of War
			
			warrior_lodge_norse_go_berserk #Power: Go Berserk
			#warrior_lodge_bon_toughness #Power: Toughness #TODO_CD: make + activate for Bon
		}
	}
	
	society_rank = { #"Warrior"
		level = 2
		limit = 20
		startup_limit = 6
		modifier = {
			monthly_character_prestige = 0.5
			combat_rating = 10
			martial = 1
		}

		
		powers = {
			warrior_lodge_reaver #Passive Power: Reaver

			warrior_lodge_warrior_training #Power: Warrior Training
			warrior_lodge_summon_commander #Power: Summon Commander
			#warrior_lodge_slavic_stand_together #Power: Stand Together #TODO_CD: make + activate for Slavic
			#warrior_lodge_zun_battle_trance #Power: Battle Trance #TODO_CD: make + activate for Zun
			#warrior_lodge_tengri_call_of_the_steppe #Power: Call of the Steppe #TODO_CD: make + activate for Tengri
		}
	}
	
	society_rank = { #"Veteran"
		level = 3
		limit = 10 
		startup_limit = 4
		modifier = {
			monthly_character_prestige = 0.75
			combat_rating = 20
			martial = 2
		}
		powers = {
			warrior_lodge_inspire_warriors #Power: Inspire Warriors
			warrior_lodge_war_sacrifice #Power: War Sacrifice
			#warrior_lodge_romuva_baltic_holds #Power: Baltic Holds #TODO_CD: make + activate for Romuva
			#warrior_lodge_suomenusko_summon_warriors #Power: Summon Warriors of Ukko #TODO_CD: make + activate for Suomenusko
		}
	}

	society_rank = { #"Hero"
		level = 4
		limit = 4
		startup_limit = 3
		modifier = { 
			monthly_character_prestige = 1
			combat_rating = 30
			martial = 3
		}

		powers = {
			warrior_lodge_indomitable #Passive Power: Indomitable

			warrior_lodge_call_to_glory #Power: Call to Glory
			warrior_lodge_choose_military_aspect #Power: Choose Military Aspect
			#warrior_lodge_west_african_create_fetish #Power: Create Fetish #TODO_CD: make + activate for West African
		}
	}

	plots = {
	
	}

	monthly_currency_gain = {
		name = currency_name_warrior_lodge_norse
    	
		per_attribute = {
    		name = martial
    		value = 0.25
    	}
    	has_trait = {
			trait = hunter
			value = 1
		}
		has_trait = {
			trait = strategist
			value = 1
		}
		has_trait = {
			trait = duelist
			value = 1
		}
		has_trait = {
			trait = skilled_warrior
			value = 1
		}
		has_trait = {
			trait = master_warrior
			value = 2
		}	
		has_trait = {
			trait = scarred
			value = 1
		}
		has_trait = {
			trait = scarred_mid
			value = 2
		}
		has_trait = {
			trait = scarred_high
			value = 3
		}
		has_trait = {
			trait = genius
			value = 1
		}
		has_trait = {
			trait = quick
			value = 1
		}
		has_trait = {
			trait = shrewd
			value = 1
		}
		has_trait = {
			trait = strong
			value = 3
		}
		has_trait = {
			trait = robust
			value = 2
		}
		has_trait = {
			trait = tall
			value = 2
		}
		has_trait = {
			trait = impaler
			value = 1
		}
		has_trait = {
			trait = falconer
			value = 1
		}
		has_trait = {
			trait = wroth
			value = 1
		}
		has_trait = {
			trait = proud
			value = 1
		}
		has_trait = {
			trait = patient
			value = 1
		}
		has_trait = {
			trait = diligent
			value = 1
		}
		has_trait = {
			trait = humble
			value = 1
		}
		has_trait = {
			trait = brave
			value = 2
		}
		has_trait = {
			trait = ambitious
			value = 1
		}
		has_trait = {
			trait = cruel
			value = 1
		}
		has_trait = {
			trait = stubborn
			value = 1
		}
		has_trait = {
			trait = adventurer
			value = 1
		}
		has_trait = {
			trait = viking
			value = 1
		}
		has_trait = {
			trait = pirate
			value = 1
		}
		has_trait = {
			trait = ravager
			value = 2
		}
		has_trait = {
			trait = seaking
			value = 3
		}
		has_trait = {
			trait = sea_queen
			value = 3
		}
		has_trait = {
			trait = shieldmaiden
			value = 1
		}
		has_trait = {
			trait = berserker
			value = 1
		}
		has_trait = {
			trait = varangian
			value = 1
		}
		has_trait = {
			trait = valhalla_bound
			value = 1
		}
		has_trait = {
			trait = eagle_warrior
			value = 1
		}
		has_trait = {
			trait = sun_warrior
			value = 1
		}
		has_trait = {
			trait = ukkos_shield
			value = 1
		}
		has_trait = {
			trait = nyames_shield
			value = 1
		}
		has_trait = {
			trait = peruns_chosen
			value = 1
		}
		has_trait = {
			trait = romuvas_own
			value = 1
		}
		has_trait = {
			trait = ares_own
			value = 1
		}
		has_trait = {
			trait = tengri_warrior
			value = 1
		}
		#NEGATIVE modifiers
		has_trait = {
			trait = craven
			value = -3
		}
		has_trait = {
			trait = weak
			value = -2
		}
		has_trait = {
			trait = feeble
			value = -1
		}
		has_trait = {
			trait = slothful
			value = -1
		}
		has_trait = {
			trait = content
			value = -1
		}
		has_trait = {
			trait = dwarf
			value = -1
		}
		has_trait = {
			trait = clubfooted
			value = -1
		}
		has_trait = {
			trait = hunchback
			value = -1
		}
	}
	
	member_score_per_attribute = 3
	member_score_per_rank = 100

	member_score = {
		value = 10

		#POSITIVE modifiers
		modifier = {
			trait = hunter
			factor = 1.3
		}
		modifier = {
			trait = strategist
			factor = 1.5
		}
		modifier = {
			trait = duelist
			factor = 1.5
		}
		modifier = {
			trait = misguided_warrior
			factor = 1.1
		}	
		modifier = {
			trait = tough_soldier
			factor = 1.2
		}
    	modifier = {
			trait = skilled_tactician
			factor = 1.4
		}
    	modifier = {
			trait = brilliant_strategist
			factor = 1.6
		}
		modifier = {
			trait = skilled_warrior
			factor = 1.4
		}
    	modifier = {
			trait = master_warrior
			factor = 1.6
		}
    	modifier = {
			trait = scarred
			factor = 1.1
		}
		modifier = {
			trait = one_eyed
			factor = 1.1
		}
		modifier = {
			trait = genius
			factor = 1.2
		}
		modifier = {
			trait = quick
			factor = 1.1
		}
		modifier = {
			trait = shrewd
			factor = 1.1
		}
		modifier = {
			trait = strong
			factor = 1.2
		}
		modifier = {
			trait = robust
			factor = 1.1
		}
		modifier = {
			trait = tall
			factor = 1.1
		}
		modifier = {
			trait = impaler
			factor = 1.1
		}
		modifier = {
			trait = falconer
			factor = 1.1
		}
		modifier = {
			trait = wroth
			factor = 1.1
		}
		modifier = {
			trait = proud
			factor = 1.1
		}
		modifier = {
			trait = patient
			factor = 1.1
		}
		modifier = {
			trait = diligent
			factor = 1.1
		}
		modifier = {
			trait = humble
			factor = 1.1
		}
		modifier = {
			trait = brave
			factor = 1.2
		}
		modifier = {
			trait = ambitious
			factor = 1.1
		}
		modifier = {
			trait = cruel
			factor = 1.1
		}
		modifier = {
			trait = stubborn
			factor = 1.1
		}
		modifier = {
			trait = adventurer
			factor = 1.1
		}
		modifier = {
			trait = viking
			factor = 1.1
		}
		modifier = {
			trait = ravager
			factor = 1.1
		}
		modifier = {
			trait = seaking
			factor = 1.1
		}
		modifier = {
			trait = sea_queen
			factor = 1.1
		}
		modifier = {
			trait = shieldmaiden
			factor = 1.1
		}
		modifier = {
			trait = berserker
			factor = 1.1
		}
		modifier = {
			trait = varangian
			factor = 1.1
		}
		modifier = {
			trait = valhalla_bound
			factor = 1.1
		}
		#NEGATIVE modifiers
		modifier = {
			trait = craven
			factor = 0.8
		}
		modifier = {
			trait = weak
			factor = 0.8
		}
		modifier = {
			trait = feeble
			factor = 0.8
		}
		modifier = {
			trait = slothful
			factor = 0.9
		}
		modifier = {
			trait = content
			factor = 0.9
		}
		modifier = {
			trait = dwarf
			factor = 0.8
		}
		modifier = {
			trait = clubfooted
			factor = 0.8
		}
		modifier = {
			trait = hunchback
			factor = 0.8
		}
	}	

	startup_populate = {
	    trigger = {
			ai = yes
			is_alive = yes
	    	controls_religion = no
		   	culture_group = iron_isles_culture
			is_adult = yes
			is_in_society = no
			AI_desires_warrior_lodge_membership_trigger = yes
			NOT = { trait = kingsguard }
			NOT = { trait = nightswatch }
			NOT = { trait = maester }
			NOT = { trait = archmaester }
		}
	}
}
warrior_lodge_tengri = { #DOTHRAKI
	primary_attribute = martial
	opinion_to_other_members = +10
	opinion_per_rank_above = +5
	sound = warrior_lodge_ambient_02
	society_ranks_gfx = warriors_ranks
	society_influence = no
	
	non_interference = {
		always = yes
	}
    
	active = {
		has_dlc = "Holy Fury"
	}
	indestructible = yes
	
	can_join_society = {
		hidden_trigger = {
			NAND = {
				ai = yes
				is_society_rank_full = { 
					society = warrior_lodge_tengri
					rank = 1
				}
			}
		}
		is_adult = yes
		custom_tooltip = {
			text = has_not_angered_society_tt
			hidden_trigger = { NOT = { has_character_modifier = warrior_lodge_failed_joining_cd } }
		}
		NOT = { has_character_modifier = warrior_lodge_failed_joining_cd }
		hidden_trigger = {
			NOT = { has_character_flag = society_join_block }
		}
		trigger_if = {
			limit = { prisoner = yes }
			prisoner = no
		}
		OR = {
			culture = dothraki
			AND = {
				custom_tooltip = {
					text = society_has_at_least_10_members_tt
					FROM = { num_of_society_members >= 10 }
				}
				NOT = { trait = proud }
				OR = {
					has_tribal_or_nomadic_government_trigger = yes
					religion = dothraki_pagan
				}
				custom_tooltip = {
					text = special_join_warrior_lodge_trigger_tt
					special_join_warrior_lodge_trigger = yes
				}
			}
		}
		NOT = { trait = kingsguard }
		NOT = { trait = nightswatch }
		NOT = { trait = maester }
		NOT = { trait = archmaester }
	}

	show_society = {
		OR = {
			#You are this religion: will show only this lodge (the other "show_society"'s will make sure)
			culture = dothraki	
			has_tribal_or_nomadic_government_trigger = yes
			religion = dothraki_pagan
			AND = {
				#You are of a religion that doesn't match *any* warrior lodge
				has_religion_matching_available_warrior_lodge_trigger = no
				
				OR = {
					#You have neighbors, etc, of the correct religion...
					any_vassal = { culture = dothraki }
					any_liege = { culture = dothraki }
					any_neighbor_independent_ruler = { culture = dothraki }
				}
			}
			NAND = { #Hide if: you don't have a religion that corresponds to this lodge, but there is another society available to you already
				NOT = { culture = dothraki }
				has_religion_matching_available_warrior_lodge_trigger = yes
			}
			#Always show if: You are already a member. Duh.
			society_member_of = warrior_lodge_tengri
		}
	}

	potential = { #if you change religion or become zealous while NOT pagan, you are kicked out
		OR = {
			culture = dothraki	
			AND = {
				NOT = { culture = dothraki }
				NOT = { trait = proud }
			}
		}
	}

	society_rank = { #"Fledling"
		level = 1
		limit = 50 
		startup_limit = 10
		modifier = {
			monthly_character_prestige = 0.25
		}
		powers = {
			warrior_lodge_duel #Passive Power: Unlocks Duel
			#warrior_lodge_shieldmaiden #Passive Power: Unlocks Shieldmaidens
			warrior_lodge_survivor #Passive Power: Survivor
			warrior_lodge_lifetime_of_war #Passive Power: A Lifetime of War
			
			#warrior_lodge_norse_go_berserk #Power: Go Berserk
			#warrior_lodge_bon_toughness #Power: Toughness #TODO_CD: make + activate for Bon
		}
	}
	
	society_rank = { #"Warrior"
		level = 2
		limit = 20
		startup_limit = 6
		modifier = {
			monthly_character_prestige = 0.5
			combat_rating = 10
			martial = 1
		}

		
		powers = {
			warrior_lodge_reaver #Passive Power: Reaver

			warrior_lodge_warrior_training #Power: Warrior Training
			warrior_lodge_summon_commander #Power: Summon Commander
			#warrior_lodge_slavic_stand_together #Power: Stand Together #TODO_CD: make + activate for Slavic
			#warrior_lodge_zun_battle_trance #Power: Battle Trance #TODO_CD: make + activate for Zun
			warrior_lodge_tengri_call_of_the_steppe #Power: Call of the Steppe #TODO_CD: make + activate for Tengri
		}
	}
	
	society_rank = { #"Veteran"
		level = 3
		limit = 10 
		startup_limit = 4
		modifier = {
			monthly_character_prestige = 0.75
			combat_rating = 20
			martial = 2
		}
		powers = {
			warrior_lodge_inspire_warriors #Power: Inspire Warriors
			warrior_lodge_war_sacrifice #Power: War Sacrifice
			#warrior_lodge_romuva_baltic_holds #Power: Baltic Holds #TODO_CD: make + activate for Romuva
			#warrior_lodge_suomenusko_summon_warriors #Power: Summon Warriors of Ukko #TODO_CD: make + activate for Suomenusko
		}
	}

	society_rank = { #"Hero"
		level = 4
		limit = 4
		startup_limit = 3
		modifier = { 
			monthly_character_prestige = 1
			combat_rating = 30
			martial = 3
		}

		powers = {
			warrior_lodge_indomitable #Passive Power: Indomitable

			warrior_lodge_call_to_glory #Power: Call to Glory
			warrior_lodge_choose_military_aspect #Power: Choose Military Aspect
			#warrior_lodge_west_african_create_fetish #Power: Create Fetish #TODO_CD: make + activate for West African
		}
	}

	plots = {
	
	}

	monthly_currency_gain = {
		name = currency_name_warrior_lodge_norse
    	
		per_attribute = {
    		name = martial
    		value = 0.25
    	}
    	has_trait = {
			trait = hunter
			value = 1
		}
		has_trait = {
			trait = strategist
			value = 1
		}
		has_trait = {
			trait = duelist
			value = 1
		}
		has_trait = {
			trait = skilled_warrior
			value = 1
		}
		has_trait = {
			trait = master_warrior
			value = 2
		}	
		has_trait = {
			trait = scarred
			value = 1
		}
		has_trait = {
			trait = scarred_mid
			value = 2
		}
		has_trait = {
			trait = scarred_high
			value = 3
		}
		has_trait = {
			trait = genius
			value = 1
		}
		has_trait = {
			trait = quick
			value = 1
		}
		has_trait = {
			trait = shrewd
			value = 1
		}
		has_trait = {
			trait = strong
			value = 3
		}
		has_trait = {
			trait = robust
			value = 2
		}
		has_trait = {
			trait = tall
			value = 2
		}
		has_trait = {
			trait = impaler
			value = 1
		}
		has_trait = {
			trait = falconer
			value = 1
		}
		has_trait = {
			trait = wroth
			value = 1
		}
		has_trait = {
			trait = proud
			value = 1
		}
		has_trait = {
			trait = patient
			value = 1
		}
		has_trait = {
			trait = diligent
			value = 1
		}
		has_trait = {
			trait = humble
			value = 1
		}
		has_trait = {
			trait = brave
			value = 2
		}
		has_trait = {
			trait = ambitious
			value = 1
		}
		has_trait = {
			trait = cruel
			value = 1
		}
		has_trait = {
			trait = stubborn
			value = 1
		}
		has_trait = {
			trait = adventurer
			value = 1
		}
		has_trait = {
			trait = viking
			value = 1
		}
		has_trait = {
			trait = pirate
			value = 1
		}
		has_trait = {
			trait = ravager
			value = 2
		}
		has_trait = {
			trait = seaking
			value = 3
		}
		has_trait = {
			trait = sea_queen
			value = 3
		}
		has_trait = {
			trait = shieldmaiden
			value = 1
		}
		has_trait = {
			trait = berserker
			value = 1
		}
		has_trait = {
			trait = varangian
			value = 1
		}
		has_trait = {
			trait = valhalla_bound
			value = 1
		}
		has_trait = {
			trait = eagle_warrior
			value = 1
		}
		has_trait = {
			trait = sun_warrior
			value = 1
		}
		has_trait = {
			trait = ukkos_shield
			value = 1
		}
		has_trait = {
			trait = nyames_shield
			value = 1
		}
		has_trait = {
			trait = peruns_chosen
			value = 1
		}
		has_trait = {
			trait = romuvas_own
			value = 1
		}
		has_trait = {
			trait = ares_own
			value = 1
		}
		has_trait = {
			trait = tengri_warrior
			value = 1
		}
		#NEGATIVE modifiers
		has_trait = {
			trait = craven
			value = -3
		}
		has_trait = {
			trait = weak
			value = -2
		}
		has_trait = {
			trait = feeble
			value = -1
		}
		has_trait = {
			trait = slothful
			value = -1
		}
		has_trait = {
			trait = content
			value = -1
		}
		has_trait = {
			trait = dwarf
			value = -1
		}
		has_trait = {
			trait = clubfooted
			value = -1
		}
		has_trait = {
			trait = hunchback
			value = -1
		}
	}
	
	member_score_per_attribute = 3
	member_score_per_rank = 100

	member_score = {
		value = 10

		#POSITIVE modifiers
		modifier = {
			trait = hunter
			factor = 1.3
		}
		modifier = {
			trait = strategist
			factor = 1.5
		}
		modifier = {
			trait = duelist
			factor = 1.5
		}
		modifier = {
			trait = misguided_warrior
			factor = 1.1
		}	
		modifier = {
			trait = tough_soldier
			factor = 1.2
		}
    	modifier = {
			trait = skilled_tactician
			factor = 1.4
		}
    	modifier = {
			trait = brilliant_strategist
			factor = 1.6
		}
		modifier = {
			trait = skilled_warrior
			factor = 1.4
		}
    	modifier = {
			trait = master_warrior
			factor = 1.6
		}
    	modifier = {
			trait = scarred
			factor = 1.1
		}
		modifier = {
			trait = one_eyed
			factor = 1.1
		}
		modifier = {
			trait = genius
			factor = 1.2
		}
		modifier = {
			trait = quick
			factor = 1.1
		}
		modifier = {
			trait = shrewd
			factor = 1.1
		}
		modifier = {
			trait = strong
			factor = 1.2
		}
		modifier = {
			trait = robust
			factor = 1.1
		}
		modifier = {
			trait = tall
			factor = 1.1
		}
		modifier = {
			trait = impaler
			factor = 1.1
		}
		modifier = {
			trait = falconer
			factor = 1.1
		}
		modifier = {
			trait = wroth
			factor = 1.1
		}
		modifier = {
			trait = proud
			factor = 1.1
		}
		modifier = {
			trait = patient
			factor = 1.1
		}
		modifier = {
			trait = diligent
			factor = 1.1
		}
		modifier = {
			trait = humble
			factor = 1.1
		}
		modifier = {
			trait = brave
			factor = 1.2
		}
		modifier = {
			trait = ambitious
			factor = 1.1
		}
		modifier = {
			trait = cruel
			factor = 1.1
		}
		modifier = {
			trait = stubborn
			factor = 1.1
		}
		modifier = {
			trait = adventurer
			factor = 1.1
		}
		modifier = {
			trait = viking
			factor = 1.1
		}
		modifier = {
			trait = ravager
			factor = 1.1
		}
		modifier = {
			trait = seaking
			factor = 1.1
		}
		modifier = {
			trait = sea_queen
			factor = 1.1
		}
		modifier = {
			trait = shieldmaiden
			factor = 1.1
		}
		modifier = {
			trait = berserker
			factor = 1.1
		}
		modifier = {
			trait = varangian
			factor = 1.1
		}
		modifier = {
			trait = tengri_warrior
			factor = 1.1
		}
		#NEGATIVE modifiers
		modifier = {
			trait = craven
			factor = 0.8
		}
		modifier = {
			trait = weak
			factor = 0.8
		}
		modifier = {
			trait = feeble
			factor = 0.8
		}
		modifier = {
			trait = slothful
			factor = 0.9
		}
		modifier = {
			trait = content
			factor = 0.9
		}
		modifier = {
			trait = dwarf
			factor = 0.8
		}
		modifier = {
			trait = clubfooted
			factor = 0.8
		}
		modifier = {
			trait = hunchback
			factor = 0.8
		}
	}	

	startup_populate = {
	    trigger = {
			ai = yes
	    	controls_religion = no
		   	culture = dothraki
			is_adult = yes
			is_in_society = no
			AI_desires_warrior_lodge_membership_trigger = yes
			NOT = { trait = kingsguard }
			NOT = { trait = nightswatch }
			NOT = { trait = maester }
			NOT = { trait = archmaester }		
		}
	}
}
warrior_lodge_finnish = { #WILDLING
	primary_attribute = martial
	opinion_to_other_members = +10
	opinion_per_rank_above = +5
	sound = warrior_lodge_ambient_02
	society_ranks_gfx = warriors_ranks
	society_influence = no
	
	non_interference = {
		always = yes
	}
    
	active = {
		has_dlc = "Holy Fury"
	}
	indestructible = yes
	
	can_join_society = {
		hidden_trigger = {
			NAND = {
				ai = yes
				is_society_rank_full = { 
					society = warrior_lodge_finnish
					rank = 1
				}
			}
		}
		is_adult = yes
		custom_tooltip = {
			text = has_not_angered_society_tt
			hidden_trigger = { NOT = { has_character_modifier = warrior_lodge_failed_joining_cd } }
		}
		NOT = { has_character_modifier = warrior_lodge_failed_joining_cd }
		hidden_trigger = {
			NOT = { has_character_flag = society_join_block }
		}
		trigger_if = {
			limit = { prisoner = yes }
			prisoner = no
		}
		OR = {
			culture_group = free_folk	
			AND = {
				custom_tooltip = {
					text = society_has_at_least_10_members_tt
					FROM = { num_of_society_members >= 10 }
				}
				NOT = { trait = proud }
				religion_group = wildling_religion
				custom_tooltip = {
					text = special_join_warrior_lodge_trigger_tt
					special_join_warrior_lodge_trigger = yes
				}
			}
		}
		NOT = { trait = kingsguard }
		NOT = { trait = nightswatch }
		NOT = { trait = maester }
		NOT = { trait = archmaester }
	}

	show_society = {
		OR = {
			#You are this religion: will show only this lodge (the other "show_society"'s will make sure)
			culture_group = free_folk	
			
			AND = {
				#You are of a religion that doesn't match *any* warrior lodge
				has_religion_matching_available_warrior_lodge_trigger = no
				
				OR = {
					#You have neighbors, etc, of the correct religion...
					any_vassal = { culture_group = free_folk }
					any_liege = { culture_group = free_folk }
					any_neighbor_independent_ruler = { culture_group = free_folk }
				}
			}
			NAND = { #Hide if: you don't have a religion that corresponds to this lodge, but there is another society available to you already
				NOT = { culture_group = free_folk }
				has_religion_matching_available_warrior_lodge_trigger = yes
			}
			#Always show if: You are already a member. Duh.
			society_member_of = warrior_lodge_finnish
		}
	}

	potential = { #if you change religion or become zealous while NOT pagan, you are kicked out
		OR = {
			culture_group = free_folk
			AND = {
				NOT = { culture_group = free_folk }
				NOT = { trait = proud }
			}
		}
	}

	society_rank = { #"Fledling"
		level = 1
		limit = 50 
		startup_limit = 10
		modifier = {
			monthly_character_prestige = 0.25
		}
		powers = {
			warrior_lodge_duel #Passive Power: Unlocks Duel
			#warrior_lodge_shieldmaiden #Passive Power: Unlocks Shieldmaidens
			warrior_lodge_survivor #Passive Power: Survivor
			warrior_lodge_lifetime_of_war #Passive Power: A Lifetime of War
			
			warrior_lodge_norse_go_berserk #Power: Go Berserk
			#warrior_lodge_bon_toughness #Power: Toughness #TODO_CD: make + activate for Bon
		}
	}
	
	society_rank = { #"Warrior"
		level = 2
		limit = 20
		startup_limit = 6
		modifier = {
			monthly_character_prestige = 0.5
			combat_rating = 10
			martial = 1
		}

		
		powers = {
			warrior_lodge_reaver #Passive Power: Reaver

			warrior_lodge_warrior_training #Power: Warrior Training
			warrior_lodge_summon_commander #Power: Summon Commander
			#warrior_lodge_slavic_stand_together #Power: Stand Together #TODO_CD: make + activate for Slavic
			#warrior_lodge_zun_battle_trance #Power: Battle Trance #TODO_CD: make + activate for Zun
			#warrior_lodge_tengri_call_of_the_steppe #Power: Call of the Steppe #TODO_CD: make + activate for Tengri
		}
	}
	
	society_rank = { #"Veteran"
		level = 3
		limit = 10 
		startup_limit = 4
		modifier = {
			monthly_character_prestige = 0.75
			combat_rating = 20
			martial = 2
		}
		powers = {
			warrior_lodge_inspire_warriors #Power: Inspire Warriors
			warrior_lodge_war_sacrifice #Power: War Sacrifice
			#warrior_lodge_romuva_baltic_holds #Power: Baltic Holds #TODO_CD: make + activate for Romuva
			warrior_lodge_suomenusko_summon_warriors #Power: Summon Warriors of Ukko #TODO_CD: make + activate for Suomenusko
		}
	}

	society_rank = { #"Hero"
		level = 4
		limit = 4
		startup_limit = 3
		modifier = { 
			monthly_character_prestige = 1
			combat_rating = 30
			martial = 3
		}

		powers = {
			warrior_lodge_indomitable #Passive Power: Indomitable

			warrior_lodge_call_to_glory #Power: Call to Glory
			warrior_lodge_choose_military_aspect #Power: Choose Military Aspect
			#warrior_lodge_west_african_create_fetish #Power: Create Fetish #TODO_CD: make + activate for West African
		}
	}

	plots = {
	
	}

	monthly_currency_gain = {
		name = currency_name_warrior_lodge_norse
    	
		per_attribute = {
    		name = martial
    		value = 0.25
    	}
    	has_trait = {
			trait = hunter
			value = 1
		}
		has_trait = {
			trait = strategist
			value = 1
		}
		has_trait = {
			trait = duelist
			value = 1
		}
		has_trait = {
			trait = skilled_warrior
			value = 1
		}
		has_trait = {
			trait = master_warrior
			value = 2
		}	
		has_trait = {
			trait = scarred
			value = 1
		}
		has_trait = {
			trait = scarred_mid
			value = 2
		}
		has_trait = {
			trait = scarred_high
			value = 3
		}
		has_trait = {
			trait = genius
			value = 1
		}
		has_trait = {
			trait = quick
			value = 1
		}
		has_trait = {
			trait = shrewd
			value = 1
		}
		has_trait = {
			trait = strong
			value = 3
		}
		has_trait = {
			trait = robust
			value = 2
		}
		has_trait = {
			trait = tall
			value = 2
		}
		has_trait = {
			trait = impaler
			value = 1
		}
		has_trait = {
			trait = falconer
			value = 1
		}
		has_trait = {
			trait = wroth
			value = 1
		}
		has_trait = {
			trait = proud
			value = 1
		}
		has_trait = {
			trait = patient
			value = 1
		}
		has_trait = {
			trait = diligent
			value = 1
		}
		has_trait = {
			trait = humble
			value = 1
		}
		has_trait = {
			trait = brave
			value = 2
		}
		has_trait = {
			trait = ambitious
			value = 1
		}
		has_trait = {
			trait = cruel
			value = 1
		}
		has_trait = {
			trait = stubborn
			value = 1
		}
		has_trait = {
			trait = adventurer
			value = 1
		}
		has_trait = {
			trait = viking
			value = 1
		}
		has_trait = {
			trait = pirate
			value = 1
		}
		has_trait = {
			trait = ravager
			value = 2
		}
		has_trait = {
			trait = seaking
			value = 3
		}
		has_trait = {
			trait = sea_queen
			value = 3
		}
		has_trait = {
			trait = shieldmaiden
			value = 1
		}
		has_trait = {
			trait = berserker
			value = 1
		}
		has_trait = {
			trait = varangian
			value = 1
		}
		has_trait = {
			trait = valhalla_bound
			value = 1
		}
		has_trait = {
			trait = eagle_warrior
			value = 1
		}
		has_trait = {
			trait = sun_warrior
			value = 1
		}
		has_trait = {
			trait = ukkos_shield
			value = 1
		}
		has_trait = {
			trait = nyames_shield
			value = 1
		}
		has_trait = {
			trait = peruns_chosen
			value = 1
		}
		has_trait = {
			trait = romuvas_own
			value = 1
		}
		has_trait = {
			trait = ares_own
			value = 1
		}
		has_trait = {
			trait = tengri_warrior
			value = 1
		}
		#NEGATIVE modifiers
		has_trait = {
			trait = craven
			value = -3
		}
		has_trait = {
			trait = weak
			value = -2
		}
		has_trait = {
			trait = feeble
			value = -1
		}
		has_trait = {
			trait = slothful
			value = -1
		}
		has_trait = {
			trait = content
			value = -1
		}
		has_trait = {
			trait = dwarf
			value = -1
		}
		has_trait = {
			trait = clubfooted
			value = -1
		}
		has_trait = {
			trait = hunchback
			value = -1
		}
	}
	
	member_score_per_attribute = 3
	member_score_per_rank = 100

	member_score = {
		value = 10

		#POSITIVE modifiers
		modifier = {
			trait = hunter
			factor = 1.3
		}
		modifier = {
			trait = strategist
			factor = 1.5
		}
		modifier = {
			trait = duelist
			factor = 1.5
		}
		modifier = {
			trait = misguided_warrior
			factor = 1.1
		}	
		modifier = {
			trait = tough_soldier
			factor = 1.2
		}
    	modifier = {
			trait = skilled_tactician
			factor = 1.4
		}
    	modifier = {
			trait = brilliant_strategist
			factor = 1.6
		}
		modifier = {
			trait = skilled_warrior
			factor = 1.4
		}
    	modifier = {
			trait = master_warrior
			factor = 1.6
		}
    	modifier = {
			trait = scarred
			factor = 1.1
		}
		modifier = {
			trait = one_eyed
			factor = 1.1
		}
		modifier = {
			trait = genius
			factor = 1.2
		}
		modifier = {
			trait = quick
			factor = 1.1
		}
		modifier = {
			trait = shrewd
			factor = 1.1
		}
		modifier = {
			trait = strong
			factor = 1.2
		}
		modifier = {
			trait = robust
			factor = 1.1
		}
		modifier = {
			trait = tall
			factor = 1.1
		}
		modifier = {
			trait = impaler
			factor = 1.1
		}
		modifier = {
			trait = falconer
			factor = 1.1
		}
		modifier = {
			trait = wroth
			factor = 1.1
		}
		modifier = {
			trait = proud
			factor = 1.1
		}
		modifier = {
			trait = patient
			factor = 1.1
		}
		modifier = {
			trait = diligent
			factor = 1.1
		}
		modifier = {
			trait = humble
			factor = 1.1
		}
		modifier = {
			trait = brave
			factor = 1.2
		}
		modifier = {
			trait = ambitious
			factor = 1.1
		}
		modifier = {
			trait = cruel
			factor = 1.1
		}
		modifier = {
			trait = stubborn
			factor = 1.1
		}
		modifier = {
			trait = adventurer
			factor = 1.1
		}
		modifier = {
			trait = viking
			factor = 1.1
		}
		modifier = {
			trait = ravager
			factor = 1.1
		}
		modifier = {
			trait = seaking
			factor = 1.1
		}
		modifier = {
			trait = sea_queen
			factor = 1.1
		}
		modifier = {
			trait = shieldmaiden
			factor = 1.1
		}
		modifier = {
			trait = berserker
			factor = 1.1
		}
		modifier = {
			trait = varangian
			factor = 1.1
		}
		modifier = {
			trait = ukkos_shield
			factor = 1.1
		}
		#NEGATIVE modifiers
		modifier = {
			trait = craven
			factor = 0.8
		}
		modifier = {
			trait = weak
			factor = 0.8
		}
		modifier = {
			trait = feeble
			factor = 0.8
		}
		modifier = {
			trait = slothful
			factor = 0.9
		}
		modifier = {
			trait = content
			factor = 0.9
		}
		modifier = {
			trait = dwarf
			factor = 0.8
		}
		modifier = {
			trait = clubfooted
			factor = 0.8
		}
		modifier = {
			trait = hunchback
			factor = 0.8
		}
	}	

	startup_populate = {
	    trigger = {
			ai = yes
	    	controls_religion = no
		   	culture_group = free_folk
			is_adult = yes
			is_in_society = no
			AI_desires_warrior_lodge_membership_trigger = yes
			NOT = { trait = kingsguard }
			NOT = { trait = nightswatch }
			NOT = { trait = maester }
			NOT = { trait = archmaester }
		}
	}
}
warrior_lodge_bon = { #HYRKOON
	primary_attribute = martial
	opinion_to_other_members = +10
	opinion_per_rank_above = +5
	sound = warrior_lodge_ambient_02
	society_ranks_gfx = warriors_ranks
	society_influence = no
	
	non_interference = {
		always = yes
	}
    
	active = {
		has_dlc = "Holy Fury"
	}
	indestructible = yes
	
	can_join_society = {
		hidden_trigger = {
			NAND = {
				ai = yes
				is_society_rank_full = { 
					society = warrior_lodge_bon
					rank = 1
				}
			}
		}
		is_adult = yes
		is_female = yes
		custom_tooltip = {
			text = has_not_angered_society_tt
			hidden_trigger = { NOT = { has_character_modifier = warrior_lodge_failed_joining_cd } }
		}
		NOT = { has_character_modifier = warrior_lodge_failed_joining_cd }
		hidden_trigger = {
			NOT = { has_character_flag = society_join_block }
		}
		trigger_if = {
			limit = { prisoner = yes }
			prisoner = no
		}
		OR = {
			culture_group = hyrkoon_group	
			AND = {
				custom_tooltip = {
					text = society_has_at_least_10_members_tt
					FROM = { num_of_society_members >= 10 }
				}
				NOT = { trait = proud }
				OR = {
					religion = gods_bone_mountains
					religion = gods_bone_mountains_reformed
				}	
				custom_tooltip = {
					text = special_join_warrior_lodge_trigger_tt
					special_join_warrior_lodge_trigger = yes
				}
			}
		}
		NOT = { trait = kingsguard }
		NOT = { trait = nightswatch }
		NOT = { trait = maester }
		NOT = { trait = archmaester }
	}

	show_society = {
		OR = {
			#You are this religion: will show only this lodge (the other "show_society"'s will make sure)
			culture_group = hyrkoon_group	
			AND = {
				#You are of a religion that doesn't match *any* warrior lodge
				has_religion_matching_available_warrior_lodge_trigger = no
				
				OR = {
					#You have neighbors, etc, of the correct religion...
					any_vassal = { culture_group = hyrkoon_group }
					any_liege = { culture_group = hyrkoon_group }
					any_neighbor_independent_ruler = { culture_group = hyrkoon_group }
				}
			}
			NOT = { #Hide if: you don't have a religion that corresponds to this lodge, but there is another society available to you already
				NOT = { culture_group = hyrkoon_group }
				has_religion_matching_available_warrior_lodge_trigger = yes
			}
			#Always show if: You are already a member. Duh.
			society_member_of = warrior_lodge_bon
		}
	}

	potential = { #if you change religion or become zealous while NOT pagan, you are kicked out
		OR = {
			culture_group = hyrkoon_group
			AND = {
				NOT = { culture_group = hyrkoon_group }
				NOT = { trait = proud }
			}
		}
	}

	society_rank = { #"Fledling"
		level = 1
		limit = 50 
		startup_limit = 10
		modifier = {
			monthly_character_prestige = 0.25
		}
		powers = {
			warrior_lodge_duel #Passive Power: Unlocks Duel
			#warrior_lodge_shieldmaiden #Passive Power: Unlocks Shieldmaidens
			warrior_lodge_survivor #Passive Power: Survivor
			warrior_lodge_lifetime_of_war #Passive Power: A Lifetime of War
			
			#warrior_lodge_norse_go_berserk #Power: Go Berserk
			warrior_lodge_bon_toughness #Power: Toughness #TODO_CD: make + activate for Bon
		}
	}
	
	society_rank = { #"Warrior"
		level = 2
		limit = 20
		startup_limit = 6
		modifier = {
			monthly_character_prestige = 0.5
			combat_rating = 10
			martial = 1
		}

		
		powers = {
			warrior_lodge_reaver #Passive Power: Reaver

			warrior_lodge_warrior_training #Power: Warrior Training
			warrior_lodge_summon_commander #Power: Summon Commander
			warrior_lodge_slavic_stand_together #Power: Stand Together #TODO_CD: make + activate for Slavic
			#warrior_lodge_zun_battle_trance #Power: Battle Trance #TODO_CD: make + activate for Zun
			#warrior_lodge_tengri_call_of_the_steppe #Power: Call of the Steppe #TODO_CD: make + activate for Tengri
		}
	}
	
	society_rank = { #"Veteran"
		level = 3
		limit = 10 
		startup_limit = 4
		modifier = {
			monthly_character_prestige = 0.75
			combat_rating = 20
			martial = 2
		}
		powers = {
			warrior_lodge_inspire_warriors #Power: Inspire Warriors
			warrior_lodge_war_sacrifice #Power: War Sacrifice
			#warrior_lodge_romuva_baltic_holds #Power: Baltic Holds #TODO_CD: make + activate for Romuva
			#warrior_lodge_suomenusko_summon_warriors #Power: Summon Warriors of Ukko #TODO_CD: make + activate for Suomenusko
		}
	}

	society_rank = { #"Hero"
		level = 4
		limit = 4
		startup_limit = 3
		modifier = { 
			monthly_character_prestige = 1
			combat_rating = 30
			martial = 3
		}

		powers = {
			warrior_lodge_indomitable #Passive Power: Indomitable

			warrior_lodge_call_to_glory #Power: Call to Glory
			warrior_lodge_choose_military_aspect #Power: Choose Military Aspect
			#warrior_lodge_west_african_create_fetish #Power: Create Fetish #TODO_CD: make + activate for West African
		}
	}

	plots = {
	
	}

	monthly_currency_gain = {
		name = currency_name_warrior_lodge_norse
    	
		per_attribute = {
    		name = martial
    		value = 0.25
    	}
    	has_trait = {
			trait = hunter
			value = 1
		}
		has_trait = {
			trait = strategist
			value = 1
		}
		has_trait = {
			trait = duelist
			value = 1
		}
		has_trait = {
			trait = skilled_warrior
			value = 1
		}
		has_trait = {
			trait = master_warrior
			value = 2
		}	
		has_trait = {
			trait = scarred
			value = 1
		}
		has_trait = {
			trait = scarred_mid
			value = 2
		}
		has_trait = {
			trait = scarred_high
			value = 3
		}
		has_trait = {
			trait = genius
			value = 1
		}
		has_trait = {
			trait = quick
			value = 1
		}
		has_trait = {
			trait = shrewd
			value = 1
		}
		has_trait = {
			trait = strong
			value = 3
		}
		has_trait = {
			trait = robust
			value = 2
		}
		has_trait = {
			trait = tall
			value = 2
		}
		has_trait = {
			trait = impaler
			value = 1
		}
		has_trait = {
			trait = falconer
			value = 1
		}
		has_trait = {
			trait = wroth
			value = 1
		}
		has_trait = {
			trait = proud
			value = 1
		}
		has_trait = {
			trait = patient
			value = 1
		}
		has_trait = {
			trait = diligent
			value = 1
		}
		has_trait = {
			trait = humble
			value = 1
		}
		has_trait = {
			trait = brave
			value = 2
		}
		has_trait = {
			trait = ambitious
			value = 1
		}
		has_trait = {
			trait = cruel
			value = 1
		}
		has_trait = {
			trait = stubborn
			value = 1
		}
		has_trait = {
			trait = adventurer
			value = 1
		}
		has_trait = {
			trait = viking
			value = 1
		}
		has_trait = {
			trait = pirate
			value = 1
		}
		has_trait = {
			trait = ravager
			value = 2
		}
		has_trait = {
			trait = seaking
			value = 3
		}
		has_trait = {
			trait = sea_queen
			value = 3
		}
		has_trait = {
			trait = shieldmaiden
			value = 1
		}
		has_trait = {
			trait = berserker
			value = 1
		}
		has_trait = {
			trait = varangian
			value = 1
		}
		has_trait = {
			trait = valhalla_bound
			value = 1
		}
		has_trait = {
			trait = eagle_warrior
			value = 1
		}
		has_trait = {
			trait = sun_warrior
			value = 1
		}
		has_trait = {
			trait = ukkos_shield
			value = 1
		}
		has_trait = {
			trait = nyames_shield
			value = 1
		}
		has_trait = {
			trait = peruns_chosen
			value = 1
		}
		has_trait = {
			trait = romuvas_own
			value = 1
		}
		has_trait = {
			trait = ares_own
			value = 1
		}
		has_trait = {
			trait = tengri_warrior
			value = 1
		}
		#NEGATIVE modifiers
		has_trait = {
			trait = craven
			value = -3
		}
		has_trait = {
			trait = weak
			value = -2
		}
		has_trait = {
			trait = feeble
			value = -1
		}
		has_trait = {
			trait = slothful
			value = -1
		}
		has_trait = {
			trait = content
			value = -1
		}
		has_trait = {
			trait = dwarf
			value = -1
		}
		has_trait = {
			trait = clubfooted
			value = -1
		}
		has_trait = {
			trait = hunchback
			value = -1
		}
	}
	
	member_score_per_attribute = 3
	member_score_per_rank = 100

	member_score = {
		value = 10

		#POSITIVE modifiers
		modifier = {
			trait = hunter
			factor = 1.3
		}
		modifier = {
			trait = strategist
			factor = 1.5
		}
		modifier = {
			trait = duelist
			factor = 1.5
		}
		modifier = {
			trait = misguided_warrior
			factor = 1.1
		}	
		modifier = {
			trait = tough_soldier
			factor = 1.2
		}
    	modifier = {
			trait = skilled_tactician
			factor = 1.4
		}
    	modifier = {
			trait = brilliant_strategist
			factor = 1.6
		}
		modifier = {
			trait = skilled_warrior
			factor = 1.4
		}
    	modifier = {
			trait = master_warrior
			factor = 1.6
		}
    	modifier = {
			trait = scarred
			factor = 1.1
		}
		modifier = {
			trait = one_eyed
			factor = 1.1
		}
		modifier = {
			trait = genius
			factor = 1.2
		}
		modifier = {
			trait = quick
			factor = 1.1
		}
		modifier = {
			trait = shrewd
			factor = 1.1
		}
		modifier = {
			trait = strong
			factor = 1.2
		}
		modifier = {
			trait = robust
			factor = 1.1
		}
		modifier = {
			trait = tall
			factor = 1.1
		}
		modifier = {
			trait = impaler
			factor = 1.1
		}
		modifier = {
			trait = falconer
			factor = 1.1
		}
		modifier = {
			trait = wroth
			factor = 1.1
		}
		modifier = {
			trait = proud
			factor = 1.1
		}
		modifier = {
			trait = patient
			factor = 1.1
		}
		modifier = {
			trait = diligent
			factor = 1.1
		}
		modifier = {
			trait = humble
			factor = 1.1
		}
		modifier = {
			trait = brave
			factor = 1.2
		}
		modifier = {
			trait = ambitious
			factor = 1.1
		}
		modifier = {
			trait = cruel
			factor = 1.1
		}
		modifier = {
			trait = stubborn
			factor = 1.1
		}
		modifier = {
			trait = adventurer
			factor = 1.1
		}
		modifier = {
			trait = viking
			factor = 1.1
		}
		modifier = {
			trait = ravager
			factor = 1.1
		}
		modifier = {
			trait = seaking
			factor = 1.1
		}
		modifier = {
			trait = sea_queen
			factor = 1.1
		}
		modifier = {
			trait = shieldmaiden
			factor = 1.1
		}
		modifier = {
			trait = berserker
			factor = 1.1
		}
		modifier = {
			trait = varangian
			factor = 1.1
		}
		#NEGATIVE modifiers
		modifier = {
			trait = craven
			factor = 0.8
		}
		modifier = {
			trait = weak
			factor = 0.8
		}
		modifier = {
			trait = feeble
			factor = 0.8
		}
		modifier = {
			trait = slothful
			factor = 0.9
		}
		modifier = {
			trait = content
			factor = 0.9
		}
		modifier = {
			trait = dwarf
			factor = 0.8
		}
		modifier = {
			trait = clubfooted
			factor = 0.8
		}
		modifier = {
			trait = hunchback
			factor = 0.8
		}
	}	

	startup_populate = {
	    trigger = {
			ai = yes
	    	controls_religion = no
		   	culture_group = hyrkoon_group
			is_female = yes
			is_adult = yes
			is_in_society = no
			AI_desires_warrior_lodge_membership_trigger = yes
			NOT = { trait = kingsguard }
			NOT = { trait = nightswatch }
			NOT = { trait = maester }
			NOT = { trait = archmaester }
		}
	}
}