decisions = {
	employ_cityguard = {		
		only_playable = yes			
		potential = { 	
			is_ruler = yes
			#higher_tier_than = BARON
			OR = {
				capital_holding = {
					OR = {
						holding_type = castle
						holding_type = city
					}
				}
				is_patrician = yes
			}	
			NOR = {
				capital_holding = {
					OR = {
						has_building = ca_household_guard
						has_building = ct_household_guard
					}
				}
				family_palace = { has_building = fp_household_guard }
			}
			is_nomadic = no
			NOT = { pacifist = yes }
			NOT = { government = wildling_feudal_government }
			NOT = { trait = nightswatch }
			NOT = { trait = kingsguard }
		}
		allow = {
			demesne_size = 1
			wealth = 100
			prisoner = no
			is_incapable = no
		}
		effect = {
			wealth = -100
			if = {
				limit = { is_patrician = no }
				capital_holding = {
					if = {	
						limit = { holding_type = castle }
						add_building = ca_household_guard
					}	
					if = {	
						limit = { holding_type = city }
						add_building = ct_household_guard
					}					
				}	
			}	
			if = {
				limit = { is_patrician = yes }
				family_palace = { add_building = fp_household_guard }
			}	
			hidden_tooltip = { character_event = { id = 347796 } }
		}
		ai_check_interval = 12
		ai_will_do = {
			factor = 100
			modifier = {
				factor = 0
				war = yes
			}
			modifier = {
				factor = 0
				has_character_modifier = loan_timer	
				OR = {
					stewardship = 9
					trait = temperate	
				}	
				NOT = { trait = paranoid }
			}
		}
	}
	cityguard_menu = {
		ai = no
		is_high_prio = yes
		potential = { 
			ai = no
			is_ruler = yes
			demesne_size = 1
			OR = {
				capital_holding = {
					OR = {
						has_building = ca_household_guard
						has_building = ct_household_guard
					}
				}
				family_palace = { has_building = fp_household_guard }
			}
		}
		allow = { 
			capital_scope = { 
				NOT = { has_province_modifier = cityguard_busy } 
				owner = { character = ROOT }
			} 
			capital_holding = { controller = { character = ROOT } }
			custom_tooltip = {
				text = TOOLTIPapponted_captain_guard
				hidden_tooltip = {
					any_courtier = {
						has_minor_title = title_captain_of_guard
					}
				}
			}
		}
		effect = {
			character_event = { id = 347790 tooltip = TOOLTIP347790 }
		}
		ai_will_do = {
			factor = 0
		}
	}
	disband_cityguard = {
		ai = no
		potential = {
			ai = no
			is_ruler = yes
			demesne_size = 1
			OR = {
				capital_holding = {
					OR = {
						has_building = ca_household_guard
						has_building = ct_household_guard
					}
				}
				family_palace = { has_building = fp_household_guard }
			}
		}
		allow = { 
			capital_scope = { NOT = { has_province_modifier = cityguard_busy } } 
		}
		effect = { 
			if = {
				limit = { is_patrician = no }
				capital_holding = {
					if = {	
						limit = { holding_type = castle }
						remove_building = ca_household_guard
					}	
					if = {	
						limit = { holding_type = city }
						remove_building = ct_household_guard
					}					
				}	
			}	
			if = {
				limit = { is_patrician = yes }
				family_palace = { remove_building = fp_household_guard }
			}
			capital_scope = { 
				#remove_province_modifier = employed_cityguard 
				if = {
					limit = { has_province_modifier = cityguard_drilling }
					remove_province_modifier = cityguard_drilling
				}	
				if = {
					limit = { has_province_modifier = forced_training }
					remove_province_modifier = forced_training
				}
				if = {
					limit = { has_province_modifier = capital_defense }
					remove_province_modifier = capital_defense
				}
				if = {
					limit = { has_province_modifier = tyranny }
					remove_province_modifier = tyranny
				}
				# if = {
					# limit = { has_province_modifier = burned_land }
					# remove_province_modifier = burned_land
				# }	
			} 
			any_courtier = {
				limit = { has_minor_title = title_captain_of_guard }
				remove_title = title_captain_of_guard
			}
		}
		ai_will_do = {
			factor = 0
		}
	}	
}

