
3492.1.1 = {
	de_jure_liege = d_bearisland
	holder = 356066 #Ravos Hoare
}
3498.1.1 = {
	holder = 0
}
6000.1.1={
	liege = "d_bearisland"
	law = succ_primogeniture
}
7969.1.1={

	holder=18102
}
7999.1.1={
	liege="k_north"
}
8012.1.1={
	holder = 17102 
}
8029.1.1={
	holder = 16102
}
8044.1.1={
	holder = 15102
}
8063.1.1={
	holder = 14102
}
8088.1.1={
	holder = 13102 # Alwin Mormont
}
8118.1.1={
	holder = 10020102 # Joren Mormont
}
8128.1.1={
    holder = 12102 # Theon Mormont
}
8160.1.1={
	holder = 10102 	
}
8176.1.1={
	holder = 9102
}
8221.1.1={
	holder = 8102
}
8247.1.1={
	holder = 1102
}
8272.1.1={
	holder =336
}
8281.1.1={
	holder = 102
}
8293.6.1 = {
	holder = 2102
}