### IRONRATH
6000.1.1={
	liege="d_deepwood_motte"
	de_jure_liege = d_deepwood_motte
	law = succ_primogeniture
}

6000.1.1 = { holder=11443 } # Gerhard (C)
#6050.1.1 = { holder=21443 } # Line of Gerhard (nc)
6050.1.1 = { holder= 0 }
6500.1.1 = { holder=31443 } # Cedric (C)
6527.1.1 = { holder=51443 } # Karlon (nc)
#6570.1.1 = { holder=81443 } # Line of Karlon (nc)
6570.1.1 = { holder=0 }
7900.1.1 = { holder=91443 } # Medger (nc)
7952.1.1 = { holder=101443 } # Ramsay (nc)
7999.1.1 = { holder=111443 } # Torren (nc)
8011.1.1 = { holder=121443 } # Qhorin (nc)
8032.1.1 = { holder=151443 } # Leobald (nc)
8044.1.1 = { holder=161443 } # Theo (nc)
8072.1.1 = { holder=171443 } # Rickard (nc)
8132.1.1 = { holder=191443 } # Torghen (nc)
8139.1.1 = { holder=201443 } # Barth (nc)
8142.1.1 = { holder=221443 } # Galbart (nc)
8182.1.1 = { holder=261443 } # Mark (nc)
8204.1.1 = { holder=271443 } # Dywen (nc)
8247.1.1 = { holder=301443 } # Thorren (C)
8267.1.1 = { holder=311443 } # Gregor (C)
8299.8.1 = { holder=351443 } # Ethan (C)
8300.1.1 = { holder=321443 } # Rodrik (C)
8300.1.1 = { liege = k_north }