900.1.1={
	liege="d_the_bite"
}
7985.1.1 = { holder=10801048 } # Randyll (nc)
8033.1.1 = { holder=11801048 } # Gilwood (nc)
8040.1.1 = { holder=15801048 } # Florian (nc)
8092.1.1 = { holder=19801048 } # Elbert (nc)
8110.1.1 = { holder=21801048 } # Umfred (nc)
8135.1.1 = { holder=23801048 } # Marwyn (nc)
8192.1.1 = { holder=26801048 } # Nestor (nc)
8195.1.1 = { holder=27801048 } # Gyles (nc)
8209.1.1 = { holder=30801048 } # Elbert (nc)
8213.1.1 = { holder=32801048 } # Nestor (nc)
8275.1.1 = { holder=37801048 } # Mychel (nc)
8292.1.1 = { holder=39801048 } # Elys (nc)


