7600.1.1={
	liege="e_riverlands"
	de_jure_liege = d_blackwater_rush
	law = succ_primogeniture
}
7961.1.1 = { holder=6000024 } # Duncan (nc)
7998.2.1={
	liege="e_iron_throne"
}
8012.1.1 = { holder=6000924 } # Justin (nc)
8055.1.1 = { holder=6001324 } # Bennard (nc)
8078.1.1 = { holder=6001524 } # Jacelyn (nc)
8126.1.1 = { holder=6002124 } # Gilbert (nc)
8134.1.1 = { holder=6002424 } # Malliard (nc)
8159.1.1 = { holder=6002624 } # Symon (nc)
8203.1.1 = { holder=6002724 } # Qarlton (nc)
8229.1.1 = { holder=6002824 } # Dobber (nc)
8239.1.1 = { holder = 77111 }	#Josmyn Farring
8270.1.1 = { holder = 24 }		#Gilbert Farring
8299.1.4 = { liege=0 }