7000.1.1={
	liege="e_dorne"
	law = true_cognatic_succession
}
7274.1.1 = {
	holder = 175013 #Lucifer Dryland
}
7303.1.1 = { # conquered by the Martell's.
	liege = "d_brimstone"
}
8000.1.1 = { holder=100806043 } # Arthur (nc)
8023.1.1 = { holder=102806043 } # Yandry (nc)
8034.1.1 = { holder=103806043 } # Franklyn (nc)
8078.1.1 = { holder=105806043 } # Daeron (nc)
8107.1.1 = { holder=106806043 } # Myles (nc)
8129.1.1 = { holder=108806043 } # Deziel (nc)
8136.1.1 = { holder=110806043 } # Gascoyne (nc)
8164.1.1 = { holder=114806043 } # Harmen (nc)
8204.1.1 = { holder=116806043 } # Maron (nc)
8212.1.1 = { holder=117806043 } # Dorea (nc)
8268.1.1 = { holder=118806043 } # Andrey (nc)
8288.1.1 = { holder=123806043 } # Daeron (nc)
