202.1.1 = {
	liege="d_haystack_hall"
	de_jure_liege = d_shipbreaker
}
7970.1.1 = { holder = 305318 } # Edric Errol (nc)
7996.1.1 = { holder = 300318 } # Stannis Errol (nc)
7998.2.1 = { holder = 301318 } # Steffon Errol (nc)
8072.1.1 = { holder = 303318 } # Tryston Errol (nc)
8080.1.1 = { holder = 304318 } # Ormund Errol (nc)
8109.1.1 = { holder = 306318 } # Tryston Errol (nc)
8134.1.1 = { holder = 307318 } # Tommen Errol (nc)
8167.1.1 = { holder = 308318 } # Terrence Errol (nc)
8202.1.1 = { holder = 309318 } # Simon Errol (nc)
8228.1.1 = { holder = 310318 } # Terrence Errol (nc)
8253.1.1 = { holder = 311318 } # Stewys Errol (nc)
8269.1.1 = { holder = 318 } # Shyra Errol (C)
8299.3.1 = { holder = 2318 } # Sebastion Errol (C)
