6000.1.1={
	liege="d_thecrossing"
	de_jure_liege = d_greenfork
}
7920.1.1={
	holder=27125
}
7940.1.1={
	holder=28125
}
7980.1.1={
	holder= 16125
}
8024.1.1={
	holder= 15125
}
8062.1.1={
	holder= 13125
}
8100.1.1={
	holder= 12125
}
8125.1.1={
	holder= 11125
}
8130.1.1={
	holder= 17125
}
8145.1.1={
	holder= 9125
}
8186.1.1={
	holder= 8125
}
8210.1.1={
	holder= 7125
}
8222.1.1={
	holder= 6125
}
8240.1.1={
	holder= 5125
}
8249.1.1={
	holder= 4125
}
8274.1.1={
	holder= 125
}