6000.1.1={
	liege="d_barrowlands"
	de_jure_liege = d_barrowlands
	law = succ_primogeniture
}
7970.1.1={
	holder=16090
}
8016.1.1={
	holder=15090
}
8021.1.1={
	holder=14090
}
8040.1.1={
	holder=13090
}
8060.1.1={
	holder=12090
}
8072.1.1={
	holder=11090
}
8115.1.1={
	holder=10090
}
8164.1.1={
	holder=8090
}
8171.1.1={
	holder=7090
}
8202.1.1={
	holder=6090
}
8221.1.1={
	holder=5090
}
8267.1.1={
	holder=2090
}
8281.1.1={
	holder=90
}
