900.1.1 = {
	liege="e_stormlands"
	de_jure_liege = d_cape_wrath
}
7977.1.1 = { holder=60000326 }
7998.2.27={
	liege = k_stormlands
}
8007.1.1 = { holder=300326 } # Gerald (nc)
8018.1.1 = { holder=301326 } # Gawen (nc)
8027.1.1 = { holder=302326 } # Galladon (nc)
8077.1.1 = { holder=303326 } # Gladden (nc)
8110.1.1 = { holder=304326 } # Thurgood (nc)
8148.1.1 = { holder=305326 } # Gawen (nc)
8169.1.1 = { holder=306326 } # Guyard (nc)
8177.1.1 = { holder=307326 } # Grance (nc)
8209.1.1 = { holder=309326 } # Gulian (nc)
8247.1.1 = { holder=310326 } # Goodwin (nc)
8259.1.1 = { holder=326 } # Steffon (nc)
