7600.1.1={
	liege="e_riverlands"
	name = c_atranta
	law = succ_primogeniture
}
7967.1.1={
    holder=550154
}
7986.1.1={
    holder=560153
}
7998.2.1={
	liege="k_riverlands"
}	
8010.1.1={
	holder=21153
}
8025.1.1={
	holder=20153
}
8055.1.1={
	holder=18153
}
8090.1.1={
	holder=17153
}
8113.1.1={
	holder=16153
}
8124.1.1={
	holder=15153
}
8150.1.1={
	holder=14153
}
8179.1.1={
	holder=13153
}
8188.1.1={
	holder=12153
}
8233.1.1={
	holder=10153
}
8261.1.1={
	holder=153
}