6000.1.1={
	de_jure_liege = k_crownlands
	law = succ_primogeniture
}
7600.1.1={
	liege="e_riverlands"
	law = succ_primogeniture
}
7966.1.1 = { holder=3003034 }
7990.1.1 = { holder=3000034 } # Anguy Buckwell (nc)
7998.2.1 = {
	liege="e_iron_throne"
}
8001.1.1 = { holder=3001034 } # Morros Buckwell (nc)
8013.1.1 = { holder=3002034 } # Ferret Buckwell (nc)
8057.1.1 = { holder=3004034 } # Cyrenna Buckwell (nc)
8066.1.1 = { holder=3005034 } # Alliser Buckwell (nc)
8100.1.1 = { holder=3006034 } # Aurane Buckwell (nc)
8129.10.1 = { holder=3011034 } # Guncer Buckwell (nc)
8149.1.1 = { holder=3016034 } # Joyeuse Buckwell (nc)
8177.1.1 = { holder=3019034 } # Hubard Buckwell (nc)
8202.1.1 = { holder=3020034 } # Bryen Buckwell (nc)
8244.1.1 = { holder=3025034 } # Eustace Buckwell (nc)
8256.1.1 = { holder=3026034 } # Donnel Buckwell (nc)
8296.1.1 = { holder=3030034 } # Morgan Buckwell (nc)