1.1.1={
liege = k_duskendaleTK
law = succ_primogeniture
}
2936.1.1={
	holder = 1030122 #
}	
2980.1.1 = {
	holder = 0
}
7600.1.1={
	liege="e_riverlands"
	law = succ_primogeniture
	de_jure_liege = k_crownlands
}
7956.1.1 = { holder=6000364 } # Robert (nc)
7998.2.1={
	liege="e_iron_throne"
}
7998.2.1 = { holder=6002364 } # Rolland (nc)
8018.1.1 = { holder=6007364 } # Steffon
8044.1.1 = { holder=6009364 } # Robin (nc)
8050.1.1 = { holder=6012364 }
8057.1.1 = { holder=6019364 } # Ulmer (nc)
8100.1.1 = {holder=88000454 }
8120.1.1 = { holder=6022364 } # Gunthor (C)
8129.9.1 = { holder=6025364 } # Kendel (nc)
8174.1.1 = { holder=6029364 } # Tarell (nc)
8189.1.1 = { holder=6035364 } # Addison (nc)
8229.1.1 = { holder=6003364 } # Addam (nc)
8243.1.1 = { holder=6038364 } # Jon (nc)
8257.1.1 = { holder=6045364 } # Donnel (nc)
8272.1.1 = { holder=6049364 } # Denys, Lord at the Defiance
8277.10.1={
	holder = 36 	#Dylan Rykker
	liege = e_iron_throne #needed to ensure duskendale is revassalised after the defiance
}
8280.1.1={
	holder = 2036 	#Renfred Rykker
}
