202.1.1 = { 
	liege="e_stormlands"
	de_jure_liege = k_stormlands
	law = succ_primogeniture
}

7976.1.1 = { holder = 300301 } # Steffon Caron (nc)
7998.2.27={
	liege = k_stormlands
}
8003.1.1 = { holder = 60200301 } # Robert Caron (nc)
8024.1.1 = { holder = 301301 } # Ellyn Caron (C)
8041.1.1 = { holder = 302301 } # Morton Caron (C)
8053.1.1 = { holder = 303301 } # Byron Caron (nc)
8084.1.1 = { holder = 304301 } # Royce Caron (C)
8140.1.1 = { holder = 305301 } # Balon Caron (nc)
8172.1.1 = { holder = 307301 } # Barrystan Caron (nc)
8187.1.1 = { holder = 308301 } # Pearse Caron (C)
8226.1.1 = { holder = 309301 } # Balon Caron (nc)
8246.1.1 = { holder = 310301 } # Casper Caron (nc)
8262.1.1 = { holder = 320301 } # Rolland Caron (nc)
8276.1.1 = { holder = 301 } # Bryen Caron (C)
8289.1.1 = { holder = 1301 } # Bryce Caron (C)
8299.7.1 = { holder = 251204 } # Philip Foote (C)