623.1.1={
	liege="c_oldvolantis"
	law = succ_seniority
	law = agnatic_succession
}
7087.1.1 = { holder=100174601 } # Belicho (nc)
7135.1.1 = { holder=101174601 } # Nyessos (nc)
7158.1.1 = { holder=104174601 } # Aelix (nc)
7174.1.1 = { holder=105174601 } # Jaekar (nc)
7204.1.1 = { holder=110174601 } # Malaquo (nc)
7242.1.1 = { holder=111174601 } # Benerro (nc)
7267.1.1 = { holder=114174601 } # Horonno (nc)
7295.1.1 = { holder=116174601 } # Haerys (nc)
7319.1.1 = { holder=118174601 } # Aenar (nc)
7332.1.1 = { holder=121174601 } # Qavo (nc)
7336.1.1 = { holder=124174601 } # Matarys (nc)
7353.1.1 = { holder=129174601 } # Moqorro (nc)
7391.1.1 = { holder=133174601 } # Colloquo (nc)
