623.1.1={ 
	liege="c_disputedforest"
}
7080.1.1 = { holder=150300540 } # Groleo (nc)
7125.1.1 = { holder=100300540 } # Allequo (nc)
7156.1.1 = { holder=101300540 } # Collio (nc)
7161.1.1 = { holder=107300540 } # Syrio (nc)
7198.1.1 = { holder=111300540 } # Khorane (nc)
7223.1.1 = { holder=113300540 } # Gylono (nC)
7265.1.1 = { holder=117300540 } # Joss (nc)
7308.1.1 = { holder=121300540 } # Tagganaro (nc)
7339.1.1 = { holder=124300540 } # Brusco (nc)
7354.1.1 = { holder=127300540 } # Ternesio (nc)
7359.1.1={ holder = 0 } #Ninepenny king
7359.12.31 = { holder = 127300540 } 
7370.1.1={
	holder=2003994 # Sallador
}


