623.1.1={ 
	liege="c_myr"
}

7070.1.1 = { holder=150300700 } # Lazaario (nc)
7123.1.1 = { holder=100300700 } # Izenbaro (nc)
7175.1.1 = { holder=102300700 } # Noho (nc)
7184.1.1 = { holder=103300700 } ####  Craghas Crabfeeder
7208.11.11 = { holder=104300700 } # Roro (nc)
7245.1.1 = { holder=108300700 } # Ezzelyno (nc)
7266.1.1 = { holder=111300700 } # Oro (nc)
7303.1.1 = { holder=115300700 } # Collio (nc)
7324.1.1 = { holder=118300700 } # Beqqo (nc)
7350.1.1 = { holder=123300700 } # Groleo (nc)
7380.1.1 = { holder=125300700 } # Roro (nc)
7393.1.1 = { holder=128300700 } # Narbo (nc)








