623.1.1={ 
	liege="c_qarth"
}
7055.1.1 = { holder=10035002 } # Pyat (nc)
7104.1.1 = { holder=10435002 } # Nyessos (nc)
7144.1.1 = { holder=10635002 } # Doniphos (nc)
7170.1.1 = { holder=10835002 } # Mathos (nc)
7182.1.1 = { holder=11235002 } # Semython (nc)
7221.1.1 = { holder=11535002 } # Navathos (nc)
7247.1.1 = { holder=11635002 } # Egon (nc)
7280.1.1 = { holder=11735002 } # Doniphos (nc)
7285.1.1 = { holder=11835002 } # Meralyn (nc)
7310.1.1 = { holder=12135002 } # Wendello (nc)
7319.1.1 = { holder=12435002 } # Sallor (nc)
7350.1.1 = { holder=13035002 } # Vogarro (nc)
7370.1.1 = { holder=13135002 } # Mathos (nc)

