623.1.1={ 
	liege="k_myr"
	holding_dynasty = 300516 # Lornel
}

7070.1.1 = { holder=150300516 } # Belequo (nc)
7123.1.1 = { holder=100300516 } # Vogarro (nc)
7162.1.1 = { holder=103300516 } # Areo (nc)
7169.1.1 = { holder=109300516 } # Terro (nc)
7175.1.1 = { holder=111300516 } # Mero (nc)
7205.1.1 = { holder=113300516 } # Cossomo (nc)
7233.1.1 = { holder=115300516 } # Tormo (nc)
7244.1.1 = { holder=118300516 } # Narbo (nc)
7282.1.1 = { holder=121300516 } # Moreo (nc)
7317.1.1 = { holder=126300516 } # Cossomo (nc)
7336.1.1 = { holder=133300516 } # Terro (nc)
7369.1.1 = { holder=135300516 } # Groleo (nc)
7390.1.1 = { holder=138300516 } # Roggo (nc)







