623.1.1={
	liege="k_qohor"
	holding_dynasty = 300567 #Qarit
}
7065.1.1 = { holder=100300567 } # Daario (nc)
7107.1.1 = { holder=101300567 } # Moredo (nc)
7132.1.1 = { holder=105300567 } # Orbelo (nc)
7155.1.1 = { holder=107300567 } # Ezzelyno (nc)
7176.1.1 = { holder=110300567 } # Lotho (nc)
7185.1.1 = { holder=112300567 } # Ollo (nc)
7212.1.1 = { holder=113300567 } # Brusco (nc)
7213.1.1 = { holder=114300567 } # Syrio (nc)
7235.1.1 = { holder=117300567 } # Gyloro (nc)
7262.1.1 = { holder=120300567 } # Denyo (nc)
7278.1.1 = { holder=123300567 } # Meralyn (nc)
7305.1.1 = { holder=126300567 } # Gyleno (nc)
7307.1.1 = { holder=128300567 } # Ferrego (nc)
7352.1.1 = { holder=132300567 } # Izembaro (nc)
7371.1.1 = { holder=133300567 } # Ternesio (nc)
7377.1.1 = { holder=134300567 } # Ezzelyno (nc)
7381.1.1 = { holder=138300567 } # Cossomo (nc)



