7050.1.1 = { 
	liege=k_volantis
	holding_dynasty=174396
} 
7060.1.1 = { holder=100174396 } # Horonno (c)
7096.12.16 = { holder=103174396 } # Aenar (nc)
7143.1.1 = { holder=105174396 } # Belicho (nc)
7150.1.1 = { holder=108174396 } # Belicho (nc)
7168.1.1 = { holder=109174396 } # Alios (nc)
7183.1.1 = { holder=110174396 } # Aenar (nc)
7210.1.1 = { holder=113174396 } # Methyso (nc)
7248.1.1 = { holder=115174396 } # Gorys (nc)
7267.1.1 = { holder=120174396 } # Colloquo (nc)
7269.1.1 = { holder=122174396 } # Vaeron (nc)
7288.1.1 = { holder=127174396 } # Matarys (nc)
7350.1.1 = { holder=131174396 } # Benerro (nc)
7356.1.1 = { holder=135174396 } # Benerro (nc)
7361.1.1 = { holder=136174396 } # Colloquo (nc)
7395.1.1 = { holder=138174396 } # Vogarro (nc)
