623.1.1={
	liege="c_lys"
}

7070.1.1 = { holder=150300523 } # Maelys (nc)
7118.1.1 = { holder=100300523 } # Beqqo (nc)
7180.1.1 = { holder=102300523 } # Allaquo (nc)
7186.1.1 = { holder=103300523 } # Pynto (nc)
7213.1.1 = { holder=106300523 } # Sharako (canon)
7230.1.1 = { holder=111300523 } # Tregar (nc)
7260.1.1 = { holder=110300523 } # Mellario (nc)
7267.1.1 = { holder=112300523 } # Illyrio (nc)
7308.1.1 = { holder=114300523 } # Tycho (nc)
7332.1.1 = { holder=118300523 } # Tregar (nc)
7344.1.1 = { holder=121300523 } # Gyleno (nc)
7377.1.1 = { holder=122300523 } # Illyrio (nc)
