623.1.1={ 
	liege="k_pentos"
	holding_dynasty = 300526 
}
7075.1.1 = { holder=100300526 } # Gyleno (nc)
7115.1.1 = { holder=101300526 } # Jaqen (nc)
7154.1.1 = { holder=108300526 } # Tregar (nc)
7160.1.1 = { holder=114300526 } # Narbo (nc)
7185.1.1 = { holder=115300526 } # Gyloro (nc)
7187.1.1 = { holder=116300526 } # Orbelo (nc)
7208.1.1 = { holder=119300526 } # Izembaro (nc)
7243.1.1 = { holder=123300526 } # Ternesio (nc)
7265.1.1 = { holder=125300526 } # Gyleno (nc)
7287.1.1 = { holder=128300526 } # Daario (nc)
7311.1.1 = { holder=130300526 } # Ordello (nc)
7320.1.1 = { holder=131300526 } # Luco (nc)
7328.1.1 = { holder=134300526 } # Terro (nc)
7337.1.1 = { holder=136300526 } # Syrio (nc)
7350.1.1 = { holder=140300526 } # Ternesio (nc)
7376.1.1 = { holder=141300526 } # Brusco (nc)
7377.1.1 = { holder=143300526 } # Ordello (nc)
7381.1.1 = { holder=145300526 } # Ordello(nc)
7399.6.1 = { holder=149300526 } # Tycho (nc)




