7050.1.1 = { 
	liege=k_volantis
	holding_dynasty=174373
} 
7064.1.1 = { holder=100174373 } # Trianna (C) 
7110.1.1 = { holder=101174373 } # Haerys (nc)
7140.1.1 = { holder=102174373 } # Belicho (nc)
7168.1.1 = { holder=108174373 } # Doniphos (nc)
7173.1.1 = { holder=111174373 } # Colloquo (nc)
7214.1.1 = { holder=115174373 } # Vaeron (nc)
7238.1.1 = { holder=116174373 } # Qavo (nc)
7260.1.1 = { holder=118174373 } # Vaekar (nc)
7291.1.1 = { holder=123174373 } # Orys (nc)
7295.1.1 = { holder=126174373 } # Gorys (nc)
7335.1.1 = { holder=130174373 } # Alios (nc)
7345.1.1 = { holder=136174373 } # Aenar (nc)
7368.1.1 = { holder=138174373 } # Vaekar (nc)
7380.1.1 = { holder=140174373 } # Nyessos 
