623.1.1={ 
	liege="c_yunkai"
}

7095.1.1 = { holder=150360023 } # Grazdhan (nc)
7112.1.1 = { holder=100360024 } # Yezzan (nc)
7128.1.1 = { holder=100360022 } # Maezon (nc)
7150.1.1 = { holder=101360020 } # Haezdhar (nc)
7172.1.1 = { holder=106360023 } # Maezon (nc)
7213.1.1 = { holder=106360024 } # Sharkaz (nc)
7235.1.1 = { holder=109360022 } # Mizlak (nc)
7242.1.1 = { holder=116360020 } # Grazdan (nc)
7270.1.1 = { holder=112360024 } # Ghazdor (nc)
7287.1.1 = { holder=116360023 } # Yurkhaz (nc)
7300.1.1 = { holder=117360022 } # Lazhak (nc)
7318.1.1 = { holder=113360024 } # Skahaz (nc)
7324.1.1 = { holder=122360020 } # Grazdhan (nc)
7339.1.1 = { holder=125360023 } # Kraznys (nc)
7364.1.1 = { holder=130360020 } # Gazdhor (nc)
7380.1.1={
	holder=6571003 # Yurkhaz
}
