623.1.1={
	law = succ_seniority
	law = agnatic_succession
	liege = d_adakhakileki
}
7095.1.1 = { holder=1000418 } # Muslihiddin (nc)
7137.1.1 = { holder=1001418 } # Mirza (nc)
7152.1.1 = { holder=1005418 } # Azam (nc)
7204.1.1 = { holder=1007418 } # Shujah (nc)
7214.1.1 = { holder=1010418 } # Ali_Ali (nc)
7256.1.1 = { holder=1011418 } # Hafiz (nc)
7276.1.1 = { holder=1013418 } # Bakr (nc)
7304.1.1 = { holder=1017418 } # Najib (nc)
7314.1.1 = { holder=1020418 } # Hussayn (nc)
7355.1.1 = { holder=1021418 } # Shujah (nc)
7361.1.1 = { holder=1024418 } # Samir (nc)
7383.1.1 = { holder=1027418 } # Jaleel (nc)
7412.1.1 = { holder=1029418 } # Shokouh (nc)

