7055.1.1 = { 
	holder=100607302 
	liege = d_north_plains
} # Jawak (nc)
7101.1.1 = { holder=101607302 } # Faqar (nc)
7130.1.1 = { holder=105607302 } # Kahkazan (nc)
7146.1.1 = { holder=110607302 } # Zeba (nc)
7159.1.1 = { holder=113607302 } # Basir (nc)
7203.1.1 = { holder=114607302 } # Jaan (nc)
7247.1.1 = { holder=115607302 } # Yasen (nc)
7263.1.1 = { holder=116607302 } # Sabeir (nc)
7272.1.1 = { holder=118607302 } # Ramazan (nc)
7291.1.1 = { holder=120607302 } # Tamim (nc)
7317.1.1 = { holder=125607302 } # Obiad (nc)
7321.1.1 = { holder=128607302 } # Zabi (nc)
7358.1.1 = { holder=129607302 } # Wahida (nc)
7374.1.1 = { holder=130607302 } # Rasoul (nc)

