623.1.1={
	liege="d_nefer"
}
7095.1.1 = { holder=10069207 } # Akin (nc)
7137.1.1 = { holder=10269207 } # Khalil (nc)
7151.1.1 = { holder=10769207 } # Idris (nc)
7167.1.1 = { holder=10969207 } # Zeyd (nc)
7208.1.1 = { holder=11369207 } # Akin (nc)
7234.1.1 = { holder=11469207 } # Fadl (nc)
7255.1.1 = { holder=11669207 } # Youkhanna (nc)
7268.1.1 = { holder=11969207 } # Mirza (nc)
7289.1.1 = { holder=12069207 } # Zeyd (nc)
7320.1.1 = { holder=12169207 } # Ghalib (nc)
7344.1.1 = { holder=12569207 } # Shamir (nc)
7361.1.1 = { holder=12969207 } # Yahya (nc)



