623.1.1={
	liege = d_gelios
}

7095.1.1 = { holder=10006034 } # Maerys (nc)
7122.1.1 = { holder=10016034 } # Matarys (nc)
7165.1.1 = { holder=10056034 } # Maelys (nc)
7170.1.1 = { holder=10076034 } # Aemond (nc)
7198.1.1 = { holder=10086034 } # Rhaekar (nc)
7228.1.1 = { holder=10136034 } # Aerys (nc)
7264.1.1 = { holder=10146034 } # Aerion (nc)
7282.1.1 = { holder=10176034 } # Aemon (nc)
7324.1.1 = { holder=10226034 } # Daemon (nc)
7330.1.1 = { holder=10246034 } # Matarys (nc)
7352.1.1 = { holder=10276034 } # Aemond (nc)
7374.1.1 = { holder=10306034 } # Rhaekar (nc)
7417.1.1 = { holder=10336034 } # Rhaekar (nc)
