1.1.1={ law=succ_primogeniture law=cognatic_succession
	liege="d_oldtown"
}

60.1.1 = { holder=6000284 } # Bors the Breaker (C)

78.1.1 = { holder=0 }

6930.1.1 = { holder=6200284 } # Boryan (nc)
6968.1.1 = { holder=6300284 } # Turan (nc)
6992.1.1 = { holder=6400284 } # Andrik (nc)
7038.1.1 = { holder=6600284 } # Perceon (nc)
7072.1.1 = { holder=6800284 } # Barrett (nc)

7074.1.1 = { holder=3000284 } # Bors (nc)
7085.1.1={
	liege=e_iron_isles #Qhored Hoare
}
7099.1.1 = { holder=3001284 } # John (nc)
7119.1.1 = { holder=3006284 } # Victor (nc)
7178.1.1 = { holder=3010284 } # Reynard (nc)
7200.1.1={
	liege=d_oldtown
}
7206.1.1 = { holder=3011284 } # Horras (nc)
7224.1.1 = { holder=3016284 } # Lorent (nc)
7243.1.1 = { holder=3017284 } # Rickard (nc)
7244.1.1 = { holder=3019284 } # Lyonel (nc)
7301.1.1 = { holder=3020284 } # Petyr (nc)
7304.1.1 = { holder=3022284 } # Ben (nc)
7318.1.1 = { holder=3024284 } # Gerold (nc)
7340.1.1 = { holder=3029284 } # Buford (nc)
7376.1.1 = { holder=3033284 } # Moryn (nc)




