#c_castamere
623.1.1={
	liege="d_castamere"
}
822.1.1 = { holder=319197 } # Ryon (nc)
872.1.1 = { holder=0 } 
6910.1.1 = { holder=300197 } # Damion (nc)
6952.1.1 = { holder=301197 } # Roger (nc)
7003.1.1 = { holder=305197 } # Beron (nc)
7007.1.1 = { holder=307197 } # Lorent (nc)
7056.1.1 = { holder=311197 } # Bertram (nc)
7081.1.1 = { holder=314197 } # Raynhart (nc)

7084.1.1 = {
holder=150197
}
7121.1.1 = {
holder=140197
}
7158.1.1 = {
holder=130197
}
7178.1.1 = {
holder=120197
}
7205.1.1 = {
holder=110197
}
7226.1.1 = {
holder=10197
}
7254.1.1 = {
holder=9197
}
7276.1.1 = {
holder=8197
}
7288.1.1 = {
holder=6197
}
7301.1.1 = {
holder=5197
}
7347.1.1 = {
holder=197
}

