623.1.1={
	liege="k_volantis"
}

7095.1.1 = { holder=100069142 } # Lotho (nc)
7132.1.1 = { holder=100369142 } # Benerro (nc)
7147.1.1 = { holder=100469142 } # Colloquo (nc)
7166.1.1 = { holder=100669142 } # Moqorro (nc)
7209.1.1 = { holder=100769142 } # Vysarro (nc)
7217.1.1 = { holder=100969142 } # Rolloquo (nc)
7234.1.1 = { holder=101469142 } # Malaquo (nc)
7268.1.1 = { holder=101769142 } # Colloquo (nc)
7290.1.1 = { holder=101869142 } # Malaquo (nc)
7346.1.1 = { holder=101969142 } # Parquello (nc)
7363.1.1 = { holder=102569142 } # Alios (nc)
7377.1.1 = { holder=102769142 } # Beqqo (nc)
7397.1.1 = { holder=102969142 } # Parquello (nc)
