623.1.1={
	law = succ_open_elective
	law = enatic_succession
}
7060.1.1 = { holder=103600207 } # Irri (C)
7098.1.1 = { holder=100010305 } # Sezza (nc)
7105.1.1 = { holder=101010305 } # Gezzella (nc)
7109.1.1 = { holder=102010305 } # Yezza (nc)
7150.1.1 = { holder=103010305 } # Mezzala (nc)
7164.1.1 = { holder=104010305 } # Jezhane (nc)
7198.1.1 = { holder=105010305 } # Mellezzara (nc)
7225.1.1 = { holder=106010305 } # Azzara (nc)
7242.1.1 = { holder=107010305 } # Mezzala (nc)
7267.1.1 = { holder=108010305 } # Ellezzara (nc)
7293.1.1 = { holder=109010305 } # Azzara (nc)
7325.1.1 = { holder=110010305 } # Yezza (nc)
7341.1.1 = { holder=111010305 } # Sezza (nc)
7368.1.1 = { holder=112010305 } # Sezza (nc)

