623.1.1={
	liege="k_myr"
}
7070.1.1 = { holder=150300525 } # Moredo (nc)
7123.1.1 = { holder=100300525 } # Gylono (nc)
7142.1.1 = { holder=101300525 } # Pynto (nc)
7182.1.1 = { holder=102300525 } # Pynto (nc)
7187.1.1 = { holder=104300525 } # Rogga (nc)

7196.6.1 = {
	holder=106300542
}
7200.1.1 = {
	holder=10081386
}
7204.1.1 = {
	holder=112300516
}
7214.1.1 = {
	holder=113300544
}
7231.1.1 = { 
	holder=108300525 # Syrio (nc)
} 
7253.1.1 = { holder=110300525 } # Ordello (nc)
7296.1.1 = { holder=115300525 } # Lanna (nc)

7311.1.1 = { holder=117300525 } # Mero (nc)
7351.1.1 = { holder=120300525 } # Gyloro (nc)

