623.1.1={
	liege="d_astapor"
}
7087.1.1 = { holder=150360027 } # Grazdan (nc)
7121.1.1 = { holder=100360027 } # Barghaz (nc)
7146.1.1 = { holder=103360027 } # Hizdhar (nc)
7185.1.1 = { holder=105360027 } # Grazdan (nc)
7233.1.1 = { holder=110360027 } # Marghaz (nc)
7237.1.1 = { holder=115360027 } # Grazdan (nc)
7243.1.1 = { holder=118360027 } # Reznak (nc)
7290.1.1 = { holder=120360027 } # Gorlaq (nc)
7330.1.1 = { holder=123360027 } # Skahaz (nc)
7337.1.1 = { holder=127360027 } # Gunzak (nc)
7362.1.1 = { holder=129360027 } # Grazdhan (nc)
7378.1.1 = { holder=132360027 } # Marghaz (nc)
7399.12.12={
	holder=0 # Dany happened !!
}
