4500.1.1={
	liege="d_gornath"
	law = succ_primogeniture
}
7095.1.1 = { holder=10056811 } # Ishwar (nc)
7117.1.1 = { holder=10156811 } # Nayan (nc)
7122.1.1 = { holder=10356811 } # Avilash (nc)
7160.1.1 = { holder=10556811 } # Ganesh (nc)
7197.1.1 = { holder=11056811 } # Rathin (nc)
7232.1.1 = { holder=11256811 } # Kirthana (nc)
7254.1.1 = { holder=11656811 } # Utkarsh (nc)
7276.1.1 = { holder=11756811 } # Rathin (nc)
7307.1.1 = { holder=12156811 } # Yathavan (nc)
7329.1.1 = { holder=12556811 } # Avilash (nc)
7362.1.1 = { holder=13056811 } # Bhagesh (nc)
7383.1.1 = { holder=13356811 } # Zaara (nc)
