5100.1.1={
	liege="e_vale"
}
6978.1.1 = { holder=3100162 } # Robert (nc)
7040.1.1 = { holder=3201162 } # Bryen (nc)
7088.1.1 = { holder=3000162 } # Robar (nc)
7134.1.1 = { holder=3004162 } # Florian (nc)
7180.1.1 = { holder=3005162 } # Bryen (nc)
7205.1.1 = { holder=3008162 } # Artys (nc)
7206.1.1 = { holder=3010162 } # Alaric (nc)
7255.1.1 = { holder=3013162 } # Wallace (nc)
7276.1.1 = { holder=3018162 } # Uthor (nc)
7301.1.1 = { holder=3019162 } # Godric (nc)
7326.1.1 = { holder=3023162 } # Lyn (nc)
