623.1.1 = { liege="e_stormlands" }

7094.1.1 = { holder=300302 } # Barristan Selmy (nc)
7113.1.1 = { holder=301302 } # Lyonel Selmy (nc)
7114.1.1 = { holder=302302 } # Othell Selmy (nc)
7140.1.1 = { holder=303302 } # Cyrenna Selmy (nc)
7165.1.1 = { holder=311302 } # Humfrey Selmy (nc)
7179.1.1 = { holder=313302 } # Lyonel Selmy (nc)
7208.1.1 = { holder=318302 } # Myles Selmy (nc)
7236.1.1 = { holder=322302 } # Sebara Selmy (Sc)
7267.1.1 = { holder=327302 } # Beren Selmy (Sc)
7276.1.1 = { holder=330302 } # Beram Selmy (Sc)
7307.1.1 = { holder=332302 } # Arstan Selmy (nc)
7360.1.1 = { holder=200302 } # Lyonel Selmy (C)
7370.1.1 = { holder=334302 } # Paxter Selmy (nc)
7395.1.1 = { holder=202302 } # Arstan Selmy (C)
