4500.1.1={
	liege="d_sarys"
	law = succ_primogeniture
}
7092.1.1 = { holder=10056806 } # Uttamesh (nc)
7146.1.1 = { holder=10156806 } # Nayan (nc)
7156.1.1 = { holder=10756806 } # Palash (nc)
7177.1.1 = { holder=11056806 } # Jash (nc)
7192.1.1 = { holder=11256806 } # Avilash (nc)
7236.1.1 = { holder=11456806 } # Sahasrad (nc)
7248.1.1 = { holder=11556806 } # Darshan (nc)
7281.1.1 = { holder=11756806 } # Ritesh (nc)
7300.1.1 = { holder=11956806 } # Palash (nc)
7325.1.1 = { holder=12056806 } # Avilash (nc)
7344.1.1 = { holder=12156806 } # Ganesh (nc)

