623.1.1={
	liege="d_hesh"
	law = succ_ultimogeniture
}
7073.1.1 = { holder=10055923 } # Pono (nc)
7110.1.1 = { holder=10355923 } # Motho (nc)
7157.1.1 = { holder=10555923 } # Jhogo (nc)
7164.1.1 = { holder=10955923 } # Malakho (nc)
7176.1.1 = { holder=10755923 } # Pono (nc)
7182.1.1 = { holder=11555923 } # Jommo (nc)
7224.1.1 = { holder=12355923 } # Drogo (nc)
7260.1.1 = { holder=12555923 } # Moro (nc)
7273.1.1 = { holder=12855923 } # Zekko (nc)
7320.1.1 = { holder=12955923 } # Jommo (nc)
7332.1.1 = { holder=13255923 } # Qotho (nc)
7370.1.1 = { holder=13555923 } # Mago (nc)

