#House Mo
7093.1.1 = { 
	holder=100304002 
	liege=d_omburu
	law = succ_seniority
	law = cognatic_succession
} # Adeyemu (nc)
7141.1.1 = { holder=105304002 } # Jalabhar (nc)
7146.1.1 = { holder=107304002 } # Kwasdo (nc)
7186.1.1 = { holder=110304002 } # Kwasdo (nc)
7203.1.1 = { holder=111304002 } # Chibundo (nc)
7230.1.1 = { holder=113304002 } # Kwasdo (nc)
7255.1.1 = { holder=116304002 } # Nyadundo (nc)
7297.1.1 = { holder=118304002 } # Siboxhoan (nc)
7312.1.1 = { holder=121304002 } # Xhal (nc)
7335.1.1 = { holder=126304002 } # Qaro (nc)
7368.1.1 = { holder=128304002 } # Jiradhar (nc)
7384.1.1 = { holder=131304002 } # Koroxhar (nc)

