1.1.1={ law=succ_primogeniture law=cognatic_succession
	liege="d_oldtown"
}

65.1.1 = { holder=6000282 } # Ellyn Ever-sweet

75.1.1 = { holder=0 }

6930.1.1 = { holder=6200282 } # Mason (nc)
6978.1.1 = { holder=6300282 } # Cavan (nc)
6982.1.1 = { holder=6500282 } # Oryon (nc)
7018.1.1 = { holder=6700282 } # Jaime (nc)
7039.1.1 = { holder=6110282 } # Mern (nc)
7071.1.1 = { holder=3000282 } # Dontos (nc)
7123.1.1 = { holder=3002282 } # Normund (nc)
7134.1.1 = { holder=3004282 } # Osbert (nc)
7174.1.1 = { holder=3005282 } # Horas (nc)
7176.1.1 = { holder=3008282 } # Lyman (C)
7229.5.3 = { holder=3011282 } # Alan (C)
7230.1.4 = { holder=3017282 } # Joslon (C)
7280.1.1 = { holder=3021282 } # Arros (C)
7318.1.1 = { holder=3027282 } # Igon (nc)
7358.1.1={
	holder=282
}





