623.1.1={
	liege="d_yin"
}
7095.1.1 = { holder=10069195 } # Ubayd (nc)
7136.1.1 = { holder=10169195 } # Ubayd (nc)
7148.1.1 = { holder=10369195 } # Jibril (nc)
7186.1.1 = { holder=10669195 } # Shamir (nc)
7204.1.1 = { holder=11169195 } # Nizam (nc)
7211.1.1 = { holder=11269195 } # Yahya (nc)
7243.1.1 = { holder=11869195 } # Yusuf (nc)
7277.1.1 = { holder=12169195 } # Isa (nc)
7314.1.1 = { holder=12469195 } # Abdul (nc)
7320.1.1 = { holder=12669195 } # Nizam (nc)
7354.1.1 = { holder=13169195 } # Yusuf (nc)
7379.1.1 = { holder=13469195 } # Is'mail (nc)

