#House Umaru
7096.1.1 = { 
	holder=100304034 
	liege=d_red_flower_vale
	law = succ_seniority
	law = cognatic_succession
} # Xhakan (nc)
7145.1.1 = { holder=101304034 } # Tal (nc)
7150.1.1 = { holder=104304034 } # Makhan (nc)
7187.1.1 = { holder=110304034 } # Qaro (nc)
7204.1.1 = { holder=113304034 } # Xhonodo (nc)
7238.1.1 = { holder=119304034 } # Tapuhuru (nc)
7302.1.1 = { holder=120304034 } # Simbhar (nc)
7308.1.1 = { holder=121304034 } # Gwalahuru (nc)
7313.1.1 = { holder=123304034 } # Sango (nc)
7345.1.1 = { holder=129304034 } # Konde (nc)
7370.1.1 = { holder=130304034 } # Anyim (nc)
7386.1.1 = { holder=132304034 } # Manahuru (nc)
