623.1.1={
	liege="d_yiti_delta"
}
7095.1.1 = { holder=10069104 } # Aram (nc)
7138.1.1 = { holder=10469104 } # Isa (nc)
7145.1.1 = { holder=10669104 } # Aram (nc)
7173.1.1 = { holder=10869104 } # Isa (nc)
7223.1.1 = { holder=11169104 } # Bakr (nc)
7232.1.1 = { holder=11669104 } # Hafiz (nc)
7251.1.1 = { holder=11969104 } # Shaiban (nc)
7284.1.1 = { holder=12069104 } # Jabir (nc)
7311.1.1 = { holder=12369104 } # Uways (nc)
7352.1.1 = { holder=12769104 } # Sadiq (nc)
7355.1.1 = { holder=12869104 } # Abdul (nc)
7388.1.1 = { holder=13169104 } # Mansur (nc)

