4578.1.1 = {
	liege = d_hazdahn
}
7095.1.1 = { holder=100069201 } # Fendahl (nc)
7152.1.1 = { holder=100269201 } # Zaraq (nc)
7156.1.1 = { holder=100869201 } # Barghaz (nc)
7197.1.1 = { holder=101069201 } # Paezhar (nc)
7212.1.1 = { holder=101269201 } # Mazdhan (nc)
7218.1.1 = { holder=101669201 } # Azzak (nc)
7243.1.1 = { holder=101769201 } # Reznak (nc)
7266.1.1 = { holder=101869201 } # Harghaz (nc)
7318.1.1 = { holder=102369201 } # Skahaz (nc)
7332.1.1 = { holder=102569201 } # Grazdan (nc)
7353.1.1 = { holder=102869201 } # Haznak (nc)
7370.1.1 = { holder=103069201 } # Grazdhan (nc)

