623.1.1={
	liege="k_tyrosh"
}
7070.1.1 = { holder=150300024 } # Myrmello (nc)
7128.1.1 = { holder=100300024 } # Illyrio (nc)
7153.1.1 = { holder=102300024 } # Tycho (nc)
7165.1.1 = { holder=105300024 } # Collio (nc)
7211.1.1 = { holder=109300024 } # Ordello (nc)
7246.1.1 = { holder=113300024 } # Cossoma (nc)
7285.1.1 = { holder=122300024 } # Oro (nc)
7303.1.1 = { holder=123300024 } # Moreo (nc)
7325.1.1 = { holder=128300024 } # Tycho (nc)
7359.1.1={
	holder=600000059 # Alequo Adarys
	liege="d_tyrosh"
}
7359.12.31 = { holder=128300024 liege="k_tyrosh" } # Tycho (nc)
7370.1.1 = { holder=130300024 } # Gyloro (nc)
7378.1.1 = { holder=131300024 } # Syrio (nc)
