#House Uxo
7084.1.1 = { 
	holder=100304010 
	liege=d_the_three_exiles
	law = succ_seniority
	law = cognatic_succession
} # Koroxhar (nc)
7123.1.1 = { holder=104304010 } # Isodo (nc)
7152.1.1 = { holder=106304010 } # Tal (nc)
7175.1.1 = { holder=109304010 } # Manahuru (nc)
7214.1.1 = { holder=112304010 } # Eskender (nc)
7237.1.1 = { holder=118304010 } # Xhakan (nc)
7245.1.1 = { holder=122304010 } # Bapato (nc)
7309.1.1 = { holder=128304010 } # Xhakan (nc)
7338.1.1 = { holder=131304010 } # Rudo (nc)
7365.1.1 = { holder=137304010 } # Dubaku (nc)
7385.1.1 = { holder=141304010 } # Jarado (nc)



