#House Alukho
7080.1.1 = { 
	holder=100304013 
	liege=d_last_lament
	law = succ_seniority
	law = cognatic_succession
} # Siboxhoan (nc)
7124.1.1 = { holder=103304013 } # Rudo (nc)
7125.1.1 = { holder=104304013 } # Tal (nc)
7165.1.1 = { holder=106304013 } # Bujiba (nc)
7174.1.1 = { holder=109304013 } # Mermesbhar (nc)
7216.1.1 = { holder=113304013 } # Lusaxharo (nc)
7220.1.1 = { holder=111304013 } # Tal (nc)
7225.1.1 = { holder=115304013 } # Xhakan (nc)
7254.1.1 = { holder=117304013 } # Konde (nc)
7283.1.1 = { holder=120304013 } # Xaro (nc)
7318.1.1 = { holder=124304013 } # Punuxharo (nc)
7346.1.1 = { holder=131304013 } # Jalabhar (nc)
7390.1.1 = { holder=133304013 } # Odingaxho (nc)
