#House Qho
7085.1.1 = { 
	holder=100304003 
	liege=d_last_lament
	law = succ_seniority
	law = cognatic_succession
} # Jalabhar (nc)
7146.1.1 = { holder=101304003 } # Xhal (nc)
7163.1.1 = { holder=103304003 } # Thabo (nc)
7174.1.1 = { holder=105304003 } # Jaramogo (nc)
7175.1.1 = { holder=106304003 } # Adeyemu (nc)
7203.1.1 = { holder=109304003 } # Rudo (nc)
7252.1.1 = { holder=112304003 } # Odingaxho (nc)
7269.1.1 = { holder=117304003 } # Koroxhar (nc)
7287.1.1 = { holder=120304003 } # Konde (nc)
7331.1.1 = { holder=119304003 } # Alayaya (nc)
7335.1.1 = { holder=124304003 } # Anyim (nc)
7360.1.1 = { holder=126304003 } # Xhal (nc)
