623.1.1={
	liege="d_kayakayanaya"
	law = succ_seniority
	law = agnatic_succession
}
7070.1.1 = { holder=10055946 } # Voitto (nc)
7108.1.1 = { holder=10155946 } # Valto (nc)
7127.1.1 = { holder=10555946 } # Voitto (nc)
7157.1.1 = { holder=11055946 } # Esko (nc)
7205.1.1 = { holder=11855946 } # Santtu (nc)
7268.1.1 = { holder=12455946 } # Raimo (nc)
7296.1.1 = { holder=12555946 } # Panu (nc)
7326.1.1 = { holder=12955946 } # Pyrkoon (nc)
7349.1.1 = { holder=13455946 } # Jyri (nc)



