623.1.1={
	liege="d_yunkai"
}
7095.1.1 = { holder=150360020 } # Grazdhan (nc)
7108.1.1 = { holder=100360020 } # Marghaz (nc)
7131.1.1 = { holder=101360020 } # Haezdhar (nc)
7172.1.1 = { holder=105360020 } # Grazdan (nc)
7188.1.1 = { holder=111360020 } # Barkhaz (nc)
7222.1.1 = { holder=112360020 } # Azlaq (nc)
7237.1.1 = { holder=116360020 } # Grazdan (nc)
7270.1.1 = { holder=119360020 } # Hizdhar (nc)
7288.1.1 = { holder=120360020 } # Yurkhaz (nc)
7325.1.1 = { holder=122360020 } # Grazdhan (nc)
7339.1.1 = { holder=126360020 } # Paezdhar (nc)
7355.1.1 = { holder=130360020 } # Gazdhor (nc)
7380.1.1={
	holder=6571007 # Grazdan
}
