4100.1.1={
	law = succ_primogeniture
	liege = d_east_braavosiancoastlands
}
7077.1.1 = { holder=100174909 } # Lothor (nc)
7115.1.1 = { holder=101174909 } # Ballabar (nc)
7135.1.1 = { holder=105174909 } # Vardis (nc)
7160.1.1 = { holder=112174909 } # Ballabar (nc)
7218.1.1 = { holder=117174909 } # Serwyn (nc)
7227.1.1 = { holder=120174909 } # Umfred (nc)
7234.1.1 = { holder=127174909 } # Serwyn (nc)
7267.1.1 = { holder=128174909 } # Royce (nc)
7299.1.1 = { holder=133174909 } # Tim (nc)
7368.1.1 = { holder=136174909 } # Donnel (nc)
7382.1.1 = { holder=138174909 } # Donnel (nc)

