1.1.1 = {
	law = succ_turkish_succession
	law = agnatic_succession
}
7086.1.1 = { holder=10559143 } # Cayn (nc)
7122.1.1 = { holder=11559143 } # Torghen (nc)
7133.1.1 = { holder=14559143 } # Eyron (nc)
7152.1.1 = { holder=18559143 } # Devyn (nc)
7160.1.1 = { holder=19559143 } # Walton (nc)
7185.1.1 = { holder=22559143 } # Jojen (nc)
7196.1.1 = { holder=23559143 } # Gerrick (nc)
7227.1.1 = { holder=26559143 } # Dywen (nc)
7255.1.1 = { holder=27559143 } # Gariss (nc)
7275.1.1 = { holder=31559143 } # Briar (nc)
7313.1.1={
	liege="k_beyond_wall"
}
7315.1.1 = { holder=33559143 } # Dormund (nc)
7324.1.1 = { holder=35559143 } # Mance (nc)
7326.9.9={
	liege="0"
}
7360.1.1 = { holder=38559143 } # Arnolf (nc)
#7386.1.1 = { holder=42559143 } # Devyn (nc)

7382.1.1={
	holder=157008
}
7398.1.1={
	liege="k_beyond_wall"
}
7400.1.1={
	holder=999000666
}
