1112.1.1={
	liege="d_toqolarth"
}
7096.1.1 = { holder=150350010 } # Egon (nc)
7102.1.1 = { holder=100350010 } # Mathos (nc)
7154.1.1 = { holder=103350010 } # Ognos (nc)
7193.1.1 = { holder=104350010 } # Wullon (nc)
7214.1.1 = { holder=105350010 } # Methyso (nc)
7244.1.1 = { holder=109350010 } # Surindos (nc)
7266.1.1 = { holder=110350010 } # Mathos (nc)
7295.1.1 = { holder=113350010 } # Surindos (nc)
7337.1.1 = { holder=117350010 } # Saathos (nc)
7354.1.1 = { holder=118350010 } # Surindos (nc)
7363.1.1 = { holder=120350010 } # Belicho (nc)
7369.1.1 = { holder=123350010 } # Sallor (nc)


