623.1.1={
	liege="d_meereen"
}
7095.1.1 = { holder=150360004 } # Phaezdhar (nc)
7120.1.1 = { holder=100360004 } # Grazdan (nc)
7153.1.1 = { holder=101360004 } # Miklaz (nc)
7178.1.1 = { holder=103360004 } # Grazdan (nc)
7205.1.1 = { holder=107360004 } # Azzak (nc)
7218.1.1 = { holder=112360004 } # Marghaz (nc)
7266.1.1 = { holder=116360004 } # Gorzhak (nc)
7279.1.1 = { holder=119360004 } # Dhazak (nc)
7300.1.1 = { holder=123360004 } # Paezhar (nc)
7329.1.1 = { holder=127360004 } # Grazdan (nc)
7343.1.1 = { holder=128360004 } # Gorzhak (nc)
7387.1.1={
	holder=16571015 # Grazdan
}
