623.1.1={
	liege="d_port_moraq"
}

7095.1.1 = { holder=100055934 } # Nizam (nc)
7138.1.1 = { holder=100355934 } # Isa (nc)
7146.1.1 = { holder=100555934 } # Yusuf (nc)
7160.1.1 = { holder=100655934 } # Burhanaddin (nc)
7179.1.1 = { holder=101055934 } # Shamir (nc)
7211.1.1 = { holder=101255934 } # Nizam (nc)
7237.1.1 = { holder=101555934 } # Is'mail (nc)
7274.1.1 = { holder=101655934 } # Qadir (nc)
7286.1.1 = { holder=101955934 } # Hafiz (nc)
7290.1.1 = { holder=102355934 } # Ubayd (nc)
7334.1.1 = { holder=102455934 } # Aghlab (nc)
7360.1.1 = { holder=102655934 } # Husam (nc)

