623.1.1={
	liege="k_myr"
}

7095.1.1 = { holder=100300704 } # Byan (nc)
7137.1.1 = { holder=102300704 } # Tormo (nc)
7161.1.1 = { holder=109300704 } # Brusco (nc)
7162.1.1 = { holder=111300704 } # Luco (nc)
7192.1.1 = { holder=113300704 } # Beqqo (nc)
7219.1.1 = { holder=115300704 } # Tregar (nc)
7266.1.1 = { holder=116300704 } # Izembaro (nc)
7284.1.1 = { holder=118300704 } # Ordello (nc)
7291.1.1 = { holder=120300704 } # Luco (nc)
7333.1.1 = { holder=123300704 } # Moreo (nc)
7338.1.1 = { holder=128300704 } # Illyrio (nc)
7362.1.1 = { holder=130300704 } # Roggo (nc)
