623.1.1={ liege=d_ocean_road law=succ_primogeniture law=cognatic_succession
}
644.1.1={holder=60800237} # John the Oak (C)
697.1.1={holder=0}

6980.1.1={holder=60130237} # Alder (nc)
7007.1.1={holder=60120237} # Filbert (nc)
7088.1.1={holder=60110237} # Aspen (nc)
7088.2.1={holder=60000237} # Linden (nc)

7103.1.1={
	holder=24237
}
7112.8.1 = {
	holder=23237
}
7176.1.1={
	holder=21237
}
7202.1.1={
	holder=20237
}
7229.1.1={
	holder=16237
}
7264.1.1={
	holder=15237
}
7278.1.1={
	holder=14237
}
7296.1.1={
	holder=11237
}
7335.1.1={
	holder=10237
}
