#House Nyrolu
7072.1.1 = { 
	holder=100304038 
	liege=d_the_three_exiles
	law = succ_seniority
	law = cognatic_succession
} # Chakoro (nc)
7108.1.1 = { holder=102304038 } # Tapuhuru (nc)
7125.1.1 = { holder=104304038 } # Odingaxho (nc)
7150.1.1 = { holder=107304038 } # Jiradhar (nc)
7177.1.1 = { holder=109304038 } # Delmabhar (nc)
7186.1.1 = { holder=110304038 } # Oluhuru (nc)
7217.1.1 = { holder=111304038 } # Oluhuru (nc)
7236.1.1 = { holder=114304038 } # Jalabhar (nc)
7237.1.1 = { holder=115304038 } # Lusaxharo (nc)
7266.1.1 = { holder=119304038 } # Qaro (nc)
7271.1.1 = { holder=120304038 } # Paro (nc)
7302.1.1 = { holder=124304038 } # Koroxhar (nc)
7347.1.1 = { holder=126304038 } # Isingodo (nc)
7383.1.1 = { holder=134304038 } # Udo (nc)




