#c_oxcross
1.1.1={
	liege="d_casterly_rock"
}
7080.1.1 ={
	holder=313191	
}7098.6.6 ={
	holder=310191	
}
7139.1.1 ={
	holder=309191	
}
7165.1.1 ={
	holder=308191	
}
7196.1.1 ={
	holder=307191	
}
7219.1.1 ={
	holder=306191	
}
7246.1.1 ={
	holder=304191	
}
7267.1.1 ={
	holder=302191	
}
7302.1.1 ={
	holder=300191	
}
7319.1.1 ={
	holder=3191	
}	
7366.1.1 = {	
	holder=191
}

