623.1.1={
	liege="d_mantarys"
}
7095.1.1 = { holder=10070116 } # Malaquo (nc)
7127.1.1 = { holder=10470116 } # Doniphos (nc)
7160.1.1 = { holder=10670116 } # Haerys (nc)
7179.1.1 = { holder=10770116 } # Methyso (nc)
7208.1.1 = { holder=11170116 } # Jaekar (nc)
7228.1.1 = { holder=11370116 } # Nyessos (nc)
7239.1.1 = { holder=11570116 } # Parquello (nc)
7281.1.1 = { holder=11670116 } # Orys (nc)
7313.1.1 = { holder=12070116 } # Belicho (nc)
7325.1.1 = { holder=12270116 } # Matarys (nc)
7374.1.1 = { holder=12770116 } # Colloquo (nc)
7393.1.1 = { holder=12970116 } # Malaquo (nc)
