6641.1.1 = {
	holder = 155001 #Morgan (C)
}
6692.1.1 = {
	holder = 0 
}

7094.1.1 = { holder=100010 } # Meryn (nc)
7134.1.1 = { holder=100310 } # Gowen (nc)
7140.1.1 = { holder=100510 } # Cedrik (nc)
7183.1.1 = { holder=100710 } # Rickard (nc)
7205.1.1 = { holder=101110 } # Casper (nc)
7234.1.1 = { holder=101710 } # Herbert (nc)
7251.1.1 = { holder=101810 } # Rolland (nc)
7278.1.1 = { holder=102110 } # Lewys (nc)
7287.1.1 = { holder=2100001 } # Mors (c)

7300.1.1={
	liege="d_brokenarm"
	
	law = true_cognatic_succession

}
7309.1.1 = {
	holder = 2000001 #Nymeria
}
7336.1.1 = { holder=6055001} # Nymeria II (nc)
7358.1.1 = { holder=6056001} # Mors II (C)
7390.1.1 = { holder=60570001} # Malon (nc)
7418.1.1 = { holder=60840001} # Olyvar (nc)
