623.1.1={
	liege="d_port_yhos"
}
 7091.1.1 = { holder=150350005 } # Sybassion (nc)
 7125.1.1 = { holder=100350005 } # Mallor (nc)
 7149.1.1 = { holder=101350005 } # Pyat (nc)
 7190.1.1 = { holder=108350005 } # Egon (nc)
 7209.1.1 = { holder=110350005 } # Nyessos (nc)
 7235.1.1 = { holder=111350005 } # Vogarro (nc)
 7274.1.1 = { holder=115350005 } # Horonno (nc)
 7294.1.1 = { holder=117350005 } # Belicho (nc)
 7302.1.1 = { holder=122350005 } # Navaphos (nc)
 7327.1.1 = { holder=129350005 } # Xaro Xhoan (nc)
 7365.1.1 = { holder=132350005 } # Pyat (nc)
 7368.1.1 = { holder=135350005 } # Ordello (nc)
 7394.1.1 = { holder=139350005 } # Methyso (nc)
