7090.1.1 = { 
	holder=100600214 
	liege = d_west_ifeqevron
} # Haggo (nc)
7117.1.1 = { holder=101600214 } # Iggo (nc)
7143.1.1 = { holder=104600214 } # Haro (nc)
7150.1.1 = { holder=108600214 } # Jommo (nc)
7205.1.1 = { holder=110600214 } # Kovarro (nc)
7219.1.1 = { holder=114600214 } # Zekko (nc)
7236.1.1 = { holder=115600214 } # Fogo (nc)
7247.1.1 = { holder=123600214 } # Zerqollo (nc)
7289.1.1 = { holder=125600214 } # Jarbo (nc)
7290.1.1 = { holder=131600214 } # Jommo (nc)
7291.1.1 = { holder=134600214 } # Haro (nc)
7351.1.1 = { holder=135600214 } # Rovo (nc)
7372.1.1 = { holder=138600214 } # Bharbo (nc)
