7095.1.1 = { 
	liege = d_rhaesh_jim
	holder=100600202 # Jhaquo (nc)
} 
7114.1.1 = { holder=102600202 } # Jhaquo (nc)
7155.1.1 = { holder=104600202 } # Qotho (nc)
7173.1.1 = { holder=107600202 } # Mago (nc)
7202.1.1 = { holder=111600202 } # Bharbo (nc)
7204.1.1 = { holder=114600202 } # Bharbo (nc)
7240.1.1 = { holder=117600202 } # Fogo (nc)
7244.1.1 = { holder=118600202 } # Qotho (nc)
7280.1.1 = { holder=119600202 } # Aggo (nc)
7293.1.1 = { holder=120600202 } # Bharbo (nc)
7302.1.1 = { holder=122600202 } # Temmo (nc)
7343.1.1 = { holder=127600202 } # Drogo (nc)
7360.1.1 = { holder=130600202 } # Zollo (nc)
