7086.1.1 = { 
	holder=100600215 
} # Kovarro (nc)
7109.1.1 = { holder=101600215 } # Drogo (nc)
7111.1.1 = { holder=102600215 } # Jommo (nc)
7135.1.1 = { holder=104600215 } # Mago (nc)
7170.1.1 = { holder=107600215 } # Jommo (nc)
7174.1.1 = { holder=109600215 } # Dhako (nc)
7202.1.1 = { holder=113600215 } # Bharbo (nc)
7228.1.1 = { holder=114600215 } # Mago (nc)
7247.1.1 = { holder=116600215 } # Loso (nc)
7275.1.1 = { holder=117600215 } # Azho (nc)
7297.1.1 = { holder=120600215 } # Jhaquo (nc)
7324.1.1 = { holder=122600215 } # Zhako (nc)
7369.1.1 = { holder=123600215 } # Rhogoro (nc)
7383.1.1 = { holder=124600215 } # Tihho (nc)
7387.1.1 = { holder=126600215 } # Temmo (nc)