5100.1.1={
	liege="d_rills"
	law = succ_primogeniture
}
7094.1.1={
	holder = 19068
}
7123.1.1={
	holder = 18068
}
7132.1.1={
	holder = 17068
}
7171.1.1={
	holder = 16068
}
7191.1.1={
	holder = 15068
}
7228.1.1={
	holder = 14068
}
7244.1.1={
	holder = 13068
}
7272.1.1={
	holder = 12068
}
7301.1.1={
	holder = 11068
}
7321.1.1={
	holder = 10068
}
7350.1.1={
	holder = 10168
}
7355.1.1={
	holder = 68
}

