4500.1.1={
	liege="d_sarnath"
	law = succ_primogeniture
}
7095.1.1 = { holder=10056800 } # Onkar (nc)
7121.1.1 = { holder=10156800 } # Bhagesh (nc)
7153.1.1 = { holder=10656800 } # Harith (nc)
7176.1.1 = { holder=10756800 } # Jash (nc)
7206.1.1 = { holder=11056800 } # Darshan (nc)
7236.1.1 = { holder=11456800 } # Girivar (nc)
7252.1.1 = { holder=11756800 } # Nitish (nc)
7277.1.1 = { holder=11956800 } # Nayan (nc)
7287.1.1 = { holder=12456800 } # Ganesh (nc)
7330.1.1 = { holder=12856800 } # Manish (nc)
7356.1.1 = { holder=13256800 } # Vyomesh (nc)
7366.1.1 = { holder=13456800 } # Harihar (nc)
