623.1.1={
	liege="d_qarth"
}

7095.1.1 = { holder=100069163 } # Mathos (nc)
7137.1.1 = { holder=100169163 } # Regon (nc)
7154.1.1 = { holder=100569163 } # Urrathon (nc)
7174.1.1 = { holder=100869163 } # Saathos (nc)
7220.1.1 = { holder=100969163 } # Zathor (nc)
7234.1.1 = { holder=101269163 } # Pyat (nc)
7244.1.1 = { holder=101569163 } # Xaro (nc)
7285.1.1 = { holder=101669163 } # Semython (nc)
7309.1.1 = { holder=101769163 } # Urrathon (nc)
7311.1.1 = { holder=102169163 } # Navathos (nc)
7345.1.1 = { holder=102369163 } # Ognos (nc)
7384.1.1 = { holder=102669163 } # Xaro (nc)
