623.1.1={
	liege="d_samyriana"
	law = succ_seniority
	law = agnatic_succession
}
7045.1.1 = { holder=10055950 } # Sami (nc)
7103.1.1 = { holder=10155950 } # Najib (nc)
7119.1.1 = { holder=10455950 } # Alim (nc)
7132.1.1 = { holder=10755950 } # Alim (nc)
7181.1.1 = { holder=10955950 } # Qawurd (nc)
7182.1.1 = { holder=11355950 } # Isa (nc)
7229.1.1 = { holder=11655950 } # Mukhtar (nc)
7245.1.1 = { holder=11955950 } # Isa (nc)
7247.1.1 = { holder=12355950 } # Mirza (nc)
7263.1.1 = { holder=12755950 } # Jaleel (nc)
7287.1.1 = { holder=13055950 } # Shamir (nc)
7319.1.1 = { holder=13255950 } # Jalil (nc)
7375.1.1 = { holder=13555950 } # Mahdi (nc)
7385.1.1 = { holder=13655950 } # Abdul (nc)
