#c_sarsfield
1.1.1={
	liege="d_castamere"
}
7094.1.1 = {	
	holder=311233
}
7136.1.1 = {	
	holder=310233
}
7139.3.6 = {	
	holder=309233
}
7169.1.1 = {	
	holder=308233
}
7204.1.1 = {	
	holder=307233
}
7235.1.1 = {	
	holder=305233
}
7257.12.7 = {	
	holder=304233
}
7315.1.1 = {	
	holder=302233
}
7371.1.1 = {	
	holder=300233
}
