623.1.1={
	liege="d_leng_ma"
	law = succ_primogeniture
}
7085.1.1 = { holder=10065977 } # Minh (nc)
7140.1.1 = { holder=10265977 } # Xun (nc)
7157.1.1 = { holder=10665977 } # Xhe (nc)
7201.1.1 = { holder=10765977 } # Phuc (nc)
7213.1.1 = { holder=10965977 } # Thao (nc)
7226.1.1 = { holder=11065977 } # Hieu (nc)
7260.1.1 = { holder=11565977 } # Xuan (nc)
7276.1.1 = { holder=12065977 } # Quan (nc)
7309.1.1 = { holder=12265977 } # Thao (nc)
7336.1.1 = { holder=12465977 } # Van (nc)
7367.1.1 = { holder=12865977 } # An (nc)


