#NOTE: The holder of this title has the House Mallister dynasty tracker set in roberts_rebellion_events
1.1.1={
	liege="d_oldstones"
}

# House Mallister
6922.1.1 = { holder=550128 } # Petyr (C)
6943.1.1 = { holder=551128 } # Zachery (nc)
6984.1.1 = { holder=552128 } # Jonthor (nc)
7017.1.1 = { holder=553128 } # Bennifer (nc)
7046.1.1 = { holder=554128 } # Petyr (nc)
7068.1.1 = { holder=555128 } # Walder (nc)

7086.1.1 = {
	holder=17128 
}
7122.1.1={
	holder=15128
}
7148.1.1={
	holder=14128
}
7180.1.1={
	holder=13128
}
7198.1.1={
	holder=12128
}
7208.1.1={
	holder=11128
}
7240.1.1={
	holder=10128
}
7265.1.1={
	holder=9128
}
7280.1.1={
	holder=8128
}
7317.1.1={
	holder=18128
}


