5100.1.1={
	liege="e_north"
}
7094.1.1={
	holder=15100
}
7103.1.1={
	holder=14100
}
7116.1.1={
	holder=13100
}
7128.1.1={
	holder=12100
}
7158.1.1={
	holder=11100
}
7200.1.1={
	holder=9100
}
7223.1.1={
	holder=8100
}
7261.1.1={
	holder=7100
}
7269.1.1={
	holder=6100
}
7312.1.1={
	holder=5100
}
7325.1.1={
	holder=4100
}
7362.1.5={
	holder=100
}
