623.1.1={
	liege="d_theneck"
	law = succ_primogeniture
}
7094.1.1={
	holder = 11073
}
7139.1.1={
	holder = 10073
}
7146.1.1={
	holder = 9073
}
7184.1.1={
	holder = 8073
}
7233.1.1={
	holder = 6073
}
7264.1.1={
	holder = 5073
}
7295.1.1={
	holder = 4073
}
7344.1.1={
	holder = 2073
}
7362.1.1={
	holder = 73
}
