623.1.1={
	liege="d_faros"
}

7095.1.1 = { holder=100069164 } # Isa (nc)
7132.1.1 = { holder=100169164 } # Uways (nc)
7135.1.1 = { holder=100669164 } # Mirza (nc)
7158.1.1 = { holder=101069164 } # Fadl (nc)
7199.1.1 = { holder=101169164 } # Jibril (nc)
7206.1.1 = { holder=101469164 } # Jalil (nc)
7221.1.1 = { holder=102169164 } # Akin (nc)
7270.1.1 = { holder=102369164 } # Qadir (nc)
7279.1.1 = { holder=102469164 } # Husam (nc)
7322.1.1 = { holder=102869164 } # Najib (nc)
7331.1.1 = { holder=103269164 } # Aghlab (nc)
7378.1.1 = { holder=103769164 } # Fadl (nc)

