2040.1.1={
	liege="d_princespass"
	law=succ_primogeniture
	law = cognatic_succession
	effect = {
		b_skyreach = { ROOT = { holder_scope = { capital = PREVPREV } } }
	}
	
}
7017.1.1 = { holder = 154014 }
7060.1.1 = { holder = 155014 }
7088.1.1 = { holder=60014 } # Aron (nc)
7112.1.1 = { holder=60114 } # Cassana (nc)
7132.1.1 = { holder=60414 } # Franklyn (nc)
7180.1.1 = { holder=60714 } # Marya (nc)
7202.1.1 = { holder=60914 } # Gerold (nc)
7205.1.1 = { holder=61114 } # Trystane (nc)
7222.1.1 = { holder=61314 } # Dorea (nc)
7262.1.1 = { holder=61714 } # Symon (nc)
7295.1.1 = { holder=61814 } # Franklyn (nc)
7324.1.1 = { holder=62114 } # Aron (nc)
7337.1.1 = { holder=62214 } # Garin (nc)
7354.1.1 = { holder=63014 } # Gerold (nc)
7361.1.1 = { holder=14 } # Franklyn (C)
