1.1.1={ law=succ_primogeniture law=cognatic_succession
	liege="d_northmarch"
}
7040.1.1={
	holder=88295
}
7085.1.1={
	holder=88287
}
7092.1.1={
	holder=88286
}
7135.1.1={
	holder=88285
}
7144.1.1={
	holder=88284
}
7187.1.1={
	holder=88282
}
7222.1.1={
	holder=88281
}
7253.1.1={
	holder=88050
}
7272.1.1={
	holder=235
}
7315.1.1={
	holder=88053
}





