#House Bone
7095.1.1 = { 
	holder=100304001 
	liege=d_parrot_bay
	law = succ_seniority
	law = cognatic_succession
} # Arkamun (nc)
7113.1.1 = { holder=101304001 } # Sango (nc)
7142.1.1 = { holder=105304001 } # Qaro (nc)
7176.1.1 = { holder=107304001 } # Rudo (nc)
7185.1.1 = { holder=110304001 } # Rudo (nc)
7252.1.1 = { holder=111304001 } # Isodo (nc)
7283.1.1 = { holder=113304001 } # Orengo (nc)
7291.1.1 = { holder=117304001 } # Olujondo (nc)
7293.1.1 = { holder=115304001 } # Isodo (nc)
7302.1.1 = { holder=118304001 } # Qubhar (nc)
7329.1.1 = { holder=121304001 } # Qubhar (nc)
7364.1.1 = { holder=127304001 } # Delmabhar (nc)
7371.1.1 = { holder=130304001 } # Kwasdo (nc)
7376.1.1 = { holder=131304001 } # Koroxhar (nc)

