6700.1.1={
	#liege="e_stormlands"
	law = succ_primogeniture
}
7020.1.1={
	#liege="e_iron_isles"
}
7060.1.1 = { holder=60001197 } # Ferret (nc)
7110.1.1 = { holder=60011197 } # Gendry (nc)
7126.1.1 = { holder=60101197 } # Duncan (nc)
7137.1.1 = { holder=60111197 } # Gyles (nc)
7180.1.1 = { holder=60121197 } # Clayton (nc)
7202.1.1 = { holder=60191197 } # Triston (nc)
7209.1.1 = { holder=60211197 } # Jaremy (nc)
7260.1.1 = { holder=60221197 } # Belgrave (nc)
7281.1.1 = { holder=60291197 } # Devan (nc)
7293.1.1 = { holder=60311197 } # Clarence (nc)
7340.1.1 = { holder=60331197 } # Wallace (nc)
7369.1.1 = { holder=60361197 } # Lucifer (nc)
