3100.1.1={
	liege="d_redmountains"
	law=succ_primogeniture
	law = cognatic_succession
}
3851.1.1 = {
	holder = 150016 #Samwell
}
3898.1.1 = {
	holder = 0
}
6381.1.1 = {
	holder = 152016 #Vorian
}
6405.1.1 = {
	holder = 153016 #Trystane
}
6455.1.1 = {
	holder = 155016 #Maron
}
6478.1.1 = { holder = 0 }

7035.1.1 = { holder=60016 } # Arthur (nc)
7077.1.1 = { holder=24017 } # Gerold (nc)

7088.1.1= {
holder=24017
}
7101.2.5= {
holder=23017
}
7154.1.1= {
holder=22017
}
7176.1.1= {
holder=21017
}
7198.1.1= {
holder=20017
}
7212.1.1= {
holder=18017
}
7232.1.1= {
holder=17017
}
7258.8.4= {
holder=15017
}
7259.3.5= {
holder=13017
}
7304.1.1= {
holder=12017
}
7331.1.1= {
holder=11017
}
7365.1.1= {
holder=1017
}
7372.1.1= {
holder=1016
}
7384.1.1= {
holder=6016
}
7396.1.1= {
holder=9016
}
