#House Jho
7092.1.1 = { 
	holder=100304041 
	liege=d_the_three_exiles
	law = succ_seniority
	law = cognatic_succession
} # Abrafo (nc)
7137.1.1 = { holder=102304041 } # Chakoro (nc)
7152.1.1 = { holder=104304041 } # Arkamun (nc)
7172.1.1 = { holder=106304041 } # Xhakan (nc)
7178.1.1 = { holder=107304041 } # Jalabhar (nc)
7197.1.1 = { holder=111304041 } # Qubhar (nc)
7212.1.1 = { holder=112304041 } # Anyim (nc)
7222.1.1 = { holder=114304041 } # Koroxhar (nc)
7234.1.1 = { holder=116304041 } # Doshuru (nc)
7300.1.1 = { holder=119304041 } # Gatubhar (nc)
7338.1.1 = { holder=121304041 } # Chakoro (nc)
7350.1.1 = { holder=123304041 } # Orengo (nc)
7373.1.1 = { holder=127304041 } # Makhan (nc)


