623.1.1={
	liege="k_leng"
}

7095.1.1 = { holder=100055962 } # Yusuf (nc)
7138.1.1 = { holder=100155962 } # Mirza (nc)
7153.1.1 = { holder=100655962 } # Mukhtar (nc)
7176.1.1 = { holder=100955962 } # Husam (nc)
7217.1.1 = { holder=101255962 } # Yusuf (nc)
7218.1.1 = { holder=101355962 } # Youkhanna (nc)
7267.1.1 = { holder=101555962 } # Najib (nc)
7277.1.1 = { holder=101855962 } # Uways (nc)
7279.1.1 = { holder=102155962 } # Uways (nc)
7322.1.1 = { holder=102455962 } # Sami (nc)
7376.1.1 = { holder=102955962 } # Alim (nc)
7388.1.1 = { holder=103255962 } # Jaleel (nc)


