1100.1.1 = {
	liege="d_ibbish"
}
7090.1.1 = { holder=1055931 } # Cull (nc)
7129.1.1 = { holder=1255931 } # Gurn (nc)
7141.1.1 = { holder=1755931 } # Jogg (nc)
7149.1.1 = { holder=1955931 } # Brogg (nc)
7206.1.1 = { holder=2255931 } # Jogg (nc)
7232.1.1 = { holder=2655931 } # Durr (nc)
7258.1.1 = { holder=3355931 } # Bodger (nc)
7269.1.1 = { holder=3555931 } # Cull (nc)
7304.1.1 = { holder=3755931 } # Quort (nc)
7324.1.1 = { holder=3855931 } # Drogg (nc)
7332.1.1 = { holder=3955931 } # Joth (nc)
7364.1.1 = { holder=4155931 } # Howd (nc)
7389.1.1 = { holder=40555931 } # Eleogg (nc)
