623.1.1={
	liege="k_pentos"
}

7095.1.1 = { holder=100300013 } # Gyloro (nc)
7142.1.1 = { holder=102300013 } # Cossomo (nc)
7160.1.1 = { holder=103300013 } # Ordello (nc)
7185.1.1 = { holder=108300013 } # Myrmello (nc)
7194.1.1 = { holder=109300013 } # Syrio (nc)
7215.1.1 = { holder=113300013 } # Qarro (nc)
7223.1.1 = { holder=118300013 } # Illyrio (nc)
7265.1.1 = { holder=119300013 } # Moredo (nc)
7300.1.1 = { holder=122300013 } # Moreo (nc)
7326.1.1 = { holder=127300013 } # Pynto (nc)
7358.1.1 = { holder=130300013 } # Byan (nc)
7371.1.1 = { holder=133300013 } # Pynto (nc)
7377.1.1 = { holder=135300013 } # Daario (nc)
