623.1.1={ law=succ_primogeniture law=cognatic_succession
	liege="d_highgarden"
}

6640.1.1 = { holder=61000253 } #Tyrell
6655.1.1 = { holder=63000253 }
6682.1.1 = { holder=64000253 }

7085.1.1={
	liege=e_iron_isles #Qhored Hoare
	holder = 0
}

# 7090.1.1 = { holder=1000253 } # Edgerran (nc)
# 7117.1.1 = { holder=1001253 } # Aemon (nc)
# 7133.1.1 = { holder=1002253 } # Hosman (nc)
# 7149.1.1 = { holder=1005253 } # Runceford (nc)
# 7200.1.1 = { holder=1006253 } # Cliffyrd (nc)
# 7221.1.1 = { holder=1008253 } # Anslem (nc)

7250.1.1={
	liege=d_highgarden
	holder=1008253
}
7257.1.1 = { holder=1009253 } # Robert (nc)
7259.1.1 = { holder=1014253 } # Walys (nc)
7327.1.1 = { holder=1017253 } # Franklyn (nc)
7341.1.1 = { holder=1020253 } # Bertram (nc)
7364.1.1 = { holder=1023253 } # Medwick (nc)
7393.1.1 = { holder=1024253 } # Elyas (nc)
7417.1.1 = { holder=1025253 } # Franklyn (nc)





