4578.1.1 = {
	liege = d_hazdahn
}
7095.1.1 = { holder=100069202 } # Barkhaz (nc)
7130.1.1 = { holder=100169202 } # Bharkaz (nc)
7142.1.1 = { holder=100269202 } # Ghazdor (nc)
7172.1.1 = { holder=100469202 } # Grazdhar (nc)
7179.1.1 = { holder=100769202 } # Hizdhar (nc)
7220.1.1 = { holder=101069202 } # Reznak (nc)
7236.1.1 = { holder=101169202 } # Morghaz (nc)
7265.1.1 = { holder=101469202 } # Yezzan (nc)
7286.1.1 = { holder=101669202 } # Yezzan (nc)
7323.1.1 = { holder=101969202 } # Zaraq (nc)
7340.1.1 = { holder=102169202 } # Azzak (nc)
7360.1.1 = { holder=102369202 } # Barghaz (nc)
7385.1.1 = { holder=102669202 } # Ghazdor (nc)

