623.1.1={
	liege = d_yghos
}

7095.1.1 = { holder=10000347 } # Rhaekar (nc)
7127.1.1 = { holder=10020347 } # Aegor (nc)
7148.1.1 = { holder=10030347 } # Qoherys (nc)
7193.1.1 = { holder=10060347 } # Daeron (nc)
7224.1.1 = { holder=10080347 } # Otherys (nc)
7238.1.1 = { holder=10100347 } # Daeron (nc)
7246.1.1 = { holder=10140347 } # Daeron (nc)
7290.1.1 = { holder=10190347 } # Baelon (nc)
7311.1.1 = { holder=10230347 } # Aenar (nc)
7366.1.1 = { holder=10260347 } # Aegon (nc)
7383.1.1 = { holder=10280347 } # Maegon (nc)
7397.1.1 = { holder=10290347 } # Rhaegar (nc)
7409.1.1 = { holder=10310347 } # Vaermon (nc)

