623.1.1={
	liege="d_yiti_delta"
}
7095.1.1 = { holder=10069102 } # Ramadan (nc)
7122.1.1 = { holder=10169102 } # Wahab (nc)
7130.1.1 = { holder=10469102 } # Murad (nc)
7152.1.1 = { holder=10569102 } # Yahya (nc)
7199.1.1 = { holder=11369102 } # Bahir (nc)
7248.1.1 = { holder=11669102 } # Husam (nc)
7260.1.1 = { holder=11969102 } # Qadir (nc)
7274.1.1 = { holder=12369102 } # Nasr (nc)
7292.1.1 = { holder=12769102 } # Hafiz (nc)
7324.1.1 = { holder=13069102 } # Bakr (nc)
7351.1.1 = { holder=13169102 } # Najib (nc)
7375.1.1 = { holder=13769102 } # Shamir (nc)
7386.1.1 = { holder=13969102 } # Jabir (nc)


