623.1.1={
	liege="d_linqi_jungle"
}
7095.1.1 = { holder=10069113 } # Yusuf (nc)
7124.1.1 = { holder=10169113 } # Sadiq (nc)
7135.1.1 = { holder=10469113 } # Mirza (nc)
7149.1.1 = { holder=10769113 } # Burhanaddin (nc)
7184.1.1 = { holder=11069113 } # Muzaffaraddin (nc)
7188.1.1 = { holder=11169113 } # Hasan_Hasan (nc)
7220.1.1 = { holder=11469113 } # Uways (nc)
7264.1.1 = { holder=11669113 } # Shamir (nc)
7278.1.1 = { holder=12069113 } # Yahya (nc)
7294.1.1 = { holder=12469113 } # Hussayn (nc)
7305.1.1 = { holder=12769113 } # Mukhtar (nc)
7320.1.1 = { holder=13069113 } # Yahya (nc)
7337.1.1 = { holder=13369113 } # Sami (nc)
7387.1.1 = { holder=13569113 } # Khaireddin (nc)


