623.1.1={
	law = succ_seniority
	law = agnatic_succession
}
7095.1.1 = { holder=1000414 } # Jibril (nc)
7130.1.1 = { holder=1002414 } # Isa (nc)
7149.1.1 = { holder=1005414 } # Jibril (nc)
7174.1.1 = { holder=1007414 } # Faruk (nc)
7193.1.1 = { holder=1010414 } # Is'mail (nc)
7220.1.1 = { holder=1015414 } # Sadiq (nc)
7224.1.1 = { holder=1016414 } # Uways (nc)
7267.1.1 = { holder=1019414 } # Mansur (nc)
7285.1.1 = { holder=1024414 } # Talib (nc)
7316.1.1 = { holder=1026414 } # Burhanaddin (nc)
7349.1.1 = { holder=1028414 } # Azam (nc)
7355.1.1 = { holder=1031414 } # Hussayn (nc)
7403.1.1 = { holder=1032414 } # Ramadan (nc)
7437.1.1 = { holder=1033414 } # Zeyd (nc)

