6100.1.1={
	liege=k_astapor
}
7080.1.1 = { holder=150360001 } # Gazdhor (nc)
7106.1.1 = { holder=100360001 } # Gorzhak (nc)
7135.1.1 = { holder=101360001 } # Grazdan (nc)
7171.1.1 = { holder=106360001 } # Grazdhan (nc)
7205.1.1 = { holder=110360001 } # Yezzan (nc)
7246.1.1 = { holder=115360001 } # Grazdan (nc)
7252.1.1 = { holder=116360001 } # Marghaz (nc)
7270.1.1 = { holder=121360001 } # Maezon (nc)
7323.1.1 = { holder=127360001 } # Grazdhan (nc)
7338.1.1 = { holder=130360001 } # Skahaz (nc)
7346.1.1 = { holder=134360001 } # Yurkhaz (nc)
7385.1.1={
	holder=6571000 # Kraznys
}
