623.1.1={
	liege = k_valyria
}

7095.1.1 = { holder=10006050 } # Qoherys (nc)
7128.1.1 = { holder=10016050 } # Daegar (nc)
7156.1.1 = { holder=10026050 } # Valarr (nc)
7166.1.1 = { holder=10066050 } # Daemon (nc)
7186.1.1 = { holder=10086050 } # Maegon (nc)
7218.1.1 = { holder=10096050 } # Maegon (nc)
7268.1.1 = { holder=10126050 } # Jaehaerys (nc)
7271.1.1 = { holder=10166050 } # Rhaegar (nc)
7307.1.1 = { holder=10186050 } # Maekar (nc)
7322.1.1 = { holder=10216050 } # Valarr (nc)
7355.1.1 = { holder=10246050 } # Baelor (nc)
7387.1.1 = { holder=10256050 } # Viserys (nc)
7431.1.1 = { holder=10286050 } # Aenys (nc)
