623.1.1 = {
	liege="k_ibben"
	law = succ_primogeniture
	law = agnatic_succession
}
7090.1.1 = { holder=1055928 } # Krull (nc)
7145.1.1 = { holder=1155928 } # Haggon (nc)
7153.1.1 = { holder=1255928 } # Jarr (nc)
7157.1.1 = { holder=1455928 } # Umar (nc)
7192.1.1 = { holder=1755928 } # Krull (nc)
7212.1.1 = { holder=2255928 } # Slugg (nc)
7260.1.1 = { holder=2555928 } # Sogg (nc)
7265.1.1 = { holder=2855928 } # Joth (nc)
7297.1.1 = { holder=3355928 } # Morr (nc)
7347.1.1 = { holder=3455928 } # Colosh (nc)
7374.1.1 = { holder=3855928 } # Drogg (nc)
7383.1.1 = { holder=3955928 } # Betharios (nc)

