623.1.1={
	liege="k_xin"
}
7095.1.1 = { holder=10069197 } # Jalil (nc)
7132.1.1 = { holder=10169197 } # Fadil (nc)
7144.1.1 = { holder=10569197 } # Jaleel (nc)
7198.1.1 = { holder=10669197 } # Hasan_Hasan (nc)
7217.1.1 = { holder=10969197 } # Mansur (nc)
7239.1.1 = { holder=11069197 } # Akin (nc)
7243.1.1 = { holder=11569197 } # Yahya (nc)
7266.1.1 = { holder=12069197 } # Bakr (nc)
7297.1.1 = { holder=12469197 } # Sami (nc)
7312.1.1 = { holder=12769197 } # Isa (nc)
7345.1.1 = { holder=13069197 } # Fadil (nc)
7380.1.1 = { holder=13569197 } # Zeyd (nc)



