#Daevan
7086.1.1 = { 
	holder=10051800 # Balavant (nc)
	law = succ_primogeniture
} 
7119.1.1 = { holder=10151800 } # Yogesh (nc)
7122.1.1 = { holder=10451800 } # Taresh (nc)
7163.1.1 = { holder=10851800 } # Etash (nc)
7210.1.1 = { holder=11351800 } # Harith (nc)
7226.1.1 = { holder=11551800 } # Ekavir (nc)
7264.1.1 = { holder=11651800 } # Harihar (nc)
7298.1.1 = { holder=12351800 } # Manish (nc)
7313.1.1 = { holder=12751800 } # Ishwar (nc)
7359.1.1 = { holder=12951800 } # Avilash (nc)
7375.1.1 = { holder=13151800 } # Ganesh (nc)
