623.1.1={
liege="e_iron_isles"
}
3578.1.1 = {
	holder=500107 #Loron the Old Kraken	
}
3632.1.1 = {
	holder=501107
}
3638.1.1 = {
	holder=502107
}
3670.1.1 = { holder=0 }

4230.1.1 = {
	holder = 503107
}
4238.1.1 = { holder = 0 }

4287.1.1 = {
	holder = 504107
}
4303.1.1 = {
	holder = 505107
}
4337.1.1 = { holder = 0 }

4978.1.1 = {
	holder = 506107
}
5014.1.1 = { holder = 0 }

7044.1.1={holder=66000107}
7088.9.1={holder=66100107}
7093.9.1={holder=26107}

7133.1.1 = {
	holder=25107 #Goren
}
7152.1.1={
	holder=24107 #Maron
}
7170.1.1={
	holder=23107 #Balon
}
7202.1.1={
	holder=22107 #Aeron
}
7224.3.7={
	holder=21107 #Vickon
}
7228.8.2={
	holder=20107 #Dalton, the Red Kraken
}
7230.1.1 = {
	holder=36107 #Veron
}
7272.1.1 = {
	holder=19107 #Alton
}
7306.1.1={
	holder=18107 #Dagon
}
7316.1.1={
	holder=299107 #Loron
}
7325.1.1 = {
	holder=17107 #Torwyn
}
7350.1.1 = {
	holder=107 #Quellon
}	
7383.1.1 = {
	holder=1107 #Balon
}


7399.11.3 = {
	holder=2107 #Euron
}
