4500.1.1={
	#liege="k_sarnor"
	effect = {
		holder_scope = { 
			k_sarnor = {
				holder_scope = {
					make_tributary = { who = PREVPREV tributary_type = sarnori }
				}
			}
		}	
	}
	law = succ_primogeniture
}
7095.1.1 = { holder=10056819 } # Etash (nc)
7120.1.1 = { holder=10156819 } # Balavant (nc)
7137.1.1 = { holder=10356819 } # Manish (nc)
7162.1.1 = { holder=10856819 } # Balavant (nc)
7195.1.1 = { holder=11256819 } # Nitish (nc)
7231.1.1 = { holder=11656819 } # Lakshan (nc)
7255.1.1 = { holder=12056819 } # Ranak (nc)
7281.1.1 = { holder=12256819 } # Kalpesh (nc)
7340.1.1 = { holder=12556819 } # Rathin (nc)
7373.1.1 = { holder=12756819 } # Kedaar (nc)
7386.1.1 = { holder=12956819 } # Darshan (nc)
7394.1.1 = { holder=13156819 } # Lokesh (nc)
