5300.1.1={
	law = succ_primogeniture
}

6470.1.1 = { holder = 550881800 } #Dywen Shell, King of The Fingers
6479.1.1={ holder = 550176 } #Corwyn Corbray
6492.1.1 = { holder = 5551176 } #Gawayne Corbray
6523.1.1 = { holder = 551176 } #Qyle Corbray
6538.6.6 = { holder=552176 } # Jaimie
6539.1.1={
	holder=0
	liege = e_vale
}


6978.1.1 = { holder=3100176 } # Elbert (nc)
7040.1.1 = { holder=3201176 } # Hugh (nc)
7094.1.1 = { holder=200176 } # Alaric (nc)
 
7118.1.1 = { holder=201176 } # Waymar (nc)
7154.1.1 = { holder=204176 } # Bryen (nc)
7163.1.1 = { holder=210176 } # Eddison (nc)
7192.1.1 = { holder=211176 } # Eon (nc)
7245.1.1 = { holder=212176 } # Donnel (nc)
7254.1.1 = { holder=214176 } # Elys (nc)
7292.1.1 = { holder=218176 } # Elbert (nc)
7304.1.1 = { holder=220176 } # Walace (nc)
7327.1.1 = { holder=221176 } # Lyn (nc)