623.1.1={
	liege="k_tiqui"
	law = succ_ultimogeniture
}
7096.1.1 = { holder=10055959 } # Sadiq (nc)
7129.1.1 = { holder=10355959 } # Hussayn (nc)
7140.1.1 = { holder=10655959 } # Muzaffaraddin (nc)
7179.1.1 = { holder=10755959 } # Nizam (nc)
7191.1.1 = { holder=10855959 } # Aarif (nc)
7207.1.1 = { holder=11355959 } # Jaleel (nc)
7266.1.1 = { holder=11655959 } # Husam (nc)
7307.1.1 = { holder=11855959 } # Bahir (nc)
7316.1.1 = { holder=11955959 } # Hafiz (nc)
7337.1.1 = { holder=12255959 } # Ghalib (nc)
7389.1.1 = { holder=12755959 } # Abdul (nc)


