1.1.1={ law=succ_primogeniture law=cognatic_succession
	liege="e_reach"
}
7083.1.1 = { holder=6000256 } # Androw (nc)
7109.1.1 = { holder=6002256 } # Androw (nc)
7117.1.1 = { holder=6007256 } # Gyles (nc)
7128.1.1 = { holder=6009256 } # Lyonel (nc)
7174.1.1 = { holder=6015256 } # Canther (nc)
7181.1.1 = { holder=6016256 } # Horras (nc)
7198.1.1 = { holder=6020256 } # Bayard (nc)
7227.1.1 = { holder=6022256 } # Arryn (nc)
7254.1.1 = { holder=6025256 } # Horras (nc)
7285.1.1 = { holder=6027256 } # Reynard (nc)
7316.1.1 = { holder=6028256 } # Garth (nc)
7351.1.1 = { holder=6034256 } # Harrold (nc)





