7078.1.1 = { # Temmo (nc)
	holder=100600203
	historical_nomad = yes
	law = slavery_2
} 
7118.1.1 = { holder=101600203 } # Cohollo (nc)
7136.1.1 = { holder=104600203 } # Jhaquo (nc)
7167.1.1 = { holder=105600203 } # Rommo (nc)
7208.1.1 = { holder=108600203 } # Rommo (nc)
7226.1.1 = { holder=111600203 } # Drogo (nc)
7261.1.1 = { holder=114600203 } # Aggo (nc)
7323.1.1 = { holder=116600203 } # Drogo (nc)
7328.1.1 = { holder=117600203 } # Jommo (nc)
7344.1.1 = { holder=122600203 } # Quaro (nc)
7361.1.1 = { holder=123600203 } # Kovarro (nc)
7373.1.1 = {
	holder = 1300100 #Bharbo
}
7387.1.1 = {
	holder = 300100 #Khal Drogo
	liege = k_dothraki #Khal Drogo
}
7398.10.10 = {
	holder = 3300101 #Pono
}

