3100.1.1 = {
	active = yes
	liege = k_the_most_devout
	law = succ_open_elective
}
7128.1.1={
	holder=351321 #Damon Morrrigen
}
7142.6.1={
	holder=178285 #Morgan Hightower
}
7146.1.1= { holder=0 }

7158.1.1={ #Supressed, disbanded by Jaehaerys I
	liege = 0
	active = no
}
7400.3.1 = { #cersei
	active = yes
	liege = k_the_most_devout
	law = succ_open_elective
	holder = 60000081 #Theodan Wells
}
