1.1.1={ law=succ_primogeniture law=cognatic_succession
	liege="e_reach"
}

50.1.1 = { holder=6100296 } # Herndon of the Horn
155.1.1 = { holder=0 }

6950.1.1 = { holder=6300296 } # Holter (nc)
6968.1.1 = { holder=6400296 } # Kacela (nc)
6999.1.1 = { holder=6500296 } # Chayse (nc)
7025.1.1 = { holder=6600296 } # Samwell (nc)
7044.1.1 = { holder=6800296 } # Acton (nc)
7079.1.1 = { holder=60100296 } #
7080.5.8={
	holder=32296
}
7098.6.6={
	holder=31296
}
7164.1.1={
	holder=30296
}
7195.1.1={
	holder=29296
}
7211.12.12={
	holder=27296
}
7229.6.6={
	holder=26296
}
7238.1.1={
	holder=25296
}
7259.10.10={
	holder=24296
}
7297.1.1={
	holder=23296
}
7321.1.1={
	holder=22296
}
7333.1.1={
	holder=21296
}
7360.1.1={
	holder=20296
}
