5100.1.1={
	liege="e_north"
	law = succ_primogeniture
}

7079.1.1={
	holder=18062
}
7109.1.1={
	holder=17062
}
7125.1.1={
	holder=16062
}
7145.1.1={
	holder=15062
}
7177.1.1={
	holder=14062
}
7191.1.1={
	holder=13062
}
7208.1.1={
	holder=12062
}
7245.1.1={
	holder=10062
}
7278.1.1={
	holder=9062
}
7292.1.1={
	holder=8062
}
7322.1.1={
	holder=7062
}
7349.1.1={
	holder=5062
}
7381.1.1={
	holder=62
}
