623.1.1={
	liege="k_yunkai"
}
7095.1.1 = { holder=150360024 } # Yurkhaz (nc)
7117.1.1 = { holder=100360024 } # Yezzan (nc)
7128.1.1 = { holder=103360024 } # Gorzhak (nc)
7173.1.1 = { holder=104360024 } # Grazdan (nc)
7187.1.1 = { holder=106360024 } # Sharkaz (nc)
7235.1.1 = { holder=109360024 } # Grazdan (nc)
7266.1.1 = { holder=112360024 } # Ghazdor (nc)
7287.1.1 = { holder=113360024 } # Skahaz (nc)
7324.1.1 = { holder=118360024 } # Hizdharo (nc)
7345.1.1 = { holder=123360024 } # Haznak (nc)

7375.1.1={
	holder=6571003 # Yurkhaz
}
