623.1.1={
	law = succ_primogeniture
	law = cognatic_succession
}
6939.1.1 = {
	liege=e_riverlands
}
6982.2.1={holder=60400150} # Torrhen Blackwood
7017.11.7={holder=60300150} # Agnes Blackwood
7033.1.1 = {holder=60200150} # Brynden Blackwood
7080.1.1={holder=60000150} # Rodrik Blackwood
7095.1.1={holder=35150} # Theomar Blackwood
7101.1.1 = {
	liege=0
}
7106.1.1={
	holder=34150
}
7140.1.1={
	holder=33150
}
7154.1.1={
	holder=32150
}
7178.1.1={
	holder=31150
}
7200.1.1={
	holder=0
}
