##dummy titles to allow the changing of other title's coats of arms dynamically
##################
### CROWNLANDS ###
##################
# c_targaryen = {    d_daemons_host
c_targaryen_green = {	#Green Faction 
	color={ 180 180 180 }
	color2={ 255 255 255 }
	
	allow = { always = no }
}
c_targaryen_black = {	#Black Faction 
	color={ 180 180 180 }
	color2={ 255 255 255 }
	
	allow = { always = no }
}
# c_blackfyre = {  k_daemon_blackfyres_host
c_velaryon = { 
	color={ 180 180 180 }
	color2={ 255 255 255 }

	allow = { always = no }
}
c_stark_targaryen = {
	color={ 180 180 180 }
	color2={ 255 255 255 }

	allow = { always = no }
}
c_baratheon_old = {
	color={ 180 180 180 }
	color2={ 255 255 255 }

	allow = { always = no }
}
c_darklyn = { 
	color={ 180 180 180 }
	color2={ 255 255 255 }

	allow = { always = no }
}
c_stokeworthcoa = {
	color={ 180 180 180 }
	color2={ 255 255 255 }

	allow = { always = no }
}
c_hayfordcoa = {
	color={ 180 180 180 }
	color2={ 255 255 255 }

	allow = { always = no }
}
c_truefyre = {
	color={ 180 180 180 }
	color2={ 255 255 255 }

	allow = { always = no }
}
c_targaryen_hammer = {
	color={ 180 180 180 }
	color2={ 255 255 255 }

	allow = { always = no }
}
c_targaryen_white = {
	color={ 180 180 180 }
	color2={ 255 255 255 }

	allow = { always = no }
}
c_rosbycoa = { 
	color={ 180 180 180 }
	color2={ 255 255 255 }

	allow = { always = no }
}
c_cave = { 
	color={ 180 180 180 }
	color2={ 255 255 255 }

	allow = { always = no }
}
c_brune = { 
	color={ 180 180 180 }
	color2={ 255 255 255 }

	allow = { always = no }
}
c_crabb = { 
	color={ 180 180 180 }
	color2={ 255 255 255 }

	allow = { always = no }
}
c_boggs = { 
	color={ 180 180 180 }
	color2={ 255 255 255 }

	allow = { always = no }
}
c_staunton = { 
	color={ 180 180 180 }
	color2={ 255 255 255 }

	allow = { always = no }
}
c_thorne = { 
	color={ 180 180 180 }
	color2={ 255 255 255 }

	allow = { always = no }
}
c_blackwater = { 
	color={ 180 180 180 }
	color2={ 255 255 255 }

	allow = { always = no }
}
c_rykker = { 
	color={ 180 180 180 }
	color2={ 255 255 255 }

	allow = { always = no }
}
c_celtigar = { 
	color={ 180 180 180 }
	color2={ 255 255 255 }

	allow = { always = no }
}
c_sunglass = { 
	color={ 180 180 180 }
	color2={ 255 255 255 }

	allow = { always = no }
}
c_follard = {
	color={ 180 180 180 }
	color2={ 255 255 255 }

	allow = { always = no }
}
c_blount = {
	color={ 180 180 180 }
	color2={ 255 255 255 }

	allow = { always = no }
}
c_gaunt = {
	color={ 180 180 180 }
	color2={ 255 255 255 }

	allow = { always = no }
}
c_farring = {
	color={ 180 180 180 }
	color2={ 255 255 255 }

	allow = { always = no }
}
c_chelsted = {
	color={ 180 180 180 }
	color2={ 255 255 255 }

	allow = { always = no }
}
c_mallery = {
	color={ 180 180 180 }
	color2={ 255 255 255 }

	allow = { always = no }
}
c_cressey = {
	color={ 180 180 180 }
	color2={ 255 255 255 }

	allow = { always = no }
}
c_chyttering = {
	color={ 180 180 180 }
	color2={ 255 255 255 }

	allow = { always = no }
}
c_rollingfordcoa = {
	color={ 180 180 180 }
	color2={ 255 255 255 }

	allow = { always = no }
}
c_harte = {
	color={ 180 180 180 }
	color2={ 255 255 255 }

	allow = { always = no }
}
c_buckwell = {
	color={ 180 180 180 }
	color2={ 255 255 255 }

	allow = { always = no }
}
c_byrch = {
	color={ 180 180 180 }
	color2={ 255 255 255 }

	allow = { always = no }
}
c_edgertoncoa = {
	color={ 180 180 180 }
	color2={ 255 255 255 }

	allow = { always = no }
}
c_langward = {
	color={ 180 180 180 }
	color2={ 255 255 255 }

	allow = { always = no }
}
c_pyle = {
	color={ 180 180 180 }
	color2={ 255 255 255 }

	allow = { always = no }
}
c_kettleblack = {
	color={ 180 180 180 }
	color2={ 255 255 255 }

	allow = { always = no }
}
c_slynt = {
	color={ 180 180 180 }
	color2={ 255 255 255 }

	allow = { always = no }
}
c_manning = {
	color={ 180 180 180 }
	color2={ 255 255 255 }

	allow = { always = no }
}
c_wendwater = {
	color={ 180 180 180 }
	color2={ 255 255 255 }

	allow = { always = no }
}
c_suggs = {
	color={ 180 180 180 }
	color2={ 255 255 255 }

	allow = { always = no }
}
c_cargyll = {
	color={ 180 180 180 }
	color2={ 255 255 255 }

	allow = { always = no }
}
c_bar_emmon = {
	color={ 180 180 180 }
	color2={ 255 255 255 }

	allow = { always = no }
}
c_hardy = {
	color={ 180 180 180 }
	color2={ 255 255 255 }

	allow = { always = no }
}
c_talltallad = {
	color={ 180 180 180 }
	color2={ 255 255 255 }

	allow = { always = no }
}
c_tallduncan = {
	color={ 180 180 180 }
	color2={ 255 255 255 }

	allow = { always = no }
}
c_deem = {
	color={ 180 180 180 }
	color2={ 255 255 255 }

	allow = { always = no }
}
c_blackberry = {
	color={ 180 180 180 }
	color2={ 255 255 255 }

	allow = { always = no }
}
c_tallyhill = {
	color={ 180 180 180 }
	color2={ 255 255 255 }

	allow = { always = no }
}
c_winters = {
	color={ 180 180 180 }
	color2={ 255 255 255 }

	allow = { always = no }
}
c_straw = {
	color={ 180 180 180 }
	color2={ 255 255 255 }

	allow = { always = no }
}
c_tanner = {
	color={ 180 180 180 }
	color2={ 255 255 255 }

	allow = { always = no }
}
c_foxglove = {
	color={ 180 180 180 }
	color2={ 255 255 255 }

	allow = { always = no }
}
c_darke = {
	color={ 180 180 180 }
	color2={ 255 255 255 }

	allow = { always = no }
}
c_darkwood = {
	color={ 180 180 180 }
	color2={ 255 255 255 }

	allow = { always = no }
}
c_dargood = {
	color={ 180 180 180 }
	color2={ 255 255 255 }

	allow = { always = no }
}
c_quince = {
	color={ 180 180 180 }
	color2={ 255 255 255 }

	allow = { always = no }
}
c_largent = {
	color={ 180 180 180 }
	color2={ 255 255 255 }

	allow = { always = no }
}
c_correy = {
	color={ 180 180 180 }
	color2={ 255 255 255 }

	allow = { always = no }
}
c_goode = {
	color={ 180 180 180 }
	color2={ 255 255 255 }

	allow = { always = no }
}
c_belgrave = {
	color={ 180 180 180 }
	color2={ 255 255 255 }

	allow = { always = no }
}
c_bush = {
	color={ 180 180 180 }
	color2={ 255 255 255 }

	allow = { always = no }
}
c_bean = {
	color={ 180 180 180 }
	color2={ 255 255 255 }

	allow = { always = no }
}
c_blackhull = {
	color={ 180 180 180 }
	color2={ 255 255 255 }

	allow = { always = no }
}
c_farseed = {
	color={ 180 180 180 }
	color2={ 255 255 255 }

	allow = { always = no }
}
c_bourney = {
	color={ 180 180 180 }
	color2={ 255 255 255 }

	allow = { always = no }
}
c_corne = {
	color={ 180 180 180 }
	color2={ 255 255 255 }

	allow = { always = no }
}
c_branfield = {
	color={ 180 180 180 }
	color2={ 255 255 255 }

	allow = { always = no }
}
c_scales = {
	color={ 180 180 180 }
	color2={ 255 255 255 }

	allow = { always = no }
}
c_pyne = {
	color={ 180 180 180 }
	color2={ 255 255 255 }

	allow = { always = no }
}
c_longwaters = {
	color={ 180 180 180 }
	color2={ 255 255 255 }

	allow = { always = no }
}

#############
### NORTH ###
#############
c_stark = { 
	color={ 180 180 180 }
	color2={ 255 255 255 }
	
	allow = { always = no }
}
c_whitewolf = { 
	color={ 180 180 180 }
	color2={ 255 255 255 }

	allow = { always = no }
}
c_bolton = { 
	color={ 180 180 180 }
	color2={ 255 255 255 }

	allow = { always = no }
}
c_umber = { 
	color={ 180 180 180 }
	color2={ 255 255 255 }

	allow = { always = no }
}
c_karstark = { 
	color={ 180 180 180 }
	color2={ 255 255 255 }

	allow = { always = no }
}
c_manderly = { 
	color={ 180 180 180 }
	color2={ 255 255 255 }

	allow = { always = no }
}
c_glover = { 
	color={ 180 180 180 }
	color2={ 255 255 255 }

	allow = { always = no }
}
c_ryswell = { 
	color={ 180 180 180 }
	color2={ 255 255 255 }

	allow = { always = no }
}
c_ryswell_dustin = {
	color={ 180 180 180 }
	color2={ 255 255 255 }

	allow = { always = no }
}
c_dustin = { 
	color={ 180 180 180 }
	color2={ 255 255 255 }

	allow = { always = no }
}
c_flint = { 
	color={ 180 180 180 }
	color2={ 255 255 255 }

	allow = { always = no }
}
c_flint_widows_watch = { 
	color={ 180 180 180 }
	color2={ 255 255 255 }

	allow = { always = no }
}
c_flint_breakstone_hill = { 
	color={ 180 180 180 }
	color2={ 255 255 255 }

	allow = { always = no }
}
c_reed = { 
	color={ 180 180 180 }
	color2={ 255 255 255 }

	allow = { always = no }
}
c_mormont = { 
	color={ 180 180 180 }
	color2={ 255 255 255 }

	allow = { always = no }
}
c_greystark = { 
	color={ 180 180 180 }
	color2={ 255 255 255 }

	allow = { always = no }
}
c_forrester = { 
	color={ 180 180 180 }
	color2={ 255 255 255 }

	allow = { always = no }
}
c_whitehill = { 
	color={ 180 180 180 }
	color2={ 255 255 255 }

	allow = { always = no }
}
c_hornwood_coa = { 
	color={ 180 180 180 }
	color2={ 255 255 255 }

	allow = { always = no }
}
c_tallhart = { 
	color={ 180 180 180 }
	color2={ 255 255 255 }

	allow = { always = no }
}
c_cassel = { 
	color={ 180 180 180 }
	color2={ 255 255 255 }

	allow = { always = no }
}
c_cerwyn = { 
	color={ 180 180 180 }
	color2={ 255 255 255 }

	allow = { always = no }
}
c_locke = { 
	color={ 180 180 180 }
	color2={ 255 255 255 }

	allow = { always = no }
}
c_magnar = { 
	color={ 180 180 180 }
	color2={ 255 255 255 }

	allow = { always = no }
}
c_crowl = { 
	color={ 180 180 180 }
	color2={ 255 255 255 }

	allow = { always = no }
}
c_stane = { 
	color={ 180 180 180 }
	color2={ 255 255 255 }

	allow = { always = no }
}
c_warrick = { 
	color={ 180 180 180 }
	color2={ 255 255 255 }

	allow = { always = no }
}

c_silverfield = { 
	color={ 180 180 180 }
	color2={ 255 255 255 }

	allow = { always = no }
}
c_fisher_north = { 
	color={ 180 180 180 }
	color2={ 255 255 255 }

	allow = { always = no }
}
c_stout = { 
	color={ 180 180 180 }
	color2={ 255 255 255 }

	allow = { always = no }
}
c_slate = { 
	color={ 180 180 180 }
	color2={ 255 255 255 }

	allow = { always = no }
}
c_hayes = { 
	color={ 180 180 180 }
	color2={ 255 255 255 }

	allow = { always = no }
}
c_wells = { 
	color={ 180 180 180 }
	color2={ 255 255 255 }

	allow = { always = no }
}
c_woolfield = { 
	color={ 180 180 180 }
	color2={ 255 255 255 }

	allow = { always = no }
}
c_overton_coa = { 
	color={ 180 180 180 }
	color2={ 255 255 255 }

	allow = { always = no }
}
c_mollen = { 
	color={ 180 180 180 }
	color2={ 255 255 255 }

	allow = { always = no }
}
c_waterman = { 
	color={ 180 180 180 }
	color2={ 255 255 255 }

	allow = { always = no }
}
c_lightfoot = { 
	color={ 180 180 180 }
	color2={ 255 255 255 }

	allow = { always = no }
}
c_lake_north = { 
	color={ 180 180 180 }
	color2={ 255 255 255 }

	allow = { always = no }
}
c_poole = { 
	color={ 180 180 180 }
	color2={ 255 255 255 }

	allow = { always = no }
}
c_ironsmith = { 
	color={ 180 180 180 }
	color2={ 255 255 255 }

	allow = { always = no }
}
c_condon = { 
	color={ 180 180 180 }
	color2={ 255 255 255 }

	allow = { always = no }
}
c_woods = { 
	color={ 180 180 180 }
	color2={ 255 255 255 }

	allow = { always = no }
}
c_branch = { 
	color={ 180 180 180 }
	color2={ 255 255 255 }

	allow = { always = no }
}
c_bole = { 
	color={ 180 180 180 }
	color2={ 255 255 255 }

	allow = { always = no }
}
c_ryder = { 
	color={ 180 180 180 }
	color2={ 255 255 255 }

	allow = { always = no }
}
c_ashwood = { 
	color={ 180 180 180 }
	color2={ 255 255 255 }

	allow = { always = no }
}
c_holt_north = { 
	color={ 180 180 180 }
	color2={ 255 255 255 }

	allow = { always = no }
}
c_long_north = { 
	color={ 180 180 180 }
	color2={ 255 255 255 }

	allow = { always = no }
}
c_tuttle = { 
	color={ 180 180 180 }
	color2={ 255 255 255 }

	allow = { always = no }
}
c_glenmore = { 
	color={ 180 180 180 }
	color2={ 255 255 255 }

	allow = { always = no }
}
c_brownbarrow = { 
	color={ 180 180 180 }
	color2={ 255 255 255 }

	allow = { always = no }
}
c_elliver = { 
	color={ 180 180 180 }
	color2={ 255 255 255 }

	allow = { always = no }
}
c_grayson = { 
	color={ 180 180 180 }
	color2={ 255 255 255 }

	allow = { always = no }
}
c_degore = { 
	color={ 180 180 180 }
	color2={ 255 255 255 }

	allow = { always = no }
}
c_greenwood_coa = { 
	color={ 180 180 180 }
	color2={ 255 255 255 }

	allow = { always = no }
}
c_towers_north = { 
	color={ 180 180 180 }
	color2={ 255 255 255 }

	allow = { always = no }
}
c_amber = { 
	color={ 180 180 180 }
	color2={ 255 255 255 }

	allow = { always = no }
}
c_frost = { 
	color={ 180 180 180 }
	color2={ 255 255 255 }

	allow = { always = no }
}
c_woodfoot = { 
	color={ 180 180 180 }
	color2={ 255 255 255 }

	allow = { always = no }
}
c_goodmen = { 
	color={ 180 180 180 }
	color2={ 255 255 255 }

	allow = { always = no }
}
c_dormund = { 
	color={ 180 180 180 }
	color2={ 255 255 255 }

	allow = { always = no }
}
c_boggs_north = { 
	color={ 180 180 180 }
	color2={ 255 255 255 }

	allow = { always = no }
}
c_moss = { 
	color={ 180 180 180 }
	color2={ 255 255 255 }

	allow = { always = no }
}
c_fenn = { 
	color={ 180 180 180 }
	color2={ 255 255 255 }

	allow = { always = no }
}
c_blackmyre = { 
	color={ 180 180 180 }
	color2={ 255 255 255 }

	allow = { always = no }
}
c_marsh = { 
	color={ 180 180 180 }
	color2={ 255 255 255 }

	allow = { always = no }
}
c_cray = { 
	color={ 180 180 180 }
	color2={ 255 255 255 }

	allow = { always = no }
}
c_greengood = { 
	color={ 180 180 180 }
	color2={ 255 255 255 }

	allow = { always = no }
}
c_peat = { 
	color={ 180 180 180 }
	color2={ 255 255 255 }

	allow = { always = no }
}
c_quagg = { 
	color={ 180 180 180 }
	color2={ 255 255 255 }

	allow = { always = no }
}
c_burley = { 
	color={ 180 180 180 }
	color2={ 255 255 255 }

	allow = { always = no }
}
c_harclay = { 
	color={ 180 180 180 }
	color2={ 255 255 255 }

	allow = { always = no }
}
c_liddle = { 
	color={ 180 180 180 }
	color2={ 255 255 255 }

	allow = { always = no }
}
c_knott = { 
	color={ 180 180 180 }
	color2={ 255 255 255 }

	allow = { always = no }
}
c_wull = { 
	color={ 180 180 180 }
	color2={ 255 255 255 }

	allow = { always = no }
}
c_norrey = { 
	color={ 180 180 180 }
	color2={ 255 255 255 }

	allow = { always = no }
}
c_redbeard = { 
	color={ 180 180 180 }
	color2={ 255 255 255 }

	allow = { always = no }
}
c_thenn_coa = { 
	color={ 180 180 180 }
	color2={ 255 255 255 }

	allow = { always = no }
}

##################
### RIVERLANDS ###
##################
c_tully = { 
	color={ 180 180 180 }
	color2={ 255 255 255 }
	
	allow = { always = no }
}
c_frey = { 
	color={ 180 180 180 }
	color2={ 255 255 255 }

	allow = { always = no }
}
c_bracken = { 
	color={ 180 180 180 }
	color2={ 255 255 255 }

	allow = { always = no }
}
c_blackwood = { 
	color={ 180 180 180 }
	color2={ 255 255 255 }

	allow = { always = no }
}
c_malister = { 
	color={ 180 180 180 }
	color2={ 255 255 255 }

	allow = { always = no }
}
c_vance = { 
	color={ 180 180 180 }
	color2={ 255 255 255 }

	allow = { always = no }
}
c_piper = { 
	color={ 180 180 180 }
	color2={ 255 255 255 }

	allow = { always = no }
}
c_darrycoa = { 
	color={ 180 180 180 }
	color2={ 255 255 255 }

	allow = { always = no }
}
c_qoherys = { 
	color={ 180 180 180 }
	color2={ 255 255 255 }

	allow = { always = no }
}
c_teague = { 
	color={ 180 180 180 }
	color2={ 255 255 255 }

	allow = { always = no }
}
c_fisher = { 
	color={ 180 180 180 }
	color2={ 255 255 255 }

	allow = { always = no }
}
c_justman = { 
	color={ 180 180 180 }
	color2={ 255 255 255 }

	allow = { always = no }
}
c_mudd = { 
	color={ 180 180 180 }
	color2={ 255 255 255 }

	allow = { always = no }
}
c_lothston = { 
	color={ 180 180 180 }
	color2={ 255 255 255 }

	allow = { always = no }
}
c_whent = { 
	color={ 180 180 180 }
	color2={ 255 255 255 }

	allow = { always = no }
}
c_strong = { 
	color={ 180 180 180 }
	color2={ 255 255 255 }

	allow = { always = no }
}
c_butterwell = { 
	color={ 180 180 180 }
	color2={ 255 255 255 }

	allow = { always = no }
}
c_towers = {
	color={ 180 180 180 }
	color2={ 255 255 255 }

	allow = { always = no }
}
c_ryger = {
	color={ 180 180 180 }
	color2={ 255 255 255 }

	allow = { always = no }
}
c_harroway = {
	color={ 180 180 180 }
	color2={ 255 255 255 }

	allow = { always = no }
}
c_mooton = {
	color={ 180 180 180 }
	color2={ 255 255 255 }

	allow = { always = no }
}
c_charlton = {
	color={ 180 180 180 }
	color2={ 255 255 255 }

	allow = { always = no }
}
c_erenfordcoa = {
	color={ 180 180 180 }
	color2={ 255 255 255 }

	allow = { always = no }
}
c_haigh = {
	color={ 180 180 180 }
	color2={ 255 255 255 }

	allow = { always = no }
}
c_grell = {
	color={ 180 180 180 }
	color2={ 255 255 255 }

	allow = { always = no }
}
c_paege = {
	color={ 180 180 180 }
	color2={ 255 255 255 }

	allow = { always = no }
}
c_hawick = {
	color={ 180 180 180 }
	color2={ 255 255 255 }

	allow = { always = no }
}
c_blanetree = {
	color={ 180 180 180 }
	color2={ 255 255 255 }

	allow = { always = no }
}
c_roote = {
	color={ 180 180 180 }
	color2={ 255 255 255 }

	allow = { always = no }
}
c_lychester = {
	color={ 180 180 180 }
	color2={ 255 255 255 }

	allow = { always = no }
}
c_shawney = {
	color={ 180 180 180 }
	color2={ 255 255 255 }

	allow = { always = no }
}
c_goodbrookcoa = {
	color={ 180 180 180 }
	color2={ 255 255 255 }

	allow = { always = no }
}
c_lollistoncoa = {
	color={ 180 180 180 }
	color2={ 255 255 255 }

	allow = { always = no }
}
c_harlton = {
	color={ 180 180 180 }
	color2={ 255 255 255 }

	allow = { always = no }
}
c_vance_atranta = {
	color={ 180 180 180 }
	color2={ 255 255 255 }

	allow = { always = no }
}
c_smallwoodcoa = {
	color={ 180 180 180 }
	color2={ 255 255 255 }

	allow = { always = no }
}
c_terrick = {
	color={ 180 180 180 }
	color2={ 255 255 255 }

	allow = { always = no }
}
c_wayn = {
	color={ 180 180 180 }
	color2={ 255 255 255 }

	allow = { always = no }
}
c_keath = {
	color={ 180 180 180 }
	color2={ 255 255 255 }

	allow = { always = no }
}
c_wode = {
	color={ 180 180 180 }
	color2={ 255 255 255 }

	allow = { always = no }
}
c_vypren = {
	color={ 180 180 180 }
	color2={ 255 255 255 }

	allow = { always = no }
}
c_heddle = {
	color={ 180 180 180 }
	color2={ 255 255 255 }

	allow = { always = no }
}
c_bigglestone = {
	color={ 180 180 180 }
	color2={ 255 255 255 }

	allow = { always = no }
}
c_chambers = {
	color={ 180 180 180 }
	color2={ 255 255 255 }

	allow = { always = no }
}
c_grey = {
	color={ 180 180 180 }
	color2={ 255 255 255 }

	allow = { always = no }
}
c_hook = {
	color={ 180 180 180 }
	color2={ 255 255 255 }

	allow = { always = no }
}
c_nutt = {
	color={ 180 180 180 }
	color2={ 255 255 255 }

	allow = { always = no }
}
c_perryn = {
	color={ 180 180 180 }
	color2={ 255 255 255 }

	allow = { always = no }
}
c_pemford = {
	color={ 180 180 180 }
	color2={ 255 255 255 }

	allow = { always = no }
}
c_deddings = {
	color={ 180 180 180 }
	color2={ 255 255 255 }

	allow = { always = no }
}
c_rushmoor_coa = {
	color={ 180 180 180 }
	color2={ 255 255 255 }

	allow = { always = no }
}
c_kanetcoa = {
	color={ 180 180 180 }
	color2={ 255 255 255 }

	allow = { always = no }
}
c_cox = {
	color={ 180 180 180 }
	color2={ 255 255 255 }

	allow = { always = no }
}
c_bromley = {
	color={ 180 180 180 }
	color2={ 255 255 255 }

	allow = { always = no }
}
c_longbough = {
	color={ 180 180 180 }
	color2={ 255 255 255 }

	allow = { always = no }
}
c_nayland = {
	color={ 180 180 180 }
	color2={ 255 255 255 }

	allow = { always = no }
}
c_groves = {
	color={ 180 180 180 }
	color2={ 255 255 255 }

	allow = { always = no }
}

####################
### IRON ISLANDS ###
####################
c_greyjoy = { 
	color={ 180 180 180 }
	color2={ 255 255 255 }
	
	allow = { always = no }
}
c_hoare = { 
	color={ 180 180 180 }
	color2={ 255 255 255 }
	
	allow = { always = no }
}
c_harlaw = { 
	color={ 180 180 180 }
	color2={ 255 255 255 }

	allow = { always = no }
}
c_goodbrother = { 
	color={ 180 180 180 }
	color2={ 255 255 255 }

	allow = { always = no }
}
c_drumm = { 
	color={ 180 180 180 }
	color2={ 255 255 255 }

	allow = { always = no }
}
c_farwynd = { 
	color={ 180 180 180 }
	color2={ 255 255 255 }

	allow = { always = no }
}
c_volmarkcoa = { 
	color={ 180 180 180 }
	color2={ 255 255 255 }

	allow = { always = no }
}
c_saltcliffecoa = { 
	color={ 180 180 180 }
	color2={ 255 255 255 }

	allow = { always = no }
}
c_merlyn = { 
	color={ 180 180 180 }
	color2={ 255 255 255 }

	allow = { always = no }
}
c_stonetreecoa = { 
	color={ 180 180 180 }
	color2={ 255 255 255 }

	allow = { always = no }
}
c_orkwood = { 
	color={ 180 180 180 }
	color2={ 255 255 255 }

	allow = { always = no }
}
c_blacktydecoa = { 
	color={ 180 180 180 }
	color2={ 255 255 255 }

	allow = { always = no }
}
c_humble = { 
	color={ 180 180 180 }
	color2={ 255 255 255 }

	allow = { always = no }
}
c_codd = { 
	color={ 180 180 180 }
	color2={ 255 255 255 }

	allow = { always = no }
}
c_greyiron = { 
	color={ 180 180 180 }
	color2={ 255 255 255 }

	allow = { always = no }
}
c_botley = { 
	color={ 180 180 180 }
	color2={ 255 255 255 }

	allow = { always = no }
}
c_wynch = { 
	color={ 180 180 180 }
	color2={ 255 255 255 }

	allow = { always = no }
}
c_stonehouse = { 
	color={ 180 180 180 }
	color2={ 255 255 255 }

	allow = { always = no }
}
c_myre = { 
	color={ 180 180 180 }
	color2={ 255 255 255 }

	allow = { always = no }
}
c_sparr = { 
	color={ 180 180 180 }
	color2={ 255 255 255 }

	allow = { always = no }
}
c_kenning = { 
	color={ 180 180 180 }
	color2={ 255 255 255 }

	allow = { always = no }
}
c_sunderly = { 
	color={ 180 180 180 }
	color2={ 255 255 255 }

	allow = { always = no }
}
c_tawney = { 
	color={ 180 180 180 }
	color2={ 255 255 255 }

	allow = { always = no }
}
c_shepherd = { 
	color={ 180 180 180 }
	color2={ 255 255 255 }

	allow = { always = no }
}
c_netley = { 
	color={ 180 180 180 }
	color2={ 255 255 255 }

	allow = { always = no }
}
c_sharp = { 
	color={ 180 180 180 }
	color2={ 255 255 255 }

	allow = { always = no }
}
c_weaver = { 
	color={ 180 180 180 }
	color2={ 255 255 255 }

	allow = { always = no }
}
c_ironmaker = { 
	color={ 180 180 180 }
	color2={ 255 255 255 }

	allow = { always = no }
}
c_salt = { 
	color={ 180 180 180 }
	color2={ 255 255 255 }

	allow = { always = no }
}
c_stern = { 
	color={ 180 180 180 }
	color2={ 255 255 255 }

	allow = { always = no }
}


############
### VALE ###
############
c_arryn = { 
	color={ 180 180 180 }
	color2={ 255 255 255 }

	allow = { always = no }
}
c_baelish = { 
	color={ 180 180 180 }
	color2={ 255 255 255 }

	allow = { always = no }
}
c_belmore = { 
	color={ 180 180 180 }
	color2={ 255 255 255 }

	allow = { always = no }
}
c_lynderly = { 
	color={ 180 180 180 }
	color2={ 255 255 255 }

	allow = { always = no }
}
c_royce = { 
	color={ 180 180 180 }
	color2={ 255 255 255 }

	allow = { always = no }
}
c_royce_moon = { 
	color={ 180 180 180 }
	color2={ 255 255 255 }

	allow = { always = no }
}
c_hunter = { 
	color={ 180 180 180 }
	color2={ 255 255 255 }

	allow = { always = no }
}
c_waynwood = { 
	color={ 180 180 180 }
	color2={ 255 255 255 }

	allow = { always = no }
}
c_grafton = { 
	color={ 180 180 180 }
	color2={ 255 255 255 }

	allow = { always = no }
}
c_corbray = { 
	color={ 180 180 180 }
	color2={ 255 255 255 }

	allow = { always = no }
}
c_waxley = { 
	color={ 180 180 180 }
	color2={ 255 255 255 }

	allow = { always = no }
}
c_tollett = { 
	color={ 180 180 180 }
	color2={ 255 255 255 }

	allow = { always = no }
}
c_hersy = { 
	color={ 180 180 180 }
	color2={ 255 255 255 }

	allow = { always = no }
}
c_pryor = { 
	color={ 180 180 180 }
	color2={ 255 255 255 }

	allow = { always = no }
}
c_elesham = { 
	color={ 180 180 180 }
	color2={ 255 255 255 }

	allow = { always = no }
}
c_upcliff_coa = { 
	color={ 180 180 180 }
	color2={ 255 255 255 }

	allow = { always = no }
}
c_baelish_old = { 
	color={ 180 180 180 }
	color2={ 255 255 255 }

	allow = { always = no }
}
c_templeton = { 
	color={ 180 180 180 }
	color2={ 255 255 255 }

	allow = { always = no }
}
c_donniger = { 
	color={ 180 180 180 }
	color2={ 255 255 255 }

	allow = { always = no }
}
c_egen = { 
	color={ 180 180 180 }
	color2={ 255 255 255 }

	allow = { always = no }
}
c_moore = { 
	color={ 180 180 180 }
	color2={ 255 255 255 }

	allow = { always = no }
}
c_wydman = { 
	color={ 180 180 180 }
	color2={ 255 255 255 }

	allow = { always = no }
}
c_melcolm = { 
	color={ 180 180 180 }
	color2={ 255 255 255 }

	allow = { always = no }
}
c_shett = { 
	color={ 180 180 180 }
	color2={ 255 255 255 }

	allow = { always = no }
}
c_ruthermont_coa = { 
	color={ 180 180 180 }
	color2={ 255 255 255 }

	allow = { always = no }
}
c_long_vale = { 
	color={ 180 180 180 }
	color2={ 255 255 255 }

	allow = { always = no }
}
c_hungerford = { 
	color={ 180 180 180 }
	color2={ 255 255 255 }

	allow = { always = no }
}
c_shady_glen = { 
	color={ 180 180 180 }
	color2={ 255 255 255 }

	allow = { always = no }
}
c_crayne = { 
	color={ 180 180 180 }
	color2={ 255 255 255 }

	allow = { always = no }
}
c_dutton = { 
	color={ 180 180 180 }
	color2={ 255 255 255 }

	allow = { always = no }
}
c_woodhull = { 
	color={ 180 180 180 }
	color2={ 255 255 255 }

	allow = { always = no }
}
c_vale_hugh = { 
	color={ 180 180 180 }
	color2={ 255 255 255 }

	allow = { always = no }
}
c_underleaf = { 
	color={ 180 180 180 }
	color2={ 255 255 255 }

	allow = { always = no }
}
c_breakstone_coa = { 
	color={ 180 180 180 }
	color2={ 255 255 255 }

	allow = { always = no }
}
c_shell = { 
	color={ 180 180 180 }
	color2={ 255 255 255 }

	allow = { always = no }
}
c_brightstone = { 
	color={ 180 180 180 }
	color2={ 255 255 255 }

	allow = { always = no }
}
c_lipps = { 
	color={ 180 180 180 }
	color2={ 255 255 255 }

	allow = { always = no }
}
c_sunderland_coa = { 
	color={ 180 180 180 }
	color2={ 255 255 255 }

	allow = { always = no }
}
c_longthorpe = { 
	color={ 180 180 180 }
	color2={ 255 255 255 }

	allow = { always = no }
}
c_borrell = { 
	color={ 180 180 180 }
	color2={ 255 255 255 }

	allow = { always = no }
}
c_torrent = { 
	color={ 180 180 180 }
	color2={ 255 255 255 }

	allow = { always = no }
}
c_saul = { 
	color={ 180 180 180 }
	color2={ 255 255 255 }

	allow = { always = no }
}
c_badics = { 
	color={ 180 180 180 }
	color2={ 255 255 255 }

	allow = { always = no }
}

#############
### DORNE ###
#############
c_martell = { 
	color={ 180 180 180 }
	color2={ 255 255 255 }
	
	allow = { always = no }
}
c_yronwoodcoa = { 
	color={ 180 180 180 }
	color2={ 255 255 255 }

	allow = { always = no }
}
c_fowler = { 
	color={ 180 180 180 }
	color2={ 255 255 255 }

	allow = { always = no }
}
c_dayne = { 
	color={ 180 180 180 }
	color2={ 255 255 255 }

	allow = { always = no }
}
c_uller = { 
	color={ 180 180 180 }
	color2={ 255 255 255 }

	allow = { always = no }
}
c_jordayne = { 
	color={ 180 180 180 }
	color2={ 255 255 255 }

	allow = { always = no }
}
c_allyrion = { 
	color={ 180 180 180 }
	color2={ 255 255 255 }

	allow = { always = no }
}
c_toland_old = {
	color={ 180 180 180 }
	color2={ 255 255 255 }

	allow = { always = no }
}
c_santagar = {
	color={ 180 180 180 }
	color2={ 255 255 255 }

	allow = { always = no }
}
c_dalt = {
	color={ 180 180 180 }
	color2={ 255 255 255 }

	allow = { always = no }
}
c_gargalen = {
	color={ 180 180 180 }
	color2={ 255 255 255 }

	allow = { always = no }
}
c_vaithcoa = {
	color={ 180 180 180 }
	color2={ 255 255 255 }

	allow = { always = no }
}
c_wylcoa = {
	color={ 180 180 180 }
	color2={ 255 255 255 }

	allow = { always = no }
}
c_qorgyle = { 
	color={ 180 180 180 }
	color2={ 255 255 255 }

	allow = { always = no }
}
c_blackmontcoa = { 
	color={ 180 180 180 }
	color2={ 255 255 255 }

	allow = { always = no }
}
c_manwoody = { 
	color={ 180 180 180 }
	color2={ 255 255 255 }

	allow = { always = no }
}
c_toland = { 
	color={ 180 180 180 }
	color2={ 255 255 255 }

	allow = { always = no }
}

#############
### REACH ###
#############
c_tarly = { 
	color={ 180 180 180 }
	color2={ 255 255 255 }

	allow = { always = no }
}
c_oakheart = {
	color={ 180 180 180 }
	color2={ 255 255 255 }

	allow = { always = no }
}
c_crane = {
	color={ 180 180 180 }
	color2={ 255 255 255 }

	allow = { always = no }
}
c_footly = {
	color={ 180 180 180 }
	color2={ 255 255 255 }

	allow = { always = no }
}
c_caswell = {
	color={ 180 180 180 }
	color2={ 255 255 255 }

	allow = { always = no }
}
c_merryweather = {
	color={ 180 180 180 }
	color2={ 255 255 255 }

	allow = { always = no }
}
c_ambrose = {
	color={ 180 180 180 }
	color2={ 255 255 255 }

	allow = { always = no }
}
c_beesbury = {
	color={ 180 180 180 }
	color2={ 255 255 255 }

	allow = { always = no }
}
c_tyrell = { 
	color={ 180 180 180 }
	color2={ 255 255 255 }
	
	allow = { always = no }
}
c_gardener = { 
	color={ 180 180 180 }
	color2={ 255 255 255 }
	
	allow = { always = no }
}
c_hightower = { 
	color={ 180 180 180 }
	color2={ 255 255 255 }

	allow = { always = no }
}
c_florent = { 
	color={ 180 180 180 }
	color2={ 255 255 255 }

	allow = { always = no }
}
c_osgrey = { 
	color={ 180 180 180 }
	color2={ 255 255 255 }

	allow = { always = no }
}
c_rowan = { 
	color={ 180 180 180 }
	color2={ 255 255 255 }

	allow = { always = no }
}
c_peake = { 
	color={ 180 180 180 }
	color2={ 255 255 255 }

	allow = { always = no }
}
c_meadows = { 
	color={ 180 180 180 }
	color2={ 255 255 255 }

	allow = { always = no }
}
c_strickland = { 
	color={ 180 180 180 }
	color2={ 255 255 255 }

	allow = { always = no }
}
c_redwyne = { 
	color={ 180 180 180 }
	color2={ 255 255 255 }

	allow = { always = no }
}
c_fossoway = { 
	color={ 180 180 180 }
	color2={ 255 255 255 }

	allow = { always = no }
}
c_roxton = { 
	color={ 180 180 180 }
	color2={ 255 255 255 }

	allow = { always = no }
}
c_varner = { 
	color={ 180 180 180 }
	color2={ 255 255 255 }

	allow = { always = no }
}
c_ashfordcoa = { 
	color={ 180 180 180 }
	color2={ 255 255 255 }

	allow = { always = no }
}
c_ball = { 
	color={ 180 180 180 }
	color2={ 255 255 255 }

	allow = { always = no }
}
c_fossoway_green = {
	color={ 180 180 180 }
	color2={ 255 255 255 }

	allow = { always = no }
}
c_vyrwel = {
	color={ 180 180 180 }
	color2={ 255 255 255 }

	allow = { always = no }
}
c_webber = {
	color={ 180 180 180 }
	color2={ 255 255 255 }

	allow = { always = no }
}
c_kidwell = {
	color={ 180 180 180 }
	color2={ 255 255 255 }

	allow = { always = no }
}
c_shermer = {
	color={ 180 180 180 }
	color2={ 255 255 255 }

	allow = { always = no }
}
c_lowther = {
	color={ 180 180 180 }
	color2={ 255 255 255 }

	allow = { always = no }
}
c_wytherscoa = {
	color={ 180 180 180 }
	color2={ 255 255 255 }

	allow = { always = no }
}
c_bushy = {
	color={ 180 180 180 }
	color2={ 255 255 255 }

	allow = { always = no }
}
c_bulwer = {
	color={ 180 180 180 }
	color2={ 255 255 255 }

	allow = { always = no }
}
c_costayne = {
	color={ 180 180 180 }
	color2={ 255 255 255 }

	allow = { always = no }
}
c_cuy = {
	color={ 180 180 180 }
	color2={ 255 255 255 }

	allow = { always = no }
}
c_blackbar = {
	color={ 180 180 180 }
	color2={ 255 255 255 }

	allow = { always = no }
}
c_mullendore = {
	color={ 180 180 180 }
	color2={ 255 255 255 }

	allow = { always = no }
}
c_norcrosscoa = {
	color={ 180 180 180 }
	color2={ 255 255 255 }

	allow = { always = no }
}
c_dunn = {
	color={ 180 180 180 }
	color2={ 255 255 255 }

	allow = { always = no }
}
c_hewett = {
	color={ 180 180 180 }
	color2={ 255 255 255 }

	allow = { always = no }
}
c_chester = {
	color={ 180 180 180 }
	color2={ 255 255 255 }

	allow = { always = no }
}
c_serry = {
	color={ 180 180 180 }
	color2={ 255 255 255 }

	allow = { always = no }
}
c_grimm = {
	color={ 180 180 180 }
	color2={ 255 255 255 }

	allow = { always = no }
}
c_willum = {
	color={ 180 180 180 }
	color2={ 255 255 255 }

	allow = { always = no }
}
c_cockshaw = {
	color={ 180 180 180 }
	color2={ 255 255 255 }

	allow = { always = no }
}
c_westbrookcoa = {
	color={ 180 180 180 }
	color2={ 255 255 255 }

	allow = { always = no }
}
c_hastwyckcoa = {
	color={ 180 180 180 }
	color2={ 255 255 255 }

	allow = { always = no }
}
c_appletoncoa = {
	color={ 180 180 180 }
	color2={ 255 255 255 }

	allow = { always = no }
}
c_sloane = {
	color={ 180 180 180 }
	color2={ 255 255 255 }

	allow = { always = no }
}
c_middleburycoa = {
	color={ 180 180 180 }
	color2={ 255 255 255 }

	allow = { always = no }
}
c_inchfieldcoa = {
	color={ 180 180 180 }
	color2={ 255 255 255 }

	allow = { always = no }
}
c_hunt = {
	color={ 180 180 180 }
	color2={ 255 255 255 }

	allow = { always = no }
}
c_oldflowers = {
	color={ 180 180 180 }
	color2={ 255 255 255 }

	allow = { always = no }
}
c_yelshirecoa = {
	color={ 180 180 180 }
	color2={ 255 255 255 }

	allow = { always = no }
}
c_graceford = {
	color={ 180 180 180 }
	color2={ 255 255 255 }

	allow = { always = no }
}
c_orme = {
	color={ 180 180 180 }
	color2={ 255 255 255 }

	allow = { always = no }
}
c_cordwayner = {
	color={ 180 180 180 }
	color2={ 255 255 255 }

	allow = { always = no }
}
c_leygood = {
	color={ 180 180 180 }
	color2={ 255 255 255 }

	allow = { always = no }
}
c_bridges = {
	color={ 180 180 180 }
	color2={ 255 255 255 }

	allow = { always = no }
}
c_norridge = {
	color={ 180 180 180 }
	color2={ 255 255 255 }

	allow = { always = no }
}
c_lyberr = {
	color={ 180 180 180 }
	color2={ 255 255 255 }

	allow = { always = no }
}
c_hutcheson = {
	color={ 180 180 180 }
	color2={ 255 255 255 }

	allow = { always = no }
}
c_graves = {
	color={ 180 180 180 }
	color2={ 255 255 255 }

	allow = { always = no }
}
c_uffering = {
	color={ 180 180 180 }
	color2={ 255 255 255 }

	allow = { always = no }
}
c_pommingham = {
	color={ 180 180 180 }
	color2={ 255 255 255 }

	allow = { always = no }
}
c_redding = {
	color={ 180 180 180 }
	color2={ 255 255 255 }

	allow = { always = no }
}
c_risley = {
	color={ 180 180 180 }
	color2={ 255 255 255 }

	allow = { always = no }
}
c_rhysling = {
	color={ 180 180 180 }
	color2={ 255 255 255 }

	allow = { always = no }
}
c_woodwright = {
	color={ 180 180 180 }
	color2={ 255 255 255 }

	allow = { always = no }
}
c_durwell = {
	color={ 180 180 180 }
	color2={ 255 255 255 }

	allow = { always = no }
}
c_conklyn = {
	color={ 180 180 180 }
	color2={ 255 255 255 }

	allow = { always = no }
}
c_cupps = {
	color={ 180 180 180 }
	color2={ 255 255 255 }

	allow = { always = no }
}
c_goldwyne = {
	color={ 180 180 180 }
	color2={ 255 255 255 }

	allow = { always = no }
}
c_stackhouse = {
	color={ 180 180 180 }
	color2={ 255 255 255 }

	allow = { always = no }
}
c_farrow = {
	color={ 180 180 180 }
	color2={ 255 255 255 }

	allow = { always = no }
}
c_penny = {
	color={ 180 180 180 }
	color2={ 255 255 255 }

	allow = { always = no }
}
c_potter = {
	color={ 180 180 180 }
	color2={ 255 255 255 }

	allow = { always = no }
}
c_sawyer = {
	color={ 180 180 180 }
	color2={ 255 255 255 }

	allow = { always = no }
}
c_cobb = {
	color={ 180 180 180 }
	color2={ 255 255 255 }

	allow = { always = no }
}
c_rodden = {
	color={ 180 180 180 }
	color2={ 255 255 255 }

	allow = { always = no }
}
c_weatherwax = {
	color={ 180 180 180 }
	color2={ 255 255 255 }

	allow = { always = no }
}
c_whitewater = {
	color={ 180 180 180 }
	color2={ 255 255 255 }

	allow = { always = no }
}
c_summerchild = {
	color={ 180 180 180 }
	color2={ 255 255 255 }

	allow = { always = no }
}
c_knuckey = {
	color={ 180 180 180 }
	color2={ 255 255 255 }

	allow = { always = no }
}
c_pandred = {
	color={ 180 180 180 }
	color2={ 255 255 255 }

	allow = { always = no }
}
c_clohessy = {
	color={ 180 180 180 }
	color2={ 255 255 255 }

	allow = { always = no }
}
c_foxheart = {
	color={ 180 180 180 }
	color2={ 255 255 255 }

	allow = { always = no }
}
c_loch = {
	color={ 180 180 180 }
	color2={ 255 255 255 }

	allow = { always = no }
}
c_greenhill = {
	color={ 180 180 180 }
	color2={ 255 255 255 }

	allow = { always = no }
}

##################
### STORMLANDS ###
##################
c_baratheon = { 
	color={ 180 180 180 }
	color2={ 255 255 255 }
	
	allow = { always = no }
}
c_baratheon_rhllor = { 
	color={ 180 180 180 }
	color2={ 255 255 255 }
	
	allow = { always = no }
}
#c_durrandon = { c_baratheon
c_connington = { 
	color={ 180 180 180 }
	color2={ 255 255 255 }

	allow = { always = no }
}
c_tarthcoa = { 
	color={ 180 180 180 }
	color2={ 255 255 255 }

	allow = { always = no }
}
c_bywatercoa = { 
	color={ 180 180 180 }
	color2={ 255 255 255 }

	allow = { always = no }
}
c_massey = { 
	color={ 180 180 180 }
	color2={ 255 255 255 }

	allow = { always = no }
}
c_dondarrion = { 
	color={ 180 180 180 }
	color2={ 255 255 255 }

	allow = { always = no }
}
c_caron = { 
	color={ 180 180 180 }
	color2={ 255 255 255 }

	allow = { always = no }
}
c_estermontcoa = { 
	color={ 180 180 180 }
	color2={ 255 255 255 }

	allow = { always = no }
}
c_wylde = { 
	color={ 180 180 180 }
	color2={ 255 255 255 }

	allow = { always = no }
}
c_swann = { 
	color={ 180 180 180 }
	color2={ 255 255 255 }

	allow = { always = no }
}
c_toyne = { 
	color={ 180 180 180 }
	color2={ 255 255 255 }

	allow = { always = no }
}
c_buckler = { 
	color={ 180 180 180 }
	color2={ 255 255 255 }

	allow = { always = no }
}
c_seaworth = { 
	color={ 180 180 180 }
	color2={ 255 255 255 }

	allow = { always = no }
}
c_selmy = { 
	color={ 180 180 180 }
	color2={ 255 255 255 }

	allow = { always = no }
}
c_trant = { 
	color={ 180 180 180 }
	color2={ 255 255 255 }

	allow = { always = no }
}
c_morrigen = { 
	color={ 180 180 180 }
	color2={ 255 255 255 }

	allow = { always = no }
}
c_mertyns = { 
	color={ 180 180 180 }
	color2={ 255 255 255 }

	allow = { always = no }
}
c_rogers = { 
	color={ 180 180 180 }
	color2={ 255 255 255 }

	allow = { always = no }
}
c_horpe = { 
	color={ 180 180 180 }
	color2={ 255 255 255 }

	allow = { always = no }
}
c_cole = {
	color={ 180 180 180 }
	color2={ 255 255 255 }

	allow = { always = no }
}
c_penrose = {
	color={ 180 180 180 }
	color2={ 255 255 255 }

	allow = { always = no }
}
c_musgood = {
	color={ 180 180 180 }
	color2={ 255 255 255 }

	allow = { always = no }
}
c_swygert = {
	color={ 180 180 180 }
	color2={ 255 255 255 }

	allow = { always = no }
}
c_wagstaff = {
	color={ 180 180 180 }
	color2={ 255 255 255 }

	allow = { always = no }
}
c_wensington = {
	color={ 180 180 180 }
	color2={ 255 255 255 }

	allow = { always = no }
}
c_bolling = {
	color={ 180 180 180 }
	color2={ 255 255 255 }

	allow = { always = no }
}
c_rambton = {
	color={ 180 180 180 }
	color2={ 255 255 255 }

	allow = { always = no }
}
c_kellington = {
	color={ 180 180 180 }
	color2={ 255 255 255 }

	allow = { always = no }
}
c_gower = {
	color={ 180 180 180 }
	color2={ 255 255 255 }

	allow = { always = no }
}
c_tudbury = {
	color={ 180 180 180 }
	color2={ 255 255 255 }

	allow = { always = no }
}
c_herston = {
	color={ 180 180 180 }
	color2={ 255 255 255 }

	allow = { always = no }
}
c_staedmon = {
	color={ 180 180 180 }
	color2={ 255 255 255 }

	allow = { always = no }
}
c_errol = {
	color={ 180 180 180 }
	color2={ 255 255 255 }

	allow = { always = no }
}
c_fell = {
	color={ 180 180 180 }
	color2={ 255 255 255 }

	allow = { always = no }
}
c_hasty = {
	color={ 180 180 180 }
	color2={ 255 255 255 }

	allow = { always = no }
}
c_cafferen = {
	color={ 180 180 180 }
	color2={ 255 255 255 }

	allow = { always = no }
}
c_grandison = {
	color={ 180 180 180 }
	color2={ 255 255 255 }

	allow = { always = no }
}
c_lonmouthcoa = {
	color={ 180 180 180 }
	color2={ 255 255 255 }

	allow = { always = no }
}
c_peasebury = {
	color={ 180 180 180 }
	color2={ 255 255 255 }

	allow = { always = no }
}
c_brownhill = {
	color={ 180 180 180 }
	color2={ 255 255 255 }

	allow = { always = no }
}
c_whitehead = {
	color={ 180 180 180 }
	color2={ 255 255 255 }

	allow = { always = no }
}
c_kings_mountain = {
	color={ 180 180 180 }
	color2={ 255 255 255 }

	allow = { always = no }
}
c_greenpools = {
	color={ 180 180 180 }
	color2={ 255 255 255 }

	allow = { always = no }
}

###################
### WESTERLANDS ###
###################
c_lannister = { 
	color={ 180 180 180 }
	color2={ 255 255 255 }
	
	allow = { always = no }
}
c_lannister_baratheon = { 
	color={ 180 180 180 }
	color2={ 255 255 255 }
	
	allow = { always = no }
}
c_lannister_darry = { 
	color={ 180 180 180 }
	color2={ 255 255 255 }
	
	allow = { always = no }
}
c_lannister_frey = { 
	color={ 180 180 180 }
	color2={ 255 255 255 }
	
	allow = { always = no }
}
c_reyne = { 
	color={ 180 180 180 }
	color2={ 255 255 255 }

	allow = { always = no }
}
c_prester = { 
	color={ 180 180 180 }
	color2={ 255 255 255 }

	allow = { always = no }
}
c_crakehallcoa = { 
	color={ 180 180 180 }
	color2={ 255 255 255 }

	allow = { always = no }
}
c_swyft = { 
	color={ 180 180 180 }
	color2={ 255 255 255 }

	allow = { always = no }
}
c_serret = { 
	color={ 180 180 180 }
	color2={ 255 255 255 }

	allow = { always = no }
}
c_payne = { 
	color={ 180 180 180 }
	color2={ 255 255 255 }

	allow = { always = no }
}
c_brax = { 
	color={ 180 180 180 }
	color2={ 255 255 255 }

	allow = { always = no }
}
c_sarsfieldcoa = { 
	color={ 180 180 180 }
	color2={ 255 255 255 }

	allow = { always = no }
}
c_westerling = { 
	color={ 180 180 180 }
	color2={ 255 255 255 }

	allow = { always = no }
}
c_lorch = { 
	color={ 180 180 180 }
	color2={ 255 255 255 }

	allow = { always = no }
}
c_lefford = { 
	color={ 180 180 180 }
	color2={ 255 255 255 }

	allow = { always = no }
}
c_clegane = { 
	color={ 180 180 180 }
	color2={ 255 255 255 }

	allow = { always = no }
}
c_lydden = { 
	color={ 180 180 180 }
	color2={ 255 255 255 }

	allow = { always = no }
}
c_tarbeck = { 
	color={ 180 180 180 }
	color2={ 255 255 255 }

	allow = { always = no }
}
c_banefortcoa = { 
	color={ 180 180 180 }
	color2={ 255 255 255 }

	allow = { always = no }
}
c_marbrand = { 
	color={ 180 180 180 }
	color2={ 255 255 255 }

	allow = { always = no }
}
c_vikary = { 
	color={ 180 180 180 }
	color2={ 255 255 255 }

	allow = { always = no }
}
c_spicer = { 
	color={ 180 180 180 }
	color2={ 255 255 255 }

	allow = { always = no }
}
c_hamell = { 
	color={ 180 180 180 }
	color2={ 255 255 255 }

	allow = { always = no }
}
c_farman = { 
	color={ 180 180 180 }
	color2={ 255 255 255 }

	allow = { always = no }
}
c_kenning_west = { 
	color={ 180 180 180 }
	color2={ 255 255 255 }

	allow = { always = no }
}
c_drox = { 
	color={ 180 180 180 }
	color2={ 255 255 255 }

	allow = { always = no }
}
c_estren = { 
	color={ 180 180 180 }
	color2={ 255 255 255 }

	allow = { always = no }
}
c_stackspear = { 
	color={ 180 180 180 }
	color2={ 255 255 255 }

	allow = { always = no }
}
c_foote = { 
	color={ 180 180 180 }
	color2={ 255 255 255 }

	allow = { always = no }
}
c_yarwyck = { 
	color={ 180 180 180 }
	color2={ 255 255 255 }

	allow = { always = no }
}
c_bettley = { 
	color={ 180 180 180 }
	color2={ 255 255 255 }

	allow = { always = no }
}
c_moreland_coa = { 
	color={ 180 180 180 }
	color2={ 255 255 255 }

	allow = { always = no }
}
c_ruttiger = { 
	color={ 180 180 180 }
	color2={ 255 255 255 }

	allow = { always = no }
}
c_garner = { 
	color={ 180 180 180 }
	color2={ 255 255 255 }

	allow = { always = no }
}
c_myatt_coa = { 
	color={ 180 180 180 }
	color2={ 255 255 255 }

	allow = { always = no }
}
c_ferren = { 
	color={ 180 180 180 }
	color2={ 255 255 255 }

	allow = { always = no }
}
c_peckledon_coa = { 
	color={ 180 180 180 }
	color2={ 255 255 255 }

	allow = { always = no }
}
c_hawthorne_coa = { 
	color={ 180 180 180 }
	color2={ 255 255 255 }

	allow = { always = no }
}
c_yew = { 
	color={ 180 180 180 }
	color2={ 255 255 255 }

	allow = { always = no }
}
c_jast = { 
	color={ 180 180 180 }
	color2={ 255 255 255 }

	allow = { always = no }
}
c_algood = { 
	color={ 180 180 180 }
	color2={ 255 255 255 }

	allow = { always = no }
}
c_plumm = { 
	color={ 180 180 180 }
	color2={ 255 255 255 }

	allow = { always = no }
}
c_falwell_coa = { 
	color={ 180 180 180 }
	color2={ 255 255 255 }

	allow = { always = no }
}
c_turnberry = { 
	color={ 180 180 180 }
	color2={ 255 255 255 }

	allow = { always = no }
}
c_greenfield_coa = { 
	color={ 180 180 180 }
	color2={ 255 255 255 }

	allow = { always = no }
}
c_westford = { 
	color={ 180 180 180 }
	color2={ 255 255 255 }

	allow = { always = no }
}
c_sarwyck = { 
	color={ 180 180 180 }
	color2={ 255 255 255 }

	allow = { always = no }
}
c_parren = { 
	color={ 180 180 180 }
	color2={ 255 255 255 }

	allow = { always = no }
}
c_lanster = { 
	color={ 180 180 180 }
	color2={ 255 255 255 }

	allow = { always = no }
}
c_doggett = { 
	color={ 180 180 180 }
	color2={ 255 255 255 }

	allow = { always = no }
}
c_casterly = { 
	color={ 180 180 180 }
	color2={ 255 255 255 }

	allow = { always = no }
}
c_clifton = { 
	color={ 180 180 180 }
	color2={ 255 255 255 }

	allow = { always = no }
}
c_hetherspoon = { 
	color={ 180 180 180 }
	color2={ 255 255 255 }

	allow = { always = no }
}
c_lanny = { 
	color={ 180 180 180 }
	color2={ 255 255 255 }

	allow = { always = no }
}
c_lannett = { 
	color={ 180 180 180 }
	color2={ 255 255 255 }

	allow = { always = no }
}
c_lantell = { 
	color={ 180 180 180 }
	color2={ 255 255 255 }

	allow = { always = no }
}
c_ruskyn = { 
	color={ 180 180 180 }
	color2={ 255 255 255 }

	allow = { always = no }
}
c_whitfield = { 
	color={ 180 180 180 }
	color2={ 255 255 255 }

	allow = { always = no }
}
c_kyndall = { 
	color={ 180 180 180 }
	color2={ 255 255 255 }

	allow = { always = no }
}
c_stilwood = { 
	color={ 180 180 180 }
	color2={ 255 255 255 }

	allow = { always = no }
}
c_graymarch = { 
	color={ 180 180 180 }
	color2={ 255 255 255 }

	allow = { always = no }
}

#############
### ESSOS ###
#############
c_back = { 
	color={ 180 180 180 }
	color2={ 255 255 255 }

	allow = { always = no }
}
c_vunatis = {
	color={ 180 180 180 }
	color2={ 255 255 255 }

	allow = { always = no }
}

##############
### CADETS ###
##############
c_silvermane = { 
	color={ 180 180 180 }
	color2={ 255 255 255 }

	allow = { always = no }
}
c_goldfang = { 
	color={ 180 180 180 }
	color2={ 255 255 255 }

	allow = { always = no }
}
c_dreadwolf = { 
	color={ 180 180 180 }
	color2={ 255 255 255 }

	allow = { always = no }
}
c_winterhold = { 
	color={ 180 180 180 }
	color2={ 255 255 255 }

	allow = { always = no }
}
c_redwyrm = { 
	color={ 180 180 180 }
	color2={ 255 255 255 }

	allow = { always = no }
}
c_truedrake = { 
	color={ 180 180 180 }
	color2={ 255 255 255 }

	allow = { always = no }
}
c_fyreblood = { 
	color={ 180 180 180 }
	color2={ 255 255 255 }

	allow = { always = no }
}
c_goldfyre = { 
	color={ 180 180 180 }
	color2={ 255 255 255 }

	allow = { always = no }
}
c_bittersteel = { 
	color={ 180 180 180 }
	color2={ 255 255 255 }

	allow = { always = no }
}
c_redclaw = { 
	color={ 180 180 180 }
	color2={ 255 255 255 }

	allow = { always = no }
}
c_roaring = { 
	color={ 180 180 180 }
	color2={ 255 255 255 }

	allow = { always = no }
}
c_lionford = { 
	color={ 180 180 180 }
	color2={ 255 255 255 }

	allow = { always = no }
}
c_darksun = { 
	color={ 180 180 180 }
	color2={ 255 255 255 }

	allow = { always = no }
}
c_sunviper = { 
	color={ 180 180 180 }
	color2={ 255 255 255 }

	allow = { always = no }
}
c_blackadder = { 
	color={ 180 180 180 }
	color2={ 255 255 255 }

	allow = { always = no }
}
c_snakespear = { 
	color={ 180 180 180 }
	color2={ 255 255 255 }

	allow = { always = no }
}
c_redriver = { 
	color={ 180 180 180 }
	color2={ 255 255 255 }

	allow = { always = no }
}
c_darkfish = { 
	color={ 180 180 180 }
	color2={ 255 255 255 }

	allow = { always = no }
}
c_goldfish = { 
	color={ 180 180 180 }
	color2={ 255 255 255 }

	allow = { always = no }
}
c_steeltrout = { 
	color={ 180 180 180 }
	color2={ 255 255 255 }

	allow = { always = no }
}
c_redwing = { 
	color={ 180 180 180 }
	color2={ 255 255 255 }

	allow = { always = no }
}
c_kestrel = { 
	color={ 180 180 180 }
	color2={ 255 255 255 }

	allow = { always = no }
}
c_bluebird = { 
	color={ 180 180 180 }
	color2={ 255 255 255 }

	allow = { always = no }
}
c_skywarden = { 
	color={ 180 180 180 }
	color2={ 255 255 255 }

	allow = { always = no }
}
c_stagborn = { 
	color={ 180 180 180 }
	color2={ 255 255 255 }

	allow = { always = no }
}
c_stormhart = { 
	color={ 180 180 180 }
	color2={ 255 255 255 }

	allow = { always = no }
}
c_durrande = { 
	color={ 180 180 180 }
	color2={ 255 255 255 }

	allow = { always = no }
}
c_deer = { 
	color={ 180 180 180 }
	color2={ 255 255 255 }

	allow = { always = no }
}
c_bloodrose = { 
	color={ 180 180 180 }
	color2={ 255 255 255 }

	allow = { always = no }
}
c_blackrose = { 
	color={ 180 180 180 }
	color2={ 255 255 255 }

	allow = { always = no }
}
c_smallrose = { 
	color={ 180 180 180 }
	color2={ 255 255 255 }

	allow = { always = no }
}
c_greenrose = { 
	color={ 180 180 180 }
	color2={ 255 255 255 }

	allow = { always = no }
}
c_silverink = { 
	color={ 180 180 180 }
	color2={ 255 255 255 }

	allow = { always = no }
}
c_redjoy = { 
	color={ 180 180 180 }
	color2={ 255 255 255 }

	allow = { always = no }
}
c_ironkraken = { 
	color={ 180 180 180 }
	color2={ 255 255 255 }

	allow = { always = no }
}
c_hardman = { 
	color={ 180 180 180 }
	color2={ 255 255 255 }

	allow = { always = no }
}
c_twinchild = { 
	color={ 180 180 180 }
	color2={ 255 255 255 }

	allow = { always = no }
}
c_goldcross = { 
	color={ 180 180 180 }
	color2={ 255 255 255 }

	allow = { always = no }
}
c_tollbridge = { 
	color={ 180 180 180 }
	color2={ 255 255 255 }

	allow = { always = no }
}
c_northbridge = { 
	color={ 180 180 180 }
	color2={ 255 255 255 }

	allow = { always = no }
}
c_mance_rayder = { 
	color={ 180 180 180 }
	color2={ 255 255 255 }

	allow = { always = no }
}
c_kingsblood = { 
	color={ 180 180 180 }
	color2={ 255 255 255 }

	allow = { always = no }
}
c_old_thenn = { 
	color={ 180 180 180 }
	color2={ 255 255 255 }

	allow = { always = no }
}
c_tormund = { 
	color={ 180 180 180 }
	color2={ 255 255 255 }

	allow = { always = no }
}
c_saerys = { 
	color={ 180 180 180 }
	color2={ 255 255 255 }

	allow = { always = no }
}
c_saerynar = { 
	color={ 180 180 180 }
	color2={ 255 255 255 }

	allow = { always = no }
}
c_saerystos = { 
	color={ 180 180 180 }
	color2={ 255 255 255 }

	allow = { always = no }
}
c_fireball = {
	color={ 180 180 180 }
	color2={ 255 255 255 }

	allow = { always = no }
}
c_rainhill = { 
	color={ 180 180 180 }
	color2={ 255 255 255 }

	allow = { always = no }
}
c_hillbeck = { 
	color={ 180 180 180 }
	color2={ 255 255 255 }

	allow = { always = no }
}
c_stonehind = {
	color={ 180 180 180 }
	color2={ 255 255 255 }

	allow = { always = no }
}
c_bullhart = { 
	color={ 180 180 180 }
	color2={ 255 255 255 }

	allow = { always = no }
}
c_stonebell = { 
	color={ 180 180 180 }
	color2={ 255 255 255 }

	allow = { always = no }
}
c_robhart = {
	color={ 180 180 180 }
	color2={ 255 255 255 }

	allow = { always = no }
}
c_goldstag = { 
	color={ 180 180 180 }
	color2={ 255 255 255 }

	allow = { always = no }
}
c_seastag = { 
	color={ 180 180 180 }
	color2={ 255 255 255 }

	allow = { always = no }
}
c_stormhaven = {
	color={ 180 180 180 }
	color2={ 255 255 255 }

	allow = { always = no }
}
c_hartford = { 
	color={ 180 180 180 }
	color2={ 255 255 255 }

	allow = { always = no }
}
c_coldhart = {
	color={ 180 180 180 }
	color2={ 255 255 255 }

	allow = { always = no }
}
c_redfawn = {
	color={ 180 180 180 }
	color2={ 255 255 255 }

	allow = { always = no }
}
c_baarthreen = {
	color={ 180 180 180 }
	color2={ 255 255 255 }

	allow = { always = no }
}
c_stagsby = { 
	color={ 180 180 180 }
	color2={ 255 255 255 }

	allow = { always = no }
}
c_warfield = { 
	color={ 180 180 180 }
	color2={ 255 255 255 }

	allow = { always = no }
}
c_darkhart = { 
	color={ 180 180 180 }
	color2={ 255 255 255 }

	allow = { always = no }
}
c_arryn_eastwald = { 
	color={ 180 180 180 }
	color2={ 255 255 255 }

	allow = { always = no }
}
c_arryn_fingers = { 
	color={ 180 180 180 }
	color2={ 255 255 255 }

	allow = { always = no }
}
c_brown_fossoway = { 
	color={ 180 180 180 }
	color2={ 255 255 255 }

	allow = { always = no }
}
c_targaryen_bloodraven = { 
	color={ 180 180 180 }
	color2={ 255 255 255 }

	allow = { always = no }
}
c_targaryen_seastar = { 
	color={ 180 180 180 }
	color2={ 255 255 255 }

	allow = { always = no }
}
c_harstark = { 
	color={ 180 180 180 }
	color2={ 255 255 255 }

	allow = { always = no }
}
c_barstark = { 
	color={ 180 180 180 }
	color2={ 255 255 255 }

	allow = { always = no }
}
c_arryn_martial = {	
	color={ 180 180 180 }
	color2={ 255 255 255 }
	
	allow = {
		always = no
	}
}
c_baratheon_martial = {	
	color={ 180 180 180 }
	color2={ 255 255 255 }
	
	allow = {
		always = no
	}
}
c_blackfyre_martial = {	
	color={ 180 180 180 }
	color2={ 255 255 255 }
	
	allow = {
		always = no
	}
}
c_gardener_martial = {
	color={ 180 180 180 }
	color2={ 255 255 255 }
	
	allow = {
		always = no
	}
}
c_greyjoy_martial = {	
	color={ 180 180 180 }
	color2={ 255 255 255 }
	
	allow = {
		always = no
	}
}
c_hoare_martial = {	
	color={ 180 180 180 }
	color2={ 255 255 255 }
	
	allow = {
		always = no
	}
}
c_lannister_martial = {	
	color={ 180 180 180 }
	color2={ 255 255 255 }
	
	allow = {
		always = no
	}
}
c_martell_martial = {	
	color={ 180 180 180 }
	color2={ 255 255 255 }
	
	allow = {
		always = no
	}
}
c_reyne_martial = {	
	color={ 180 180 180 }
	color2={ 255 255 255 }
	
	allow = {
		always = no
	}
}
c_stark_martial = {	
	color={ 180 180 180 }
	color2={ 255 255 255 }
	
	allow = {
		always = no
	}
}
c_targaryen_martial = {	
	color={ 180 180 180 }
	color2={ 255 255 255 }
	
	allow = {
		always = no
	}
}
c_tully_martial = {	
	color={ 180 180 180 }
	color2={ 255 255 255 }
	
	allow = {
		always = no
	}
}
c_tyrell_martial = {	
	color={ 180 180 180 }
	color2={ 255 255 255 }
	
	allow = {
		always = no
	}
}
c_arryn_second = {	
	color={ 180 180 180 }
	color2={ 255 255 255 }
	
	allow = {
		always = no
	}
}
c_baratheon_second = {	
	color={ 180 180 180 }
	color2={ 255 255 255 }
	
	allow = {
		always = no
	}
}
c_blackfyre_second = {	
	color={ 180 180 180 }
	color2={ 255 255 255 }
	
	allow = {
		always = no
	}
}
c_gardener_second = {	
	color={ 180 180 180 }
	color2={ 255 255 255 }
	
	allow = {
		always = no
	}
}
c_greyjoy_second = {	
	color={ 180 180 180 }
	color2={ 255 255 255 }
	
	allow = {
		always = no
	}
}
c_lannister_second = {	
	color={ 180 180 180 }
	color2={ 255 255 255 }
	
	allow = {
		always = no
	}
}
c_martell_second = {	
	color={ 180 180 180 }
	color2={ 255 255 255 }
	
	allow = {
		always = no
	}
}
c_reyne_second = {	
	color={ 180 180 180 }
	color2={ 255 255 255 }
	
	allow = {
		always = no
	}
}
c_stark_second = {	
	color={ 180 180 180 }
	color2={ 255 255 255 }
	
	allow = {
		always = no
	}
}
c_targaryen_second = {	
	color={ 180 180 180 }
	color2={ 255 255 255 }
	
	allow = {
		always = no
	}
}
c_tully_second = {	
	color={ 180 180 180 }
	color2={ 255 255 255 }
	
	allow = {
		always = no
	}
}
c_tyrell_second = {	
	color={ 180 180 180 }
	color2={ 255 255 255 }
	
	allow = {
		always = no
	}
}
c_velaryon_second = {	
	color={ 180 180 180 }
	color2={ 255 255 255 }
	
	allow = {
		always = no
	}
}
c_arryn_third = {	
	color={ 180 180 180 }
	color2={ 255 255 255 }
	
	allow = {
		always = no
	}
}
c_baratheon_third = {	
	color={ 180 180 180 }
	color2={ 255 255 255 }
	
	allow = {
		always = no
	}
}
c_blackfyre_third = {	
	color={ 180 180 180 }
	color2={ 255 255 255 }
	
	allow = {
		always = no
	}
}
c_gardener_third = {	
	color={ 180 180 180 }
	color2={ 255 255 255 }
	
	allow = {
		always = no
	}
}
c_greyjoy_third = {	
	color={ 180 180 180 }
	color2={ 255 255 255 }
	
	allow = {
		always = no
	}
}
c_lannister_third = {	
	color={ 180 180 180 }
	color2={ 255 255 255 }
	
	allow = {
		always = no
	}
}
c_martell_third = {	
	color={ 180 180 180 }
	color2={ 255 255 255 }
	
	allow = {
		always = no
	}
}
c_reyne_third = {	
	color={ 180 180 180 }
	color2={ 255 255 255 }
	
	allow = {
		always = no
	}
}
c_stark_third = {	
	color={ 180 180 180 }
	color2={ 255 255 255 }
	
	allow = {
		always = no
	}
}
c_targaryen_third = {	
	color={ 180 180 180 }
	color2={ 255 255 255 }
	
	allow = {
		always = no
	}
}
c_tully_third = {	
	color={ 180 180 180 }
	color2={ 255 255 255 }
	
	allow = {
		always = no
	}
}
c_tyrell_third = {	
	color={ 180 180 180 }
	color2={ 255 255 255 }
	
	allow = {
		always = no
	}
}
c_velaryon_third = {	
	color={ 180 180 180 }
	color2={ 255 255 255 }
	
	allow = {
		always = no
	}
}
c_arryn_fourth = {	
	color={ 180 180 180 }
	color2={ 255 255 255 }
	
	allow = {
		always = no
	}
}
c_baratheon_fourth = {	
	color={ 180 180 180 }
	color2={ 255 255 255 }
	
	allow = {
		always = no
	}
}
c_blackfyre_fourth = {	
	color={ 180 180 180 }
	color2={ 255 255 255 }
	
	allow = {
		always = no
	}
}
c_gardener_fourth = {	
	color={ 180 180 180 }
	color2={ 255 255 255 }
	
	allow = {
		always = no
	}
}
c_greyjoy_fourth = {	
	color={ 180 180 180 }
	color2={ 255 255 255 }
	
	allow = {
		always = no
	}
}
c_lannister_fourth = {	
	color={ 180 180 180 }
	color2={ 255 255 255 }
	
	allow = {
		always = no
	}
}
c_martell_fourth = {	
	color={ 180 180 180 }
	color2={ 255 255 255 }
	
	allow = {
		always = no
	}
}
c_reyne_fourth = {	
	color={ 180 180 180 }
	color2={ 255 255 255 }
	
	allow = {
		always = no
	}
}
c_stark_fourth = {	
	color={ 180 180 180 }
	color2={ 255 255 255 }
	
	allow = {
		always = no
	}
}
c_targaryen_fourth = {	
	color={ 180 180 180 }
	color2={ 255 255 255 }
	
	allow = {
		always = no
	}
}
c_tully_fourth = {	
	color={ 180 180 180 }
	color2={ 255 255 255 }
	
	allow = {
		always = no
	}
}
c_tyrell_fourth = {	
	color={ 180 180 180 }
	color2={ 255 255 255 }
	
	allow = {
		always = no
	}
}
c_velaryon_fourth = {	
	color={ 180 180 180 }
	color2={ 255 255 255 }
	
	allow = {
		always = no
	}
}
c_stark_arryn = {	
	color={ 180 180 180 }
	color2={ 255 255 255 }
	
	allow = {
		always = no
	}
}
c_stark_baratheon = {	
	color={ 180 180 180 }
	color2={ 255 255 255 }
	
	allow = {
		always = no
	}
}
c_stark_blackfyre = {	
	color={ 180 180 180 }
	color2={ 255 255 255 }
	
	allow = {
		always = no
	}
}
c_stark_gardener = {	
	color={ 180 180 180 }
	color2={ 255 255 255 }
	
	allow = {
		always = no
	}
}
c_stark_greyjoy = {	
	color={ 180 180 180 }
	color2={ 255 255 255 }
	
	allow = {
		always = no
	}
}
c_stark_hightower = {	
	color={ 180 180 180 }
	color2={ 255 255 255 }
	
	allow = {
		always = no
	}
}
c_stark_hoare = {	
	color={ 180 180 180 }
	color2={ 255 255 255 }
	
	allow = {
		always = no
	}
}
c_stark_lannister = {	
	color={ 180 180 180 }
	color2={ 255 255 255 }
	
	allow = {
		always = no
	}
}
c_stark_martell = {	
	color={ 180 180 180 }
	color2={ 255 255 255 }
	
	allow = {
		always = no
	}
}
c_stark_reyne = {	
	color={ 180 180 180 }
	color2={ 255 255 255 }
	
	allow = {
		always = no
	}
}
c_stark_royce = {	
	color={ 180 180 180 }
	color2={ 255 255 255 }
	
	allow = {
		always = no
	}
}
c_stark_targaryen1 = {	
	color={ 180 180 180 }
	color2={ 255 255 255 }
	
	allow = {
		always = no
	}
}
c_stark_tully = {	
	color={ 180 180 180 }
	color2={ 255 255 255 }
	
	allow = {
		always = no
	}
}
c_stark_tyrell = {	
	color={ 180 180 180 }
	color2={ 255 255 255 }
	
	allow = {
		always = no
	}
}
c_stark_yronwood = {	
	color={ 180 180 180 }
	color2={ 255 255 255 }
	
	allow = {
		always = no
	}
}
c_stark_velaryon = {	
	color={ 180 180 180 }
	color2={ 255 255 255 }
	
	allow = {
		always = no
	}
}
c_arryn_baratheon = {	
	color={ 180 180 180 }
	color2={ 255 255 255 }
	
	allow = {
		always = no
	}
}
c_arryn_blackfyre = {	
	color={ 180 180 180 }
	color2={ 255 255 255 }
	
	allow = {
		always = no
	}
}
c_arryn_gardener = {	
	color={ 180 180 180 }
	color2={ 255 255 255 }
	
	allow = {
		always = no
	}
}
c_arryn_greyjoy = {	
	color={ 180 180 180 }
	color2={ 255 255 255 }
	
	allow = {
		always = no
	}
}
c_arryn_hightower = {	
	color={ 180 180 180 }
	color2={ 255 255 255 }
	
	allow = {
		always = no
	}
}
c_arryn_hoare = {	
	color={ 180 180 180 }
	color2={ 255 255 255 }
	
	allow = {
		always = no
	}
}
c_arryn_lannister = {	
	color={ 180 180 180 }
	color2={ 255 255 255 }
	
	allow = {
		always = no
	}
}
c_arryn_martell = {	
	color={ 180 180 180 }
	color2={ 255 255 255 }
	
	allow = {
		always = no
	}
}
c_arryn_reyne = {	
	color={ 180 180 180 }
	color2={ 255 255 255 }
	
	allow = {
		always = no
	}
}
c_arryn_royce = {	
	color={ 180 180 180 }
	color2={ 255 255 255 }
	
	allow = {
		always = no
	}
}
c_arryn_stark = {	
	color={ 180 180 180 }
	color2={ 255 255 255 }
	
	allow = {
		always = no
	}
}
c_arryn_targaryen = {	
	color={ 180 180 180 }
	color2={ 255 255 255 }
	
	allow = {
		always = no
	}
}
c_arryn_tully = {	
	color={ 180 180 180 }
	color2={ 255 255 255 }
	
	allow = {
		always = no
	}
}
c_arryn_tyrell = {	
	color={ 180 180 180 }
	color2={ 255 255 255 }
	
	allow = {
		always = no
	}
}
c_arryn_velaryon = {	
	color={ 180 180 180 }
	color2={ 255 255 255 }
	
	allow = {
		always = no
	}
}
c_arryn_yronwood = {	
	color={ 180 180 180 }
	color2={ 255 255 255 }
	
	allow = {
		always = no
	}
}
c_targaryen_arryn = {	
	color={ 180 180 180 }
	color2={ 255 255 255 }
	
	allow = {
		always = no
	}
}
c_targaryen_baratheon = {	
	color={ 180 180 180 }
	color2={ 255 255 255 }
	
	allow = {
		always = no
	}
}
c_targaryen_blackfyre = {	
	color={ 180 180 180 }
	color2={ 255 255 255 }
	
	allow = {
		always = no
	}
}
c_targaryen_gardener = {	
	color={ 180 180 180 }
	color2={ 255 255 255 }
	
	allow = {
		always = no
	}
}
c_targaryen_greyjoy = {	
	color={ 180 180 180 }
	color2={ 255 255 255 }
	
	allow = {
		always = no
	}
}
c_targaryen_hightower = {	
	color={ 180 180 180 }
	color2={ 255 255 255 }
	
	allow = {
		always = no
	}
}
c_targaryen_hoare = {	
	color={ 180 180 180 }
	color2={ 255 255 255 }
	
	allow = {
		always = no
	}
}
c_targaryen_lannister = {	
	color={ 180 180 180 }
	color2={ 255 255 255 }
	
	allow = {
		always = no
	}
}
c_targaryen_martell = {	
	color={ 180 180 180 }
	color2={ 255 255 255 }
	
	allow = {
		always = no
	}
}
c_targaryen_reyne = {	
	color={ 180 180 180 }
	color2={ 255 255 255 }
	
	allow = {
		always = no
	}
}
c_targaryen_royce = {	
	color={ 180 180 180 }
	color2={ 255 255 255 }
	
	allow = {
		always = no
	}
}
c_targaryen_stark = {	
	color={ 180 180 180 }
	color2={ 255 255 255 }
	
	allow = {
		always = no
	}
}
c_targaryen_tully = {	
	color={ 180 180 180 }
	color2={ 255 255 255 }
	
	allow = {
		always = no
	}
}
c_targaryen_tyrell = {	
	color={ 180 180 180 }
	color2={ 255 255 255 }
	
	allow = {
		always = no
	}
}
c_targaryen_velaryon = {	
	color={ 180 180 180 }
	color2={ 255 255 255 }
	
	allow = {
		always = no
	}
}
c_targaryen_yronwood = {	
	color={ 180 180 180 }
	color2={ 255 255 255 }
	
	allow = {
		always = no
	}
}
c_lannister_arryn = {	
	color={ 180 180 180 }
	color2={ 255 255 255 }
	
	allow = {
		always = no
	}
}
c_lannister_baratheon1 = {	
	color={ 180 180 180 }
	color2={ 255 255 255 }
	
	allow = {
		always = no
	}
}
c_lannister_blackfyre = {	
	color={ 180 180 180 }
	color2={ 255 255 255 }
	
	allow = {
		always = no
	}
}
c_lannister_gardener = {	
	color={ 180 180 180 }
	color2={ 255 255 255 }
	
	allow = {
		always = no
	}
}
c_lannister_greyjoy = {	
	color={ 180 180 180 }
	color2={ 255 255 255 }
	
	allow = {
		always = no
	}
}
c_lannister_hightower = {	
	color={ 180 180 180 }
	color2={ 255 255 255 }
	
	allow = {
		always = no
	}
}
c_lannister_hoare = {	
	color={ 180 180 180 }
	color2={ 255 255 255 }
	
	allow = {
		always = no
	}
}
c_lannister_martell = {	
	color={ 180 180 180 }
	color2={ 255 255 255 }
	
	allow = {
		always = no
	}
}
c_lannister_reyne = {	
	color={ 180 180 180 }
	color2={ 255 255 255 }
	
	allow = {
		always = no
	}
}
c_lannister_royce = {	
	color={ 180 180 180 }
	color2={ 255 255 255 }
	
	allow = {
		always = no
	}
}
c_lannister_stark = {	
	color={ 180 180 180 }
	color2={ 255 255 255 }
	
	allow = {
		always = no
	}
}
c_lannister_targaryen = {	
	color={ 180 180 180 }
	color2={ 255 255 255 }
	
	allow = {
		always = no
	}
}
c_lannister_tully = {	
	color={ 180 180 180 }
	color2={ 255 255 255 }
	
	allow = {
		always = no
	}
}
c_lannister_tyrell = {	
	color={ 180 180 180 }
	color2={ 255 255 255 }
	
	allow = {
		always = no
	}
}
c_lannister_velaryon = {	
	color={ 180 180 180 }
	color2={ 255 255 255 }
	
	allow = {
		always = no
	}
}
c_lannister_yronwood = {	
	color={ 180 180 180 }
	color2={ 255 255 255 }
	
	allow = {
		always = no
	}
}
c_baratheon_arryn = {	
	color={ 180 180 180 }
	color2={ 255 255 255 }
	
	allow = {
		always = no
	}
}
c_baratheon_blackfyre = {	
	color={ 180 180 180 }
	color2={ 255 255 255 }
	
	allow = {
		always = no
	}
}
c_baratheon_gardener = {	
	color={ 180 180 180 }
	color2={ 255 255 255 }
	
	allow = {
		always = no
	}
}
c_baratheon_greyjoy = {	
	color={ 180 180 180 }
	color2={ 255 255 255 }
	
	allow = {
		always = no
	}
}
c_baratheon_hightower = {	
	color={ 180 180 180 }
	color2={ 255 255 255 }
	
	allow = {
		always = no
	}
}
c_baratheon_hoare = {	
	color={ 180 180 180 }
	color2={ 255 255 255 }
	
	allow = {
		always = no
	}
}
c_baratheon_lannister = {	
	color={ 180 180 180 }
	color2={ 255 255 255 }
	
	allow = {
		always = no
	}
}
c_baratheon_martell = {	
	color={ 180 180 180 }
	color2={ 255 255 255 }
	
	allow = {
		always = no
	}
}
c_baratheon_reyne = {	
	color={ 180 180 180 }
	color2={ 255 255 255 }
	
	allow = {
		always = no
	}
}
c_baratheon_royce = {	
	color={ 180 180 180 }
	color2={ 255 255 255 }
	
	allow = {
		always = no
	}
}
c_baratheon_stark = {	
	color={ 180 180 180 }
	color2={ 255 255 255 }
	
	allow = {
		always = no
	}
}
c_baratheon_targaryen = {	
	color={ 180 180 180 }
	color2={ 255 255 255 }
	
	allow = {
		always = no
	}
}
c_baratheon_tully = {	
	color={ 180 180 180 }
	color2={ 255 255 255 }
	
	allow = {
		always = no
	}
}
c_baratheon_tyrell = {	
	color={ 180 180 180 }
	color2={ 255 255 255 }
	
	allow = {
		always = no
	}
}
c_baratheon_velaryon = {	
	color={ 180 180 180 }
	color2={ 255 255 255 }
	
	allow = {
		always = no
	}
}
c_baratheon_yronwood = {	
	color={ 180 180 180 }
	color2={ 255 255 255 }
	
	allow = {
		always = no
	}
}
c_martell_baratheon = {	
	color={ 180 180 180 }
	color2={ 255 255 255 }
	
	allow = {
		always = no
	}
}
c_martell_blackfyre = {	
	color={ 180 180 180 }
	color2={ 255 255 255 }
	
	allow = {
		always = no
	}
}
c_martell_gardener = {	
	color={ 180 180 180 }
	color2={ 255 255 255 }
	
	allow = {
		always = no
	}
}
c_martell_greyjoy = {	
	color={ 180 180 180 }
	color2={ 255 255 255 }
	
	allow = {
		always = no
	}
}
c_martell_hightower = {	
	color={ 180 180 180 }
	color2={ 255 255 255 }
	
	allow = {
		always = no
	}
}
c_martell_hoare = {	
	color={ 180 180 180 }
	color2={ 255 255 255 }
	
	allow = {
		always = no
	}
}
c_martell_lannister = {	
	color={ 180 180 180 }
	color2={ 255 255 255 }
	
	allow = {
		always = no
	}
}
c_martell_arryn = {	
	color={ 180 180 180 }
	color2={ 255 255 255 }
	
	allow = {
		always = no
	}
}
c_martell_reyne = {	
	color={ 180 180 180 }
	color2={ 255 255 255 }
	
	allow = {
		always = no
	}
}
c_martell_royce = {	
	color={ 180 180 180 }
	color2={ 255 255 255 }
	
	allow = {
		always = no
	}
}
c_martell_stark = {	
	color={ 180 180 180 }
	color2={ 255 255 255 }
	
	allow = {
		always = no
	}
}
c_martell_targaryen = {	
	color={ 180 180 180 }
	color2={ 255 255 255 }
	
	allow = {
		always = no
	}
}
c_martell_tully = {	
	color={ 180 180 180 }
	color2={ 255 255 255 }
	
	allow = {
		always = no
	}
}
c_martell_tyrell = {	
	color={ 180 180 180 }
	color2={ 255 255 255 }
	
	allow = {
		always = no
	}
}
c_martell_velaryon = {	
	color={ 180 180 180 }
	color2={ 255 255 255 }
	
	allow = {
		always = no
	}
}
c_martell_yronwood = {	
	color={ 180 180 180 }
	color2={ 255 255 255 }
	
	allow = {
		always = no
	}
}
c_tyrell_baratheon = {	
	color={ 180 180 180 }
	color2={ 255 255 255 }
	
	allow = {
		always = no
	}
}
c_tyrell_blackfyre = {	
	color={ 180 180 180 }
	color2={ 255 255 255 }
	
	allow = {
		always = no
	}
}
c_tyrell_gardener = {	
	color={ 180 180 180 }
	color2={ 255 255 255 }
	
	allow = {
		always = no
	}
}
c_tyrell_greyjoy = {	
	color={ 180 180 180 }
	color2={ 255 255 255 }
	
	allow = {
		always = no
	}
}
c_tyrell_hightower = {	
	color={ 180 180 180 }
	color2={ 255 255 255 }
	
	allow = {
		always = no
	}
}
c_tyrell_hoare = {	
	color={ 180 180 180 }
	color2={ 255 255 255 }
	
	allow = {
		always = no
	}
}
c_tyrell_lannister = {	
	color={ 180 180 180 }
	color2={ 255 255 255 }
	
	allow = {
		always = no
	}
}
c_tyrell_arryn = {	
	color={ 180 180 180 }
	color2={ 255 255 255 }
	
	allow = {
		always = no
	}
}
c_tyrell_reyne = {	
	color={ 180 180 180 }
	color2={ 255 255 255 }
	
	allow = {
		always = no
	}
}
c_tyrell_royce = {	
	color={ 180 180 180 }
	color2={ 255 255 255 }
	
	allow = {
		always = no
	}
}
c_tyrell_stark = {	
	color={ 180 180 180 }
	color2={ 255 255 255 }
	
	allow = {
		always = no
	}
}
c_tyrell_targaryen = {	
	color={ 180 180 180 }
	color2={ 255 255 255 }
	
	allow = {
		always = no
	}
}
c_tyrell_tully = {	
	color={ 180 180 180 }
	color2={ 255 255 255 }
	
	allow = {
		always = no
	}
}
c_tyrell_martell = {	
	color={ 180 180 180 }
	color2={ 255 255 255 }
	
	allow = {
		always = no
	}
}
c_tyrell_velaryon = {	
	color={ 180 180 180 }
	color2={ 255 255 255 }
	
	allow = {
		always = no
	}
}
c_tyrell_yronwood = {	
	color={ 180 180 180 }
	color2={ 255 255 255 }
	
	allow = {
		always = no
	}
}
c_tully_arryn = {	
	color={ 180 180 180 }
	color2={ 255 255 255 }
	
	allow = {
		always = no
	}
}
c_tully_baratheon = {	
	color={ 180 180 180 }
	color2={ 255 255 255 }
	
	allow = {
		always = no
	}
}
c_tully_blackfyre = {	
	color={ 180 180 180 }
	color2={ 255 255 255 }
	
	allow = {
		always = no
	}
}
c_tully_gardener = {	
	color={ 180 180 180 }
	color2={ 255 255 255 }
	
	allow = {
		always = no
	}
}
c_tully_greyjoy = {	
	color={ 180 180 180 }
	color2={ 255 255 255 }
	
	allow = {
		always = no
	}
}
c_tully_hightower = {	
	color={ 180 180 180 }
	color2={ 255 255 255 }
	
	allow = {
		always = no
	}
}
c_tully_hoare = {	
	color={ 180 180 180 }
	color2={ 255 255 255 }
	
	allow = {
		always = no
	}
}
c_tully_lannister = {	
	color={ 180 180 180 }
	color2={ 255 255 255 }
	
	allow = {
		always = no
	}
}
c_tully_martell = {	
	color={ 180 180 180 }
	color2={ 255 255 255 }
	
	allow = {
		always = no
	}
}
c_tully_reyne = {	
	color={ 180 180 180 }
	color2={ 255 255 255 }
	
	allow = {
		always = no
	}
}
c_tully_royce = {	
	color={ 180 180 180 }
	color2={ 255 255 255 }
	
	allow = {
		always = no
	}
}
c_tully_targaryen = {	
	color={ 180 180 180 }
	color2={ 255 255 255 }
	
	allow = {
		always = no
	}
}
c_tully_stark = {	
	color={ 180 180 180 }
	color2={ 255 255 255 }
	
	allow = {
		always = no
	}
}
c_tully_tyrell = {	
	color={ 180 180 180 }
	color2={ 255 255 255 }
	
	allow = {
		always = no
	}
}
c_tully_yronwood = {	
	color={ 180 180 180 }
	color2={ 255 255 255 }
	
	allow = {
		always = no
	}
}
c_tully_velaryon = {	
	color={ 180 180 180 }
	color2={ 255 255 255 }
	
	allow = {
		always = no
	}
}

#CO Drace
c_drace = {	
	color={ 180 180 180 }
	color2={ 255 255 255 }
	
	allow = {
		always = no
	}
}