immortal_weirwood_mbs_dec;Become one with the Weirwood;;;;;;;;;;;;;x
immortal_weirwood_mbs_dec_desc;Become one with a weirwood tree until such a time as another greenseer emerges - age and disease cannot kill you, but you will become an immobile husk, clinging to life.;;;;;;;;;;;;;x
immortal_weirwood_teach_mbs_dec;Train the New Greenseer;;;;;;;;;;;;;x
immortal_weirwood_teach_mbs_dec_desc;You have many lifetime's worth of knowledge and experience, you may seek to impart your knowledge and learning to the new greenseer active in the world.;;;;;;;;;;;;;x
immortal_weirwood_die_mbs_dec;Depart this Life;;;;;;;;;;;;;x
immortal_weirwood_die_mbs_dec_desc;Now that you have passed on your knowledge you may finally seek peace by drifting away from your body and fully becoming one with the weirwoods and beasts of the forest, what lesser men think of as deying.;;;;;;;;;;;;;x
immortal_weirwood_die_title_mbs_dec;Depart this life;;;;;;;;;;;;;x
immortal_weirwood_die_title_mbs_dec_desc;Now that you have passed on your knowledge you may finally seek peace by drifting away from your body and fully becoming one with the weirwoods and beasts of the forest, what lesser men think of as deying.;;;;;;;;;;;;;x
bloodlines_raise_ravens_teeth_army_dec;Call out the Raven's Teeth;;;;;;;;;;;;;x
bloodlines_raise_ravens_teeth_army_dec_desc;The Raven's Teeth, the military guard founded by Bloodraven, are an elite military unit of highly trained archers, each of whom is armed with a weirwood bow, as we are now at war perhaps it is time to call them to battle.;;;;;;;;;;;;;x
