bear_blood;Bear Blood;;;;;;;;;;;;;x
bear_child;Bear Child;;;;;;;;;;;;;x
grand_melee_1st_1;Grand mêlées wins: 1;Victoires Grand Tournoi: 1;;;Victorias en Gran Torneo: 1;;;;;;;;;x
grand_melee_1st_2;Grand mêlées wins: 2;Victoires Grand Tournoi: 2;;;Victorias en Gran Torneo: 2;;;;;;;;;x
grand_melee_1st_3;Grand mêlées wins: 3;Victoires Grand Tournoi: 3;;;Victorias en Gran Torneo: 3;;;;;;;;;x
grand_melee_1st_4;Grand mêlées wins: 4;Victoires Grand Tournoi: 4;;;Victorias en Gran Torneo: 4;;;;;;;;;x
grand_melee_1st_5;Grand mêlées wins: 5+;Victoires Grand Tournoi: 5+;;;Victorias en Gran Torneo: 5+;;;;;;;;;x
grand_melee_2nd_1;Grand mêlées second places: 1;Secondes places Grand Tournoi: 1;;;Segundas plazas en Gran Torneo: 1;;;;;;;;;x
grand_melee_2nd_2;Grand mêlées second places: 2;Secondes places Grand Tournoi: 2;;;Segundas plazas en Gran Torneo: 2;;;;;;;;;x
grand_melee_2nd_3;Grand mêlées second places: 3;Secondes places Grand Tournoi: 3;;;Segundas plazas en Gran Torneo: 3;;;;;;;;;x
grand_melee_2nd_4;Grand mêlées second places: 4;Secondes places Grand Tournoi: 4;;;Segundas plazas en Gran Torneo: 4;;;;;;;;;x
grand_melee_2nd_5;Grand mêlées second places: 5+;Secondes places Grand Tournoi: 5+;;;Segundas plazas en Gran Torneo: 5+;;;;;;;;;x
grand_melee_3rd_1;Grand mêlées third places: 1;Troisièmes places Grand Tournoi: 1;;;Terceras plazas en Gran Torneo: 1;;;;;;;;;x
grand_melee_3rd_2;Grand mêlées third places: 2;Troisièmes places Grand Tournoi: 2;;;Terceras plazas en Gran Torneo: 2;;;;;;;;;x
grand_melee_3rd_3;Grand mêlées third places: 3;Troisièmes places Grand Tournoi: 3;;;Terceras plazas en Gran Torneo: 3;;;;;;;;;x
grand_melee_3rd_4;Grand mêlées third places: 4;Troisièmes places Grand Tournoi: 4;;;Terceras plazas en Gran Torneo: 4;;;;;;;;;x
grand_melee_3rd_5;Grand mêlées third places: 5+;Troisièmes places Grand Tournoi: 5+;;;Terceras plazas en Gran Torneo: 5+;;;;;;;;;x
normal_melee_1st_1;Regional mêlées wins: 1;Victoires Tournoi Régional: 1;;;Victorias en Torneo Regional: 1;;;;;;;;;x
normal_melee_1st_2;Regional mêlées wins: 2;Victoires Tournoi Régional: 2;;;Victorias en Torneo Regional: 2;;;;;;;;;x
normal_melee_1st_3;Regional mêlées wins: 3;Victoires Tournoi Régional: 3;;;Victorias en Torneo Regional: 3;;;;;;;;;x
normal_melee_1st_4;Regional mêlées wins: 4;Victoires Tournoi Régional: 4;;;Victorias en Torneo Regional: 4;;;;;;;;;x
normal_melee_1st_5;Regional mêlées wins: 5+;Victoires Tournoi Régional: 5+;;;Victorias en Torneo Regional: 5+;;;;;;;;;x
normal_melee_2nd_1;Regional mêlées second places: 1;Secondes places Tournoi Régional: 1;;;Segundas plazas en Torneo Regional: 1;;;;;;;;;x
normal_melee_2nd_2;Regional mêlées second places: 2;Secondes places Tournoi Régional: 2;;;Segundas plazas en Torneo Regional: 2;;;;;;;;;x
normal_melee_2nd_3;Regional mêlées second places: 3;Secondes places Tournoi Régional: 3;;;Segundas plazas en Torneo Regional: 3;;;;;;;;;x
normal_melee_2nd_4;Regional mêlées second places: 4;Secondes places Tournoi Régional: 4;;;Segundas plazas en Torneo Regional: 4;;;;;;;;;x
normal_melee_2nd_5;Regional mêlées second places: 5+;Secondes places Tournoi Régional: 5+;;;Segundas plazas en Torneo Regional: 5+;;;;;;;;;x
normal_melee_3rd_1;Regional mêlées third places: 1;Troisèmes places Tournoi Régional: 1;;;Terceras plazas en Torneo Regional: 1;;;;;;;;;x
normal_melee_3rd_2;Regional mêlées third places: 2;Troisèmes places Tournoi Régional: 2;;;Terceras plazas en Torneo Regional: 2;;;;;;;;;x
normal_melee_3rd_3;Regional mêlées third places: 3;Troisèmes places Tournoi Régional: 3;;;Terceras plazas en Torneo Regional: 3;;;;;;;;;x
normal_melee_3rd_4;Regional mêlées third places: 4;Troisèmes places Tournoi Régional: 4;;;Terceras plazas en Torneo Regional: 4;;;;;;;;;x
normal_melee_3rd_5;Regional mêlées third places: 5+;Troisèmes places Tournoi Régional: 5+;;;Terceras plazas en Torneo Regional: 5+;;;;;;;;;x
small_melee_1st_1;Small mêlées wins: 1;Victoires Petit Tournoi: 1;;;Victorias en Torneo Local: 1;;;;;;;;;x
small_melee_1st_2;Small mêlées wins: 2;Victoires Petit Tournoi: 2;;;Victorias en Toneo Local: 2;;;;;;;;;x
small_melee_1st_3;Small mêlées wins: 3;Victoires Petit Tournoi: 3;;;Victorias en Torneo Local: 3;;;;;;;;;x
small_melee_1st_4;Small mêlées wins: 4;Victoires Petit Tournoi: 4;;;Victorias en Torneo Local: 4;;;;;;;;;x
small_melee_1st_5;Small mêlées wins: 5+;Victoires Petit Tournoi: 5+;;;Victorias en Torneo Local: 5+;;;;;;;;;x
small_melee_2nd_1;Small mêlées second places: 1;Secondes places Petit Tournoi: 1;;;Segundas plazas en Torneo Local: 1;;;;;;;;;x
small_melee_2nd_2;Small mêlées second places: 2;Secondes places Petit Tournoi: 2;;;Segundas plazas en Torneo Local: 2;;;;;;;;;x
small_melee_2nd_3;Small mêlées second places: 3;Secondes places Petit Tournoi: 3;;;Segundas plazas en Torneo Local: 3;;;;;;;;;x
small_melee_2nd_4;Small mêlées second places: 4;Secondes places Petit Tournoi: 4;;;Segundas plazas en Torneo Local: 4;;;;;;;;;x
small_melee_2nd_5;Small mêlées second places: 5+;Secondes places Petit Tournoi: 5+;;;Segundas plazas en Torneo Local: 5+;;;;;;;;;x
small_melee_3rd_1;Small mêlées third places: 1;Troisièmes places Petit Tournoi: 1;;;Terceras plazas en Torneo Local: 1;;;;;;;;;x
small_melee_3rd_2;Small mêlées third places: 2;Troisièmes places Petit Tournoi: 2;;;Terceras plazas en Torneo Local: 2;;;;;;;;;x
small_melee_3rd_3;Small mêlées third places: 3;Troisièmes places Petit Tournoi: 3;;;Terceras plazas en Torneo Local: 3;;;;;;;;;x
small_melee_3rd_4;Small mêlées third places: 4;Troisièmes places Petit Tournoi: 4;;;Terceras plazas en Torneo Local: 4;;;;;;;;;x
small_melee_3rd_5;Small mêlées third places: 5+;Troisièmes places Petit Tournoi: 5+;;;Terceras plazas en Torneo Local: 5+;;;;;;;;;x
