d_isleoffaces;Isle of Faces;Île-aux-Faces;Isle of Faces;Isle of Faces;Isla de los Rostros;;;;;;;;;x
c_isleoffaces;Isle of Faces;Île-aux-Faces;Isle of Faces;Isle of Faces;Isla de los Rostros;;;;;;;;;x
b_isleoffaces;Forest of Faces;Île-aux-Faces;Isle of Faces;Isle of Faces;Isla de los Rostros;;;;;;;;;x
b_isleoffaces1;Forest of Weirwoods;Île-aux-Faces;Isle of Faces;Isle of Faces;Isla de los Rostros;;;;;;;;;x
b_isleoffaces2;Children's Forest;Île-aux-Faces;Isle of Faces;Isle of Faces;Isla de los Rostros;;;;;;;;;x
b_isleoffaces3;Forest of the Gods;Île-aux-Faces;Isle of Faces;Isle of Faces;Isla de los Rostros;;;;;;;;;x
b_isleoffaces4;Forest of the Eye;Île-aux-Faces;Isle of Faces;Isle of Faces;Isla de los Rostros;;;;;;;;;x
b_isleoffaces5;Forest of the Pact;Île-aux-Faces;Isle of Faces;Isle of Faces;Isla de los Rostros;;;;;;;;;x
b_isleoffaces6;Forest of the Hammer;Île-aux-Faces;Isle of Faces;Isle of Faces;Isla de los Rostros;;;;;;;;;x