#CODE;ENGLISH;FRENCH;GERMAN;;SPANISH;;;;;;;;;x
EVTDESCkotstprotection1;The procession through the streets of the capital was going splendidly - the nobles in their finest clothes and the ladies in their most expensive jewelry, all looking dignified in the afternoon sun. Though the crowds appeared friendly enough, the goldcloaks still kept them at a distance. Distracted by everything, you did not notice the first stones being thrown. Soon after, you were hit with a piece of horse dung and a full-blown riot had broken out.;;;;La procesión por las calles de la capital iba de forma esplendida. Los nobles con sus mejores ropas y las damas con sus joyas más caras, todas luciendo dignas en el sol de la tarde. La multitud era tolerante, aunque los Capas Doradas tenían que mantenerla a distancia. Todo parecía tan perfecto que no notaste cuando se lanzaron las primeras piedras. Poco después fuiste golpeado con un trozo de estiércol de caballo, y momentos más tarde, estallaron disturbios en toda regla.;;;;;;;;;x
EVTOPTAkotstprotection1;Get me out of here!;;;;¡Sacadme de aquí!;;;;;;;;;x
EVTOPTBkotstprotection1;Arrest them!;;;;¡Arrestadlos!;;;;;;;;;x
EVTOPTCkotstprotection1;Kill them all!;;;;¡Matadlos a todos!;;;;;;;;;x
kotstprotection1a;You will flee the scene with your Kingsguard at your side.;;;;Huirás de la escena con tu Guardia Real a tu lado.;;;;;;;;;x
kotstprotection1b;Your Kingsguard will risk his life to arrest the riot leader.;;;;Tu Guardia Real arriesgará su vida para arrestar al líder de los disturbios.;;;;;;;;;x
kotstprotection1c;Your Kingsguard will be sent to kill the riot leader.;;;;Tu Guardia Real será enviada para matar al líder de los disturbios.;;;;;;;;;x
EVTDESCkotstprotection11;You and your Kingsguard turn into a narrow alley, moving away from the rioting crowd. You had hoped to circle around the riot in order to get back to the keep, but you find your path is blocked by a group of peasants. They were each taking turns raping a lady-in-waiting who appeared to have had the same idea in order to escape the riot.;;;;Usted y su Guardia Real giran en un callejón estrecho, alejándose de la multitud alborotada. Espera dar una vuelta alrededor de los disturbios hacia la fortaleza. Pero su camino está bloqueado por un grupo de campesinos que se turnan para violar a una de las damas de honor, que tuvo una idea similar a la suya.;;;;;;;;;x
EVTOPTAkotstprotection11;We must push through them!;;;;¡Pasaremos a través de ellos!;;;;;;;;;x
EVTOPTBkotstprotection11;Let us find another way.;;;;Encontremos otro camino.;;;;;;;;;x
EVTDESCkotstprotection112;Again, like a coward, you fled with your tail between your legs. It might not have been the most glorious thing to do, but it surely paid off. With the riot still raging behind, you approach the guarded gates of your keep where safety awaits.;;;;De nuevo, como un cobarde, huiste con la cola entre las piernas. Tal vez no era la forma mas gloriosa, pero seguramente valió la pena. Con los disturbios aún en su espalda, se acerca a las puertas vigiladas de su fortaleza, donde la seguridad lo espera.;;;;;;;;;x
EVTOPTAkotstprotection112;Safe at last!;;;;Al fin a salvo.;;;;;;;;;x
EVTDESCkotstprotection121;[From.GetTitledFirstName] followed your order without hesitation and pushed through the crowd to apprehend the leader of the riot. The man was taken by surprise when [From.GetTitledFirstName] grabbed him by his neck and pushed him hard against the ground, twisting his arms behind his back. Once the culprit was taken away by the Goldcloaks, the riot soon after subsided.;;;;[From.GetTitledFirstName] siguió tu orden sin dudarlo y se abrió paso entre la multitud para detener al líder de este disturbio. El hombre fue tomado por sorpresa cuando [From.GetTitledFirstName] lo agarró por el cuello y lo empujó con fuerza contra el suelo, retorciéndole los brazos detrás de la espalda. Después de que el principal culpable fue capturado por los Capas Doradas, el disturbio poco después se calmó.;;;;;;;;;x
EVTOPTAkotstprotection121;Safe at last!;;;;Al fin a salvo.;;;;;;;;;x
EVTDESCkotstprotection122;[From.GetTitledFirstName] tried his best, but each time [From.GetSheHe] tried to approach the leader of the riot, [From.GetSheHe] was pushed back by the crowd. Before [From.GetSheHe] noticed, [From.GetSheHe] was surrounded and attacked from every direction, fighting for [From.GetHerHis] life.;;;;[From.GetTitledFirstName] hizo su mejor esfuerzo, pero cada vez que [From.GetSheHe] intentó acercarse al líder de los disturbios, la multitud lo rechazó. Antes de darse cuenta, fue atacado por ambos lados y tuvo que luchar por su vida.;;;;;;;;;x
EVTOPTAkotstprotection122;I should have sent someone better.;;;;Debería haber enviado a alguien mejor.;;;;;;;;;x
EVTDESCkotstprotection131;[From.GetTitledFirstName] moved through the crowd with a grace of a cat. [From.GetTitledFirstName] then pulled out [From.GetHerHis] blade and delivered a series of deadly strikes. Before anyone had realized, it was all over. [From.GetTitledFirstName] was standing in blood-stained armor with a group of dead bodies laying about [From.GetHerHis] feet, one of them being the leader of the riot.;;;;[From.GetTitledFirstName] se abrió paso entre la multitud con la gracia de un gato, y con igual agilidad sacó su espada y lanzó una serie de golpes mortales. Antes de que nadie se diera cuenta, todo había terminado. [From.GetTitledFirstName] estaba parado con su armadura manchada de sangre con un anillo de cadáveres bajo sus pies. Uno de ellos el líder de los alborotadores.;;;;;;;;;x
EVTOPTAkotstprotection131;He got what he deserved.;;;;Obtuvo lo que se merecía.;;;;;;;;;x
EVTDESCkotstprotection132;[From.GetTitledFirstName] pushed bravely against the crowd. Although [From.GetSheHe] killed many of the rioters, it only enraged the rest of the crowd. Before anyone could do anything, [From.GetSheHe] was engulfed by the crowd and beaten to death.;;;;[From.GetTitledFirstName] empujó valientemente contra la multitud, y aunque [From.GetSheHe] mató a muchos de los alborotadores, solo enfureció al resto de la multitud. Antes de que alguien pudiera hacer algo, [From.GetSheHe] fue engullido por la multitud y muerto a golpes.;;;;;;;;;x
EVTOPTAkotstprotection132;What a waste of a good life.;;;;Qué desperdicio de una buena vida.;;;;;;;;;x
EVTDESCkotstprotection14;Being a ruler is a tough business, which is why, from time to time, you take a stroll through the palace gardens to clear your mind. The Kingsguard at your side brings to your attention that you have been followed by one of the gardeners for some time now. Upon observation, you note this laborer is actually a rather attractive young [Root.GetManWomanPreference]. You wonder if the gardener just wants a chance to meet the [Root.GetTitle]?;;;;Ser un gobernante es un asunto difícil, por eso, de vez en cuando, da un paseo por los jardines del palacio para aclarar su mente. Su fiel Guardia Real a su lado le hace notar que uno de los jardineros lo está siguiendo durante algún tiempo. Cuando lo miras, ves que es un buen mozo. Crees que puede querer admirar su [Root.GetTitle]. O tal vez no.;;;;;;;;;x
EVTOPTAkotstprotection14;I would love to meet them and chat.;;;;Me encantaría tener una charla.;;;;;;;;;x
EVTOPTBkotstprotection14;I won't take any risks. [From.GetTitledFirstName] arrest them.;;;;No me arriesgaré. [From.GetTitledFirstName] arréstelo.;;;;;;;;;x
EVTDESCkotstprotection15;The [From.GetBoyGirl] approaches you shyly and gave a low bow. [From.GetSheHeCap] certainly knows how to behave around royalty. You talk with [From.GetHerHim] and discover a lot of interesting things about being a gardener, along with some gossip about the courtiers [From.GetSheHe] overhears while tending the palace gardens.;;;;Ese [From.GetBoyGirl] se acercó tímidamente y le hizo una reverencia. [From.GetSheHeCap] sabía cómo comportarse con la realeza. Tuvo una conversación con [From.GetHerHim] y descubrió muchas cosas interesantes sobre ser jardinero y también algunos chismes sobre los cortesanos que [From.GetSheHe] escuchó mientras cuidaba los jardines del palacio.;;;;;;;;;x
EVTOPTAkotstprotection15;Fascinating, how about we talk more in my private chambers?;;;;Fascinante, ¿qué tal si hablamos más en mis aposentos?;;;;;;;;;x
EVTOPTBkotstprotection15;That's all I wanted to know. Off to work, peasant.;;;;Eso es todo lo que quería saber. A trabajar, campesino.;;;;;;;;;x
EVTDESCkotstprotection16;The [FromFrom.GetBoyGirl] approaches slowly and, in an odd manner, keeps staring at you. [From.GetTitledFirstName] immediately realizes what is going to happen and pushes you out of the way of a concealed dagger, taking a blow to [From.GetHerHis] sturdy armor. With one precise strike, [From.GetSheHe] cuts the assassin across [FromFrom.GetHerHis] face and then pushed the blade through [FromFrom.GetHerHis] guts, killing [FromFrom.GetHerHim] in the process.;;;;Ese [FromFrom.GetBoyGirl] se acercó lentamente y mantuvo los ojos bien abiertos, mirándote extrañamente. [From.GetTitledFirstName] se dio cuenta inmediatamente de lo que estaba sucediendo y empujó a tu real persona fuera del camino de una daga oculta, recibiendo un golpe en su robusta armadura. Con un golpe preciso [From.GetSheHe] cortó al asesino en su cara, y luego empujó la hoja a través de sus entrañas. El aspirante a asesino ya no existía.;;;;;;;;;x
EVTOPTAkotstprotection16;Praise my valiant protector!;;;;¡Alabado sea mi valiente protector!;;;;;;;;;x
EVTOPTBkotstprotection16;A reward is in order.;;;;Una recompensa está en camino.;;;;;;;;;x
EVTDESCkotstprotection17;The [FromFrom.GetBoyGirl] approaches you slowly and clearly, like a terrified animal, shaking. In a gentle manner, you start talking to [FromFrom.GetHerHim] and [FromFrom.GetSheHe] starts to become more comfortable around you. You continue your walk through the garden with [FromFrom.GetHerHim], with your Kingsguard walking a few steps back. Maybe it was a lack of training, or maybe no one could have predict it at all, but when you take a turn behind yet another bush, the [FromFrom.GetBoyGirl] draws [FromFrom.GetHerHis] hidden dagger and plunges it straight into your chest. Before [From.GetTitledFirstName] can do anything, the assassin flees deeper into the garden, leaving you bleeding in the arms of your Kingsguard.;;;;Ese [FromFrom.GetBoyGirl] se acercó a usted constantemente, como un animal aterrorizado, pero una vez que comenzó a hablar [FromFrom.GetSheHe] estuvo más cómodo con su persona. Dio un paseo por el jardín, con su Guardia Real caminando unos pasos hacia atrás. Tal vez fue la falta de entrenamiento, o tal vez nadie podría predecirlo en absoluto. Pero cuando tomaste un giro detrás de otro arbusto, [FromFrom.GetSheHe] sacó su daga oculta y la hundió directamente en tus entrañas. Antes de que [From.GetTitledFirstName] pudiera hacer algo, el asesino desapareció y te dejó sangrando en los brazos de tu Guardia Real.;;;;;;;;;x
EVTOPTAkotstprotection17;Plague upon your house!;;;;¡Verguenza sobre tu casa!;;;;;;;;;x
EVTDESCkotstprotection18;Assassin or no assassin, you can never be too careful. Your Kingsguard took the gardener out with one strong punch to the jaw and dragged them off to the dungeons. It doesn't really matter whether they were guilty or not. No one will care about a simple peasant, no matter how good looking they were.;;;;Asesino o no, nunca puedes ser demasiado cuidadoso. Tu Guardia Real sacó al jardinero con un fuerte golpe en la mandíbula y lo arrastró a las mazmorras. Realmente no importa si era culpable o no. A nadie le importará un simple campesino, no importa lo bien que se vea.;;;;;;;;;x
EVTOPTAkotstprotection18;I'm too important to take any risks.;;;;Soy demasiado importante para correr cualquier riesgo.;;;;;;;;;x
EVTDESCkotstprotection19;While on a hunt, you move through the bushes to retrieve the pheasant you just shot. Suddenly, a group of highwaymen surround you. Seeing your luxurious attire, they demand you strip naked and give them all you have.;;;;Cuando estás en una cacería, te mueves a través de los arbustos para recuperar el faisán al que acabas de abatir, cuando de repente un grupo de hombres del camino te rodea y ve que tu ropa rica exige que te desnudes y les des todo lo que tienes.;;;;;;;;;x
EVTOPTAkotstprotection19;Comply and give them all that you have.;;;;Cumple y dales todo lo que tienes.;;;;;;;;;x
kotstprotection19a;You will strip naked and give them all of your personal belongings.;;;;Te desnudarás y les darás todas tus pertenencias personales.;;;;;;;;;x
EVTOPTBkotstprotection19;Run away to safety.;;;;Huir para estar seguro.;;;;;;;;;x
kotstprotection19b;You will run back towards your hunting party and guards.;;;;Volverás corriendo hacia tu partida de caza y guardias.;;;;;;;;;x
EVTOPTCkotstprotection19;Draw your sword and face them yourself.;;;;Desenfunda tu espada y encáralos tu mismo.;;;;;;;;;x
kotstprotection19c;You will fight the bandits yourself.;;;;Lucharás con los bandidos tú mismo.;;;;;;;;;x
EVTOPTDkotstprotection19;Call upon your Kingsguard to protect you.;;;;Llama a tu Guardia Real para que te proteja.;;;;;;;;;x
kotstprotection19d;A nearby Kingsguard will rush to your aid.;;;;Un Guardia Real que se encuentra cerca se apresurará en tu ayuda.;;;;;;;;;x
EVTDESCkotstprotection191;You do as the bandits request, taking off all of your clothes while also giving them them all of your gold and accessories. Afterwards, they slap you on the arse and chase you, like some filthy animal, through the woods.;;;;Haces lo que te dicen los bandidos y te quitas toda tu ropa elegante, así como todo tu oro y ricos accesorios. Cuando te paras frente a ellos todo desnudo, te abofetean y te persiguen por el bosque como un animal inmundo.;;;;;;;;;x
EVTOPTAkotstprotection191;A run of shame...;;;;Una racha de vergüenzas...;;;;;;;;;x
EVTDESCkotstprotection192;You quickly turn around and run for your life, sprinting through the bushes. After what seems like forever, you spot one of your Kingsguard and leap into his arms, glad you reached safety.;;;;Rápidamente te das la vuelta y corres por tu vida corriendo a través de los arbustos. Después de unos segundos, ves a uno de tus Guardias Reales y saltas a sus brazos, contento de que hayas alcanzado la seguridad.;;;;;;;;;x
EVTOPTAkotstprotection192;'Tis better to be a coward than dead.;;;;Es mejor ser cobarde que estar muerto.;;;;;;;;;x
EVTDESCkotstprotection1930;You decide to take the matter into your own hands. You draw your sword and, mercilessly, start slashing at the bandits. To a seasoned warrior such as yourself, they don't pose much of a threat. After a few strikes, they run away in fear.;;;;Decides tomar el toro por los cuernos y desenfundar la espada cortando a los bandidos sin piedad. No representaron un gran desafío para un guerrero experimentado como tú y, después de algunos golpes, huyen asustados.;;;;;;;;;x
EVTOPTAkotstprotection1930;I am victorious.;;;;Salgo victorioso.;;;;;;;;;x
EVTDESCkotstprotection1931;You decide to take the matter into your own hands. You draw your sword and start slashing at the bandits. Unfortunately for you, there are too many of them and your meager skills are not enough. You soon find yourself outmatched and outnumbered, receiving many wounds all over your body.;;;;Decides tomar el toro por los cuernos y desenfundar la espada cortando a los bandidos. Desafortunadamente para usted, hay muchos de ellos y tus escasas habilidades no son comparables con su número. Pronto te encuentras superado en número, sangrando por todo tu cuerpo.;;;;;;;;;x 
EVTOPTAkotstprotection1931;You lie on the ground defeated.;;;;Te tumbas en el suelo derrotado.;;;;;;;;;x
EVTDESCkotstprotection20;[From.GetTitledFirstName] rushes to your aid with [From.GetHerHis] sword already drawn and ready for action. [From.GetSheHe] makes a few swooping strikes and, as if carving a cake, takes out the first two bandits. The rest follow soon after. For [From.GetHerHim], they are just target practice.;;;;[From.GetTitledFirstName] corre en tu ayuda con su espada ya desenvainada y lista para la acción. Hace algunos golpes rápidos a los dos primeros bandidos, que corta como el pastel. El resto sigue poco después. Para él son solo prácticas.;;;;;;;;;x
EVTOPTAkotstprotection20;My hero...;;;;Mi héroe...;;;;;;;;;x
EVTDESCkotstprotection21;[From.GetTitledFirstName] rushes to your aid with [From.GetHerHis] sword already drawn and ready for action. But alas, [From.GetSheHe] is no match for the bandit horde. They attack [From.GetHerHim] from all sides and maim [From.GetHerHim] horribly.;;;;[From.GetTitledFirstName] corrió en tu ayuda con su espada ya desenvainada y lista para la acción. Pero desgraciadamente [From.GetSheHe] no es rival para la horda de bandidos que lo atacan por todos lados y lo mutilan horriblemente.;;;;;;;;;x
EVTOPTAkotstprotection21;What a fool...;;;;Qué tonto...;;;;;;;;;x
EVTDESCkotstprotection30;You wake up in the middle of the night and, to your surprise, notice a frail contour of an old man. Looking fairly harmless, he says he wishes to speak to you regarding a job. So strange is the situation, you wonder if you're dreaming.;;;;Era la mitad de la noche y, sin embargo, te despertaste vigilante para tu sorpresa, notando en la oscuridad el frágil contorno de un anciano. El hombre parece bastante inofensivo y dice que desea hablar con usted con respecto a un trabajo. La situación es tan extraña que uno se pregunta si no es todo todavía un sueño.;;;;;;;;;x
EVTOPTAkotstprotection30;Invite the man to sit closer and tell you his story.;;;;Invite al hombre a sentarse más cerca y contarle su historia.;;;;;;;;;x
EVTOPTBkotstprotection30;There is no point in risking it. Call your guards.;;;;No tiene sentido arriesgarse, llama a tus guardias.;;;;;;;;;x
EVTDESCkotstprotection311;The old man introduces himself as an ex-maester who was excluded from their order for dabbling in dark arts. Now, after seeing the light, he has decided to make up for all the harm he has done by serving the 'greatest ruler of them all'. You are pleased with his words and allow him to stay in your court.;;;;"El anciano se presenta como un viejo maestre que fue excluido de su orden por jugar con las artes oscuras, pero ahora, después de ver la luz, decidió reparar todo el daño que había hecho con sus estudios y servir al ""gobernante más brillante de todos"". Usted está satisfecho con sus palabras y le permite permanecer en su corte.";;;;;;;;;x
EVTOPTAkotstprotection311;There's always a room for talent under my roof.;;;;Siempre hay un espacio para el talento bajo mi techo.;;;;;;;;;x
EVTDESCkotstprotection312;The old man starts spinning the most crazy tale you had ever heard. With each sentence, he appears to move closer and closer to you. All of a sudden the man becomes really angry and starts screaming. You fail to notice the knife in his hands until it is too late. He ends up stabbing you multiple times before jumping out of the window, falling to his death.;;;;El anciano comenzó a contar la historia más loca que jamás hayas escuchado y con cada frase se acercó más y más a ti. Era demasiado tarde, nadie podía salvarte ahora, el hombre se enojó mucho y comenzó a gritar. Antes de que te dieras cuenta había un cuchillo en su mano. Te apuñaló un par de veces y luego saltó por la ventana cayendo a su muerte.;;;;;;;;;x
EVTOPTAkotstprotection312;That old... lunatic...;;;;Ese viejo... lunático...;;;;;;;;;x
EVTDESCkotstprotection321;The moment after calling your guard, you see [From.GetTitledFirstName] rush through the door of your bedroom. The old man is furious about the intrusion and, while foaming from his mouth, starts calling upon demons. [From.GetTitledFirstName] doesn't waste any time and bravely puts down the lunatic with a well-aimed backhand to the head. Unfortunately for the frail old man, the strike was fatal.;;;;Momentos después de llamar a tu guardia ves a [From.GetTitledFirstName] corriendo por la puerta de tu habitación. El anciano está furioso por la intrusión y comienza a llamar a los demonios mientras le sale espuma por la boca. [From.GetTitledFirstName] no pierde tiempo y valientemente derriba al lunático con un revés bien apuntado a la cabeza. Desafortunadamente para el frágil anciano, este golpe fue fatal.;;;;;;;;;x
EVTOPTAkotstprotection321;Good, one less lunatic.;;;;Bueno, un lunático menos.;;;;;;;;;x
EVTDESCkotstprotection322;You call for your guards and you soon see [From.GetTitledFirstName] rush through the door. The old man gets furious and, like a wild animal, starts to claw at [From.GetTitledFirstName]'s face, causing serious damage. He then shouts something about flying and jumps through the window, falling to his death.;;;;Llamas a tus guardias y pronto ves a [From.GetTitledFirstName] corriendo por la puerta. El anciano se pone furioso y como un animal salvaje salta a la cara de [From.GetTitledFirstName] arañando sus ojos y causándole graves daños. Luego grita algo sobre volar y salta por la ventana, cayendo a su muerte.;;;;;;;;;x
EVTOPTAkotstprotection322;This is madness...;;;;Esto es una locura...;;;;;;;;;x
EVTDESCkotstprotection41;While taking part in a hunt, one of the archers, clumsily, misfires an arrow your way. With little time to react, the arrow, amazingly, stops right in front of you, held at the shaft by [From.GetTitledFirstName]. [From.GetSheHeCap] then casually drops it and carries on with [From.GetHerHis] duties, like nothing even happened.;;;;Cuando participas en una cacería, uno de los arqueros más torpes dispara una flecha hacia tu trayectoria. Sin mucho tiempo para reaccionar, te sorprende ver que se detiene justo delante de ti, sostenido por el astil por [From.GetTitledFirstName]. [From.GetSheHeCap] luego lo suelta y continúa con sus deberes como si nada hubiera pasado.;;;;;;;;;x
EVTOPTAkotstprotection41;'Twas uncanny!;;;;¿Eres Superman?;;;;;;;;;x
EVTDESCkotstprotection42;While taking part in a hunt, one of the archers, clumsily, misfires an arrow your way. With little time to react, you are amazed to see [From.GetTitledFirstName] rush in front of you and take the arrow in the chest.;;;;Cuando participas en una cacería, uno de los arqueros más torpes dispara una flecha hacia tu trayectoria. Sin mucho tiempo para reaccionar, te sorprende ver a [From.GetTitledFirstName] corriendo delante de ti y recibiendo la flecha en el torax antes de que llegue a ti.;;;;;;;;;x
EVTOPTAkotstprotection42;Your sacrifice will not be forgotten.;;;;Tu sacrificio no será olvidado.;;;;;;;;;x
EVTOPTBkotstprotection42;[From.GetSheHeCap] was only doing [From.GetHerHis] duty.;;;;[From.GetSheHeCap] solo estaba cumpliendo con su deber.;;;;;;;;;x
EVTDESCkotstglory999;Your Kingsguard are rested and ready for new adventures, if it pleases your Grace.;;;;Su Guardia Real está descansada y lista para nuevas aventuras si le agrada a su Majestad.;;;;;;;;;x
EVTOPTAkotstglory999;Good to know.;;;;Bueno es saberlo.;;;;;;;;;x
