#CODE;ENGLISH;FRENCH;GERMAN;;SPANISH;;;;;;;;;x
# Westeros (from South to North)
## Targaryen Islands
c_aegon;Aegon;Aegon;Aegon;;Aegon;;;;;;;;;x
c_rhaenys;Rhaenys;Rhaenys;Rhaenys;;Rhaenys;;;;;;;;;x
c_visenya;Visenya;Visenya;Visenya;;Visenya;;;;;;;;;x

## Dorne

## the Reach

## Stormlands

## Crownlands

## Riverlands

## Westerlands

## Iron Islands

## the Vale

## the North


## the Wall

## Beyond the Wall


# Essos (from West to East)
## North East
### Thousand Islands
c_thousand_islands;the Thousand Islands;les Mille-Îles;die Tausend Inseln;;las Mil Islas;;;;;;;;;x
c_thousand_islands_adj;Thousand Islander;;;;;;;;;;;;;x