#CODE;ENGLISH;FRENCH;GERMAN;;SPANISH;;;;;;;;;x
# Westeros (from South to North)
## Targaryen Islands
d_targaryen_islands;Targaryen Islands;;;;;;;;;;;;;x
d_targaryen_islands_adj;Targaryen Islander;;;;;;;;;;;;;x

## Dorne

## the Reach

## Stormlands

## Crownlands

## Riverlands

## Westerlands

## Iron Islands

## the Vale

## the North
d_bearisland;Bear Island;Île-aux-Ours;Bäreninsel;;Isla del Oso;;;;;;;;;x
d_bearisland_adj;Bear Island;Île-aux-Ours;Bäreninsel;;Isla del Oso;;;;;;;;;x

## the Wall
d_the_gift;the Gift;;;;;;;;;;;;;x
d_the_gift_adj;the Gift;;;;;;;;;;;;;x

## Beyond the Wall


# Essos (from West to East)
## North East
### Thousand Islands
d_thousand_islands;Thousand Islands;;;;;;;;;;;;;x
d_thousand_islands_adj;Thousand Islander;;;;;;;;;;;;;x

## Far East
### Shadowlands
d_stygai;the Vale of Shadows;;;;;;;;;;;;;x
d_stygai_adj;Vale of Shadows;;;;;;;;;;;;;x