# Crown level (de jure) laws
# Laws ending with 0 will be default laws at game start

# The Four Slavery Laws
# Illegal
#	Slavery is illegal, and this law is strictly enforced. No slavery mechanics, can gain War of Liberation and Treaty Violation CBs.
#	Favored by Westerosi, Braavosi, Rhoynar, and liberators.
# Indentured Servitude
#	Slavery is technically illegal, but practiced nevertheless. No large population slavery mechanics.
#	Not favored by anyone. This is the result of a War of Emancipation against a realm practicing Chattel Slavery.
# Chattel Slavery
#	Slavery is fully legal. Slaves are treated as property and may be bought and sold. Full access to slavery mechanics, may be target of War of Liberation CB.
#	Favored by Ghiscari, Dothraki, Valyrian, Pirates, Dothraki and non-Braavosi Free Cities cultures.
# Thralldom
#	Prisoners of war may be taken as slaves. Slaves may not be bought or sold.
#	Favored by Ironborn.

de_jure_laws = {
# SLAVERY
	slavery_0 = { # Illegal
		show_as_title = yes
		group = slavery
		default = yes
		
		potential = {
			NOT = { has_game_rule = { name = slavery value = off } }
		}
		
		allow = {
			hidden_tooltip = {
				OR = {
					has_law = slavery_1
					has_law = slavery_2
					has_law = slavery_3
				}
			}				
			holder_scope = {
				custom_tooltip = {
					text = TOOLTIPINDEPENDENTCONDITION
					hidden_tooltip = {
						independent = yes
						OR = {
							tier = EMPEROR
							primary_title = { NOT = { check_variable = { which = "de_facto_empire" value = 1 } } }
						}	
					}
				}
				OR = {
					has_antislavery_culture_trigger = yes
					has_antislavery_religion_trigger = yes
					custom_tooltip = {
						text = TOOLTIPslavery_0VASSAL
						hidden_tooltip = {
							any_vassal = {
								OR = {
									trait = liberator
									has_antislavery_culture_trigger = yes
									has_antislavery_religion_trigger = yes
								}
							}
						}
					}
					custom_tooltip = {
						text = TOOLTIPslavery_0DYNASTY
						hidden_tooltip = { has_dynasty_flag = liberator_dynasty }
					}							
					trait = liberator
					trait = arbitrary
					trait = lunatic				
				}
			}
		}
		
		revoke_allowed = {
			always = no
		}
		default_selection = {
			factor = 1
			additive_modifier = { 
				value = 10
				holder_scope = {
					OR = {
						has_antislavery_culture_trigger = yes
						has_antislavery_religion_trigger = yes
						trait = liberator
						has_dynasty_flag = liberator_dynasty
					}	
				}
			}
		}
		
		ai_will_do = {
			factor = 1
			# Inertia
			modifier = {
				factor = 0.005
			}
			
			# Motivations
			modifier = {
				factor = 0
				holder_scope = { 
					NOT = { trait = liberator }
					NOT = { has_antislavery_culture_trigger = yes }
					NOT = { has_antislavery_religion_trigger = yes }
					NOT = { trait = lunatic }
				}
			}
			
			# Personality Effects
			modifier = {
				factor = 10
				holder_scope = { trait = liberator }
			}
			modifier = {
				factor = 0.5
				holder_scope = { trait = slothful }
			}
			modifier = {
				factor = 2
				holder_scope = { trait = diligent }
			}
			modifier = {
				factor = 0.5
				holder_scope = { trait = cruel }
			}
			modifier = {
				factor = 2
				holder_scope = { trait = kind }
			}
			modifier = {
				factor = 0.5
				holder_scope = { trait = greedy }
			}
			modifier = {
				factor = 2
				holder_scope = { trait = charitable }
			}
			
			# Slave Owner or Trader
			modifier = {
				factor = 0.1
				holder_scope = { trait = slave_owner }
			}
			modifier = {
				factor = 0.1
				holder_scope = { trait = slave_trader }
			}
					
			# Culture Effects
			modifier = {  #Pro Slavery
				factor = 0.05
				holder_scope = {
					OR = {
						has_slavery_culture_trigger = yes	
						has_slavery_religion_trigger = yes
					}
				}
			}
			modifier = {
				factor = 4
				holder_scope = {
					trait = arbitrary
					OR = {
						has_slavery_culture_trigger = yes	
						has_slavery_religion_trigger = yes
					}
				}
			}
			modifier = {
				factor = 0
				holder_scope = {
					trait = just
					OR = {
						has_slavery_culture_trigger = yes	
						has_slavery_religion_trigger = yes
					}
					NOT = { has_antislavery_religion_trigger = yes }				
				}
			}
			modifier = {
				factor = 0
				holder_scope = {
					has_religion_feature = religion_feature_pro_slavery	
					NOT = { trait = liberator }
				}
			}
			
			modifier = { #Anti Slavery
				factor = 5
				holder_scope = {
					OR = {
						has_antislavery_culture_trigger = yes
						has_antislavery_religion_trigger = yes
					}
				}
			}
			modifier = {
				factor = 0.5
				holder_scope = {
					trait = arbitrary
					OR = {
						has_antislavery_culture_trigger = yes
						has_antislavery_religion_trigger = yes
					}
				}
			}
			modifier = {
				factor = 2
				holder_scope = {
					trait = just
					OR = {
						has_antislavery_culture_trigger = yes
						has_antislavery_religion_trigger = yes
					}					
				}
			}
			
			modifier = { #Religion Anti Slavery
				factor = 2
				holder_scope = {
					has_antislavery_religion_trigger = yes
				}
			}
			modifier = {
				factor = 0.25
				holder_scope = {
					trait = cynical
					has_antislavery_religion_trigger = yes					
				}
			}
			modifier = {
				factor = 20
				holder_scope = {
					has_antislavery_religion_trigger = yes
					trait = zealous
				}
			}
			
			modifier = { #Religion Pro Slavery
				factor = 0.5
				holder_scope = {
					has_slavery_religion_trigger = yes
				}
			}
			modifier = {
				factor = 4
				holder_scope = {
					trait = cynical
					has_slavery_religion_trigger = yes					
				}
			}
			modifier = {
				factor = 0
				holder_scope = {
					trait = zealous
					has_slavery_religion_trigger = yes					
				}
			}
			
			modifier = { #Ironborn
				factor = 0.05
				holder_scope = {
					culture_group = iron_isles_culture
				}
			}
			modifier = {
				factor = 4
				holder_scope = {
					trait = arbitrary
					culture_group = iron_isles_culture					
				}
			}
			modifier = {
				factor = 0
				holder_scope = {
					trait = just
					culture_group = iron_isles_culture				
				}
			}
			
			# Political Concerns
			modifier = {
				factor = 0
				holder_scope = {
					OR = {
						war = yes
						NOT = { age = 16 }
					}
				}	
			}
			modifier = {
				factor = 0
				holder_scope = {
					NOT = { trait = just }
					NOT = { trait = proud }
					any_vassal = { relative_power_to_liege = 0.2 NOT = { opinion = { who = PREV value = -25 } } } 
				}
			}
			modifier = {
				factor = 0.6
				OR = {
					has_law = slavery_1
					has_law = slavery_2
				}
				holder_scope = {
					any_vassal = {
						OR = {
							trait = slave_owner
							trait = slave_trader
							AND = {
								NOT = { trait = arbitrary }
								OR = {
									has_slavery_religion_trigger = yes
									has_slavery_culture_trigger = yes
								}
							}
						}
						NOT = { trait = liberator }
						relative_power_to_liege = 0.2
					}
					NOT = { trait = proud }
				}
			}
			modifier = {
				factor = 0.6
				OR = {
					has_law = slavery_1
					has_law = slavery_2
				}
				holder_scope = {
					any_vassal = {
						OR = {
							trait = slave_owner
							trait = slave_trader
							AND = {
								NOT = { trait = arbitrary }
								OR = {
									has_slavery_religion_trigger = yes
									has_slavery_culture_trigger = yes
								}
							}
						}
						NOT = { trait = liberator }
						relative_power_to_liege = 0.33
					}
					NOT = { trait = proud }
				}
			}
			modifier = {
				factor = 0.6
				OR = {
					has_law = slavery_1
					has_law = slavery_2
				}
				holder_scope = {
					any_vassal = {
						OR = {
							trait = slave_owner
							trait = slave_trader
							AND = {
								NOT = { trait = arbitrary }
								OR = {
									has_slavery_religion_trigger = yes
									has_slavery_culture_trigger = yes
								}
							}
						}
						NOT = { trait = liberator }
						relative_power_to_liege = 0.5
					}
					NOT = { trait = proud }
				}
			}
			modifier = {
				factor = 0.6
				OR = {
					has_law = slavery_1
					has_law = slavery_2
				}
				holder_scope = {
					any_vassal = {
						OR = {
							trait = slave_owner
							trait = slave_trader
							AND = {
								NOT = { trait = arbitrary }
								OR = {
									has_slavery_religion_trigger = yes
									has_slavery_culture_trigger = yes
								}
							}
						}
						NOT = { trait = liberator }
						relative_power_to_liege = 0.66
					}
					NOT = { trait = proud }
				}
			}
			modifier = {
				factor = 0.6
				has_law = slavery_3
				holder_scope = {
					any_vassal = {
						culture_group = iron_isles_culture
						NOT = { trait = liberator }
						NOT = { trait = arbitrary }
						relative_power_to_liege = 0.2
					}
					NOT = { trait = proud }
				}
			}
			modifier = {
				factor = 0.6
				has_law = slavery_3
				holder_scope = {
					any_vassal = {
						culture_group = iron_isles_culture
						NOT = { trait = liberator }
						NOT = { trait = arbitrary }
						relative_power_to_liege = 0.33
					}
					NOT = { trait = proud }
				}
			}
			modifier = {
				factor = 0.6
				has_law = slavery_3
				holder_scope = {
					any_vassal = {
						culture_group = iron_isles_culture
						NOT = { trait = liberator }
						NOT = { trait = arbitrary }
						relative_power_to_liege = 0.5
					}
					NOT = { trait = proud }
				}
			}
			modifier = {
				factor = 0.6
				has_law = slavery_3
				holder_scope = {
					any_vassal = {
						culture_group = iron_isles_culture
						NOT = { trait = liberator }
						NOT = { trait = arbitrary }
						relative_power_to_liege = 0.66
					}
					NOT = { trait = proud }
				}
			}
			
			modifier = {
				factor = 1.4
				holder_scope = {
					any_vassal = {
						OR = {
							trait = liberator
							AND = {
								NOT = { trait = arbitrary }
								OR = {
									has_antislavery_culture_trigger = yes
									has_antislavery_religion_trigger = yes
								}
							}
						}
						relative_power_to_liege = 0.2
					}
					NOT = { trait = proud }
				}
			}
			modifier = {
				factor = 1.4
				holder_scope = {
					any_vassal = {
						OR = {
							trait = liberator
							AND = {
								NOT = { trait = arbitrary }
								OR = {
									has_antislavery_culture_trigger = yes
									has_antislavery_religion_trigger = yes
								}
							}
						}
						relative_power_to_liege = 0.33
					}
					NOT = { trait = proud }
				}
			}
			modifier = {
				factor = 1.4
				holder_scope = {
					any_vassal = {
						OR = {
							trait = liberator
							AND = {
								NOT = { trait = arbitrary }
								OR = {
									has_antislavery_culture_trigger = yes
									has_antislavery_religion_trigger = yes
								}
							}
						}
						relative_power_to_liege = 0.5
					}
					NOT = { trait = proud }
				}
			}
			modifier = {
				factor = 1.4
				holder_scope = {
					any_vassal = {
						OR = {
							trait = liberator
							AND = {
								NOT = { trait = arbitrary }
								OR = {
									has_antislavery_culture_trigger = yes
									has_antislavery_religion_trigger = yes
								}
							}
						}
						relative_power_to_liege = 0.66
					}
					NOT = { trait = proud }
				}
			}
			
		}
		
		ai_will_revoke = {
			factor = 0
		}
		
		pass_effect = {
			if = {
				limit = { had_global_flag = { flag = scenario_initialised  days = 5 } } #thse effects can cause CTD when applied on day 0
				if = {
					limit = { holder_scope = { NOT = { has_character_flag = passive_slave_law_change } } }
					if = {
						limit = {
							OR = {
								has_law = slavery_1
								has_law = slavery_2
							}
						}
						any_de_jure_vassal = {
							limit = {
								OR = {
									trait = slave_owner
									trait = slave_trader
									AND = {
										NOT = { trait = arbitrary }
										OR = {
											has_slavery_religion_trigger = yes
											has_slavery_culture_trigger = yes
										}
									}
								}
								NOT = { trait = liberator }
							}
							opinion = { who = ROOT modifier = opinion_abolished_slavery_bad }
						}
					}
					if = {
						limit = { has_law = slavery_3 }
						any_de_jure_vassal = {
							limit = {
								culture_group = iron_isles_culture
								NOT = { trait = liberator }
								NOT = { trait = arbitrary }
							}
							opinion = { who = ROOT modifier = opinion_abolished_slavery_bad }
						}
					}
					if = {
						limit = {
							OR = { #Need to check for this otherwise vassals will get this modifier at the start of the game
								has_law = slavery_1
								has_law = slavery_2
								has_law = slavery_3
							}
						}
						any_de_jure_vassal = {
							limit = {
								OR = {
									trait = liberator
									AND = {
										NOT = { trait = arbitrary }
										OR = {
											has_antislavery_culture_trigger = yes
											has_antislavery_religion_trigger = yes
										}
									}
								}
							}
							opinion = { who = ROOT modifier = opinion_abolished_slavery_good }
						}
					}	
				}	
				any_de_jure_vassal = {
					limit = { any_liege = { has_landed_title = PREVPREV } }
					if = { #Kings may revolt
						limit = { tier = KING }			
						character_event = { id = slavery.750 days = 1  }
					}
					if = { #Else slaves are happy
						limit = { 
							NOT = { tier = KING }
							OR = {
								NOT = { ROOT = { tier = EMPEROR } }
								NOT = { any_liege = { tier = KING } }
							}
						}	
						any_courtier = {
							limit = { 
								trait = slave 
								liege = { character = PREVPREV }
							}
							opinion = { who = ROOT modifier = opinion_abolished_slavery_former_slave months = 2400 }
						}
					}	
				}
				if = { #If primary title, change all vassal kingdoms with no dejure empire
					limit = { is_primary_holder_title = yes }
					holder_scope = {
						any_vassal = {
							limit = { 
								tier = KING 
								any_demesne_title = {
									tier = KING 
									NOT = { dejure_liege_title = { always = yes } }
								}
								NOT = {
									any_demesne_title = {
										tier = KING 
										dejure_liege_title = { holder = PREVPREVPREV }
									}
								}
							}
							character_event = { id = slavery.750 days = 1 }
						}
					}
				}
				if = {
					limit = { is_primary_holder_title = yes }
					holder_scope = {
						any_courtier = {
							limit = { 
								trait = slave 
								liege = { character = PREVPREV }
							}
							opinion = { who = ROOT modifier = opinion_abolished_slavery_former_slave months = 2400 }
						}
					}	
				}
				hidden_tooltip = { holder_scope = { character_event = { id = slavery.751 days = 2 } } } #check for rebellion
			}	
		}
		
		effect = {
			hidden_tooltip = {			
				revoke_law = slavery_1
				revoke_law = slavery_2
				revoke_law = slavery_3	
				if = {
					limit = { had_global_flag = { flag = scenario_initialised  days = 5 } } #thse effects can cause CTD when applied on day 0
					holder_scope = { #check slaves
						remove_trait = slave_owner
						character_event = { id = slavery.12 days = 1 }
						any_realm_lord = {
							limit = { trait = slave_owner }
							remove_trait = slave_owner
							character_event = { id = slavery.12 days = 1 }
						}
						character_event = { id = maintenance.51 days = 5 } #slavery laws maintenance
						clr_character_flag = passive_slave_law_change
					}		
				}	
			}
		}
	}
	
	slavery_1 = { # Indentured Servitude
		show_as_title = yes
		group = slavery
		
		potential = {
			NOT = { has_game_rule = { name = slavery value = off } }
		}
		
		allow = {
			always = no # Indentured Servitude can only exist as the result of an anti-slavery CB
		}
		
		revoke_allowed = {
			always = no
		}
		default_selection = {
			factor = 0
		}
		ai_will_do = { factor = 0 }
		ai_will_revoke = { factor = 0 }
		
		effect = {
			hidden_tooltip = {
				# No opinion effects for this one, apply them to the invader
				revoke_law = slavery_0
				revoke_law = slavery_2
				revoke_law = slavery_3
				if = {
					limit = { had_global_flag = { flag = scenario_initialised  days = 5 } } #thse effects can cause CTD when applied on day 0
					set_title_flag = realm_emancipated #15 year cooldown
					
					holder_scope = { #check slaves
						remove_trait = slave_owner
						character_event = { id = slavery.12 days = 1 }
						any_realm_lord = {
							limit = { trait = slave_owner }
							remove_trait = slave_owner
							character_event = { id = slavery.12 days = 1 }
						}
						character_event = { id = maintenance.51 days = 5 } #slavery laws maintenance
						clr_character_flag = passive_slave_law_change
					}
				}	
			}
		}
		castle_vassal_min_levy = -0.25
		city_vassal_min_levy = -0.25
		temple_vassal_min_levy = -0.25
		
		castle_vassal_max_levy = -0.25
		city_vassal_max_levy = -0.25
		temple_vassal_max_levy = -0.25
	}

	slavery_2 = { # Chattel Slavery
		show_as_title = yes
		group = slavery
		
		potential = { 
			NOT = { has_game_rule = { name = slavery value = off } }
		}
		
		allow = {
			hidden_tooltip = {
				OR = {
					has_law = slavery_0
					has_law = slavery_1
					has_law = slavery_3
				}
				NAND = { #do not allow legalisation during the conquest
					holder_scope = { has_landed_title = e_iron_throne }
					has_global_flag = aegons_conquest
				}
			}	
			holder_scope = {
				custom_tooltip = {
					text = TOOLTIPINDEPENDENTCONDITION
					hidden_tooltip = {
						independent = yes
						OR = {
							tier = EMPEROR
							primary_title = { NOT = { check_variable = { which = "de_facto_empire" value = 1 } } }
						}	
					}
				}
				NOT = { trait = liberator }
				NOT = { has_character_modifier = realm_emancipated }
				OR = {	
					has_slavery_religion_trigger = yes
					has_slavery_culture_trigger = yes
					custom_tooltip = {
						text = TOOLTIPslavery_2VASSAL	
						hidden_tooltip = {		
							any_vassal = {
								OR = {
									trait = slave_owner
									trait = slave_trader
									OR = {
										has_slavery_religion_trigger = yes
										has_slavery_culture_trigger = yes
									}
								}
								NOT = { trait = liberator }
							}
						}
					}
					trait = slave_owner
					trait = slave_trader
					trait = arbitrary
					trait = lunatic
				}
			}
			custom_tooltip = {
				text = TOOLTIPslavery_2EMANCIPATED
				hidden_tooltip = {
					OR = {
						NOT = { has_law = slavery_1 }
						NOT = { has_title_flag = realm_emancipated }
						had_title_flag = { flag = realm_emancipated days = 5475 }
					}	
				}
			}
		}
		
		revoke_allowed = {
			always = no
		}
		default_selection = {
			factor = 0
			additive_modifier = { 
				value = 10
				holder_scope = {
					OR = {
						has_slavery_religion_trigger = yes
						has_slavery_culture_trigger = yes
						trait = slave_owner
						trait = slave_trader
					}	
				}
			}
		}
		ai_will_do = {
			factor = 1
			
			# Inertia
			modifier = {
				factor = 0.005
			}
			
			modifier = {
				factor = 0
				holder_scope = { has_dynasty_flag = liberator_dynasty }
			}
			
			# Motivations
			modifier = {
				factor = 0
				holder_scope = { 
					NOT = { has_slavery_culture_trigger = yes }
					NOT = { has_slavery_religion_trigger = yes }
					NOT = { trait = lunatic }
					NOT = { trait = arbitrary }
				}
			}
			modifier = { #Valyrians usually wont do this in Westeros
				factor = 0
				holder_scope = { 
					culture_group = valyrian
					capital_scope = { region = world_westeros }
					NOT = { trait = lunatic }
				}
			}
			
			# Treaty Consideration
			modifier = {
				factor = 0.025
				has_law = slavery_1	
			}
			modifier = {
				factor = 0
				has_law = slavery_1
				holder_scope = {
					NOR = {
						trait = lunatic
						trait = just
					}
					any_independent_ruler = {
						crownlaw_title = { has_law = slavery_0 }
						NOT = { character = PREV }
						demesne_size = 1
						OR = {
							relative_power = { who = PREV power = 1 }
							AND = {
								trait = dragon_rider
								PREV = { NOT = { trait = dragon_rider } }
							}
						}	
						OR = { #Must either...
							culture_group = PREV#be same culture
							AND = { #both be on Westeros
								capital_scope = { region = world_westeros }
								PREV = { capital_scope = { region = world_westeros } }
							}
							any_neighbor_independent_ruler = { character = PREVPREV }
						}						
					}
				}	
			}
			
			# Personality Effects
			modifier = {
				factor = 0
				holder_scope = { trait = liberator }
			}
			modifier = {
				factor = 0.5
				holder_scope = { trait = slothful }
			}
			modifier = {
				factor = 2
				holder_scope = { trait = diligent }
			}
			modifier = {
				factor = 2
				holder_scope = { trait = cruel }
			}
			modifier = {
				factor = 0.5
				holder_scope = { trait = kind }
			}
			modifier = {
				factor = 2
				holder_scope = { trait = greedy }
			}
			modifier = {
				factor = 0.5
				holder_scope = { trait = charitable }
			}
			
			# Culture Effects
			modifier = { #Pro Slavery
				factor = 5
				holder_scope = {
					OR = {
						has_slavery_culture_trigger = yes	
						has_slavery_religion_trigger = yes
					}
				}
			}
			modifier = {
				factor = 0.5
				holder_scope = {
					trait = arbitrary
					OR = {
						has_slavery_culture_trigger = yes	
						has_slavery_religion_trigger = yes
					}
				}
			}
			modifier = {
				factor = 2
				holder_scope = {
					trait = just
					OR = {
						has_slavery_culture_trigger = yes	
						has_slavery_religion_trigger = yes
					}			
				}
			}
			
			modifier = { #Anti Slavery
				factor = 0.05
				holder_scope = {
					OR = {
						has_antislavery_culture_trigger = yes
						has_antislavery_religion_trigger = yes
					}
				}
			}
			modifier = {
				factor = 4
				holder_scope = {
					trait = arbitrary
					OR = {
						has_antislavery_culture_trigger = yes
						has_antislavery_religion_trigger = yes
					}					
				}
			}
			modifier = {
				factor = 0
				holder_scope = {
					trait = just
					OR = {
						has_antislavery_culture_trigger = yes
						has_antislavery_religion_trigger = yes
					}				
				}
			}
			modifier = {
				factor = 0
				holder_scope = {
					OR = {				
						has_religion_feature = religion_feature_anti_slavery
						has_religion_feature = religion_feature_moonsingers
						has_religion_feature = religion_feature_rhoynar_pagan
					}	
				}
			}
			
			modifier = { #Religion Anti Slavery
				factor = 0.5
				holder_scope = {
					has_antislavery_religion_trigger = yes
				}
			}
			modifier = {
				factor = 4
				holder_scope = {
					trait = cynical
					has_antislavery_religion_trigger = yes					
				}
			}
			modifier = {
				factor = 0
				holder_scope = {
					trait = zealous
					has_antislavery_religion_trigger = yes					
				}
			}
			
			modifier = { #Religion Pro Slavery
				factor = 2
				holder_scope = {
					has_slavery_religion_trigger = yes
				}
			}
			modifier = {
				factor = 0.25
				holder_scope = {
					trait = cynical
					has_slavery_religion_trigger = yes					
				}
			}
			modifier = {
				factor = 20
				holder_scope = {
					trait = zealous
					has_slavery_religion_trigger = yes					
				}
			}
			
			modifier = { #Ironborn
				factor = 0.2
				holder_scope = {
					culture_group = iron_isles_culture
				}
			}
			modifier = {
				factor = 2
				holder_scope = {
					trait = arbitrary
					culture_group = iron_isles_culture					
				}
			}
			modifier = {
				factor = 0
				holder_scope = {
					trait = just
					culture_group = iron_isles_culture				
				}
			}
			
			# Political Concerns
			modifier = {
				factor = 0
				holder_scope = {
					OR = {
						war = yes
						NOT = { age = 16 }
					}
				}	
			}
			modifier = {
				factor = 0
				holder_scope = {
					NOT = { trait = just }
					NOT = { trait = proud }
					any_vassal = { relative_power_to_liege = 0.2 NOT = { opinion = { who = PREV value = -25 } } } 
				}
			}
			modifier = {
				factor = 1.4
				holder_scope = {
					any_vassal = {
						OR = {
							trait = slave_owner
							trait = slave_trader
							AND = {
								NOT = { trait = arbitrary }
								OR = {
									has_slavery_religion_trigger = yes
									has_slavery_culture_trigger = yes
								}
							}
						}
						NOT = { trait = liberator }
						relative_power_to_liege = 0.2
					}
					NOT = { trait = proud }
				}
			}
			modifier = {
				factor = 1.4
				holder_scope = {
					any_vassal = {
						OR = {
							trait = slave_owner
							trait = slave_trader
							AND = {
								NOT = { trait = arbitrary }
								OR = {
									has_slavery_religion_trigger = yes
									has_slavery_culture_trigger = yes
								}
							}
						}
						NOT = { trait = liberator }
						relative_power_to_liege = 0.33
					}
					NOT = { trait = proud }
				}
			}
			modifier = {
				factor = 1.4
				holder_scope = {
					any_vassal = {
						OR = {
							trait = slave_owner
							trait = slave_trader
							AND = {
								NOT = { trait = arbitrary }
								OR = {
									has_slavery_religion_trigger = yes
									has_slavery_culture_trigger = yes
								}
							}
						}
						NOT = { trait = liberator }
						relative_power_to_liege = 0.5
					}
					NOT = { trait = proud }
				}
			}
			modifier = {
				factor = 1.4
				holder_scope = {
					any_vassal = {
						OR = {
							trait = slave_owner
							trait = slave_trader
							AND = {
								NOT = { trait = arbitrary }
								OR = {
									has_slavery_culture_trigger = yes	
									has_slavery_religion_trigger = yes
								}
							}
						}
						NOT = { trait = liberator }
						relative_power_to_liege = 0.66
					}
					NOT = { trait = proud }
				}
			}
			
			modifier = {
				factor = 0.6
				has_law = slavery_3
				holder_scope = {
					any_vassal = {
						culture_group = iron_isles_culture
						NOT = { trait = liberator }
						NOT = { trait = arbitrary }
						relative_power_to_liege = 0.2
					}
					NOT = { trait = proud }
				}
			}
			modifier = {
				factor = 0.6
				has_law = slavery_3
				holder_scope = {
					any_vassal = {
						culture_group = iron_isles_culture
						NOT = { trait = liberator }
						NOT = { trait = arbitrary }
						relative_power_to_liege = 0.33
					}
					NOT = { trait = proud }
				}
			}
			modifier = {
				factor = 0.6
				has_law = slavery_3
				holder_scope = {
					any_vassal = {
						culture_group = iron_isles_culture
						NOT = { trait = liberator }
						NOT = { trait = arbitrary }
						relative_power_to_liege = 0.5
					}
					NOT = { trait = proud }
				}
			}
			modifier = {
				factor = 0.6
				has_law = slavery_3
				holder_scope = {
					any_vassal = {
						culture_group = iron_isles_culture
						NOT = { trait = liberator }
						NOT = { trait = arbitrary }
						relative_power_to_liege = 0.66
					}
					NOT = { trait = proud }
				}
			}
			
			modifier = {
				factor = 0.6
				OR = {
					has_law = slavery_0
					has_law = slavery_1
				}
				holder_scope = {
					any_vassal = {
						OR = {
							trait = liberator
							AND = {
								NOT = { trait = arbitrary }
								OR = {
									has_antislavery_culture_trigger = yes
									has_antislavery_religion_trigger = yes
								}
							}
						}
						relative_power_to_liege = 0.2
					}
					NOT = { trait = proud }
				}
			}
			modifier = {
				factor = 0.6
				OR = {
					has_law = slavery_0
					has_law = slavery_1
				}
				holder_scope = {
					any_vassal = {
						OR = {
							trait = liberator
							AND = {
								NOT = { trait = arbitrary }
								OR = {
									has_antislavery_culture_trigger = yes
									has_antislavery_religion_trigger = yes
								}
							}
						}
						relative_power_to_liege = 0.33
					}
					NOT = { trait = proud }
				}
			}
			modifier = {
				factor = 0.6
				OR = {
					has_law = slavery_0
					has_law = slavery_1
				}
				holder_scope = {
					any_vassal = {
						OR = {
							trait = liberator
							AND = {
								NOT = { trait = arbitrary }
								OR = {
									has_antislavery_culture_trigger = yes
									has_antislavery_religion_trigger = yes
								}
							}
						}
						relative_power_to_liege = 0.5
					}
					NOT = { trait = proud }
				}
			}
			modifier = {
				factor = 0.6
				OR = {
					has_law = slavery_0
					has_law = slavery_1
				}
				holder_scope = {
					any_vassal = {
						OR = {
							trait = liberator
							AND = {
								NOT = { trait = arbitrary }
								OR = {
									has_antislavery_culture_trigger = yes
									has_antislavery_religion_trigger = yes
								}
							}
						}
						relative_power_to_liege = 0.66
					}
					NOT = { trait = proud }
				}
			}
			
		}
		
		ai_will_revoke = { factor = 0 }
		
		pass_effect = {
			if = {
				limit = { had_global_flag = { flag = scenario_initialised  days = 5 } } #thse effects can cause CTD when applied on day 0
				if = {
					limit = { has_law = slavery_1 }
					save_event_target_as = slavery_title
					hidden_tooltip = { holder_scope = { set_character_flag = flag_slavery_treaty_breach character_event = { id = slavery.2000 } } }
					add_law = treaty_breach_0
				}
				if = {
					limit = { holder_scope = { NOT = { has_character_flag = passive_slave_law_change } } }
					hidden_tooltip = {
						if = {
							limit = {
								OR = {
									has_law = slavery_0
									has_law = slavery_1
								}
							}
							any_de_jure_vassal = {
								limit = {
									OR = {
										trait = liberator
										AND = {
											NOT = { trait = arbitrary }
											OR = {
												has_antislavery_culture_trigger = yes
												has_antislavery_religion_trigger = yes
											}
										}
									}
								}
								opinion = { who = ROOT modifier = opinion_chattel_slavery_bad }
							}
							any_de_jure_vassal = {
								limit = {
									OR = {
										trait = slave_owner
										trait = slave_trader
										AND = {
											NOT = { trait = arbitrary }
											OR = {
												has_slavery_culture_trigger = yes	
												has_slavery_religion_trigger = yes
											}
										}
									}
									NOT = { trait = liberator }
								}
								opinion = { who = ROOT modifier = opinion_chattel_slavery_good }
							}
						}
						if = {
							limit = { has_law = slavery_3 }
							any_de_jure_vassal = {
								limit = {
									OR = {
										trait = slave_owner
										trait = slave_trader
										AND = {
											NOT = { trait = arbitrary }
											OR = {
												has_slavery_culture_trigger = yes	
												has_slavery_religion_trigger = yes
											}
										}
									}
									NOT = { trait = liberator }
								}
								opinion = { who = ROOT modifier = opinion_chattel_slavery_good }
							}
							any_de_jure_vassal = {
								limit = {
									culture_group = iron_isles_culture
									NOT = { trait = arbitrary }
									NOT = { trait = liberator }
								}
								opinion = { who = ROOT modifier = opinion_chattel_slavery_bad }
							}
						}
					}
				}	
			}	
		}
			
		effect = {
			hidden_tooltip = {
				revoke_law = slavery_0
				revoke_law = slavery_1
				revoke_law = slavery_3
				if = {
					limit = { had_global_flag = { flag = scenario_initialised  days = 5 } } #thse effects can cause CTD when applied on day 0
					holder_scope = { 
						character_event = { id = maintenance.51 days = 1 } #slavery laws maintenance	
						clr_character_flag = passive_slave_law_change
					}
				}	
			}
		}	
	}
	
	slavery_3 = { # Thralldom
		show_as_title = yes
		group = slavery
		
		potential = { 
			NOT = { has_game_rule = { name = slavery value = off } }
		}
		
		allow = {
			hidden_tooltip = {
				OR = {
					has_law = slavery_0
					has_law = slavery_1
					has_law = slavery_2
				}
			}	
			holder_scope = {
				custom_tooltip = {
					text = TOOLTIPINDEPENDENTCONDITION
					hidden_tooltip = {
						independent = yes
						OR = {
							tier = EMPEROR
							primary_title = { NOT = { check_variable = { which = "de_facto_empire" value = 1 } } }
						}	
					}
				}
				OR = {
					culture_group = iron_isles_culture
					any_vassal = { culture_group = iron_isles_culture }
					trait = arbitrary
					trait = lunatic
				}
				NOT = { trait = liberator }
				NOT = { has_character_modifier = realm_emancipated }
			}
			custom_tooltip = {
				text = TOOLTIPslavery_2EMANCIPATED
				hidden_tooltip = {
					OR = {
						NOT = { has_law = slavery_1 }
						NOT = { has_title_flag = realm_emancipated }
						had_title_flag = { flag = realm_emancipated days = 5475 }
					}	
				}
			}
		}
		
		revoke_allowed = {
			always = no
		}
		default_selection = {
			factor = 0
			additive_modifier = { 
				value = 15
				holder_scope = {
					culture_group = iron_isles_culture	
				}
			}
		}
		ai_will_do = {
			factor = 1
			
			# Inertia
			modifier = {
				factor = 0.005
			}
			
			modifier = {
				factor = 0
				holder_scope = { has_dynasty_flag = liberator_dynasty }
			}
			
			# Motivations
			modifier = {
				factor = 0
				holder_scope = { 
					NOT = { culture_group = iron_isles_culture }
					NOT = { trait = lunatic }
					NOT = { trait = arbitrary }
				}
			}
			
			# Personality Effects
			modifier = {
				factor = 0
				holder_scope = { trait = liberator }
			}
			modifier = {
				factor = 0.5
				holder_scope = { trait = slothful }
			}
			modifier = {
				factor = 2
				holder_scope = { trait = diligent }
			}
			modifier = {
				factor = 2
				holder_scope = { trait = cruel }
			}
			modifier = {
				factor = 0.5
				holder_scope = { trait = kind }
			}
			modifier = {
				factor = 2
				holder_scope = { trait = wroth }
			}
			modifier = {
				factor = 0.5
				holder_scope = { trait = patient }
			}
			
			# I Own a Slave Pit
			modifier = {
				factor = 0.1
				holder_scope = {
					capital_holding = { 
						OR = {
							has_building = ca_asoiaf_slavepit_1
							has_building = ct_asoiaf_slavepit_1
							has_building = fp_asoiaf_slavepit_1
							has_building = tp_asoiaf_slavepit_1
						}	
					}	
				}
			}
			# Slavery is already fully legal anyway
			modifier = {
				factor = 0
				has_law = slavery_2
				holder_scope = {
					NOT = { trait = lunatic }
					NOT = { trait = just }
				}
			}
			
			# Culture Effects
			modifier = {
				factor = 0.05
				holder_scope = {
					OR = {
						has_slavery_religion_trigger = yes
						has_slavery_culture_trigger = yes
					}
					NOT = { trait = arbitrary }
				}
			}
			modifier = {
				factor = 0.5
				holder_scope = {
					OR = {
						has_slavery_religion_trigger = yes
						has_slavery_culture_trigger = yes
					}
				}
			}
			modifier = {
				factor = 0.05
				holder_scope = {
					OR = {
						has_antislavery_culture_trigger = yes
						has_antislavery_religion_trigger = yes
					}
					NOT = { trait = arbitrary }
				}
			}
			modifier = {
				factor = 0
				holder_scope = {
					OR = {
						has_antislavery_culture_trigger = yes
						has_antislavery_religion_trigger = yes
					}
					trait = just
				}
			}
			modifier = {
				factor = 0.5
				holder_scope = {
					has_antislavery_religion_trigger = yes
				}
			}
			modifier = {
				factor = 0.2
				holder_scope = {
					has_antislavery_religion_trigger = yes
					NOT = { trait = cynical }
				}
			}
			modifier = {
				factor = 0.5
				holder_scope = {
					has_antislavery_religion_trigger = yes
					trait = zealous
				}
			}
			modifier = {
				factor = 0
				holder_scope = {
					OR = {
						has_religion_feature = religion_feature_anti_slavery	
						has_religion_feature = religion_feature_moonsingers
						has_religion_feature = religion_feature_rhoynar_pagan
						has_religion_feature = religion_feature_pro_slavery #would prefer full slavery	
					}
				}
			}
			modifier = {
				factor = 5
				holder_scope = {
					culture_group = iron_isles_culture
					NOT = { trait = arbitrary }
				}
			}
			modifier = {
				factor = 2
				holder_scope = {
					culture_group = iron_isles_culture
					trait = just
				}
			}
			modifier = {
				factor = 2
				holder_scope = {
					culture_group = iron_isles_culture
					trait = proud
				}
			}
			
			# Political Concerns
			modifier = {
				factor = 0
				holder_scope = {
					OR = {
						war = yes
						NOT = { age = 16 }
					}
				}	
			}
			modifier = {
				factor = 0
				holder_scope = {
					NOT = { trait = just }
					NOT = { trait = proud }
					any_vassal = { relative_power_to_liege = 0.2 NOT = { opinion = { who = PREV value = -25 } } } 
				}
			}
			modifier = {
				factor = 0.6
				OR = {
					has_law = slavery_1
					has_law = slavery_2
				}
				holder_scope = {
					any_vassal = {
						OR = {
							trait = slave_owner
							trait = slave_trader
							AND = {
								NOT = { trait = arbitrary }
								OR = {
									has_slavery_religion_trigger = yes
									has_slavery_culture_trigger = yes
								}
							}
						}
						NOT = { trait = liberator }
						relative_power_to_liege = 0.2
					}
					NOT = { trait = proud }
				}
			}
			modifier = {
				factor = 0.6
				OR = {
					has_law = slavery_1
					has_law = slavery_2
				}
				holder_scope = {
					any_vassal = {
						OR = {
							trait = slave_owner
							trait = slave_trader
							AND = {
								NOT = { trait = arbitrary }
								OR = {
									has_slavery_religion_trigger = yes
									has_slavery_culture_trigger = yes
								}
							}
						}
						NOT = { trait = liberator }
						relative_power_to_liege = 0.33
					}
					NOT = { trait = proud }
				}
			}
			modifier = {
				factor = 0.6
				OR = {
					has_law = slavery_1
					has_law = slavery_2
				}
				holder_scope = {
					any_vassal = {
						OR = {
							trait = slave_owner
							trait = slave_trader
							AND = {
								NOT = { trait = arbitrary }
								OR = {
									has_slavery_religion_trigger = yes
									has_slavery_culture_trigger = yes
								}
							}
						}
						NOT = { trait = liberator }
						relative_power_to_liege = 0.5
					}
					NOT = { trait = proud }
				}
			}
			modifier = {
				factor = 0.6
				OR = {
					has_law = slavery_1
					has_law = slavery_2
				}
				holder_scope = {
					any_vassal = {
						OR = {
							trait = slave_owner
							trait = slave_trader
							AND = {
								NOT = { trait = arbitrary }
								OR = {
									has_slavery_religion_trigger = yes
									has_slavery_culture_trigger = yes
								}
							}
						}
						NOT = { trait = liberator }
						relative_power_to_liege = 0.66
					}
					NOT = { trait = proud }
				}
			}
			
			modifier = {
				factor = 1.4
				holder_scope = {
					any_vassal = {
						culture_group = iron_isles_culture
						NOT = { trait = arbitrary }
						NOT = { trait = liberator }
						relative_power_to_liege = 0.2
					}
					NOT = { trait = proud }
				}
			}
			modifier = {
				factor = 1.4
				holder_scope = {
					any_vassal = {
						culture_group = iron_isles_culture
						NOT = { trait = arbitrary }
						NOT = { trait = liberator }
						relative_power_to_liege = 0.33
					}
					NOT = { trait = proud }
				}
			}
			modifier = {
				factor = 1.4
				holder_scope = {
					any_vassal = {
						culture_group = iron_isles_culture
						NOT = { trait = arbitrary }
						NOT = { trait = liberator }
						relative_power_to_liege = 0.5
					}
					NOT = { trait = proud }
				}
			}
			modifier = {
				factor = 1.4
				holder_scope = {
					any_vassal = {
						culture_group = iron_isles_culture
						NOT = { trait = arbitrary }
						NOT = { trait = liberator }
						relative_power_to_liege = 0.66
					}
					NOT = { trait = proud }
				}
			}
			
			modifier = {
				factor = 0.6
				OR = {
					has_law = slavery_0
					has_law = slavery_1
				}
				holder_scope = {
					any_vassal = {
						OR = {
							trait = liberator
							AND = {
								NOT = { trait = arbitrary }
								OR = {
									has_antislavery_culture_trigger = yes
									has_antislavery_religion_trigger = yes
								}
							}
						}
						relative_power_to_liege = 0.2
					}
					NOT = { trait = proud }
				}
			}
			modifier = {
				factor = 0.6
				OR = {
					has_law = slavery_0
					has_law = slavery_1
				}
				holder_scope = {
					any_vassal = {
						OR = {
							trait = liberator
							AND = {
								NOT = { trait = arbitrary }
								OR = {
									has_antislavery_culture_trigger = yes
									has_antislavery_religion_trigger = yes
								}
							}
						}
						relative_power_to_liege = 0.33
					}
					NOT = { trait = proud }
				}
			}
			modifier = {
				factor = 0.6
				OR = {
					has_law = slavery_0
					has_law = slavery_1
				}
				holder_scope = {
					any_vassal = {
						OR = {
							trait = liberator
							AND = {
								NOT = { trait = arbitrary }
								OR = {
									has_antislavery_culture_trigger = yes
									has_antislavery_religion_trigger = yes
								}
							}
						}
						relative_power_to_liege = 0.5
					}
					NOT = { trait = proud }
				}
			}
			modifier = {
				factor = 0.6
				OR = {
					has_law = slavery_0
					has_law = slavery_1
				}
				holder_scope = {
					any_vassal = {
						OR = {
							trait = liberator
							AND = {
								NOT = { trait = arbitrary }
								OR = {
									has_antislavery_culture_trigger = yes
									has_antislavery_religion_trigger = yes
								}
							}
						}
						relative_power_to_liege = 0.66
					}
					NOT = { trait = proud }
				}
			}
			
		}
		
		ai_will_revoke = { factor = 0 }
			
		pass_effect = {
			if = {
				limit = { had_global_flag = { flag = scenario_initialised  days = 5 } } #thse effects can cause CTD when applied on day 0
				hidden_tooltip = {
					if = {
						limit = { holder_scope = { NOT = { has_character_flag = passive_slave_law_change } } }
						if = {
							limit = {
								OR = {
									has_law = slavery_0
									has_law = slavery_1
								}
							}
							any_de_jure_vassal = {
								limit = {
									OR = {
										trait = liberator
										AND = {
											NOT = { trait = arbitrary }
											OR = {
												has_antislavery_culture_trigger = yes
												has_antislavery_religion_trigger = yes
											}
										}
									}
								}
								opinion = { who = ROOT modifier = opinion_thralldom_bad }
							}
							any_de_jure_vassal = {
								limit = {
									culture_group = iron_isles_culture
									NOT = { trait = arbitrary }
									NOT = { trait = liberator }
								}
								opinion = { who = ROOT modifier = opinion_thralldom_good }
							}
						}
						if = {
							limit = { has_law = slavery_2 }
							any_de_jure_vassal = {
								limit = {
									OR = {
										trait = slave_owner
										trait = slave_trader
										AND = {
											NOT = { trait = arbitrary }
											OR = {
												has_slavery_culture_trigger = yes
												has_slavery_religion_trigger = yes
											}
										}
									}
									NOT = { trait = liberator }
								}
								opinion = { who = ROOT modifier = opinion_thralldom_bad }
							}
							any_de_jure_vassal = {
								limit = {
									culture_group = iron_isles_culture
									NOT = { trait = arbitrary }
									NOT = { trait = liberator }
								}
								opinion = { who = ROOT modifier = opinion_thralldom_good }
							}
						}
					}	
				}
			}	
		}
		effect = {
			hidden_tooltip = {	
				revoke_law = slavery_0
				revoke_law = slavery_1
				revoke_law = slavery_2
				if = {
					limit = { had_global_flag = { flag = scenario_initialised  days = 5 } } #thse effects can cause CTD when applied on day 0
					holder_scope = { 
						character_event = { id = maintenance.51 days = 1 } #slavery laws maintenance	
						clr_character_flag = passive_slave_law_change
					}
				}	
			}			
		}
	}

	# Broke Slavery Treaty
	# This is really more of a flag than an actual law - it marks realms that have
	# broken a peace treaty by restoring chattel slavery from indentured servitude
	# and allows the use of the War of Liberation CB by any Illegal country
	treaty_breach_0 = {
		show_as_title = yes
		group = treaty_breach
		default = no
		
		potential = {
			NOT = { has_game_rule = { name = slavery value = off } }
			has_law = slavery_2
			OR = {
				holder_scope = { has_character_flag = flag_slavery_treaty_breach }
				has_law = treaty_breach_0
			}
		}
		
		allow = { always = no }
		revoke_allowed = { always = no }
		ai_will_do = { factor = 0 }
		ai_will_revoke = { factor = 0 }
		
		effect = { hidden_tooltip = { holder_scope = { clr_character_flag = flag_slavery_treaty_breach } } }
	}
	#This marks realm liberated from slavery, so legal slavery countries can invade
	treaty_breach_1 = {
		show_as_title = yes
		group = treaty_breach
		default = no
		
		potential = {
			NOT = { has_game_rule = { name = slavery value = off } }
			has_law = slavery_0
			OR = {
				holder_scope = { has_character_flag = flag_slavery_treaty_breach }
				has_law = treaty_breach_1
			}
		}
		
		allow = { always = no }
		revoke_allowed = { always = no }
		ai_will_do = { factor = 0 }
		ai_will_revoke = { factor = 0 }
		
		effect = { hidden_tooltip = { holder_scope = { clr_character_flag = flag_slavery_treaty_breach } } }
	}
}
