1.1.1={ 
	liege="k_pentos"
	holding_dynasty = 300012
}
6442.1.1 = { holder=100300012 } # Yorko (nc)
6484.1.1 = { holder=102300012 } # Narbo (nc)
6510.1.1 = { holder=103300012 } # Oro (nc)
6523.1.1 = { holder=105300012 } # Luco (nc)
6556.1.1 = { holder=108300012 } # Qarro (nc)
6563.1.1 = { holder=112300012 } # Izembaro (nc)
6606.1.1 = { holder=114300012 } # Denyo (nc)
6608.1.1 = { holder=118300012 } # Allaquo (nc)
6626.1.1 = { holder=123300012 } # Gyloro (nc)
6634.1.1 = { holder=128300012 } # Roggo (nc)
6676.1.1 = { holder=130300012 } # Ordello (nc)
6709.1.1 = { holder=132300012 } # Meralyn (nc)
6718.1.1 = { holder=135300012 } # Ordello (nc)
6759.1.1 = { holder=142300012 } # Tregar (nc)







