1.1.1={
	liege="k_qohor"
	holding_dynasty = 300565 #Baroat
}
6460.1.1 = { holder=100300565 } # Mero (nc)
6503.1.1 = { holder=101300565 } # Tagganaro (nc)
6525.1.1 = { holder=103300565 } # Moreo (nc)
6533.1.1 = { holder=107300565 } # Ollo (nc)
6555.1.1 = { holder=105300565 } # Areo (nc)
6565.1.1 = { holder=114300565 } # Ezzelyno (nc)
6570.1.1 = { holder=117300565 } # Gyloro (nc)
6593.1.1 = { holder=121300565 } # Ezzelyno (nc)
6607.1.1 = { holder=122300565 } # Vargo (nc)
6629.1.1 = { holder=124300565 } # Ordello (nc)
6663.1.1 = { holder=129300565 } # Moredo (nc)
6696.1.1 = { holder=131300565 } # Tobho (nc)
6702.1.1 = { holder=134300565 } # Gyloro (nc)
6741.1.1 = { holder=135300565 } # Ferrego (nc)
6749.1.1 = { holder=140300565 } # Luco (nc)


