5478.1.1 = {
	liege = d_norvos
	holding_dynasty = 300531 #Daryth
}
6443.1.1 = { holder=100300531 } # Ezzelyno (nc)
6496.1.1 = { holder=103300531 } # Illyrio (nc)
6526.1.1 = { holder=106300531 } # Ordello (nc)
6529.1.1 = { holder=104300531 } # Moredo (nc)
6558.1.1 = { holder=113300531 } # Daario (nc)
6588.1.1 = { holder=116300531 } # Tagganaro (nc)
6607.1.1 = { holder=118300531 } # Yorko (nc)
6620.1.1 = { holder=122300531 } # Gyleno (nc)
6657.1.1 = { holder=125300531 } # Areo (nc)
6673.1.1 = { holder=126300531 } # Groleo (nc)
6674.1.1 = { holder=128300531 } # Syrio (nc)
6679.1.1 = { holder=130300531 } # Luco (nc)
6693.1.1 = { holder=131300531 } # Moredo (nc)
6706.1.1 = { holder=132300531 } # Cossomo (nc)
6752.1.1 = { holder=134300531 } # Gyloro (nc)
6775.1.1 = { holder=136300531 } # Ezzelyno (nc)
