1.1.1={ 
	liege="c_deepforest"
}
6451.1.1 = { holder=100300529 } # Ordello (nc)
6501.1.1 = { holder=101300529 } # Daario (nc)
6515.1.1 = { holder=103300529 } # Areo (nc)
6526.1.1 = { holder=110300529 } # Myrmello (nc)
6543.1.1 = { holder=112300529 } # Gyloro (nc)
6559.1.1 = { holder=113300529 } # Ternesio (nc)
6611.1.1 = { holder=114300529 } # Syrio (nc)
6614.1.1 = { holder=115300529 } # Areo (nc)
6627.1.1 = { holder=116300529 } # Vargo (nc)
6652.1.1 = { holder=120300529 } # Myrmello (nc)
6664.1.1 = { holder=123300529 } # Lotho (nc)
6680.1.1 = { holder=126300529 } # Syrio (nc)
6733.1.1 = { holder=128300529 } # Jaqen (nc)
6738.1.1 = { holder=129300529 } # Illyrio (nc)
6743.1.1 = { holder=133300529 } # Byan (nc)
6749.1.1 = { holder=136300529 } # Meralyn (nc)



