6428.1.1 = { 
	liege=k_volantis
	holding_dynasty=174372
} 
6461.1.1 = { holder=100174372 } 
6523.1.1 = { holder=102174372 } 
6527.1.1 = { holder=105174372 } 
6554.1.1 = { holder=107174372 } 
6557.1.1 = { holder=110174372 } 
6572.1.1 = { holder=111174372 } 
6599.1.1 = { holder=112174372 } 
6637.1.1 = { holder=123174372 } 
6645.1.1 = { holder=125174372 } 
6648.1.1 = { holder=127174372 } 
6676.1.1 = { holder=133174372 } 
6709.1.1 = { holder=135174372 } 
6738.1.1 = { holder=137174372 } 
6754.1.1 = { holder=138174372 } 
6756.1.1 = { holder=142174372 } 

