1.1.1={ 
	liege="d_prince_pentos"
}
6473.1.1 = { holder=103174360 } 
6521.1.1 = { holder=105174366 }
6542.1.1 = { holder=111300012 }
6556.1.1 = { holder=171174360 }
6600.1.1 = { holder=119174356 }
6617.1.1 = { holder=124174360 }
6633.1.1 = { holder=126300526 }

#5 Princes in 1 year
6664.1.1 = { holder=129300526 }
6673.4.1 = { holder=101669123 }
6673.6.1 = { holder=105069157 }
6673.10.1 = { holder=132300526 }

6674.1.1 = { holder=131300012 } #Nevio (C)

6686.1.1 = { holder=127174356 }
6691.1.1 = { holder=137300526 }
6727.1.1 = { holder=181300526 }
6755.1.1 = { holder=132174356 }
6768.1.1 = { holder=149300012 }
