1.1.1={
	liege="c_oldvolantis"
	law = succ_seniority
	law = agnatic_succession
}
6453.1.1 = { holder=108174600 } # Colloquo (nc)
6501.1.1 = { holder=110174600 } # Belicho (nc)
6528.1.1 = { holder=115174600 } # Colloquo (nc)
6531.1.1 = { holder=117174600 } # Malaquo (nc)
6535.1.1 = { holder=119174600 } # Nyessos (nc)
6570.1.1 = { holder=120174600 } # Nyessos (nc)
6593.1.1 = { holder=125174600 } # Aelix (nc)
6615.1.1 = { holder=128174600 } # Jaekar (nc)
6665.1.1 = { holder=136174600 } # Methyso (nc)
6706.1.1 = { holder=142174600 } # Haerys (nc)
6708.1.1 = { holder=145174600 } # Jaekar (nc)
6757.1.1 = { holder=100174398 }
