1.1.1={
	liege="c_tendring" 
}
#House Kyndall
6660.1.1 = { holder=123802042 } # Walder (nc)
6713.1.1 = { holder=127802042 } # Tommen (nc)
6739.1.1 = { holder=130802042 } # Damion (nc)
6766.1.1 = { holder=132802042 } # Kennos (nc)
