1.1.1={
	liege="c_the_eyrie"
	effect = {
		set_title_flag = military_command
		holder_scope = {
			if = {
				limit = { primary_title = { title = PREVPREV } }
				set_government_type = military_command_government 
				PREV = { succession = appointment }
				recalc_succession = yes
			}
		}
	}
}
2579.1.1={ 
	name = c_griffins_peak
}
6539.1.1 = { 
	reset_name = yes
}




