1.1.1={ 
	liege="k_valyria"
	holding_dynasty = 496052 # Vezenkar
}

6473.1.1 = { holder=10006052 } # Rhaekar (nc)
6510.1.1 = { holder=10026052 } # Otherys (nc)
6539.1.1 = { holder=10036052 } # Vaekar (nc)
6548.1.1 = { holder=10076052 } # Rhaekar (nc)
6587.1.1 = { holder=10116052 } # Vaermon (nc)
6618.1.1 = { holder=10156052 } # Aegor (nc)
6665.1.1 = { holder=10186052 } # Aemon (nc)
6676.1.1 = { holder=10206052 } # Maelys (nc)
6688.1.1 = { holder=10226052 } # Valarr (nc)
6727.1.1 = { holder=10246052 } # Jaekar (nc)
6738.1.1 = { holder=10296052 } # Aerion (nc)
6754.1.1 = { holder=10336052 } # Vaermon (nc)
