1.1.1={
	liege = d_aeksios
}

6473.1.1 = { holder=10000340 } # Maerys (nc)
6518.1.1 = { holder=10020340 } # Maegor (nc)
6545.1.1 = { holder=10060340 } # Aemon (nc)
6581.1.1 = { holder=10070340 } # Aegon (nc)
6590.1.1 = { holder=10080340 } # Daegar (nc)
6611.1.1 = { holder=10100340 } # Aemond (nc)
6656.1.1 = { holder=10130340 } # Qoherys (nc)
6665.1.1 = { holder=10170340 } # Orys (nc)
6722.1.1 = { holder=10190340 } # Maelys (nc)
6732.1.1 = { holder=10220340 } # Valarr (nc)
6764.1.1 = { holder=10240340 } # Matarys (nc)
6775.1.1 = { holder=10280340 } # Haegon (nc)

