6453.1.1 = { holder=10559301 } # Dryn (nc)
6498.1.1 = { holder=11559301 } # Tormund (nc)
6516.1.1 = { holder=13559301 } # Jojen (nc)
6545.1.1 = { holder=15559301 } # Calon (nc)
6579.1.1 = { holder=16559301 } # Stiv (nc)
6613.1.1 = { holder=17559301 } # Medger (nc)
6634.1.1 = { holder=19559301 } # Del (nc)
6644.1.1 = { holder=23559301 } # Brogg (nc)
6682.1.1 = { holder=25559301 } # Arson (nc)
6691.1.1={
	liege="k_beyond_wall"
}
6704.9.9={
	liege="0"
}
6711.1.1 = { holder=30559301 } # Howd (nc)
6751.1.1 = { holder=31559301 } # Soren (nc)
6767.1.1 = { holder=33559301 } # Errok (nc)
6776.1.1={
	liege="k_beyond_wall"
}
6778.1.1={
	holder=999000666
}
