4478.1.1={
	liege="e_north"
law = succ_primogeniture
}
6443.1.1={
	holder=25098
}
6482.1.1={
	holder=24098
}
6497.1.1={
	holder=23098
}
6508.1.1={
	holder=22098
}
6518.1.1={
	holder=21098
}
6523.1.1={
	holder=19098
}
6554.1.1={
	holder=18098
}
6576.1.1={
	holder=17098
}
6617.1.1={
	holder=15098
}
6639.1.1={
	holder=14098
}
6688.1.1={
	holder=12098
}
6729.1.1={
	holder=10098
}
6755.1.1={
	holder=98
}
