1.1.1={
	liege="d_bayasabhad"
	law = succ_seniority
	law = agnatic_succession
}
6423.1.1 = { holder=10055952 } # Khalil (nc)
6481.1.1 = { holder=10155952 } # Zeyd (nc)
6497.1.1 = { holder=10455952 } # Fadil (nc)
6510.1.1 = { holder=10755952 } # Alim (nc)
6559.1.1 = { holder=10955952 } # Alim (nc)
6560.1.1 = { holder=11355952 } # Zeyd (nc)
6607.1.1 = { holder=11655952 } # Gafur (nc)
6623.1.1 = { holder=11955952 } # Nizam (nc)
6625.1.1 = { holder=12355952 } # Yusuf (nc)
6641.1.1 = { holder=12755952 } # Muslihiddin (nc)
6665.1.1 = { holder=13055952 } # Mubarak (nc)
6697.1.1 = { holder=13255952 } # Faruk (nc)
6753.1.1 = { holder=13555952 } # Sami (nc)
6763.1.1 = { holder=13655952 } # Husam (nc)
