3878.1.1={
	liege="d_gornath"
	law = succ_primogeniture
}
6470.1.1 = { holder=10056805 } # Harith (nc)
6506.1.1 = { holder=10356805 } # Kedaar (nc)
6517.1.1 = { holder=10456805 } # Rathin (nc)
6543.1.1 = { holder=10656805 } # Chitresh (nc)
6590.1.1 = { holder=10756805 } # Jash (nc)
6604.1.1 = { holder=10856805 } # Kalpesh (nc)
6643.1.1 = { holder=10956805 } # Shyam (nc)
6652.1.1 = { holder=11456805 } # Tarakesh (nc)
6686.1.1 = { holder=11656805 } # Etash (nc)
6718.1.1 = { holder=12156805 } # Avilash (nc)
6742.1.1 = { holder=12356805 } # Chanak (nc)
6754.1.1 = { holder=12556805 } # Balavant (nc)
6762.1.1 = { holder=12856805 } # Nitish (nc)
