6452.1.1 = { 
	holder=100607304 
	liege = d_east_plains
} # Ehsan (nc)
6483.1.1 = { holder=101607304 } # Qader (nc)
6505.1.1 = { holder=103607304 } # Qudratu (nc)
6517.1.1 = { holder=106607304 } # Jakan (nc)
6561.1.1 = { holder=109607304 } # Rasoul (nc)
6587.1.1 = { holder=112607304 } # Tarakai (nc)
6627.1.1 = { holder=115607304 } # Ramez (nc)
6655.1.1 = { holder=118607304 } # Aarak (nc)
6657.1.1 = { holder=120607304 } # Tarakai (nc)
6702.1.1 = { holder=122607304 } # Inzir (nc)
6728.1.1 = { holder=123607304 } # Jakan (nc)
6753.1.1 = { holder=124607304 } # Sadaf (nc)
6769.1.1 = { holder=126607304 } # Janan (nc)
