4478.1.1={
	liege="d_northweald"
	law = succ_primogeniture
}
6471.1.1 = { holder=3000169 } # Florian (nc)
6501.1.1 = { holder=3002169 } # Albar (nc)
6510.1.1 = { holder=3006169 } # Elbert (nc)
6548.1.1 = { holder=3010169 } # Wyl (nc)
6554.1.1 = { holder=3016169 } # Bryen (nc)
6582.1.1 = { holder=3018169 } # Banor (SC)
6648.1.1 = { holder=3026169 } # Eustace (nc)
6679.1.1 = { holder=3030169 } # Rolley (nc)
6700.1.1 = { holder=3032169 } # Gilwood (nc)
6725.1.1 = { holder=3036169 } # Royce (nc)

6751.1.1={
	holder=94040
}
