1.1.1={
	liege="d_yunkai"
}
6473.1.1 = { holder=150360023 } # Grazdhan (nc)
6490.1.1 = { holder=100360023 } # Grazdan (nc)
6514.1.1 = { holder=102360023 } # Marghaz (nc)
6548.1.1 = { holder=106360023 } # Maezon (nc)
6591.1.1 = { holder=110360023 } # Gazdhor (nc)
6624.1.1 = { holder=112360023 } # Morghaz (nc)
6636.1.1 = { holder=116360023 } # Yurkhaz (nc)
6678.1.1 = { holder=121360023 } # Prendahl (nc)
6681.1.1 = { holder=122360023 } # Azzak (nc)
6699.1.1 = { holder=125360023 } # Kraznys (nc)
6742.1.1 = { holder=126360023 } # Grazdhar (nc)
6767.1.1={
	holder=6571004 # Yezzan
}
