#c_crakehall
1.1.1={
	liege="d_crakehall"
}
50.1.1 = { holder=3990227} # Crake (C)
101.1.1 = { holder=0} 
6298.1.1 = { holder=396227 } # Tymeon (nc)
6318.1.1 = { holder=397227 } # Harys (nc)
6349.1.1 = { holder=398227 } # Ryland (nc)
6366.1.1 = { holder=390227 } # Cragon (nc)
6413.1.1 = { holder=392227 } # Loreon (nc)
6439.1.1 = { holder=394227 } # Roland (nc)
6458.1.1 = { holder=395227 } # Sumner (nc)
6460.1.1 = { holder=31227 } # Lyle (c)
6523.1.1 = {holder=29227}
6534.1.1 = {holder=28227}
6566.1.1 = {holder=27227}
6578.1.1 = {holder=26227} # Jonos Crakehall
6645.1.1 = {holder=510227} # Burton Crakehall
6653.1.1 = {holder=23227} # Garen Crakehall
6666.1.1 = {holder=22227}
6674.3.1 = {holder=20227}

