1.1.1={
	liege="k_qohor"
}

6473.1.1 = { holder=100069128 } # Collio (nc)
6510.1.1 = { holder=100269128 } # Mero (nc)
6527.1.1 = { holder=100469128 } # Denyo (nc)
6545.1.1 = { holder=100969128 } # Byan (nc)
6561.1.1 = { holder=101069128 } # Tycho (nc)
6585.1.1 = { holder=101169128 } # Ternesio (nc)
6617.1.1 = { holder=101469128 } # Tagganaro (nc)
6646.1.1 = { holder=101769128 } # Tregar (nc)
6687.1.1 = { holder=102169128 } # Yorko (nc)
6694.1.1 = { holder=102269128 } # Ternesio (nc)
6710.1.1 = { holder=102369128 } # Moreo (nc)
6748.1.1 = { holder=102569128 } # Tycho (nc)
6758.1.1 = { holder=102869128 } # Mero (nc)
