1.1.1={
	liege="d_mantarys"
}
6473.1.1 = { holder=10070124 } # Belicho (nc)
6507.1.1 = { holder=10170124 } # Moqorro (nc)
6543.1.1 = { holder=10470124 } # Haerys (nc)
6546.1.1 = { holder=10770124 } # Vaekar (nc)
6590.1.1 = { holder=10970124 } # Aenar (nc)
6639.1.1 = { holder=11270124 } # Aenar (nc)
6657.1.1 = { holder=11770124 } # Aelix (nc)
6673.1.1 = { holder=12070124 } # Malaquo (nc)
6702.1.1 = { holder=12370124 } # Aenar (nc)
6708.1.1 = { holder=12470124 } # Nyessos (nc)
6719.1.1 = { holder=13070124 } # Colloquo (nc)
6754.1.1 = { holder=13470124 } # Haerys (nc)
