#House Ko
5894.1.1 = {
	holder=150304005  # Xanda
	law = succ_seniority
	law = cognatic_succession
} 
5936.1.1 = { holder=151304005 } # Chatana
5968.1.1 = { holder=0 }

6415.1.1 = { holder=153304005 } #
6457.1.1 = { holder=154304005 } #
6473.1.1 = { holder=100304005 } # Gatubhar (nc)
6535.1.1 = { holder=102304005 } # Thabo (nc)
6564.1.1 = { holder=105304005 } # Delmabhar (nc)
6568.1.1 = { holder=107304005 } # Xhonodo (nc)
6577.1.1 = { holder=108304005 } # Oluhuru (nc)
6630.1.1 = { holder=109304005 } # Xhoan (nc)
6633.1.1 = { holder=114304005 } # Xanda (C)
6656.1.1 = { holder=118304005 } # Isingodo (nc)
6681.1.1 = { holder=121304005 } # Thabo (nc)
6699.1.1 = { holder=122304005 } # Xhelimo (nc)
6713.1.1 = { holder=124304005 } # Jalahuru (nc)
6751.1.1 = { holder=125304005 } # Doshuru (nc)
