1.1.1={
	liege = d_gelios
}

6473.1.1 = { holder=10006050 } # Qoherys (nc)
6506.1.1 = { holder=10016050 } # Daegar (nc)
6534.1.1 = { holder=10026050 } # Valarr (nc)
6544.1.1 = { holder=10066050 } # Daemon (nc)
6564.1.1 = { holder=10086050 } # Maegon (nc)
6596.1.1 = { holder=10096050 } # Maegon (nc)
6646.1.1 = { holder=10126050 } # Jaehaerys (nc)
6649.1.1 = { holder=10166050 } # Rhaegar (nc)
6685.1.1 = { holder=10186050 } # Maekar (nc)
6700.1.1 = { holder=10216050 } # Valarr (nc)
6733.1.1 = { holder=10246050 } # Baelor (nc)
6765.1.1 = { holder=10256050 } # Viserys (nc)
6809.1.1 = { holder=10286050 } # Aenys (nc)

