1.1.1={
	liege="d_astapor"
}
6465.1.1 = { holder=150360027 } # Grazdan (nc)
6499.1.1 = { holder=100360027 } # Barghaz (nc)
6524.1.1 = { holder=103360027 } # Hizdhar (nc)
6563.1.1 = { holder=105360027 } # Grazdan (nc)
6611.1.1 = { holder=110360027 } # Marghaz (nc)
6615.1.1 = { holder=115360027 } # Grazdan (nc)
6621.1.1 = { holder=118360027 } # Reznak (nc)
6668.1.1 = { holder=120360027 } # Gorlaq (nc)
6708.1.1 = { holder=123360027 } # Skahaz (nc)
6715.1.1 = { holder=127360027 } # Gunzak (nc)
6740.1.1 = { holder=129360027 } # Grazdhan (nc)
6756.1.1 = { holder=132360027 } # Marghaz (nc)
6777.12.12={
	holder=0 # Dany happened !!
}
