1.1.1={ law=succ_primogeniture law=cognatic_succession
	liege="e_reach"
}
6471.1.1 = { holder=3000275 } # Tanton (nc)

6520.1.1 = { holder=3001275 } # Fredrec (nc)
6541.1.1 = { holder=3002275 } # Raymon (nc)
6575.1.1 = { holder=3004275 } # Mark (nc)
6596.1.1 = { holder=3005275 } # Elyas (nc)
6619.1.1 = { holder=3009275 } # Willas (nc)
6650.1.1 = { holder=3012275 } # Dontos (nc)
6651.1.1 = { holder=3015275 } # Gauter (nc)
6677.1.1 = { holder=3018275 } # Theodore (nc)
6683.1.1 = { holder=3016275 } # Kyle (nc)
6695.1.1 = { holder=3019275 } # Quenton (nc)
6716.1.1 = { holder=3025275 } # Tommen (nc)





