1.1.1={ law=succ_primogeniture law=cognatic_succession
	liege="d_cockleswhent"
}
6608.1.1 = { holder=6015242 } # Robert (nc)
6644.1.1 = { holder=6020242 } # Wyman (nc)
6646.1.1 = { holder=6021242 } # Aemon (nc)
6674.1.1 = { holder=6022242 } # Buford (nc)
6706.1.1 = { holder=6024242 } # Desmond (nc)
6715.1.1 = { holder=6026242 } # Theodore (nc)





