1.1.1={ law=succ_primogeniture law=cognatic_succession
	liege="d_west_marches"
}

36.1.1 = { holder=6100292 } # Harlon the Hunter (C)
155.1.1 = { holder=0}

6298.1.1 = { holder=6300292 } # Hernarr (nc)
6358.1.1 = { holder=6400292 } # Samwell (nc)
6374.1.1 = { holder=6500292 } # Hylon (nc)
6409.1.1 = { holder=6800292 } # Oryan (nc)
6449.1.1 = { holder=6110292 } # Erren (nc)
6466.1.1 = { holder=6121292 } # Hyle (nc)
6471.1.1 = { holder=3000292 } # Herndon (nc)
6494.1.1 = { holder=3001292 } # Quentin (nc)
6528.1.1 = { holder=3006292 } # Martyn (nc)
6566.1.1 = { holder=3009292 } # Bertram (nc)
6592.1.1 = { holder=3011292 } # Jon (nc)
6622.1.1 = { holder=3015292 } # Petyr (nc)
6636.1.1 = { holder=3018292 } # Garlan (nc)
6655.1.1 = { holder=3021292 } # Hyle (nc)
6684.1.1 = { holder=3026292 } # Randyll (nc)
6707.1.1 = { holder=3029292 } # Renly (nc)
6711.1.1={
	holder=2292 # Imry (nc)
}




