478.1.1 = {
	liege="d_ibbish"
	law = succ_primogeniture
	law = agnatic_succession
}
6468.1.1 = { holder=1055931 } # Cull (nc)
6507.1.1 = { holder=1255931 } # Gurn (nc)
6519.1.1 = { holder=1755931 } # Jogg (nc)
6527.1.1 = { holder=1955931 } # Brogg (nc)
6584.1.1 = { holder=2255931 } # Jogg (nc)
6610.1.1 = { holder=2655931 } # Durr (nc)
6636.1.1 = { holder=3355931 } # Bodger (nc)
6647.1.1 = { holder=3555931 } # Cull (nc)
6682.1.1 = { holder=3755931 } # Quort (nc)
6702.1.1 = { holder=3855931 } # Drogg (nc)
6710.1.1 = { holder=3955931 } # Joth (nc)
6742.1.1 = { holder=4155931 } # Howd (nc)
6767.1.1 = { holder=40555931 } # Eleogg (nc)
