1.1.1={
	liege = d_gelios
}

6473.1.1 = { holder=10006042 } # Aemon (nc)
6495.1.1 = { holder=10026042 } # Aenys (nc)
6505.1.1 = { holder=10056042 } # Jaehaerys (nc)
6519.1.1 = { holder=10066042 } # Aenar (nc)
6559.1.1 = { holder=10086042 } # Jaehaerys (nc)
6579.1.1 = { holder=10126042 } # Aegon (nc)
6627.1.1 = { holder=10156042 } # Maegon (nc)
6638.1.1 = { holder=10166042 } # Aemon (nc)
6671.1.1 = { holder=10186042 } # Aerion (nc)
6692.1.1 = { holder=10226042 } # Maelys (nc)
6701.1.1 = { holder=10246042 } # Haegon (nc)
6737.1.1 = { holder=10276042 } # Gaemon (nc)
6766.1.1 = { holder=10316042 } # Haegon (nc)
6787.1.1 = { holder=10356042 } # Vaeron (nc)
6807.1.1 = { holder=10376042 } # Maelys (nc)

