3956.1.1 = {
	liege = d_hazdahn
}
6473.1.1 = { holder=100069201 } # Fendahl (nc)
6530.1.1 = { holder=100269201 } # Zaraq (nc)
6534.1.1 = { holder=100869201 } # Barghaz (nc)
6575.1.1 = { holder=101069201 } # Paezhar (nc)
6590.1.1 = { holder=101269201 } # Mazdhan (nc)
6596.1.1 = { holder=101669201 } # Azzak (nc)
6621.1.1 = { holder=101769201 } # Reznak (nc)
6644.1.1 = { holder=101869201 } # Harghaz (nc)
6696.1.1 = { holder=102369201 } # Skahaz (nc)
6710.1.1 = { holder=102569201 } # Grazdan (nc)
6731.1.1 = { holder=102869201 } # Haznak (nc)
6748.1.1 = { holder=103069201 } # Grazdhan (nc)

