4478.1.1={
	liege="d_wolfswood"
	law = succ_primogeniture
}

6445.1.1 = { holder=11446 } # Garth (nc)
6471.1.1 = { holder=21446 } # Ramsay (nc)
6503.1.1 = { holder=31446 } # Roose (nc)
6517.1.1= { holder=41446 } # Mikken (nc)
6532.1.1 = { holder=61446 } # Meliana (nc)
6578.1.1 = { holder=121446 } # Bernarr (nc)
6585.1.1 = { holder=141446 } # Benjen (nc)
6621.1.1 = { holder=161446 } # Barbrey (nc)
6636.1.1 = { holder=171446 } # Donnis (nc)
6683.1.1 = { holder=191446 } # Bass (nc)
6706.1.1 = { holder=211446 } # Torren (nc)
6729.1.1 = { holder=221446 } # Hugo (nc)
6762.1.1 = { holder=241446 } # Porther (nc)
6774.1.1 = { holder=291446 } # Yoren (nc)
