4478.1.1={
	liege="d_winterfell"
	law = succ_primogeniture
}
6454.1.1={
	holder=18060
}
6489.1.1={
	holder=17060
}
6520.1.1={
	holder=16060
}
6558.1.1={
	holder=15060
}
6599.1.1={
	holder=13060
}
6639.1.1={
	holder=12060
}
6653.1.1={
	holder=11060
}
6680.1.1={
	holder=10060
}
6726.1.1={
	holder=2060
}
6759.1.1={
	holder=60 #martyn
}
6762.1.1 = {
	holder=4060 #jory
}
