3878.1.1={
	#liege="k_sarnor"
	effect = {
		holder_scope = { 
			k_sarnor = {
				holder_scope = {
					make_tributary = { who = PREVPREV tributary_type = sarnori }
				}
			}
		}	
	}
	law = succ_primogeniture
}
6473.1.1 = { holder=10056812 } # Sahat (nc)
6509.1.1 = { holder=10256812 } # Amritlal (nc)
6528.1.1 = { holder=10456812 } # Nishad (nc)
6556.1.1 = { holder=10956812 } # Vishruth (nc)
6568.1.1 = { holder=11056812 } # Ishan (nc)
6604.1.1 = { holder=11456812 } # Onkar (nc)
6653.1.1 = { holder=11556812 } # Nitish (nc)
6655.1.1 = { holder=11756812 } # Darshan (nc)
6692.1.1 = { holder=11856812 } # Ishan (nc)
6706.1.1 = { holder=12256812 } # Vishruth (nc)
6755.1.1 = { holder=12556812 } # Chanak (nc)
