#House Uxo
6462.1.1 = { 
	holder=100304010 
	liege=d_the_three_exiles
	law = succ_seniority
	law = cognatic_succession
} # Koroxhar (nc)
6501.1.1 = { holder=104304010 } # Isodo (nc)
6530.1.1 = { holder=106304010 } # Tal (nc)
6553.1.1 = { holder=109304010 } # Manahuru (nc)
6592.1.1 = { holder=112304010 } # Eskender (nc)
6615.1.1 = { holder=118304010 } # Xhakan (nc)
6623.1.1 = { holder=122304010 } # Bapato (nc)
6687.1.1 = { holder=128304010 } # Xhakan (nc)
6716.1.1 = { holder=131304010 } # Rudo (nc)
6743.1.1 = { holder=137304010 } # Dubaku (nc)
6763.1.1 = { holder=141304010 } # Jarado (nc)



