1.1.1={
	liege="d_pyke"
	law=succ_primogeniture law=cognatic_succession
}
6471.1.1 = { holder=300064 } # Yohn (nc)
6508.1.1 = { holder=300264 } # Harren (nc)
6543.1.1 = { holder=300664 } # Ambrode (nc)
6551.1.1 = { holder=300764 } # Sigfry (nc)
6574.1.1 = { holder=300964 } # Adrack (nc)
6610.1.1 = { holder=301364 } # Urrigon (nc)
6623.1.1 = { holder=301664 } # Germund (nc)
6661.1.1 = { holder=301864 } # Urek (nc)
6673.1.1 = { holder=302364 } # Alyn (nc)
6683.1.1 = { holder=302664 } # Cadwyl (nc)
6734.1.1 = { holder=9064 }
6759.1.1 = {	
	holder=64
}
6777.12.1={
	holder=7064 #germund
}
