1.1.1={ law=succ_primogeniture law=cognatic_succession
	liege="e_iron_isles"
}
6473.1.1 = { holder=3005114 } # Rodrik (nc)

6516.1.1 = { holder=40018114 } # Greydon (nc)
6546.1.1 = { holder=30038114 } # Quellon(nc)
6570.1.1 = { holder=30048114 } # Shierle (nc)
6584.1.1 = { holder=30068114 } # Dunstan (nc)
6616.1.1 = { holder=30098114 } # Victarion (nc)
6638.1.1 = { holder=30148114 } # Rodrik (nc)
6681.1.1 = { holder=30158114 } # Malora (nc)
6696.1.1 = { holder=30188114 } # Kenned (nc)
6717.1.1 = { holder=30218114 } # Ulf (nc)
6748.1.1 = { holder=30258114 } # Gylbert (c)





