4478.1.1= {
liege="d_lasthearth"
law = succ_primogeniture
}
6472.1.1 = {
	holder=13094
}
6520.1.1 = {
	holder=12094
}
6535.1.1 = {
	holder=11094
}
6544.1.1 = {
	holder=10094
}
6590.1.1 = {
	holder=9094
}
6620.1.1 = {
	holder=8094
}
6634.1.1 = {
	holder=7094
}
6655.1.1 = {
	holder=6094
}
6662.9.10 = {
	holder=5094
}
6707.1.1 = {
	holder=4094
}
6717.1.1 = {
	holder=3094
}
6740.1.5 = {
	holder=94
}


