4678.1.1={
	liege="d_the_sisters"
	law = succ_primogeniture
}
6473.1.1 = { holder=3000164 } # Raymar (nc)
6516.1.1 = { holder=3005164 } # Denys (nc)
6519.1.1 = { holder=3007164 } # Artys (nc)
6549.1.1 = { holder=3010164 } # Waymar (nc)
6568.1.1 = { holder=3012164 } # Denys (nc)
6599.1.1 = { holder=3013164 } # Pate (nc)
6636.1.1 = { holder=3014164 } # Osgood (nc)
6692.1.1 = { holder=3015164 } # Humfrey (nc)
6700.1.1 = { holder=3017164 } # Rolland (nc)
6706.1.1 = { holder=3021164 } # Gilwood (nc)
6745.1.1 = { holder=3024164 } # Horton (nc)
6758.1.1={
	holder=94034
}
