1.1.1={
	liege = d_valyria
}

6473.1.1 = { holder=10006048 } # Orys (nc)
6510.1.1 = { holder=10026048 } # Aegor (nc)
6525.1.1 = { holder=10066048 } # Aemon (nc)
6565.1.1 = { holder=10106048 } # Aemon (nc)
6572.1.1 = { holder=10146048 } # Aemond (nc)
6619.1.1 = { holder=10176048 } # Otherys (nc)
6639.1.1 = { holder=10186048 } # Valarr (nc)
6667.1.1 = { holder=10206048 } # Maegon (nc)
6681.1.1 = { holder=10216048 } # Vaekar (nc)
6714.1.1 = { holder=10236048 } # Aenar (nc)
6739.1.1 = { holder=10266048 } # Rhaegel (nc)
6755.1.1 = { holder=10286048 } # Aelix (nc)
6771.1.1 = { holder=10316048 } # Rhaegel (nc)
