1.1.1={
	liege="k_qohor"
}

6473.1.1 = { holder=100069129 } # Ezzelyno (nc)
6502.1.1 = { holder=100169129 } # Meralyn (nc)
6529.1.1 = { holder=100269129 } # Jaqen (nc)
6538.1.1 = { holder=100769129 } # Ternesio (nc)
6574.1.1 = { holder=100869129 } # Tobho (nc)
6604.1.1 = { holder=101169129 } # Beqqo (nc)
6607.1.1 = { holder=101269129 } # Noho (nc)
6642.1.1 = { holder=101569129 } # Vargo (nc)
6666.1.1 = { holder=101969129 } # Yorko (nc)
6691.1.1 = { holder=102269129 } # Tormo (nc)
6730.1.1 = { holder=102669129 } # Narbo (nc)
6739.1.1 = { holder=102869129 } # Lotho (nc)
6756.1.1 = { holder=103069129 } # Pynto (nc)
6776.1.1 = { holder=103469129 } # Allaquo (nc)
