1.1.1={
	liege="d_yunkai"
}
6473.1.1 = { holder=150360020 } # Grazdhan (nc)
6486.1.1 = { holder=100360020 } # Marghaz (nc)
6509.1.1 = { holder=101360020 } # Haezdhar (nc)
6550.1.1 = { holder=105360020 } # Grazdan (nc)
6566.1.1 = { holder=111360020 } # Barkhaz (nc)
6600.1.1 = { holder=112360020 } # Azlaq (nc)
6615.1.1 = { holder=116360020 } # Grazdan (nc)
6648.1.1 = { holder=119360020 } # Hizdhar (nc)
6666.1.1 = { holder=120360020 } # Yurkhaz (nc)
6703.1.1 = { holder=122360020 } # Grazdhan (nc)
6717.1.1 = { holder=126360020 } # Paezdhar (nc)
6733.1.1 = { holder=130360020 } # Gazdhor (nc)
6758.1.1={
	holder=6571007 # Grazdan
}
