#House Qho
6463.1.1 = { 
	holder=100304003 
	liege=d_last_lament
	law = succ_seniority
	law = cognatic_succession
} # Jalabhar (nc)
6524.1.1 = { holder=101304003 } # Xhal (nc)
6541.1.1 = { holder=103304003 } # Thabo (nc)
6552.1.1 = { holder=105304003 } # Jaramogo (nc)
6553.1.1 = { holder=106304003 } # Adeyemu (nc)
6581.1.1 = { holder=109304003 } # Rudo (nc)
6630.1.1 = { holder=112304003 } # Odingaxho (nc)
6647.1.1 = { holder=117304003 } # Koroxhar (nc)
6665.1.1 = { holder=120304003 } # Konde (nc)
6709.1.1 = { holder=119304003 } # Alayaya (nc)
6713.1.1 = { holder=124304003 } # Anyim (nc)
6738.1.1 = { holder=126304003 } # Xhal (nc)
