1.1.1={
	liege="d_kayakayanaya"
	law = succ_seniority
	law = agnatic_succession
}
6448.1.1 = { holder=10055946 } # Voitto (nc)
6486.1.1 = { holder=10155946 } # Valto (nc)
6505.1.1 = { holder=10555946 } # Voitto (nc)
6535.1.1 = { holder=11055946 } # Esko (nc)
6583.1.1 = { holder=11855946 } # Santtu (nc)
6646.1.1 = { holder=12455946 } # Raimo (nc)
6674.1.1 = { holder=12555946 } # Panu (nc)
6704.1.1 = { holder=12955946 } # Pyrkoon (nc)
6727.1.1 = { holder=13455946 } # Jyri (nc)



