490.1.1={
	liege="d_port_yhos"
}
6474.1.1 = { holder=150350020 } # Izembaro (nc)
6494.1.1 = { holder=100350020 } # Xaro (nc)
6540.1.1 = { holder=101350020 } # Nyessos (nc)
6567.1.1 = { holder=104350020 } # Ognos (nc)
6580.1.1 = { holder=108350020 } # Wullon (nc)
6621.1.1 = { holder=114350020 } # Zathor (nc)
6648.1.1 = { holder=118350020 } # Methyso (nc)
6656.1.1 = { holder=122350020 } # Navathos (nc)
6689.1.1 = { holder=123350020 } # Mathos (nc)
6700.1.1 = { holder=126350020 } # Navathos (nc)
6729.1.1 = { holder=132350020 } # Navathos (nc)
6748.1.1 = { holder=133350020 } # Navathos (nc)
6772.1.1 = { holder=136350020 } # Egon (nc)

