1.1.1={
	liege="d_saath"
	law = succ_primogeniture
}

6473.1.1 = { holder=100056807 } # Manaar (nc)
6502.1.1 = { holder=100156807 } # Harith (nc)
6515.1.1 = { holder=100556807 } # Kushal (nc)
6523.1.1 = { holder=100656807 } # Jaafar (nc)
6542.1.1 = { holder=100956807 } # Darshan (nc)
6582.1.1 = { holder=101256807 } # Etash (nc)
6602.1.1 = { holder=101556807 } # Ekavir (nc)
6623.1.1 = { holder=101656807 } # Kedaar (nc)
6654.1.1 = { holder=101956807 } # Uttamesh (nc)
6671.1.1 = { holder=102456807 } # Uttamesh (nc)
6735.1.1 = { holder=102656807 } # Balavant (nc)
6757.1.1 = { holder=103056807 } # Ritesh (nc)
6759.1.1 = { holder=103556807 } # Tarakesh (nc)
6763.1.1 = { holder=103956807 } # Mukesh (nc)
