#c_moreland
1.1.1={
	liege="d_hornvale"
}
6377.1.1={ holder=60400209} # Bryce Moreland
6390.1.1={ holder=60600209} # Criston Moreland
6401.1.1={ holder=60500209} # Kennoth Moreland
6406.1.1={ holder=60300209} # Prestor Moreland
6453.1.1={ holder=60200209} # Robin Moreland
6469.1.1={ holder=60000209} # Lyman Moreland
6480.1.1={
	holder=11209
}
6523.1.1={
	holder=13209
}
6530.1.1={
	holder=14209
}
6542.1.1={
	holder=15209
}
6548.1.1={
	holder=16209
}
6590.1.1={
	holder=17209
}
6625.1.1={
	holder=18209
}
6640.1.1={
	holder=19209
}
6656.1.1={
	holder=20209
}
6674.1.1={
	holder=21209
}
6696.1.1={
	holder=22209
}
6721.1.1={
	holder=23209
}
6751.1.1={
	holder=100209 # Robin Moreland
}
