1.1.1 = { 
	liege = d_naath 
	law=succ_primogeniture 
	law=cognatic_succession
}
6440.1.1 = { holder=100306009 } # Isingodo (nc)
6487.1.1 = { holder=108306009 } # Jalabhar (nc)
6522.1.1 = { holder=111306009 } # Olujondo (nc)
6545.1.1 = { holder=118306009 } # Qubhar (nc)
6567.1.1 = { holder=119306009 } # Jalahuru (nc)
6609.1.1 = { holder=121306009 } # Gatubhar (nc)
6615.1.1 = { holder=127306009 } # Delmabhar (nc)
6657.1.1 = { holder=130306009 } # Kwasdo (nc)
6677.1.1 = { holder=132306009 } # Xhakan (nc)
6719.1.1 = { holder=136306009 } # Xhoan (nc)
6738.1.1 = { holder=140306009 } # Makhan (nc)
6751.1.1 = { holder=142306009 } # Konde (nc)
