1.1.1 = { liege="e_stormlands"}


6472.1.1 = { holder = 300301 } # Lyonel Caron (nc)
6481.1.1 = { holder = 301301 } # Symon Caron (nc)
6505.1.1 = { holder = 302301 } # Rolland Caron (nc)
6531.1.1 = { holder = 303301 } # Byron Caron (nc)
6562.1.1 = { holder = 304301 } # Bryce Caron (nc)
6588.1.1 = { holder = 305301 } # Balon Caron (nc)
6620.1.1 = { holder = 306301 } # Lyonel Caron (nc)
6652.1.1 = { holder = 307301 } # Barrystan Caron (nc)
6665.1.1 = { holder = 308301 } # Pearse Caron (C)
6704.1.1 = { holder = 309301 } # Balon Caron (nc)
6724.1.1 = { holder = 310301 } # Casper Caron (nc)
6740.1.1 = { holder = 301 } # Bryen Caron (C)
