1.1.1={
	liege="d_trader_town"
}
6473.1.1 = { holder=10069168 } # Murad (nc)
6501.1.1 = { holder=10269168 } # Mahdi (nc)
6554.1.1 = { holder=10569168 } # Wahab (nc)
6577.1.1 = { holder=10769168 } # Hafiz (nc)
6597.1.1 = { holder=10869168 } # Azam (nc)
6615.1.1 = { holder=11269168 } # Mukhtar (nc)
6640.1.1 = { holder=11669168 } # Abdul (nc)
6653.1.1 = { holder=11869168 } # Mukhtar (nc)
6708.1.1 = { holder=12269168 } # Fadil (nc)
6727.1.1 = { holder=12369168 } # Wahab (nc)
6742.1.1 = { holder=12569168 } # Sadiq (nc)
6772.1.1 = { holder=13169168 } # Hussayn (nc)



