1.1.1={
	liege="d_xin"
}
6473.1.1 = { holder=10069106 } # Uways (nc)
6503.1.1 = { holder=10169106 } # Isa (nc)
6539.1.1 = { holder=10569106 } # Ghalib (nc)
6549.1.1 = { holder=10769106 } # Fadil (nc)
6596.1.1 = { holder=11069106 } # Abdullah (nc)
6634.1.1 = { holder=11469106 } # Khaireddin (nc)
6661.1.1 = { holder=11769106 } # Mukhtar (nc)
6663.1.1 = { holder=12169106 } # Alim (nc)
6708.1.1 = { holder=12469106 } # Idris (nc)
6753.1.1 = { holder=12669106 } # Ali_Ali (nc)
6772.1.1 = { holder=12769106 } # Sholah (nc)



