1.1.1={
	liege="d_port_yhos"
}
 6469.1.1 = { holder=150350005 } # Sybassion (nc)
 6503.1.1 = { holder=100350005 } # Mallor (nc)
 6527.1.1 = { holder=101350005 } # Pyat (nc)
 6568.1.1 = { holder=108350005 } # Egon (nc)
 6587.1.1 = { holder=110350005 } # Nyessos (nc)
 6613.1.1 = { holder=111350005 } # Vogarro (nc)
 6652.1.1 = { holder=115350005 } # Horonno (nc)
 6672.1.1 = { holder=117350005 } # Belicho (nc)
 6680.1.1 = { holder=122350005 } # Navaphos (nc)
 6705.1.1 = { holder=129350005 } # Xaro Xhoan (nc)
 6743.1.1 = { holder=132350005 } # Pyat (nc)
 6746.1.1 = { holder=135350005 } # Ordello (nc)
 6772.1.1 = { holder=139350005 } # Methyso (nc)
