1.1.1={
	liege="k_qohor"
}

6473.1.1 = { holder=100069130 } # Daario (nc)
6515.1.1 = { holder=100169130 } # Allaquo (nc)
6526.1.1 = { holder=100469130 } # Vargo (nc)
6552.1.1 = { holder=100769130 } # Gyloro (nc)
6585.1.1 = { holder=100969130 } # Moreo (nc)
6586.1.1 = { holder=101069130 } # Ternesio (nc)
6647.1.1 = { holder=101469130 } # Roggo (nc)
6651.1.1 = { holder=101669130 } # Cossomo (nc)
6677.1.1 = { holder=101769130 } # Allaquo (nc)
6691.1.1 = { holder=102069130 } # Moredo (nc)
6704.1.1 = { holder=102169130 } # Ollo (nc)
6760.1.1 = { holder=102469130 } # Tagganaro (nc)
