1.1.1={ law=succ_primogeniture law=cognatic_succession
	liege="d_red_lake"
}

40.1.1 = { holder=6100234 } # Rose of Red Lake

80.1.1 = { holder=0 }

6328.1.1 = { holder=6300234 } # Starla (nc)
6348.1.1 = { holder=6400234 } # Heron (nc)
6374.1.1 = { holder=6700234 } # Lonan (nc)
6429.1.1 = { holder=6800234 } # Robert (nc)
6437.1.1 = { holder=6000234 } # Merlon (nc)
6492.1.1 = { holder=6003234 } # Quentyn (nc)
6516.1.1 = { holder=6005234 } # Hosman (nc)
6562.1.1 = { holder=6010234 } # Mern (nc)
6602.1.1 = { holder=6013234 } # Gormon (nc)
6616.1.1 = { holder=6017234 } # Ben (nc)
6658.1.1 = { holder=6021234 } # Kyle (nc)
6689.1.1 = { holder=6022234 } # Olyvar (nc)


