1.1.1={
	liege="d_saath"
	law = succ_primogeniture
}
6413.1.1 = { holder=10056802 } # Vishruth (nc)
6453.1.1 = { holder=10256802 } # Nayan (nc)
6486.1.1 = { holder=10456802 } # Uttamesh (nc)
6512.1.1 = { holder=10956802 } # Vishruth (nc)
6520.1.1 = { holder=11356802 } # Jaafar (nc)
6553.1.1 = { holder=11556802 } # Kedaar (nc)
6561.1.1 = { holder=11956802 } # Onkar (nc)
6599.1.1 = { holder=12156802 } # Manaar (nc)
6637.1.1 = { holder=12356802 } # Paarth (nc)
6647.1.1 = { holder=12756802 } # Harshil (nc)
6666.1.1 = { holder=12856802 } # Balavant (nc)
6683.1.1 = { holder=13456802 } # Nayan (nc)
6706.1.1 = { holder=14056802 } # Dahak (nc)
6744.1.1 = { holder=14356802 } # Dinesh (nc)
6759.1.1 = { holder=14456802 } # Rathin (nc)
