1.1.1={
	liege="d_qarth"
}

6473.1.1 = { holder=100069163 } # Mathos (nc)
6515.1.1 = { holder=100169163 } # Regon (nc)
6532.1.1 = { holder=100569163 } # Urrathon (nc)
6552.1.1 = { holder=100869163 } # Saathos (nc)
6598.1.1 = { holder=100969163 } # Zathor (nc)
6612.1.1 = { holder=101269163 } # Pyat (nc)
6622.1.1 = { holder=101569163 } # Xaro (nc)
6663.1.1 = { holder=101669163 } # Semython (nc)
6687.1.1 = { holder=101769163 } # Urrathon (nc)
6689.1.1 = { holder=102169163 } # Navathos (nc)
6723.1.1 = { holder=102369163 } # Ognos (nc)
6762.1.1 = { holder=102669163 } # Xaro (nc)
