1.1.1={
	liege="d_theneck"
	law = succ_primogeniture
}
6472.1.1={
	holder = 11073
}
6517.1.1={
	holder = 10073
}
6524.1.1={
	holder = 9073
}
6562.1.1={
	holder = 8073
}
6611.1.1={
	holder = 6073
}
6642.1.1={
	holder = 5073
}
6673.1.1={
	holder = 4073
}
6722.1.1={
	holder = 2073
}
6740.1.1={
	holder = 73
}
