1.1.1={
	liege="d_harlaw"
	law=succ_primogeniture law=cognatic_succession
}
6472.1.1 = { holder=6000120 } # Lucimore (nc)
6518.1.1 = { holder=6001120 } # Donnel (nc)
6522.1.1 = { holder=6004120 } # Aeron (nc)
6564.1.1 = { holder=6007120 } # Gevin (nc)
6587.1.1 = { holder=6011120 } # Adrack (nc)
6607.1.1 = { holder=6017120 } # Harmund (nc)
6637.1.1 = { holder=6019120 } # Urras (nc)
6683.1.1 = { holder=6021120 } # Ragnor (nc)
6727.1.1 = { holder=9120 }
6738.1.1 = {	
	holder=120
}
