6464.1.1 = { holder=10559121 } # Yoren (nc)
6502.1.1 = { holder=12559121 } # Wallen (nc)
6530.1.1 = { holder=13559121 } # Dormund (nc)
6574.1.1 = { holder=14559121 } # Cregan (nc)
6615.1.1 = { holder=15559121 } # Henk (nc)
6626.1.1 = { holder=17559121 } # Briar (nc)
6662.1.1 = { holder=18559121 } # Joramun (nc)
6684.1.1 = { holder=19559121 } # Halleck (nc)
6688.1.1 = { holder=22559121 } # Gendel (nc)
6691.1.1={
	liege="k_beyond_wall"
}
6704.9.9={
	liege="0"
}
6713.1.1 = { holder=23559121 } # Ondrew (nc)
6717.1.1 = { holder=25559121 } # Dan (nc)
6748.1.1 = { holder=26559121 } # Lenn (nc)
#6772.1.1 = { holder=28559121 } # Walton (nc)

6758.1.1={
	holder=174345
}
6776.1.1={
	liege="k_beyond_wall"
}
6778.1.1={
	liege="d_lower_frostfangs"
}
