210.1.1 = { 
	liege = k_stonewayTK
	law = succ_primogeniture
	law = cognatic_succession
}
6640.1.1 = { 
	holder=61000810 # Beldecar (nc)
	liege="d_ghosthills"
} 
6674.1.1 = { holder=61001010 } # Trebor (nc)
6689.1.1 = { holder=61001110 } # Harmen (nc)
6705.1.1 = { holder=61001510 } # Daeron (nc)
6740.1.1 = { holder=61001710 } # Cletus (nc)
