6078.1.1={
	#liege="e_stormlands"
	law = succ_primogeniture
}
6398.1.1={
	#liege="e_iron_isles"
}
6438.1.1 = { holder=60001197 } # Ferret (nc)
6488.1.1 = { holder=60011197 } # Gendry (nc)
6504.1.1 = { holder=60101197 } # Duncan (nc)
6515.1.1 = { holder=60111197 } # Gyles (nc)
6558.1.1 = { holder=60121197 } # Clayton (nc)
6580.1.1 = { holder=60191197 } # Triston (nc)
6587.1.1 = { holder=60211197 } # Jaremy (nc)
6638.1.1 = { holder=60221197 } # Belgrave (nc)
6659.1.1 = { holder=60291197 } # Devan (nc)
6671.1.1 = { holder=60311197 } # Clarence (nc)
6718.1.1 = { holder=60331197 } # Wallace (nc)
6747.1.1 = { holder=60361197 } # Lucifer (nc)
