1.1.1={
	liege="d_tyrosh"
}
6465.1.1 = { holder=150300024 } # Myrmello (nc)
6506.1.1 = { holder=100300533 } # Groleo (nc)
6529.1.1 = { holder=100300543 } # Mallaquo (nc)
6542.1.1 = { holder=101300544 } # Jaqen (nc)
6557.1.1 = { holder=103300543 } # Roggo (nc)
6576.1.1 = { holder=105300542 } # Syrio (nc)
6586.1.1 = { holder=108300533 } ##### Racallio Ryndoon
6612.1.1 = { holder=109300024 } # Ordello (nc)
6624.1.1 = { holder=113300542 } # Beqqo (nc)
6643.1.1 = { holder=122300024 } # Oro (nc)
6681.1.1 = { holder=121300544 } # Ordello (nc)
6712.1.1 = { holder=128300024 } # Tycho (nc)
6737.1.1={
	holder=600000059 # Alequo Adarys
}
6743.6.1 = { 
	holder=128300024 # Tycho (nc)
} 
6748.1.1 = { holder=130300024 } # Gyloro (nc)
6756.1.1 = { holder=131300024 } # Syrio (nc)
