1.1.1 = { 
	law=succ_primogeniture 
	law=cognatic_succession
	liege = d_painted_mountains
}
6473.1.1 = { holder=100062901 } # Colloquo (nc)
6510.1.1 = { holder=100262901 } # Aelix (nc)
6513.1.1 = { holder=100462901 } # Moqorro (nc)
6572.1.1 = { holder=100962901 } # Vaekar (nc)
6589.1.1 = { holder=101362901 } # Jaekar (nc)
6610.1.1 = { holder=101562901 } # Alios (nc)
6634.1.1 = { holder=101962901 } # Nyessos (nc)
6653.1.1 = { holder=102062901 } # Methyso (nc)
6654.1.1 = { holder=102262901 } # Jaekar (nc)
6722.1.1 = { holder=102362901 } # Belicho (nc)
6730.1.1 = { holder=102662901 } # Nyessos (nc)
6753.1.1 = { holder=102962901 } # Vaekar (nc)

