1.1.1 = { 
	liege = k_volantis
}
6442.1.1 = { holder=100174373 } # Trianna (C) 
6488.1.1 = { holder=101174373 } # Haerys (nc)
6518.1.1 = { holder=102174373 } # Belicho (nc)
6546.1.1 = { holder=108174373 } # Doniphos (nc)
6551.1.1 = { holder=111174373 } # Colloquo (nc)
6592.1.1 = { holder=115174373 } # Vaeron (nc)
6616.1.1 = { holder=116174373 } # Qavo (nc)
6638.1.1 = { holder=118174373 } # Vaekar (nc)
6669.1.1 = { holder=123174373 } # Orys (nc)
6673.1.1 = { holder=126174373 } # Gorys (nc)
6713.1.1 = { holder=130174373 } # Alios (nc)
6723.1.1 = { holder=136174373 } # Aenar (nc)
6746.1.1 = { holder=138174373 } # Vaekar (nc)
6758.1.1 = { holder=140174373 } # Nyessos 

