4478.1.1={
	law = succ_primogeniture
}
6470.1.1 = { holder=3002170 } # Byren
6510.1.1 = { holder=3001170 } # Albar (nc)
6529.1.1 = { holder=550170 } # Usula
6536.1.1 = { liege="e_vale" }
6538.6.6 = { 
	liege = 0
	holder=3004170 # Ronnel (nc)
} 
6576.1.1 = { holder=3011170 } # Othor (nc)
6585.1.1 = { holder=3016170 } # Gyles (nc)
6616.1.1 = { holder=3019170 } # Florian (nc)
6665.1.1 = { holder=3020170 } # Lark (nc)
6692.1.1 = { holder=3022170 } # Denys (nc)
6715.1.1 = { holder=552170 } # Elrond
6716.1.1 = { liege="e_vale" }
6723.1.1 = { holder=3027170 } # Pate (nc)

6749.1.1={
	holder=94041
}
