5478.1.1={
	liege="d_stoneway"
	law = cognatic_succession
}

6468.1.1 = { holder=65019 } # Edwyle (nc)
6490.1.1 = { holder=65119 } # Aryon (nc)
6531.1.1 = { holder=65419 } # Colin (nc)
6553.1.1 = { holder=65619 } # Tremond (nc)
6585.1.1 = { holder=65819 } # Alaric (nc)
6617.1.1 = { holder=651019 } # Gulian (nc)
6635.1.1 = { holder=651619 } # Arthur (nc)
6636.1.1 = { holder=651819 } # Olyvar (nc)
6638.1.1 = { holder=651919 } # Ederyn (nc)
6677.1.1 = { holder=652019 } # Sylva (nc)
6701.1.1 = { holder=652319 } # Willam (nc)
6705.1.1 = { holder=652519 } # Armen (nc)

