#House Turalu
6455.1.1 = { 
	holder=100304040 
	liege=d_omburu
	law = succ_seniority
	law = cognatic_succession
} # Xhakan (nc)
6485.1.1 = { holder=103304040 } # Quhuru (nc)
6519.1.1 = { holder=109304040 } # Delmabhar (nc)
6566.1.1 = { holder=111304040 } # Nyadundo (nc)
6578.1.1 = { holder=116304040 } # Olujondo (nc)
6592.1.1 = { holder=119304040 } # Gatubhar (nc)
6621.1.1 = { holder=122304040 } # Chakoro (nc)
6639.1.1 = { holder=125304040 } # Tal (nc)
6663.1.1 = { holder=126304040 } # Xhoan (nc)
6673.1.1 = { holder=127304040 } # Abrafo (nc)
6699.1.1 = { holder=129304040 } # Odingaxho (nc)
6712.1.1 = { holder=133304040 } # Jarado (nc)
6713.1.1 = { holder=130304040 } # Xhonodo (nc)
6733.1.1 = { holder=135304040 } # Adeyemu (nc)
6742.1.1 = { holder=136304040 } # Makhan (nc)



