5478.1.1={
	liege=k_astapor
}
6458.1.1 = { holder=150360001 } # Gazdhor (nc)
6484.1.1 = { holder=100360001 } # Gorzhak (nc)
6513.1.1 = { holder=101360001 } # Grazdan (nc)
6549.1.1 = { holder=106360001 } # Grazdhan (nc)
6583.1.1 = { holder=110360001 } # Yezzan (nc)
6624.1.1 = { holder=115360001 } # Grazdan (nc)
6630.1.1 = { holder=116360001 } # Marghaz (nc)
6648.1.1 = { holder=121360001 } # Maezon (nc)
6701.1.1 = { holder=127360001 } # Grazdhan (nc)
6716.1.1 = { holder=130360001 } # Skahaz (nc)
6724.1.1 = { holder=134360001 } # Yurkhaz (nc)
6763.1.1={
	holder=6571000 # Kraznys
}
