1.1.1={ law=succ_primogeniture law=cognatic_succession
	liege="e_reach"
}
6442.1.1 = { holder=3000270 } # Androw (nc)
6476.6.6={
	liege="k_reach"
}
6478.1.1 = { holder=3001270 } # Canther (nc)
6494.1.1 = { holder=3006270 } # Luthor (nc)
6519.1.1 = { holder=3008270 } # Desmond (nc)
6560.1.1 = { holder=3009270 } # Raymon (nc)
6566.1.1 = { holder=3016270 } # Theodore (nc)
6574.1.1 = { holder=3014270 } # Leonette (nc)
6621.1.1 = { holder=3017270 } # Alerie (nc)
6623.1.1 = { holder=3020270 } # Edgerran (nc)
6654.1.1 = { holder=3024270 } # Eustace (nc)
6671.1.1 = { holder=3026270 } # Omer (nc)
6701.1.1 = { holder=3031270 } # Tristram (nc)

6726.1.1={
	holder=88031 #Medwick (nc)
}
6773.10.10={
	holder=1270 #Elwood
}
6777.7.1={
	liege = 0
}




