1.1.1={ law=succ_primogeniture law=cognatic_succession
	liege="e_reach" # 
}

25.1.1 = { holder=4510281 } # Mervyn (nc)
74.1.1 = { holder=65400298 } # Gormon (nc)

120.1.1 = { holder=0 }

6328.1.1 = { holder=6100298 } # Gwayne (nc)
6365.1.1 = { holder=6200298 } # Mervyn (nc)
6373.1.1 = { holder=65000298 } # Perceon (nc)
6408.1.1 = { holder=65100298 } # Galadon (nc)
6462.1.1 = { holder=65200298 } # Gareth (nc)
6466.1.1 = { holder=3000298 } # Mern (nc)
6476.6.6 = { holder=3001298 } # Tania (nc)
6495.1.1 = { holder=3004298 } # Mathis (nc)
6543.1.1 = { holder=3008298 } # Morm (nc)
6558.1.1 = { holder=3010298 } # Martyn (nc)
6602.1.1 = { holder=3011298 } # Arryn (nc)
6624.1.1 = { holder=3015298 } # Franklyn (nc)
6648.1.1 = { holder=3019298 } # Horas (nc)
6672.1.1 = { holder=3022298 } # Gormon (nc)
6690.1.1 = { holder=3026298 } # Edwyn (nc)
6726.1.1 = { holder=3029298 } # Mace (nc)
6756.1.1={
	holder=3031298 # Talbert(nc)
}
6760.1.1={
	holder=6298 # Laswell 
}
6768.1.1={
	holder=298 #Mervyn (nc)
}
6774.1.1={
	holder=1298 # Titus
}




