6078.1.1={
	law = succ_ultimogeniture
}
6430.1.1 = { holder=10055901 } # Moro (nc)
6482.1.1 = { holder=10455901 } # Mago (nc)
6524.1.1 = { holder=10855901 } # Ogo (nc)
6525.1.1 = { holder=11155901 } # Cohollo (nc)
6576.1.1 = { holder=11655901 } # Jommo (nc)
6588.1.1 = { holder=11455901 } # Cohollo (nc)
6606.1.1 = { holder=12255901 } # Rakharo (nc)
6622.1.1 = { holder=12555901 } # Jhaquo (nc)
6661.1.1 = { holder=12755901 } # Zollo (nc)
6695.1.1 = { holder=13155901 } # Pono (nc)
6728.1.1 = { holder=13555901 } # Jhaquo (nc)
6757.1.1 = { holder=13955901 } # Drogo (nc)

