4478.1.1=
{
liege="e_north"
law = succ_primogeniture
}
6464.1.1={
	holder=17093
}
6493.1.1={
	holder=16093
}
6506.1.1={
	holder=15093
}
6517.1.1={
	holder=14093
}
6565.1.1={
	holder=13093
}
6605.1.1={
	holder=12093
}
6637.1.1={
	holder=11093
}
6676.1.1={
	holder=10093
}
6693.1.1={
	holder=9093
}
6729.1.1={
	holder=5093
}
6757.1.1={
	holder=93
}
6769.1.1={
	holder=3093
}
