1.1.1={
	liege="k_linqi"
}
6473.1.1 = { holder=10069199 } # Khaireddin (nc)
6501.1.1 = { holder=10169199 } # Burhanaddin (nc)
6538.1.1 = { holder=10269199 } # Is'mail (nc)
6539.1.1 = { holder=10669199 } # Halil (nc)
6583.1.1 = { holder=11069199 } # Youkhanna (nc)
6609.1.1 = { holder=11369199 } # Yusuf (nc)
6661.1.1 = { holder=11669199 } # Qadir (nc)
6676.1.1 = { holder=12169199 } # Youkhanna (nc)
6693.1.1 = { holder=12269199 } # Khaireddin (nc)
6704.1.1 = { holder=12469199 } # Qawurd (nc)
6735.1.1 = { holder=12769199 } # Ramadan (nc)
6743.1.1 = { holder=13069199 } # Nasr (nc)


