1.1.1={
	liege="k_norvos"
	law="republic_law_0"
	effect = { 
		b_norvos = { ROOT = { holder_scope = { capital = PREVPREV } } }
	}
}
6433.1.1 = { holder=100300561 } # Gyloro (nc)
6481.1.1 = { holder=100300531 } # Ezzelyno (nc)
6496.1.1 = { holder=100300522 } # Roggo (nc)
6499.1.1 = { holder=104300561 } # Myrmello (nc)
6508.1.1 = { holder=108300561 } # Meralyn (nc)
6538.1.1 = { holder=111300561 } # Syrio (nc)
6567.1.1 = { holder=107300562 } # Narbo (nc)
6569.1.1 = { holder=110300562 } # Allaquo (nc)
6575.1.1 = { holder=113300531 } # Daario (nc)
6588.1.1 = { holder=116300531 } # Tagganaro (nc)
6607.1.1 = { holder=118300531 } # Yorko (nc)
6620.1.1 = { holder=122300531 } # Gyleno (nc)
6657.1.1 = { holder=124300563 } # Narbo (nc)
6669.1.1 = { holder=129300522 } # Myrmello (nc)
6709.1.1 = { holder=127300563 } # Orbelo (nc)
6722.1.1 = { holder=132300531 } # Cossomo (nc)
6752.1.1 = { holder=134300531 } # Gyloro (nc)
6775.1.1 = { holder=135300561 } # Tormo (nc)
6777.1.1 = { holder=138300561 } # Luco (nc)
