1.1.1={
	liege = e_new_valyria
}

6473.1.1 = { holder=10000350 } # Maegor (nc)
6502.1.1 = { holder=10020350 } # Rhaekar (nc)
6556.1.1 = { holder=10060350 } # Rhaekar (nc)
6583.1.1 = { holder=10120350 } # Rhaekar (nc)
6585.1.1 = { holder=10140350 } # Aelix (nc)
6640.1.1 = { holder=10170350 } # Maekar (nc)
6642.1.1 = { holder=10200350 } # Valarr (nc)
6654.1.1 = { holder=10230350 } # Qoherys (nc)
6679.1.1 = { holder=10280350 } # Rhaegar (nc)
6724.1.1 = { holder=10300350 } # Matarys (nc)
6747.1.1 = { holder=10340350 } # Aemond (nc)
6815.1.1 = { holder=10370350 } # Aenys (nc)

