1.1.1={
liege="e_iron_isles"
}
3578.1.1 = {
	holder=500107 #Loron the Old Kraken	
}
3632.1.1 = {
	holder=501107
}
3638.1.1 = {
	holder=502107
}
3670.1.1 = { holder=0 }

4230.1.1 = {
	holder = 503107
}
4238.1.1 = { holder = 0 }

4287.1.1 = {
	holder = 504107
}
4303.1.1 = {
	holder = 505107
}
4337.1.1 = { holder = 0 }

4978.1.1 = {
	holder = 506107
}
5014.1.1 = { holder = 0 }

6422.1.1={holder=66000107}
6466.9.1={holder=66100107}
6471.9.1={holder=26107}

6511.1.1 = {
	holder=25107 #Goren
}
6530.1.1={
	holder=24107 #Maron
}
6548.1.1={
	holder=23107 #Balon
}
6580.1.1={
	holder=22107 #Aeron
}
6602.3.7={
	holder=21107 #Vickon
}
6606.8.2={
	holder=20107 #Dalton, the Red Kraken
}
6608.1.1 = {
	holder=36107 #Veron
}
6650.1.1 = {
	holder=19107 #Alton
}
6684.1.1={
	holder=18107 #Dagon
}
6694.1.1={
	holder=299107 #Loron
}
6703.1.1 = {
	holder=17107 #Torwyn
}
6728.1.1 = {
	holder=107 #Quellon
}	
6761.1.1 = {
	holder=1107 #Balon
}


6777.11.3 = {
	holder=2107 #Euron
}
