
1.1.1 = {  name = d_tumblestone }


6645.1.1 = {
    holder=650153 #Armistead Vance (C)
	liege="k_wayfarersrestTK"
	law = succ_primogeniture
}
6652.1.1 = { reset_name = yes }
#Tullys
6675.1.1={
	holder=12154
}
6692.1.1={
	holder=11154
}
6744.1.1={
	holder=22154
}
