4478.1.1={
	liege="e_north"
	law = succ_primogeniture
}
6472.1.1={
	holder = 19068
}
6501.1.1={
	holder = 18068
}
6510.1.1={
	holder = 17068
}
6549.1.1={
	holder = 16068
}
6569.1.1={
	holder = 15068
}
6606.1.1={
	holder = 14068
}
6622.1.1={
	holder = 13068
}
6650.1.1={
	holder = 12068
}
6679.1.1={
	holder = 11068
}
6699.1.1={
	holder = 10068
}
6728.1.1={
	holder = 10168
}
6733.1.1={
	holder = 68
}
