4678.1.1={
	liege="k_runestoneTK"
	law = succ_primogeniture
}

6334.1.1 = { holder=550187 } # Yorwyck (nc)
6358.1.1 = { holder=551187 } # Yorwyck (nc)
6383.1.1 = { holder=552187 } # Yorwyck (nc)
6413.1.1 = { holder=553187 } # Yorwyck (nc)
6445.1.1 = { holder=554187 } # Yorwyck (nc)

6475.1.1 = { holder=555187 } # Yorwyck (c)
6500.1.1 = { holder=556187 } # Robar (nc)
6531.1.1 = { holder=557187 } # Robar (c)

6537.1.1={
	liege="e_vale"
}

6538.6.6 = { holder=3007187 } # Yorbert (C)
6582.1.1 = { holder=3008187 } # Humfrey (nc)
6593.1.1 = { holder=3009187 } # Mychel (nc)
6619.1.1 = { holder=3016187 } # Kyle (nc)
6658.1.1 = { holder=3017187 } # Osney (nc)
6709.1.1 = { holder=3018187 } # Damon (nc)
6720.1.1 = { holder=3019187 } # Uthor (nc)

