1.1.1={
	#liege="e_iron_throne"
	law = succ_open_elective
	law = centralization_4
}
120.1.1 = {
	holder=830059 #The Night's King
}
141.1.1 = {
	holder = 0
}

6468.1.1 = { holder=1000868 } # Bass (nc)
6493.1.1 = { holder=1001868 } # Brenett (nc)
6506.1.1 = { holder=1002868 } # Dywen (nc)
6513.1.1 = { holder=1003868 } # Alaric (nc)
6527.1.1 = { holder=1004868 } # Porther (nc)
6540.1.1 = { holder=1005868 } # Rickon (nc)
6559.1.1 = { holder=1006868 } # Hareth (nc)
6586.1.1 = { holder=1007868 } # Qhorin (nc)
6615.1.1 = { holder=1008868 } # Harmond (nc)
6639.1.1 = { holder=1009868 } # Jory (nc)
6670.1.1 = { holder=1010868 } # Benfred (nc)
6695.1.1 = { holder=1011868 } # Duncan (nc)
6723.1.1 = { holder=1012868 } # Theodan (nc)
6736.1.1 = { holder=1013868 } # Kyle (nc)
6754.1.1 = { holder=1014868 } # Mallador (nc)
6755.1.1 = { holder=1015868 } # Benjen (nc)
