1.1.1={
	liege="k_volantis"
}
6448.1.1 = { holder=100305605 } # Ordello (nc)
6489.1.1 = { holder=101305605 } # Bolquello (nc)
6503.1.1 = { holder=107305605 } # Bolquello (nc)
6540.1.1 = { holder=110305605 } # Colloquo (nc)
6587.1.1 = { holder=112305605 } # Gorys (nc)
6598.1.1 = { holder=114305605 } # Horonno (nc)
6622.1.1 = { holder=115305605 } # Allaquo (nc)
6637.1.1 = { holder=116305605 } # Lotho (nc)
6650.1.1 = { holder=117305605 } # Qarro (nc)
6653.1.1 = { holder=119305605 } # Bolquello (nc)
6688.1.1 = { holder=122305605 } # Alios (nc)
6710.1.1 = { holder=124305605 } # Gorys (nc)
6744.1.1 = { holder=127305605 } # Gorys (nc)
6760.1.1 = { holder=129305605 } # Horonno (nc)
