1.1.1={
	name = c_whiteknife
}
6479.1.1={
	liege="e_north"
	holder = 815059 #Jon
}
6503.1.1={
	holder = 814059 #Rickard
}

6531.1.1 = {
	holder = 8321059 #Ellard
}
6563.1.1 = {
	holder = 8331059 #Brandon
}
6597.1.1 = {
	holder = 820059 #Theon the Hungry Wolf
}
6600.1.1 = {
	holder = 10174918 #Argos Sevenstar
	liege = "0"
}
6601.1.1 = {
	holder = 820059 #Theon the Hungry Wolf
	liege = "e_north"
}
6638.1.1 = {
	holder = 831059 #Eddard
}
6663.1.1 = {
	holder = 8119059 #Brandon
}
6672.1.1={
	holder = 8118059 #Brandon
}
6738.1.1={
	holder = 817059 #Jonnel
}
6743.1.1={
	holder = 816059 #Dorren
}
6793.1.1 = {
	holder = 850059 #Brandon
}

6801.1.1 = {
	holder = 8150059 #Brandon
}
6820.1.1 = {
	holder = 813059 #Rodrik
}
