4482.1.1={
	law = succ_primogeniture
	liege = k_willowwoodTK
}
6461.1.1={
	holder=25152
}
6485.1.1={
	holder=24152
}
6511.1.1={
	holder=23152
}
6542.1.1={
	holder=21152
}
6576.1.1={
	holder=20152 # Androw Ryger
}
6603.1.1={
	holder=5500152 # Roger Ryger
}
6613.2.7={
	holder=17152 # Terin Ryger
}
6668.1.1={
	holder=16152
}
6698.1.1={
	holder=14152
}
6723.1.1={
	holder=13152
}

