20.1.1={
    liege="k_winterfellTK"
	law = succ_primogeniture
	holder=821059
	#Brandon the Builder
}
110.1.1 = {
    holder = 826059 # Brandon, son of Bran the builder
}
130.1.1 = {
    holder = 827059 # Jon
}	    
150.1.1 = { 
    holder = 0 
}

6450.1.1={
	holder = 8115059 #Brandon
	liege="e_north"
}

6460.1.1={
	holder = 815059 #Jon
}
6503.1.1={
	holder = 814059 #Rickard
}

6531.1.1 = {
	holder = 8321059 #Ellard
}
6563.1.1 = {
	holder = 8331059 #Brandon
}
6597.1.1 = {
	holder = 820059 #Theon the Hungry Wolf
}
6638.1.1 = {
	holder = 831059 #Eddard
}
6663.1.1 = {
	holder = 8119059 #Brandon
}
6672.1.1={
	holder = 8118059 #Brandon
}
6738.1.1={
	holder = 817059 #Jonnel
}
6743.1.1={
	holder = 816059 #Dorren
}
6793.1.1 = {
	holder = 850059 #Brandon
}

6801.1.1 = {
	holder = 8150059 #Brandon
}
6820.1.1 = {
	holder = 813059 #Rodrik
}