1.1.1 = { 
	law = slavery_2
	law = succ_primogeniture
	law = centralization_0
}
23.1.1 = { 
	holder=100777301
}
1023.1.1 = { 
	holder=100777302
}
1269.1.1 = { 
	holder=100777303
}
1423.1.1 = { 
	holder=100777304
}
1684.1.1 = { 
	holder=100777305
}
1756.1.1 = {
	holder=100777306
}
1967.1.1 = { 
	holder=100777307
}
2000.1.1 = { 
	holder=100777308
}
2010.1.1 = { holder = 0 }
