3478.1.1={
	law = succ_primogeniture
	liege = e_andalos
}
6463.1.1 = { holder=100174900 } # Marwyn (nc)
6479.1.1={
	liege = 0
}
6501.1.1 = { holder=101174900 } # Uthor (nc)
6543.1.1 = { holder=105174900 } # Pate (nc)
6554.1.1 = { holder=107174900 } # Symond (nc)
6575.1.1 = { holder=108174900 } # Osgood (nc)
6579.1.1 = { holder=109174900 } # Robar (nc)
6596.1.1 = { holder=110174900 } # Denys (nc)
6604.1.1 = { holder=111174900 } # Benedar (nc)
6650.1.1 = { holder=119174900 } # Robar (nc)
6672.1.1 = { holder=120174900 } # Lothor (nc)
6695.1.1 = { holder=123174900 } # Elys (nc)
6719.1.1 = { holder=124174900 } # Jasper (nc)
6767.1.1 = { holder=131174900 } # Ballabar (nc)

