1.1.1={
	law = succ_primogeniture
	law = agnatic_succession
	law = privilege_vassal_king
	law = slavery_2
	effect = {
		add_law = privilege_vassal_king
	}
}
6474.1.1 = { holder=10055942 } # Wahab (nc)
6504.1.1 = { holder=10355942 } # Jabir (nc)
6530.1.1 = { holder=10455942 } # Ghalib (nc)
6545.1.1 = { holder=10855942 } # Ramadan (nc)
6572.1.1 = { holder=11155942 } # Wahab (nc)
6579.1.1 = { holder=11455942 } # Qawurd (nc)
6606.1.1 = { holder=11655942 } # Hafiz (nc)
6637.1.1 = { holder=12255942 } # Abdullah (nc)
6668.1.1 = { holder=12755942 } # Ali_Ali (nc)
6693.1.1 = { holder=12955942 } # Alim (nc)
6734.1.1 = { holder=13155942 } # Shamir (nc)
6751.1.1 = { holder=13555942 } # Shamir (nc)


