1.1.1={
	law = succ_primogeniture
	law = cognatic_succession
	effect = {
		holder_scope = {
			set_special_character_title = shadowking_male
		}	
	}
}
6434.1.1 = { holder=6000364 } # Jarmen (nc)
6458.1.1 = { holder=6002364 } # Triston (nc)
6476.2.1={ holder=6007364 } # Steffon (nc)
6499.1.1 = { holder=6009364 } # Robin (nc)
6513.1.1 = { holder=6012364 } # Florian (nc)
6535.1.1 = { holder=6019364 } # Ulmer (nc)
6578.1.1 = { holder=6022364 } # Dale (nc)
6607.10.1 = { holder=6025364 } # Jaremy (nc)
6632.1.1 = { holder=6029364 } # Monford (nc)
6667.1.1 = { holder=6035364 } # Allar (nc)
6677.1.1 = { holder=6038364 } # Will (nc)
6686.1.1 = { holder=6044364 } # Lucifer (nc)
6733.1.1 = { holder=6045364 } # Alyn
