1.1.1={
	law = succ_primogeniture
	law = cognatic_succession
}
5846.1.1 = { holder=500177 } #gerold (NC)
5875.1.1 = { holder = 0 }

6466.1.1 = { holder=3000177 } # Vardis (nc)
6501.1.1 = { holder=3001177 } # Eon (nc)
6502.1.1 = { holder=500177 } # Waymar (nc)

6537.1.1 = { holder=0 }
