1.1.1={
	law = succ_primogeniture
	law = cognatic_succession
}
6471.1.1 = { holder=3000169 } # Florian (nc)
6501.1.1 = { holder=3002169 } # Albar (nc)
6510.1.1 = { holder=3006169 } # Elbert (nc)

6537.1.1 = { holder=0 }

