6433.1.1 = { 
	law = slavery_2
	law = centralization_2
	law = succ_open_elective
	effect = {
		holder_scope = { 
			e_new_valyria = {
				holder_scope = {
					make_tributary = { who = PREVPREV tributary_type = valyrian_tributary }
				}
			}
		}	
	}
} 
6473.1.1 = { holder=10069116 }
6505.1.1 = { holder=100069118 }
6517.1.1 = { holder=10469116 } # Moredo (nc)
6531.1.1 = { holder=100669121 } # Gyleno (nc)
6551.1.1 = { holder=100869118 } # Qarro (nc)
6588.1.1 = { holder=100869156 } # Terro (nc)
6607.1.1 = { holder=101169118 } # Collio (nc)
6628.1.1 = { holder=101569156 } # Orbelo (nc)
6671.1.1 = { holder=101769122 } # Noho (nc)
6709.1.1 = { holder=101969122 } # Izembaro (nc)
6714.1.1 = { holder=102369156 } # Gyloro (nc)
6720.1.1 = { holder=102669119 } # Ordello (nc)
6744.1.1 = { holder=102069117 } # Groleo (nc)
6762.1.1 = { holder=102769121 } # Ezzelyno (nc)

