1.1.1={
	law = succ_primogeniture
	law = cognatic_succession
}
6468.1.1 = { holder=3000183 } # Humfrey (nc)
6500.1.1 = { holder=3003183 } # Danwell (nc)
6523.1.1 = { holder=3006183 } # Narbert (nc)
6537.1.1 = { holder=0 }