1.1.1={
	liege="e_yi_ti"
	law = succ_primogeniture
	law = agnatic_succession
	law = privilege_vassal_king
	effect = {
		add_law = privilege_vassal_king
	}
}
6473.1.1 = { holder=10069166 } # Wahab (nc)
6509.1.1 = { holder=10169166 } # Jabir (nc)
6536.1.1 = { holder=10569166 } # Mukhtar (nc)
6558.1.1 = { holder=10769166 } # Abdullah (nc)
6609.1.1 = { holder=11069166 } # Halil (nc)
6614.1.1 = { holder=11169166 } # Khaireddin (nc)
6663.1.1 = { holder=11369166 } # Ubayd (nc)
6669.1.1 = { holder=11769166 } # Hussayn (nc)
6688.1.1 = { holder=11969166 } # Qawurd (nc)
6743.1.1 = { holder=12269166 } # Azam (nc)
6754.1.1 = { holder=12769166 } # Jalil (nc)
6757.1.1 = { holder=13069166 } # Nizam (nc)


