1.1.1={ 
	liege="c_ib_nor"
}
2990.1.1 = { holder=1055928 } # Krull (nc)
3045.1.1 = { holder=1155928 } # Haggon (nc)
3053.1.1 = { holder=1255928 } # Jarr (nc)
3057.1.1 = { holder=1455928 } # Umar (nc)
3092.1.1 = { holder=1755928 } # Krull (nc)
3112.1.1 = { holder=2255928 } # Slugg (nc)
3160.1.1 = { holder=2555928 } # Sogg (nc)
3165.1.1 = { holder=2855928 } # Joth (nc)
3197.1.1 = { holder=3355928 } # Morr (nc)
3247.1.1 = { holder=3455928 } # Colosh (nc)
3274.1.1 = { holder=3855928 } # Drogg (nc)
3283.1.1 = { holder=3955928 } # Betharios (nc)
