1.1.1={ 
	liege="c_qarth"
}
2995.1.1 = { holder=100069162 } # Doniphos (nc)
3036.1.1 = { holder=100169162 } # Meralyn (nc)
3050.1.1 = { holder=100569162 } # Sybassion (nc)
3076.1.1 = { holder=100669162 } # Pyat (nc)
3092.1.1 = { holder=101369162 } # Doniphos (nc)
3153.1.1 = { holder=101569162 } # Vogarro (nc)
3160.1.1 = { holder=101769162 } # Pyat (nc)
3163.1.1 = { holder=101869162 } # Nyessos (nc)
3191.1.1 = { holder=102569162 } # Regon (nc)
3239.1.1 = { holder=102969162 } # Methyso (nc)
3266.1.1 = { holder=103169162 } # Surindos (nc)
