1.1.1={ 
	liege="c_norvos"
}
2974.1.1 = { holder=100300522 } # Roggo (nc)
3021.1.1 = { holder=101300522 } # Gyloro (nc)
3026.1.1 = { holder=103300522 } # Terro (nc)
3072.1.1 = { holder=105300522 } # Byan (nc)
3092.1.1 = { holder=106300522 } # Ordello (nc)
3095.1.1 = { holder=107300522 } # Ollo (nc)
3107.1.1 = { holder=116300522 } # Terro (nc)
3123.1.1 = { holder=119300522 } # Byan (nc)
3169.1.1 = { holder=123300522 } # Moreo (nc)
3177.1.1 = { holder=127300522 } # Noho (nc)
3178.1.1 = { holder=129300522 } # Myrmello (nc)
3231.1.1 = { holder=130300522 } # Lotho (nc)
3245.1.1 = { holder=134300522 } # Ternesio (nc)
3277.1.1 = { holder=139300522 } # Moredo (nc)


