1.1.1={ 
	liege="c_pentos"
}
2964.1.1 = { holder=100300012 } # Yorko (nc)
3006.1.1 = { holder=100300526 } # Gyleno (nc)
3015.1.1 = { holder=101300526 } # Jaqen (nc)
3054.1.1 = { holder=102174360 } # Narbo (nc)
3057.1.1 = { holder=104174366 } # Denyo (nc)
3089.1.1 = { holder=109174360 } # Izembaro (nc)
3094.1.1 = { holder=110174360 } # Ezzelyno (nc)
3109.1.1 = { holder=112300012 } # Izembaro (nc)
3128.1.1 = { holder=114300012 } # Denyo (nc)
3130.1.1 = { holder=119300526 } # Izembaro (nc)
3143.1.1 = { holder=114174366 } # Lotho (nc)
3171.1.1 = { holder=116174366 } # Gyloro (nc)
3175.1.1 = { holder=121174360 } # Izembaro (nc)
3198.1.1 = { holder=125174366 } # Brusco (nc)
3200.1.1 = { holder=126174356 } # Daario (nc)
3212.1.1 = { holder=128174356 } # Noho (nc)
3217.1.1 = { holder=130300012 } # Ordello (nc)
3231.1.1 = { holder=132300012 } # Meralyn (nc)
3240.1.1 = { holder=126174366 } # Ternesio (nc)
3258.1.1 = { holder=129174366 } # Terro (nc)
3285.1.1 = { holder=134174356 } # Ternesio (nc)
3290.1.1={ holder=600000040 } # Illyrio



