1.1.1={ 
	liege="c_meereen"
}
2995.1.1 = { holder=150360009 } # Marghaz (nc)
3025.1.1 = { holder=100360009 } # Grazdan (nc)
3048.1.1 = { holder=101360009 } # Kraznys (nc)
3062.1.1 = { holder=106360009 } # Maezon (nc)
3083.1.1 = { holder=110360009 } # Skahaz (nc)
3125.1.1 = { holder=114360009 } # Hizdhar (nc)
3140.1.1 = { holder=117360009 } # Maezon (nc)
3201.1.1 = { holder=120360009 } # Gorzhak (nc)
3223.1.1 = { holder=126360009 } # Grazdan (nc)
3245.1.1 = { holder=127360009 } # Harghaz (nc)
3275.1.1={
	holder=16571011 # Skahaz Shavepate
}
3300.1.1={ 
	liege="d_meereen"
}
