1.1.1={ 
	liege="d_prince_pentos"
}
2995.1.1 = { holder=103174360 } 
3043.1.1 = { holder=105174366 }
3064.1.1 = { holder=111300012 }
3078.1.1 = { holder=171174360 }
3122.1.1 = { holder=119174356 }
3139.1.1 = { holder=124174360 }
3155.1.1 = { holder=126300526 }

#5 Princes in 1 year
3186.1.1 = { holder=129300526 }
3195.4.1 = { holder=101669123 }
3195.6.1 = { holder=105069157 }
3195.10.1 = { holder=132300526 }

3196.1.1 = { holder=131300012 } #Nevio (C)

3208.1.1 = { holder=127174356 }
3213.1.1 = { holder=137300526 }
3249.1.1 = { holder=181300526 }
3277.1.1 = { holder=132174356 }
3290.1.1 = { holder=149300012 }
