1.1.1={
	liege="c_tendring" 
}
#House Kyndall
3182.1.1 = { holder=123802042 } # Walder (nc)
3235.1.1 = { holder=127802042 } # Tommen (nc)
3261.1.1 = { holder=130802042 } # Damion (nc)
3288.1.1 = { holder=132802042 } # Kennos (nc)
