1.1.1={ 
	liege="k_valyria"
	holding_dynasty = 496045 # Tyvar
}

2995.1.1 = { holder=10006045 } # Haerys (nc)
3026.1.1 = { holder=10016045 } # Baelor (nc)
3037.1.1 = { holder=10026045 } # Gaemon (nc)
3075.1.1 = { holder=10056045 } # Jaekar (nc)
3084.1.1 = { holder=10086045 } # Aenys (nc)
3112.1.1 = { holder=10116045 } # Aemon (nc)
3152.1.1 = { holder=10126045 } # Maegor (nc)
3160.1.1 = { holder=10156045 } # Aegon (nc)
3187.1.1 = { holder=10186045 } # Maelys (nc)
3204.1.1 = { holder=10236045 } # Aegon (nc)
3240.1.1 = { holder=10266045 } # Aenar (nc)
3279.1.1 = { holder=10276045 } # Aenar (nc)
3304.1.1 = { holder=10296045 } # Aerion (nc)
