1.1.1={ 
	liege="c_yunkai"
}

2995.1.1 = { holder=150360023 } # Grazdhan (nc)
3012.1.1 = { holder=100360024 } # Yezzan (nc)
3028.1.1 = { holder=100360022 } # Maezon (nc)
3050.1.1 = { holder=101360020 } # Haezdhar (nc)
3072.1.1 = { holder=106360023 } # Maezon (nc)
3113.1.1 = { holder=106360024 } # Sharkaz (nc)
3135.1.1 = { holder=109360022 } # Mizlak (nc)
3142.1.1 = { holder=116360020 } # Grazdan (nc)
3170.1.1 = { holder=112360024 } # Ghazdor (nc)
3187.1.1 = { holder=116360023 } # Yurkhaz (nc)
3200.1.1 = { holder=117360022 } # Lazhak (nc)
3218.1.1 = { holder=113360024 } # Skahaz (nc)
3224.1.1 = { holder=122360020 } # Grazdhan (nc)
3239.1.1 = { holder=125360023 } # Kraznys (nc)
3264.1.1 = { holder=130360020 } # Gazdhor (nc)
3280.1.1={
	holder=6571003 # Yurkhaz
}
