2975.1.1 = { holder=10559301 } # Dryn (nc)
3020.1.1 = { holder=11559301 } # Tormund (nc)
3038.1.1 = { holder=13559301 } # Jojen (nc)
3067.1.1 = { holder=15559301 } # Calon (nc)
3101.1.1 = { holder=16559301 } # Stiv (nc)
3135.1.1 = { holder=17559301 } # Medger (nc)
3156.1.1 = { holder=19559301 } # Del (nc)
3166.1.1 = { holder=23559301 } # Brogg (nc)
3204.1.1 = { holder=25559301 } # Arson (nc)
3213.1.1={
	liege="k_beyond_wall"
}
3226.9.9={
	liege="0"
}
3233.1.1 = { holder=30559301 } # Howd (nc)
3273.1.1 = { holder=31559301 } # Soren (nc)
3289.1.1 = { holder=33559301 } # Errok (nc)
3298.1.1={
	liege="k_beyond_wall"
}
3300.1.1={
	holder=999000666
}
