1.1.1={
	liege="d_hyrkoon"
	law = succ_seniority
	law = agnatic_succession
}
2984.1.1 = { holder=10000432 } # Muzaffaraddin (nc)
3028.1.1 = { holder=10010432 } # Yahya (nc)
3047.1.1 = { holder=10020432 } # Mansur (nc)
3067.1.1 = { holder=10060432 } # Mirza (nc)
3078.1.1 = { holder=10080432 } # Shujah (nc)
3095.1.1 = { holder=10090432 } # Aarif (nc)
3160.1.1 = { holder=10110432 } # Mirza (nc)
3180.1.1 = { holder=10120432 } # Jaleel (nc)
3183.1.1 = { holder=10150432 } # Alim (nc)
3220.1.1 = { holder=10190432 } # Jaleel (nc)
3269.1.1 = { holder=10240432 } # Ghalib (nc)
3291.1.1 = { holder=10260432 } # Nizam (nc)
3340.1.1 = { holder=10270432 } # Uways (nc)
3357.1.1 = { holder=10290432 } # Bahir (nc)



