1.1.1={
	liege="d_tolos"
}
2995.1.1 = { holder=10070117 } # Aenar (nc)
3030.1.1 = { holder=10170117 } # Belicho (nc)
3034.1.1 = { holder=10270117 } # Daegar (nc)
3052.1.1 = { holder=10370117 } # Benerro (nc)
3086.1.1 = { holder=10870117 } # Parquello (nc)
3121.1.1 = { holder=10970117 } # Vogarro (nc)
3133.1.1 = { holder=11270117 } # Vaekar (nc)
3168.1.1 = { holder=11370117 } # Doniphos (nc)
3206.1.1 = { holder=11570117 } # Aelix (nc)
3224.1.1 = { holder=11870117 } # Qavo (nc)
3230.1.1 = { holder=11970117 } # Aenar (nc)
3244.1.1 = { holder=12170117 } # Belicho (nc)
3293.1.1 = { holder=12370117 } # Vaeron (nc)
