1.1.1={
	liege="k_new_ghis"
}

2995.1.1 = { holder=100069151 } # Kraznys (nc)
3039.1.1 = { holder=100169151 } # Bharkaz (nc)
3064.1.1 = { holder=100769151 } # Marghaz (nc)
3076.1.1 = { holder=101169151 } # Kraznys (nc)
3107.1.1 = { holder=101269151 } # Paezhar (nc)
3160.1.1 = { holder=101669151 } # Miklaz (nc)
3164.1.1 = { holder=101769151 } # Maezon (nc)
3225.1.1 = { holder=102169151 } # Mazdhan (nc)
3233.1.1 = { holder=102369151 } # Grazdhar (nc)
3265.1.1 = { holder=102669151 } # Hizdhar (nc)

