900.1.1={
	liege="d_nightswatch"
	law = succ_open_elective
}

2990.1.1 = { holder=1000868 } # Bass (nc)
3015.1.1 = { holder=1001868 } # Brenett (nc)
3028.1.1 = { holder=1002868 } # Dywen (nc)
3035.1.1 = { holder=1003868 } # Alaric (nc)
3049.1.1 = { holder=1004868 } # Porther (nc)
3062.1.1 = { holder=1005868 } # Rickon (nc)
3081.1.1 = { holder=1006868 } # Hareth (nc)
3108.1.1 = { holder=1007868 } # Qhorin (nc)
3137.1.1 = { holder=1008868 } # Harmond (nc)
3161.1.1 = { holder=1009868 } # Jory (nc)
3192.1.1 = { holder=1010868 } # Benfred (nc)
3217.1.1 = { holder=1011868 } # Duncan (nc)
3245.1.1 = { holder=1012868 } # Theodan (nc)
3258.1.1 = { holder=1013868 } # Kyle (nc)
3276.1.1 = { holder=1014868 } # Mallador (nc)
3277.1.1 = { holder=1015868 } # Benjen (nc)
