1.1.1={
	liege="d_zabhad"
}

2995.1.1 = { holder=100055937 } # Alim (nc)
3036.1.1 = { holder=100155937 } # Nizam (nc)
3042.1.1 = { holder=100255937 } # Is'mail (nc)
3076.1.1 = { holder=100355937 } # Isa (nc)
3118.1.1 = { holder=100755937 } # Faruk (nc)
3132.1.1 = { holder=101155937 } # Murad (nc)
3158.1.1 = { holder=101255937 } # Mirza (nc)
3186.1.1 = { holder=101955937 } # Jaleel (nc)
3187.1.1 = { holder=102055937 } # Uways (nc)
3237.1.1 = { holder=102255937 } # Sadiq (nc)
3254.1.1 = { holder=102755937 } # Jalil (nc)
3299.1.1 = { holder=102855937 } # Akin (nc)

