1000.1.1={
	law = succ_primogeniture
}
2989.1.1={
	holder=42099
}
3027.1.1={
	holder=40099
}
3044.1.1={
	holder=39099
}
3051.1.1={
	holder=38099
}
3076.1.1={
	holder=37099
}
3109.1.1={
	holder=36099
}
3118.1.1={
	holder=35099
}
3131.1.1={
	holder=34099
}
3179.1.1={
	holder=33099
}
3191.1.1={
	holder=32099
}
3201.1.1={
	holder=31099
}
3243.1.1={
	holder=10099
}
3262.1.1={
	holder=99
}
