900.1.1={
	liege="d_bayofclaws"
}

2992.1.1 = {
	holder=114137
}
3040.1.1 = {
	holder=113137
}
3052.1.1 = {
	holder=112137
}
3072.1.1 = {
	holder=111137
}
3085.1.1 = {
	holder=110137
}
3100.1.1 = {
	holder=109137 # Lucias Darry
}
3119.1.1 = {
	holder=5500137 # Jonothor Darry
}
3129.7.1 = {
    holder=5510137 # Derrick Darry
}
3131.1.1={
	holder=107137 # Roland Darry
}
3168.1.1 = {
	holder=105137 # Jorin Darry
}
3203.1.1 = {
	holder=104137
}
3238.1.1 = {
	holder=103137
}
3263.1.1 = {
	holder=100137
}
