2992.1.1 = { holder=10033911 } # Kurum (nc)
3034.1.1 = { holder=10233911 } # Yasmath (nc)
3043.1.1 = { holder=10533911 } # Mushtal (nc)
3072.1.1 = { holder=11033911 } # Arganth (nc)
3090.1.1 = { holder=11333911 } # Belshun (nc)
3154.1.1 = { holder=11933911 } # Lugatum (nc)
3164.1.1 = { holder=12233911 } # Kugbau (nc)
3188.1.1 = { holder=12633911 } # Munawirtum (nc)
3200.1.1 = { holder=12833911 } # Ibnatum (nc)
3215.1.1 = { holder=13033911 } # Sumalika (nc)
3223.1.1 = { holder=13233911 } # Iluath (nc)
3272.1.1 = { holder=13733911 } # Shepsin (nc)
3297.1.1 = { holder=14233911 } # Shusuen (nc)


