#House Gowonu
2986.1.1 = { 
	holder=100304021 
	liege=d_parrot_bay
	law = succ_seniority
	law = cognatic_succession
} # Mermesbhar (nc)
3012.1.1 = { holder=102304021 } # Chakoro (nc)
3045.1.1 = { holder=105304021 } # Xhelimo (nc)
3074.1.1 = { holder=109304021 } # Tapuhuru (nc)
3076.1.1 = { holder=110304021 } # Jiradhar (nc)
3102.1.1 = { holder=112304021 } # Simbhar (nc)
3125.1.1 = { holder=117304021 } # Paro (nc)
3185.1.1 = { holder=120304021 } # Lusaxharo (nc)
3200.1.1 = { holder=122304021 } # Thabo (nc)
3242.1.1 = { holder=125304021 } # Ujja (nc)
3251.1.1 = { holder=126304021 } # Simbhar (nc)
3266.1.1 = { holder=128304021 } # Xhelimo (nc)
3277.1.1 = { holder=129304021 } # Jiradhar (nc)
3294.1.1 = { holder=132304021 } # Paro (nc)

