1.1.1={
	liege="d_elyria"
}
2985.1.1 = { holder=100570110 } # Doniphos (nc)
3026.1.1 = { holder=101570110 } # Aelix (nc)
3030.1.1 = { holder=102570110 } # Alios (nc)
3062.1.1 = { holder=106570110 } # Matarys (nc)
3087.1.1 = { holder=110570110 } # Vaeron (nc)
3109.1.1 = { holder=113570110 } # Aenar (nc)
3131.1.1 = { holder=114570110 } # Daegar (nc)
3157.1.1 = { holder=116570110 } # Qoherys (nc)
3204.1.1 = { holder=120570110 } # Vaekar (nc)
3226.1.1 = { holder=126570110 } # Parquello (nc)
3260.1.1 = { holder=127570110 } # Qavo (nc)
