1.1.1={
	liege = d_tyria
}

2995.1.1 = { holder=10006023 } # Rhaekar (nc)
3024.1.1 = { holder=10016023 } # Daeron (nc)
3046.1.1 = { holder=10036023 } # Haegon (nc)
3067.1.1 = { holder=10076023 } # Matarys (nc)
3086.1.1 = { holder=10116023 } # Qoherys (nc)
3097.1.1 = { holder=10136023 } # Valarr (nc)
3168.1.1 = { holder=10156023 } # Daemon (nc)
3187.1.1 = { holder=10176023 } # Qoherys (nc)
3203.1.1 = { holder=10196023 } # Valarr (nc)
3260.1.1 = { holder=10206023 } # Maerys (nc)
3290.1.1 = { holder=10236023 } # Maegon (nc)
3314.1.1 = { holder=10246023 } # Valarr (nc)
3324.1.1 = { holder=10286023 } # Aelix (nc)

