1.1.1={
	liege="d_linqi"
}
2995.1.1 = { holder=10069198 } # Mukhtar (nc)
3035.1.1 = { holder=10269198 } # Rafiqa (nc)
3039.1.1 = { holder=10469198 } # Fadil (nc)
3058.1.1 = { holder=10569198 } # Zeyd (nc)
3078.1.1 = { holder=10769198 } # Wahab (nc)
3112.1.1 = { holder=10869198 } # Youkhanna (nc)
3134.1.1 = { holder=10969198 } # Najib (nc)
3153.1.1 = { holder=11169198 } # Sadiq (nc)
3174.1.1 = { holder=11469198 } # Mahdi (nc)
3201.1.1 = { holder=11669198 } # Qawurd (nc)
3249.1.1 = { holder=11969198 } # Najib (nc)
3264.1.1 = { holder=12169198 } # Khalil (nc)


