1.1.1={
	liege="k_new_ghis"
}

2995.1.1 = { holder=100069152 } # Azzak (nc)
3036.1.1 = { holder=100269152 } # Faezdhar (nc)
3058.1.1 = { holder=100669152 } # Gorzhak (nc)
3073.1.1 = { holder=100869152 } # Reznak (nc)
3100.1.1 = { holder=101069152 } # Zaraq (nc)
3135.1.1 = { holder=101269152 } # Morghaz (nc)
3166.1.1 = { holder=101669152 } # Harghaz (nc)
3179.1.1 = { holder=102169152 } # Grazdhan (nc)
3233.1.1 = { holder=102369152 } # Yurkhaz (nc)
3255.1.1 = { holder=102469152 } # Morghaz (nc)
3268.1.1 = { holder=102869152 } # Mazdhan (nc)
3298.1.1 = { holder=103169152 } # Barghaz (nc)
