478.1.1 = {
	liege = d_hazdahn
}
2995.1.1 = { holder=100069190 } # Yarkhaz (nc)
3030.1.1 = { holder=100269190 } # Yurkhaz (nc)
3049.1.1 = { holder=100769190 } # Barkhaz (nc)
3078.1.1 = { holder=100869190 } # Grazdan (nc)
3123.1.1 = { holder=101469190 } # Grazdhar (nc)
3128.1.1 = { holder=101769190 } # Barghaz (nc)
3146.1.1 = { holder=101969190 } # Barghaz (nc)
3203.1.1 = { holder=102169190 } # Faezdhar (nc)
3207.1.1 = { holder=102569190 } # Morghaz (nc)
3232.1.1 = { holder=102669190 } # Mazdhan (nc)
3269.1.1 = { holder=103169190 } # Miklaz (nc)
3278.1.1 = { holder=103669190 } # Faezdhar (nc)

