#c_hornvale
1.1.1={
	liege="d_hornvale"
}
3182.1.1 = {	
	holder=303216
}
3199.5.5 = {	
	holder=302216
}
3229.1.1 = {	
	holder=301216
}
3257.1.1 = {	
	holder=300216
}
3262.3.6 = {	
	holder=10216
}
3271.1.1 = {	
	holder=216
}
3301.10.25 = {
	holder=1216
}
