2977.1.1 = { 
	holder=100607300 
	liege = d_jhogwin
} # Fardeen (nc)
3012.1.1 = { holder=101607300 } # Isak (nc)
3047.1.1 = { holder=103607300 } # Mahwak (nc)
3071.1.1 = { holder=106607300 } # Jakar (nc)
3082.1.1 = { holder=109607300 } # Wafa (nc)
3097.1.1 = { holder=110607300 } # Vida (nc)
3126.1.1 = { holder=111607300 } # Tahib (nc)
3142.1.1 = { holder=113607300 } # Lemar (nc)
3173.1.1 = { holder=116607300 } # Barialy (nc)
3180.1.1 = { holder=118607300 } # Sabry (nc)
3255.1.1 = { holder=121607300 } # Lida (nc)
3265.1.1 = { holder=123607300 } # Aarak (nc)
