1.1.1={ law=succ_primogeniture law=cognatic_succession
	liege="d_west_marches"
}

36.1.1 = { holder=6100292 } # Harlon the Hunter (C)
155.1.1 = { holder=0}

2820.1.1 = { holder=6300292 } # Hernarr (nc)
2880.1.1 = { holder=6400292 } # Samwell (nc)
2896.1.1 = { holder=6500292 } # Hylon (nc)
2931.1.1 = { holder=6800292 } # Oryan (nc)
2971.1.1 = { holder=6110292 } # Erren (nc)
2988.1.1 = { holder=6121292 } # Hyle (nc)
2993.1.1 = { holder=3000292 } # Herndon (nc)
3016.1.1 = { holder=3001292 } # Quentin (nc)
3050.1.1 = { holder=3006292 } # Martyn (nc)
3088.1.1 = { holder=3009292 } # Bertram (nc)
3114.1.1 = { holder=3011292 } # Jon (nc)
3144.1.1 = { holder=3015292 } # Petyr (nc)
3158.1.1 = { holder=3018292 } # Garlan (nc)
3177.1.1 = { holder=3021292 } # Hyle (nc)
3206.1.1 = { holder=3026292 } # Randyll (nc)
3229.1.1 = { holder=3029292 } # Renly (nc)
3233.1.1={
	holder=2292 # Imry (nc)
}




