1.1.1={
	liege="d_hyrkoon"
	law = succ_seniority
	law = agnatic_succession
}
2985.1.1 = { holder=10000430 } # Qadir (nc)
3025.1.1 = { holder=10010430 } # Nasr (nc)
3034.1.1 = { holder=10060430 } # Aghlab (nc)
3075.1.1 = { holder=10110430 } # Hasan_Hasan (nc)
3090.1.1 = { holder=10140430 } # Bakr (nc)
3126.1.1 = { holder=10180430 } # Mirza (nc)
3153.1.1 = { holder=10220430 } # Shujah (nc)
3185.1.1 = { holder=10250430 } # Youkhanna (nc)
3201.1.1 = { holder=10280430 } # Zeyd (nc)
3211.1.1 = { holder=10290430 } # Abdullah (nc)
3275.1.1 = { holder=10310430 } # Ubayd (nc)
3278.1.1 = { holder=10350430 } # Fadl (nc)
3296.1.1 = { holder=10380430 } # Bakr (nc)
3355.1.1 = { holder=10400430 } # Qawurd (nc)



