
2962.1.1 = { holder=10559257 } # Fox (nc)
3009.1.1 = { holder=11559257 } # Lion (nc)
3015.1.1 = { holder=15559257 } # Direwolf (nc)
3031.1.1 = { holder=17559257 } # Lion (nc)
3066.1.1 = { holder=19559257 } # Cat (nc)
3089.1.1 = { holder=20559257 } # Eagle (nc)
3114.1.1 = { holder=22559257 } # Snowbear (nc)
3137.1.1 = { holder=24559257 } # Anteater (nc)
3139.1.1 = { holder=27559257 } # Mammoth (nc)
3174.1.1 = { holder=26559257 } # Giant (nc)
3206.1.1 = { holder=30559257 } # Seal (nc)
3213.1.1={
	liege="k_beyond_wall"
}
3220.1.1 = { holder=35559257 } # Elk (nc)
3226.9.9={
	liege="0"
}
3245.1.1 = { holder=37559257 } # Bear (nc)
3261.1.1 = { holder=38559257 } # Donkey (nc)
3289.1.1 = { holder=40559257 } # Beetle (nc)
3271.1.1 = { holder=41559257 } # Deer (nc)
#3290.1.1 = { holder=40559257 } # Unicorn (nc)

3282.1.1={
	holder=157002
}
3298.1.1={
	liege="k_beyond_wall"
	holder=157002
}
3300.1.1={
	holder=999000666
}
