1.1.1={
	liege = d_gelios
}

2995.1.1 = { holder=10006042 } # Aemon (nc)
3017.1.1 = { holder=10026042 } # Aenys (nc)
3027.1.1 = { holder=10056042 } # Jaehaerys (nc)
3041.1.1 = { holder=10066042 } # Aenar (nc)
3081.1.1 = { holder=10086042 } # Jaehaerys (nc)
3101.1.1 = { holder=10126042 } # Aegon (nc)
3149.1.1 = { holder=10156042 } # Maegon (nc)
3160.1.1 = { holder=10166042 } # Aemon (nc)
3193.1.1 = { holder=10186042 } # Aerion (nc)
3214.1.1 = { holder=10226042 } # Maelys (nc)
3223.1.1 = { holder=10246042 } # Haegon (nc)
3259.1.1 = { holder=10276042 } # Gaemon (nc)
3288.1.1 = { holder=10316042 } # Haegon (nc)
3309.1.1 = { holder=10356042 } # Vaeron (nc)
3329.1.1 = { holder=10376042 } # Maelys (nc)

