#House Xhoan
2980.1.1 = { 
	holder=100304004 
	liege=d_moluu
	law = succ_seniority
	law = cognatic_succession
} # Qaro (nc)
3018.1.1 = { holder=102304004 } # Adeyemu (nc)
3043.1.1 = { holder=106304004 } # Chibundo (nc)
3071.1.1 = { holder=108304004 } # Kwasdo (nc)
3103.1.1 = { holder=113304004 } # Xaro (nc)
3127.1.1 = { holder=116304004 } # Bapato (nc)
3151.1.1 = { holder=121304004 } # Xhal (nc)
3182.1.1 = { holder=126304004 } # Arkamun (nc)
3223.1.1 = { holder=128304004 } # Jiradhar (nc)
3231.1.1 = { holder=130304004 } # Jiradhar (nc)
3286.1.1 = { holder=133304004 } # Xhakan (nc)
3290.1.1 = { holder=135304004 } # Qaro (nc)

