1.1.1={
	liege = d_jaedos
}

2995.1.1 = { holder=10000351 } # Maegon (nc)
3035.1.1 = { holder=10030351 } # Otherys (nc)
3067.1.1 = { holder=10040351 } # Baelon (nc)
3080.1.1 = { holder=10060351 } # Aelix (nc)
3098.1.1 = { holder=10070351 } # Maegor (nc)
3140.1.1 = { holder=10110351 } # Maerys (nc)
3148.1.1 = { holder=10140351 } # Jaehaerys (nc)
3172.1.1 = { holder=10190351 } # Maelys (nc)
3191.1.1 = { holder=10250351 } # Maerys (nc)
3236.1.1 = { holder=10260351 } # Vaeron (nc)
3266.1.1 = { holder=10270351 } # Maelys (nc)
3275.1.1 = { holder=10340351 } # Daeron (nc)
3330.1.1 = { holder=10360351 } # Rhae (nc)

