#House Umaru
2996.1.1 = { 
	holder=100304034 
	liege=d_red_flower_vale
	law = succ_seniority
	law = cognatic_succession
} # Xhakan (nc)
3045.1.1 = { holder=101304034 } # Tal (nc)
3050.1.1 = { holder=104304034 } # Makhan (nc)
3087.1.1 = { holder=110304034 } # Qaro (nc)
3104.1.1 = { holder=113304034 } # Xhonodo (nc)
3138.1.1 = { holder=119304034 } # Tapuhuru (nc)
3202.1.1 = { holder=120304034 } # Simbhar (nc)
3208.1.1 = { holder=121304034 } # Gwalahuru (nc)
3213.1.1 = { holder=123304034 } # Sango (nc)
3245.1.1 = { holder=129304034 } # Konde (nc)
3270.1.1 = { holder=130304034 } # Anyim (nc)
3286.1.1 = { holder=132304034 } # Manahuru (nc)
