1000.1.1={
liege="d_lasthearth"
law = succ_primogeniture
}
2986.1.1={
	holder=17093
}
3015.1.1={
	holder=16093
}
3028.1.1={
	holder=15093
}
3039.1.1={
	holder=14093
}
3087.1.1={
	holder=13093
}
3127.1.1={
	holder=12093
}
3159.1.1={
	holder=11093
}
3198.1.1={
	holder=10093
}
3215.1.1={
	holder=9093
}
3251.1.1={
	holder=5093
}
3279.1.1={
	holder=93
}
3291.1.1={
	holder=3093
}
