1.1.1={
	liege="d_qarth"
}
2968.1.1 = { holder=10035001 } # Saathos (nc)
3002.1.1 = { holder=10235001 } # Zathor (nc)
3024.1.1 = { holder=10635001 } # Lotho (nc)
3076.1.1 = { holder=10935001 } # Regon (nc)
3100.1.1 = { holder=11235001 } # Nyessos (nc)
3117.1.1 = { holder=11735001 } # Gorys (nc)
3164.1.1 = { holder=12235001 } # Gathril (nc)
3189.1.1 = { holder=12535001 } # Navathos (nc)
3192.1.1 = { holder=12635001 } # Pyat (nc)
3222.1.1 = { holder=12835001 } # Zathor (nc)
3242.1.1 = { holder=12935001 } # Urrathon (nc)
3262.1.1 = { holder=13035001 } # Mathos (nc)
3284.1.1 = { holder=13435001 } # Nyessos (nc)
3290.1.1 = { holder=13635001 } # Egon (nc)
