1.1.1={
	liege="d_linqi"
}
2995.1.1 = { holder=10069192 } # Sami (nc)
3034.1.1 = { holder=10169192 } # Uways (nc)
3051.1.1 = { holder=10569192 } # Samir (nc)
3054.1.1 = { holder=10869192 } # Jalil (nc)
3128.1.1 = { holder=10969192 } # Youkhanna (nc)
3142.1.1 = { holder=11169192 } # Qadir (nc)
3158.1.1 = { holder=11369192 } # Aarif (nc)
3176.1.1 = { holder=11769192 } # Isa (nc)
3207.1.1 = { holder=12069192 } # Ramadan (nc)
3228.1.1 = { holder=12469192 } # Azam (nc)
3235.1.1 = { holder=12769192 } # Sami (nc)
3292.1.1 = { holder=13069192 } # Murad (nc)


