#c_lonmont
1.1.1={
	liege="d_cornfield"
}

3182.1.1 = { holder=320223 } # Daven (nc)
3193.1.1 = { holder=323223 } # Quenton (nc)
3199.1.1 = { holder=324223 } # Kennos (nc)
3236.1.1 = { holder=326223 } # Leo (nc)
3275.1.1 = { holder=330223 } # Denys (nc)
3277.1.1 = {holder=223} # Sanchor (nc)
3298.1.1 = {holder=1223} # Antario (c)
