#House Iroxho
2950.1.1 = { 
	holder=100304022 
	liege=d_sweet_lotus_vale
	law = succ_seniority
	law = cognatic_succession
} # Rudo (nc)
2987.1.1 = { holder=101304022 } # Nyadundo (nc)
3040.1.1 = { holder=104304022 } # Thabo (nc)
3059.1.1 = { holder=106304022 } # Gwalahuru (nc)
3065.1.1 = { holder=115304022 } # Xhoan (nc)
3106.1.1 = { holder=117304022 } # Quanda (nc)
3128.1.1 = { holder=119304022 } # Qaro (nc)
3167.1.1 = { holder=120304022 } # Nyadundo (nc)
3207.1.1 = { holder=122304022 } # Quhuru (nc)
3228.1.1 = { holder=126304022 } # Paro (nc)
3248.1.1 = { holder=127304022 } # Chakoro (nc)
3260.1.1 = { holder=130304022 } # Abrafo (nc)


