1.1.1={ law=succ_primogeniture law=cognatic_succession
	liege="e_iron_isles"
}
2995.1.1 = { holder=3005114 } # Rodrik (nc)

3038.1.1 = { holder=40018114 } # Greydon (nc)
3068.1.1 = { holder=30038114 } # Quellon(nc)
3092.1.1 = { holder=30048114 } # Shierle (nc)
3106.1.1 = { holder=30068114 } # Dunstan (nc)
3138.1.1 = { holder=30098114 } # Victarion (nc)
3160.1.1 = { holder=30148114 } # Rodrik (nc)
3203.1.1 = { holder=30158114 } # Malora (nc)
3218.1.1 = { holder=30188114 } # Kenned (nc)
3239.1.1 = { holder=30218114 } # Ulf (nc)
3270.1.1 = { holder=30258114 } # Gylbert (c)





