1.1.1={
	liege="d_meereen"
}
2995.1.1 = { holder=150360003 } # Hizdhar (nc)
3016.1.1 = { holder=100360003 } # Hizdhar (nc)
3047.1.1 = { holder=102360003 } # Hizdhar (nc)
3090.1.1 = { holder=105360003 } # Grazdan (nc)
3106.1.1 = { holder=111360003 } # Hizdhar (nc)
3124.1.1 = { holder=114360003 } # Hizdhar (nc)
3160.1.1 = { holder=118360003 } # Kraznys (nc)
3179.1.1 = { holder=120360003 } # Hizdhar (nc)
3212.1.1 = { holder=122360003 } # Hizdhario (nc)
3238.1.1 = { holder=124360003 } # Moredo (nc)
3250.1.1 = { holder=129360003 } # Barkhaz (nc)
3286.1.1={
	holder=16571013 # Hizdhar
}
