1.1.1={
	liege="d_nefer"
}
2995.1.1 = { holder=10069208 } # Jalil (nc)
3023.1.1 = { holder=10369208 } # Jalil (nc)
3028.1.1 = { holder=10469208 } # Fadil (nc)
3068.1.1 = { holder=10769208 } # Mansur (nc)
3090.1.1 = { holder=10869208 } # Zeyd (nc)
3117.1.1 = { holder=11069208 } # Mansur (nc)
3119.1.1 = { holder=11169208 } # Gafur (nc)
3151.1.1 = { holder=11569208 } # Mahdi (nc)
3185.1.1 = { holder=11869208 } # Azam (nc)
3208.1.1 = { holder=12069208 } # Ramadan (nc)
3229.1.1 = { holder=12269208 } # Husam (nc)
3262.1.1 = { holder=12469208 } # Uways (nc)
3292.1.1 = { holder=12769208 } # Halil (nc)



