1.1.1={
	liege="d_meereen"
}
2995.1.1 = { holder=150360004 } # Phaezdhar (nc)
3020.1.1 = { holder=100360004 } # Grazdan (nc)
3053.1.1 = { holder=101360004 } # Miklaz (nc)
3078.1.1 = { holder=103360004 } # Grazdan (nc)
3105.1.1 = { holder=107360004 } # Azzak (nc)
3118.1.1 = { holder=112360004 } # Marghaz (nc)
3166.1.1 = { holder=116360004 } # Gorzhak (nc)
3179.1.1 = { holder=119360004 } # Dhazak (nc)
3200.1.1 = { holder=123360004 } # Paezhar (nc)
3229.1.1 = { holder=127360004 } # Grazdan (nc)
3243.1.1 = { holder=128360004 } # Gorzhak (nc)
3287.1.1={
	holder=16571015 # Grazdan
}
