2986.1.1 = { 
	holder=100600215
} # Kovarro (nc)
3009.1.1 = { holder=101600215 } # Drogo (nc)
3011.1.1 = { holder=102600215 } # Jommo (nc)
3035.1.1 = { holder=104600215 } # Mago (nc)
3070.1.1 = { holder=107600215 } # Jommo (nc)
3074.1.1 = { holder=109600215 } # Dhako (nc)
3102.1.1 = { holder=113600215 } # Bharbo (nc)
3128.1.1 = { holder=114600215 } # Mago (nc)
3147.1.1 = { holder=116600215 } # Loso (nc)
3175.1.1 = { holder=117600215 } # Azho (nc)
3197.1.1 = { holder=120600215 } # Jhaquo (nc)
3224.1.1 = { holder=122600215 } # Zhako (nc)
3269.1.1 = { holder=123600215 } # Rhogoro (nc)
3283.1.1 = { holder=124600215 } # Tihho (nc)
3287.1.1 = { holder=126600215 } # Temmo (nc)
