1200.1.1={
	liege="e_vale"
	law = succ_primogeniture
}
2993.1.1 = { holder=3000167 } # Oswell (nc)
3020.1.1 = { holder=3001167 } # Colemon (nc)
3034.1.1 = { holder=3004167 } # Triston (nc)
3061.1.1 = { holder=3007167 } # Osmund (nc)
3096.1.1 = { holder=3010167 } # Symond (nc)
3147.1.1 = { holder=3017167 } # Walace (nc)
3165.1.1 = { holder=3020167 } # Randyll (nc)
3200.1.1 = { holder=3023167 } # Raymar (nc)
3243.1.1 = { holder=3025167 } # Creighton (nc)
3280.1.1={
	holder=94038
}
