1.1.1={
	liege="d_vahar"
}

2995.1.1 = { holder=100055941 } # Jaleel (nc)
3032.1.1 = { holder=100155941 } # Youkhanna (nc)
3040.1.1 = { holder=100355941 } # Qadir (nc)
3054.1.1 = { holder=100555941 } # Sami (nc)
3130.1.1 = { holder=100655941 } # Hussayn (nc)
3144.1.1 = { holder=100955941 } # Ghalib (nc)
3173.1.1 = { holder=101355941 } # Aarif (nc)
3192.1.1 = { holder=101455941 } # Idris (nc)
3218.1.1 = { holder=101755941 } # Bakr (nc)
3257.1.1 = { holder=102155941 } # Mukhtar (nc)
3295.1.1 = { holder=102555941 } # Bahir (nc)

