1.1.1={
	liege="k_new_ghis"
}

2995.1.1 = { holder=100069155 } # Azzak (nc)
3035.1.1 = { holder=100369155 } # Maezon (nc)
3051.1.1 = { holder=100569155 } # Reznak (nc)
3071.1.1 = { holder=100969155 } # Grazdan (nc)
3119.1.1 = { holder=101469155 } # Grazdan (nc)
3123.1.1 = { holder=101769155 } # Yezzan (nc)
3147.1.1 = { holder=101969155 } # Fendahl (nc)
3209.1.1 = { holder=102169155 } # Gorzhak (nc)
3238.1.1 = { holder=102369155 } # Haznak (nc)
3269.1.1 = { holder=102969155 } # Reznak (nc)
3281.1.1 = { holder=103269155 } # Skahaz (nc)

