2995.1.1 = { 
	liege = d_rhaesh_jim
	holder=100600202 # Jhaquo (nc)
} 
3014.1.1 = { holder=102600202 } # Jhaquo (nc)
3055.1.1 = { holder=104600202 } # Qotho (nc)
3073.1.1 = { holder=107600202 } # Mago (nc)
3102.1.1 = { holder=111600202 } # Bharbo (nc)
3104.1.1 = { holder=114600202 } # Bharbo (nc)
3140.1.1 = { holder=117600202 } # Fogo (nc)
3144.1.1 = { holder=118600202 } # Qotho (nc)
3180.1.1 = { holder=119600202 } # Aggo (nc)
3193.1.1 = { holder=120600202 } # Bharbo (nc)
3202.1.1 = { holder=122600202 } # Temmo (nc)
3243.1.1 = { holder=127600202 } # Drogo (nc)
3260.1.1 = { holder=130600202 } # Zollo (nc)
3287.1.1 = { 
	holder=3300102 #Jhaqo
} 

