#House Rotumu
2990.1.1 = { 
	holder=100304029 
	liege=d_red_flower_vale
	law = succ_seniority
	law = cognatic_succession
} # Isodo (nc)
3035.1.1 = { holder=102304029 } # Gwalahuru (nc)
3061.1.1 = { holder=108304029 } # Ratemo (nc)
3093.1.1 = { holder=109304029 } # Kwasya (nc)
3125.1.1 = { holder=111304029 } # Sango (nc)
3127.1.1 = { holder=112304029 } # Jaramogo (nc)
3167.1.1 = { holder=115304029 } # Konde (nc)
3210.1.1 = { holder=116304029 } # Jiradhar (nc)
3219.1.1 = { holder=119304029 } # Abrafo (nc)
3276.1.1 = { holder=126304029 } # Chibundo (nc)
3284.1.1 = { 
	holder=125304000 # Jalabhar Xho
} 
3289.6.1 = { 
	holder=134304029 # Dubaku the Bastard
} 
