400.1.1={
	liege="d_kasath"
	law = succ_primogeniture
}
2992.1.1 = { holder=10056820 } # Jash (nc)
3026.1.1 = { holder=10156820 } # Nitish (nc)
3037.1.1 = { holder=10356820 } # Malashree (nc)
3052.1.1 = { holder=10656820 } # Harshil (nc)
3072.1.1 = { holder=10756820 } # Ishwar (nc)
3126.1.1 = { holder=10956820 } # Ekavir (nc)
3131.1.1 = { holder=11356820 } # Yathavan (nc)
3158.1.1 = { holder=11556820 } # Gayan (nc)
3211.1.1 = { holder=11656820 } # Onkar (nc)
3218.1.1 = { holder=11856820 } # Rathin (nc)
3240.1.1 = { holder=11956820 } # Sagar (nc)
3279.1.1 = { holder=12256820 } # Taresh (nc)
