#NOTE: The holder of this title has the House Saltcliffe dynasty tracker set in roberts_rebellion_events
1.1.1={
	liege="d_pyke"
	law=succ_primogeniture law=cognatic_succession
}
2994.1.1 = { holder=3000109 } # Harrag (nc)
3026.1.1 = { holder=3003109 } # Rolfe (nc)
3057.1.1 = { holder=3006109 } # Will (nc)
3097.1.1 = { holder=3008109 } # Gelmarr (nc)
3124.1.1 = { holder=3011109 } # Vickon (nc)
3135.1.1 = { holder=3016109 } # Norjen (nc)
3178.1.1 = { holder=3017109 } # Cadwyl (nc)
3210.1.1 = { holder=3019109 } # Emmond (nc)
3229.1.1 = { holder=3023109 } # Endehar (nc)
3241.1.1 = { holder=3024109 } # Eldiss (nc)

3282.1.1 = {	
	holder=1109
}
3295.1.1 = {
	holder=109
}
