1.1.1={ law=succ_primogeniture law=cognatic_succession
	liege="d_oldtown"
}
3130.1.1 = { holder=3014289 } # Arthur (nc)
3134.1.1 = { holder=3019289 } # Arthur (nc)
3164.1.1 = { holder=3021289 } # Edwyn (nc)
3197.1.1 = { holder=3027289 } # Renly (nc)
3217.1.1 = { holder=3031289 } # Luthor (nc)




