1.1.1 = {
	law = succ_turkish_succession
	law = agnatic_succession
}
2980.1.1 = { holder=10559144 } # Bodger (nc)
3011.1.1 = { holder=11559144 } # Owen (nc)
3024.1.1 = { holder=12559144 } # Harlon (nc)
3050.1.1 = { holder=15559144 } # Mors (nc)
3079.1.1 = { holder=16559144 } # Dryn (nc)
3101.1.1 = { holder=21559144 } # Gorne (nc)
3123.1.1 = { holder=22559144 } # Harmond (nc)
3131.1.1 = { holder=23559144 } # Alfyn (nc)
3148.1.1 = { holder=29559144 } # Henk (nc)
3213.1.1={
	liege="k_beyond_wall"
}
3215.1.1 = { holder=30559144 } # Arson (nc)
3226.9.9={
	liege="0"
}
3228.1.1 = { holder=32559144 } # Jeor (nc)
3256.1.1 = { holder=33559144 } # Lenyl (nc)
3267.1.1 = { holder=36559144 } # Halleck (nc)
3298.1.1={
	liege="k_beyond_wall"
}
3300.1.1={
	holder=999000666
}
