1.1.1={
	liege="d_toqolarth"
}
2981.1.1 = { holder=10035000 } # Ordello (nc)
3025.1.1 = { holder=10135000 } # Pyat (nc)
3032.1.1 = { holder=10435000 } # Urrathon (nc)
3047.1.1 = { holder=10535000 } # Mathos (nc)
3070.1.1 = { holder=10935000 } # Surindos (nc)
3115.1.1 = { holder=11135000 } # Wendello (nc)
3133.1.1 = { holder=11435000 } # Ordello (nc)
3161.1.1 = { holder=12035000 } # Lotho (nc)
3194.1.1 = { holder=12135000 } # Pyat (nc)
3200.1.1 = { holder=12535000 } # Methyso (nc)
3217.1.1 = { holder=12835000 } # Ognos (nc)
3246.1.1 = { holder=13335000 } # Belicho (nc)
3280.1.1 = { holder=13635000 } # Xaro Xhoan (nc)


