1.1.1={
	law = succ_open_elective
}
2989.1.1 = { holder=100300206 } # Ordello (nc)
3015.1.1 = { holder=101300206 } # Pynto (nc)
3040.1.1 = { holder=102300206 } # Lotho (nc)
3072.1.1 = { holder=105300206 } # Moredo (nc)

3110.1.1 = { holder=109300206 } # Areo (nc)

3140.1.1 = {
	holder=109300206
}

3143.1.1 = { holder=112300206 } # Lotho (nc)
3146.1.1 = { holder=113300206 } # Tregar (nc)

3175.1.1 = { holder=115300206 } # Izembaro (nc)
3182.1.1 = { holder=118300206 } # Syrio (nc)
3200.1.1 = { holder=120300206 } # Cossomo (nc)
3254.1.1 = { holder=122300206 } # Joss (nc)


3258.1.1={
	holder = 600000064 #Old Mother
}

3270.11.11={
	holder=122300206
}

3291.1.1 = { holder=125300206 } # Daario (nc)

3300.2.1={
	holder = 15052 #Aurane Waters
}
