2001.1.1={
	liege="d_winterfell"
	law = succ_primogeniture
}
2994.1.1={
	holder=18101
}
3052.1.1={
	holder=15101
}
3092.1.1={
	holder=14101
}
3121.1.1={
	holder=13101
}
3142.1.1={
	holder=12101
}
3187.1.1={
	holder=10101
}
3208.1.1={
	holder=9101
}
3230.1.1={
	holder=19101
}
3251.1.1={
	holder=6101
}
