1.1.1={
	liege = d_tyria
}

2995.1.1 = { holder=10006022 } # Maerys (nc)
3014.1.1 = { holder=10016022 } # Gaemon (nc)
3027.1.1 = { holder=10036022 } # Valarr (nc)
3063.1.1 = { holder=10056022 } # Aemond (nc)
3087.1.1 = { holder=10086022 } # Aemond (nc)
3104.1.1 = { holder=10106022 } # Aemond (nc)
3121.1.1 = { holder=10126022 } # Baelor (nc)
3175.1.1 = { holder=10166022 } # Aenys (nc)
3198.1.1 = { holder=10176022 } # Vaekar (nc)
3216.1.1 = { holder=10216022 } # Baelon (nc)
3243.1.1 = { holder=10226022 } # Orys (nc)
3286.1.1 = { holder=10286022 } # Aenys (nc)
3308.1.1 = { holder=10296022 } # Qoherys (nc)
3333.1.1 = { holder=10316022 } # Maelys (nc)


