1.1.1={
	liege="e_new_valyria"
}
2960.1.1 = { holder=100174396 } # Qoherys (nc)
2996.12.16 = { holder=103174396 } # Aenar (nc)
3043.1.1 = { holder=105174396 } # Belicho (nc)
3050.1.1 = { holder=108174396 } # Belicho (nc)
3068.1.1 = { holder=109174396 } # Alios (nc)
3083.1.1 = { holder=110174396 } # Aenar (nc)
3110.1.1 = { holder=113174396 } # Methyso (nc)
3148.1.1 = { holder=115174396 } # Gorys (nc)
3167.1.1 = { holder=120174396 } # Colloquo (nc)
3169.1.1 = { holder=122174396 } # Vaeron (nc)
3188.1.1 = { holder=127174396 } # Matarys (nc)
3250.1.1 = { holder=131174396 } # Benerro (nc)
3256.1.1 = { holder=135174396 } # Benerro (nc)
3261.1.1 = { holder=136174396 } # Colloquo (nc)
3295.1.1 = { holder=138174396 } # Vogarro (nc)
