2990.1.1 = { 
	holder=100600214 
	liege = d_west_ifeqevron
} # Haggo (nc)
3017.1.1 = { holder=101600214 } # Iggo (nc)
3043.1.1 = { holder=104600214 } # Haro (nc)
3050.1.1 = { holder=108600214 } # Jommo (nc)
3105.1.1 = { holder=110600214 } # Kovarro (nc)
3119.1.1 = { holder=114600214 } # Zekko (nc)
3136.1.1 = { holder=115600214 } # Fogo (nc)
3147.1.1 = { holder=123600214 } # Zerqollo (nc)
3189.1.1 = { holder=125600214 } # Jarbo (nc)
3190.1.1 = { holder=131600214 } # Jommo (nc)
3191.1.1 = { holder=134600214 } # Haro (nc)
3251.1.1 = { holder=135600214 } # Rovo (nc)
3272.1.1 = { holder=138600214 } # Bharbo (nc)
