2000.1.1={
	liege="d_stoneway"
	law = cognatic_succession
}

2990.1.1 = { holder=65019 } # Edwyle (nc)
3012.1.1 = { holder=65119 } # Aryon (nc)
3053.1.1 = { holder=65419 } # Colin (nc)
3075.1.1 = { holder=65619 } # Tremond (nc)
3107.1.1 = { holder=65819 } # Alaric (nc)
3139.1.1 = { holder=651019 } # Gulian (nc)
3157.1.1 = { holder=651619 } # Arthur (nc)
3158.1.1 = { holder=651819 } # Olyvar (nc)
3160.1.1 = { holder=651919 } # Ederyn (nc)
3199.1.1 = { holder=652019 } # Sylva (nc)
3223.1.1 = { holder=652319 } # Willam (nc)
3227.1.1 = { holder=652519 } # Armen (nc)

