#House Xhone
2980.1.1 = { 
	holder=100304036 
	liege=d_parrot_bay
	law = succ_seniority
	law = cognatic_succession
} # Tal (nc)
3017.1.1 = { holder=102304036 } # Xhal (nc)
3044.1.1 = { holder=104304036 } # Xhelimo (nc)
3063.1.1 = { holder=107304036 } # Jiradhar (nc)
3078.1.1 = { holder=108304036 } # Gatubhar (nc)
3080.1.1 = { holder=113304036 } # Chibundo (nc)
3124.1.1 = { holder=114304036 } # Anyim (nc)
3154.1.1 = { holder=118304036 } # Dubaku (nc)
3180.1.1 = { holder=120304036 } # Doshuru (nc)
3212.1.1 = { holder=124304036 } # Oluhuru (nc)
3251.1.1 = { holder=128304036 } # Gebhuya (nc)
3265.1.1 = { holder=129304036 } # Nyadundo (nc)
3273.1.1 = { holder=133304036 } # Kwasdo (nc)
