1.1.1={
	liege="d_yunkai"
}
2989.1.1 = { holder=150360017 } # Zarraq (nc)
3024.1.1 = { holder=100360017 } # Yurkhaz (nc)
3046.1.1 = { holder=101360017 } # Paezdhar (nc)
3087.1.1 = { holder=105360017 } # Maezon (nc)
3118.1.1 = { holder=109360017 } # Gazdhor (nc)
3144.1.1 = { holder=111360017 } # Grazdan (nc)
3150.1.1 = { holder=114360017 } # Sharkhaz (nc)
3186.1.1 = { holder=118360017 } # Grazdan (nc)
3200.1.1 = { holder=122360017 } # Paezdhar (nc)
3230.1.1 = { holder=128360017 } # Grazdhan (nc)
3250.1.1 = { holder=132360017 } # Skahaz (nc)
3258.1.1 = { holder=136360017 } # Hizdhar (nc)
3291.1.1={
	holder=6571011 # Maezon
}
