1.1.1={
	liege="d_port_moraq"
}

2995.1.1 = { holder=100055935 } # Faruk (nc)
3041.1.1 = { holder=100255935 } # Mubarak (nc)
3056.1.1 = { holder=100455935 } # Murad (nc)
3092.1.1 = { holder=100755935 } # Hasan_Hasan (nc)
3117.1.1 = { holder=100955935 } # Aarif (nc)
3136.1.1 = { holder=101555935 } # Bahir (nc)
3170.1.1 = { holder=101955935 } # Hafiz (nc)
3209.1.1 = { holder=102155935 } # Nizam (nc)
3221.1.1 = { holder=102555935 } # Halil (nc)
3239.1.1 = { holder=102855935 } # Shamir (nc)
3245.1.1 = { holder=103055935 } # Talib (nc)
3284.1.1 = { holder=103455935 } # Mansur (nc)
3297.1.1 = { holder=103655935 } # Muzaffaraddin (nc)

