1000.1.1={
	liege="k_barrowlandsTK"
	law = succ_primogeniture
}
2955.1.1={
	holder=1052079
}
2979.1.1 = {
	holder=1053079
}
2994.1.1 = {
	holder=12079
}
3029.1.1={
	holder=11079
}
3034.1.1={
	holder=10079
}
3053.1.1={
	holder=9079
}
3077.1.1={
	holder=8079
}
3121.1.1={
	holder=7079
}
3130.5.1={
	holder=6079
}
3172.1.1={
	holder=5079
}
3179.1.1={
	holder=4079
}
3201.1.1={
	holder=3079
}
3229.1.1={
	holder=2079
}
3273.1.1={
	holder=79
}
3284.1.1={
	holder=2068
}
