2600.1.1={
	liege="k_bayofclawsTK"
	law = succ_primogeniture
}

2973.1.1={
	holder=501138 #Florian I
}
3010.1.1 = {
	holder=502138 #Florian II
}
3027.1.1 = {
	holder=503138 #Florian III
}
3049.1.1 = {
	holder=504138 #Florian IV
}
3060.1.1 = {
	holder=505138 #Florian V
}
3062.1.1 = {
	holder=507138 #Humfrey
}

3072.1.1={
	holder=20138 # Ryger Mooton
}
3114.1.1={
    holder=560138 # Walys Mooton (C)
}
3129.5.1={
   holder=570138 # Manfryd Mooton (C)
 }  
3134.5.8 = {
	holder=18138 # Gaston Mooton
}
3167.1.1={
	holder=17138 # Bryar Mooton
}
3176.1.1={
	holder=14138 # Edmure Mooton
}
3240.1.1={
	holder=12138
}
3263.1.1={
	holder=11138
}
3275.1.1={
	holder=138
}
