1.1.1={
	liege = e_new_valyria
}

2995.1.1 = { holder=100000111 } # Orys (nc)
3036.1.1 = { holder=100100111 } # Belicho (nc)
3041.1.1 = { holder=100200111 } # Vogarro (nc)
3078.1.1 = { holder=100400111 } # Aenar (nc)
3130.1.1 = { holder=100900111 } # Colloquo (nc)
3137.1.1 = { holder=101100111 } # Vaeron (nc)
3161.1.1 = { holder=101300111 } # Orys (nc)
3177.1.1 = { holder=101600111 } # Aelix (nc)
3237.1.1 = { holder=102100111 } # Haerys (nc)
3242.1.1 = { holder=102400111 } # Aenar (nc)
3283.1.1 = { holder=102900111 } # Vaekar (nc)
3320.1.1 = { holder=103400111 } # Aenar (nc)

