#c_fair_isle
390.1.1 = {
	holder=150194 #Gylbert farman (C)
}
415.1.1 = {
	holder=0
}
1736.1.1 = {
	holder=152194
}
1770.1.1 = {
	liege=e_westerlands #conquered
}
1778.1.1 = {
	holder=0
}

2955.1.1={
	liege="d_kayce"
	holder=155194
}
2982.1.1 = {
	holder=156194
}
2995.1.1 = {	
	holder=310194
}
3039.1.1 = {	
	holder=309194
}
3065.1.1 = {	
	holder=308194
}
3088.1.1 = {	
	holder=307194
}
3104.1.1 = {	
	holder=306194
}
3130.1.1 = {
	holder=305194
}
3161.1.1 = {	
	holder=304194
}
3199.1.1 = {	
	holder=302194
}
3211.1.1 = {	
	holder=301194
}
3251.1.1 = {	
	holder=300194
}	
3262.1.1 = {	
	holder=194
}
3295.1.1 = {	
	holder=2194 #Sebaston
}
