2600.1.1={
	law = succ_ultimogeniture
	liege = e_ghiscar
}
2973.1.1 = { holder=10055923 } # Pono (nc)
3010.1.1 = { holder=10355923 } # Motho (nc)
3057.1.1 = { holder=10555923 } # Jhogo (nc)
3064.1.1 = { holder=10955923 } # Malakho (nc)
3076.1.1 = { holder=10755923 } # Pono (nc)
3082.1.1 = { holder=11555923 } # Jommo (nc)
3124.1.1 = { holder=12355923 } # Drogo (nc)
3160.1.1 = { holder=12555923 } # Moro (nc)
3173.1.1 = { holder=12855923 } # Zekko (nc)
3220.1.1 = { holder=12955923 } # Jommo (nc)
3232.1.1 = { holder=13255923 } # Qotho (nc)
3270.1.1 = { holder=13555923 } # Mago (nc)
