1.1.1 = { 
	liege=k_kings_landingTK
	name = D_BLACKWATER_BAY
}

2985.1.1 = { holder=10008455 } # Desmond (nc)
3021.1.1 = { holder=10048455 } # Jeor (nc)
3036.1.1 = { holder=10078455 } # Benfred (nc)
3070.1.1 = { holder=10108455 } # Bannen (nc)
3123.1.1 = { holder=10138455 } # Theon (nc)
3136.1.1 = { holder=10178455 } # Ethan (nc)
3167.1.1 = { holder=10198455 } # Rodwell (nc)
3176.1.1 = { holder=10218455 } # Luton (nc)
3219.1.1 = { holder=10248455 } # Howland (nc)
3248.1.1 = { holder=10278455 } # Ethan (nc)
3254.1.1 = { holder=10308455 } # Hullen (nc)
3278.1.1 = { holder=10338455 } # Tomard (nc)
3302.1.1 = { holder=10368455 } # Wyman (nc)
3323.1.1 = { holder=10428455 } # Harlon (nc)

