1000.1.1={
	liege=k_redfortTK
	law = succ_primogeniture
}
2990.1.1 = { holder=3000183 } # Humfrey (nc)
3022.1.1 = { holder=3003183 } # Danwell (nc)
3045.1.1 = { holder=3006183 } # Narbert (nc)

3064.1.1 = { holder=3007183 } # Andrey (nc)
3100.1.1 = { holder=3008183 } # Aethelmure (nc)
3144.1.1 = { holder=3010183 } # Clement (nc)
3146.1.1 = { holder=3012183 } # Lothar (nc)
3168.1.1 = { holder=3015183 } # Marq (nc)
3221.1.1 = { holder=3018183 } # Malwyn (nc)

3242.1.1={
	holder=94058
}
