1000.1.1={
	liege="k_rillsTK"
	law = succ_primogeniture
}
2994.1.1={
	holder = 19068
}
3023.1.1={
	holder = 18068
}
3032.1.1={
	holder = 17068
}
3071.1.1={
	holder = 16068
}
3091.1.1={
	holder = 15068
}
3128.1.1={
	holder = 14068
}
3144.1.1={
	holder = 13068
}
3172.1.1={
	holder = 12068
}
3201.1.1={
	holder = 11068
}
3221.1.1={
	holder = 10068
}
3250.1.1={
	holder = 10168
}
3255.1.1={
	holder = 68
}
