1.1.1={
	law = succ_primogeniture
	law = true_cognatic_succession
}

2995.1.1 = { holder=1000015 } # Dezyel (nc)
3014.1.1 = { holder=1004015 } # Caleyen (nc)
3054.1.1 = { holder=1006015 } # Mors (nc)
3099.1.1 = { holder=1010015 } # Timyon (nc)
3120.1.1 = { holder=1014015 } # Doran (nc)
3136.1.1 = { holder=1016015 } # Rycas (nc)
3162.1.1 = { holder=1018015 } # Belyar (nc)
3187.1.1 = { holder=1019015 } # Caleyen (nc)
3207.1.1 = { holder=1024015 } # Alleras (nc)
3219.1.1 = { holder=1026015 } # Timyon (nc)
3269.1.1 = { holder=1030015 } # Gasoyne (nc)
3287.1.1 = { holder=1032015 } # Mors (nc)
3306.1.1 = { holder=1034015 } # Quentyn (nc)
3316.1.1 = { holder=1035015 } # Yandry (nc)

