#House Qo
5894.1.1 = {
	holder=150304005  # Xanda
	law = succ_seniority
	law = cognatic_succession
} 
5936.1.1 = { holder=151304005 } # Chatana
5968.1.1 = { holder=0 }

2937.1.1 = { holder=153304005 } #
2979.1.1 = { holder=154304005 } #
2995.1.1 = { holder=100304005 } # Gatubhar (nc)
3057.1.1 = { holder=102304005 } # Thabo (nc)
3086.1.1 = { holder=105304005 } # Delmabhar (nc)
3090.1.1 = { holder=107304005 } # Xhonodo (nc)
3099.1.1 = { holder=108304005 } # Oluhuru (nc)
3152.1.1 = { holder=109304005 } # Xhoan (nc)
3155.1.1 = { holder=114304005 } # Xanda (C)
3178.1.1 = { holder=118304005 } # Isingodo (nc)
3203.1.1 = { holder=121304005 } # Thabo (nc)
3221.1.1 = { holder=122304005 } # Xhelimo (nc)
3235.1.1 = { holder=124304005 } # Jalahuru (nc)
3273.1.1 = { holder=125304005 } # Doshuru (nc)
