1.1.1={ law=succ_primogeniture law=cognatic_succession
	liege="e_reach"
}
70.1.1 = { holder=6100296 } # Herndon of the Horn
120.1.1 = { holder=0 }

2850.1.1 = { holder=6300296 } # Holter (nc)
2868.1.1 = { holder=6400296 } # Kacela (nc)
2899.1.1 = { holder=6500296 } # Chayse (nc)
2925.1.1 = { holder=6600296 } # Samwell (nc)
2944.1.1 = { holder=6800296 } # Acton (nc)
2979.1.1 = { holder=60100296 } #
2980.5.8={
	holder=32296
}
2998.6.6={
	holder=31296
}
3064.1.1={
	holder=30296
}
3095.1.1={
	holder=29296
}
3111.12.12={
	holder=27296
}
3129.6.6={
	holder=26296
}
3138.1.1={
	holder=25296
}
3159.10.10={
	holder=24296
}
3197.1.1={
	holder=23296
}
3221.1.1={
	holder=22296
}
3233.1.1={
	holder=21296
}
3260.1.1={
	holder=20296
}
