1.1.1={
	liege="k_jinqi"
}
2995.1.1 = { holder=10069102 } # Ramadan (nc)
3022.1.1 = { holder=10169102 } # Wahab (nc)
3030.1.1 = { holder=10469102 } # Murad (nc)
3052.1.1 = { holder=10569102 } # Yahya (nc)
3099.1.1 = { holder=11369102 } # Bahir (nc)
3148.1.1 = { holder=11669102 } # Husam (nc)
3160.1.1 = { holder=11969102 } # Qadir (nc)
3174.1.1 = { holder=12369102 } # Nasr (nc)
3192.1.1 = { holder=12769102 } # Hafiz (nc)
3224.1.1 = { holder=13069102 } # Bakr (nc)
3251.1.1 = { holder=13169102 } # Najib (nc)
3275.1.1 = { holder=13769102 } # Shamir (nc)
3286.1.1 = { holder=13969102 } # Jabir (nc)



