600.1.1={
	liege="k_yin"
	law = succ_ultimogeniture
}

2100.1.1 = { 
	holder=10055956
}
2135.1.1 = { holder=0 }

2256.1.1 = { 
	holder=10055957

}
2293.1.1 = { holder=0 }

2800.1.1 = { holder=10055961 } # Qaun (nc)
2819.1.1 = { holder=10155961 } # An (nc)
2839.1.1 = { holder=10355961 } # Gai (nc)
2858.1.1 = { holder=10455961 } # Mao (nc)
2866.1.1 = { holder=10555961 } # Tho (nc)
2881.1.1 = { holder=10655961 } # Kim (nc)
2905.1.1 = { holder=10755961 } # Dong (nc)
2931.1.1 = { holder=10855961 } # Quan (nc)
2940.1.1 = { holder=10955961 } # Huu (nc)

2950.1.1 = { 
	holder=10055958 #Jar Har, sixth sea-green emperor
}
2993.1.1 = { 
	holder=20055958 #Jar Joq, seventh sea-green emperor
}
2999.1.1 = { 
	holder=30055958 #Jar Han, eight sea-green emperor
}


3028.1.1 = { holder=1000958 } # Gai (nc)
3052.1.1 = { holder=1001958 } # Quy (nc)
3061.1.1 = { holder=1002958 } # Dong (nc)
3080.1.1 = { holder=1008958 } # Gai (nc)
3111.1.1 = { holder=1010958 } # Thao (nc)
3132.1.1 = { holder=1013958 } # Duq (nc)
3184.1.1 = { holder=1017958 } # Hieu (nc)
3186.1.1 = { holder=1022958 } # Trai (nc)
3207.1.1 = { holder=1023958 } # Zuang (nc)
3261.1.1 = { holder=1024958 } # Han (nc)
3270.1.1 = { holder=1028958 } # Chen (nc)
3301.1.1 = { holder=1029958 } # Shun (nc)
3315.1.1 = { holder=1031958 } # Huan (nc)

