1.1.1={
	liege=e_ghiscar
}
2980.1.1 = { holder=150360001 } # Gazdhor (nc)
3006.1.1 = { holder=100360001 } # Gorzhak (nc)
3035.1.1 = { holder=101360001 } # Grazdan (nc)
3071.1.1 = { holder=106360001 } # Grazdhan (nc)
3105.1.1 = { holder=110360001 } # Yezzan (nc)
3146.1.1 = { holder=115360001 } # Grazdan (nc)
3152.1.1 = { holder=116360001 } # Marghaz (nc)
3170.1.1 = { holder=121360001 } # Maezon (nc)
3223.1.1 = { holder=127360001 } # Grazdhan (nc)
3238.1.1 = { holder=130360001 } # Skahaz (nc)
3246.1.1 = { holder=134360001 } # Yurkhaz (nc)
3285.1.1={
	holder=6571000 # Kraznys
}
