900.1.1 ={
	law = succ_turkish_succession
	law = agnatic_succession
	law = centralization_0
	holder = 0
}

1000.1.1 ={
	holder = 904347			# Joramun
	law = centralization_2
}

1025.1.1 ={
	holder = 0
	law = centralization_0
}

