1.1.1={
	law = succ_primogeniture
	law = cognatic_succession
}
2882.2.1={holder=60400150} # Torrhen Blackwood
2917.11.7={holder=60300150} # Agnes Blackwood
2933.1.1 = {holder=60200150} # Brynden Blackwood
2980.1.1={holder=60000150} # Rodrik Blackwood
2995.1.1={holder=35150} # Theomar Blackwood

3006.1.1={
	holder=34150
}
3040.1.1={
	holder=33150
}
3054.1.1={
	holder=32150
}
3078.1.1={
	holder=31150
}
3109.1.1={
	holder=30150
}
3121.1.1={
	holder=150150
}
3129.8.1={
	holder=28150
}
3190.1.1={
	holder=26150
}
3205.1.1={
	holder=22150
}
3230.1.1={
	holder=21150
}
3258.1.1={
	holder=19150
}
3281.1.1={
	holder=150
}


