1.1.1={
	law = succ_primogeniture
	law = cognatic_succession
	effect = {
		holder_scope = {
			set_special_character_title = shadowking_male
		}	
	}
}
2956.1.1 = { holder=6000364 } # Jarmen (nc)
2980.1.1 = { holder=6002364 } # Triston (nc)
2998.2.1={ holder=6007364 } # Steffon (nc)
3021.1.1 = { holder=6009364 } # Robin (nc)
3035.1.1 = { holder=6012364 } # Florian (nc)
3057.1.1 = { holder=6019364 } # Ulmer (nc)
3100.1.1 = { holder=6022364 } # Dale (nc)
3129.10.1 = { holder=6025364 } # Jaremy (nc)
3154.1.1 = { holder=6029364 } # Monford (nc)
3189.1.1 = { holder=6035364 } # Allar (nc)
3199.1.1 = { holder=6038364 } # Will (nc)
3208.1.1 = { holder=6044364 } # Lucifer (nc)
3255.1.1 = { holder=6045364 } # Alyn
