1.1.1={
	law = succ_primogeniture
	law = cognatic_succession
}
2980.1.1 = { holder=300038 } # Robin (nc)
3005.1.1 = { holder=300138 } # Janos (nc)
3027.1.1 = { holder=300338 } # Alan (nc)
3082.1.1 = { holder=300738 } # Howard (nc)
3103.1.1 = { holder=300938 } # Ardrian (nc)
3130.1.26={ holder=301138 } # Rorge (nc)
3144.1.1 = { holder=301238 } # Jacelyn (nc)
3183.1.1 = { holder=301438 } # Bronn (nc)
3195.1.1 = { holder=301638 } # Mortimer (nc)
3200.1.1 = { holder=301938 } # Qarlton (nc)
3214.1.1 = { holder=302238 } # Ferret (nc)
3228.1.1={
	holder = 2039 	#Rymond Rosby
}
