1.1.1 = {
	liege = e_ghiscar
	law = slavery_2
	law = republic_law_oligarchy
	law = succ_feudal_elective
	law = agnatic_succession
	law = centralization_1
	effect = { add_law = republic_law_oligarchy }
}
2995.1.1 = { holder=1000208 } # Grazdhar (nc)
3030.1.1 = { holder=1001208 } # Yarkhaz (nc)
3082.1.1 = { holder=1002208 } # Morghaz (nc)
3109.1.1 = { holder=1005208 } # Reznak (nc)
3129.1.1 = { holder=1006208 } # Zaraq (nc)
3155.1.1 = { holder=1008208 } # Ghazdor (nc)
3193.1.1 = { holder=1009208 } # Grazdhar (nc)
3224.1.1 = { holder=1012208 } # Fendahl (nc)
3238.1.1 = { holder=1014208 } # Marghaz (nc)
3253.1.1 = { holder=1017208 } # Haznak (nc)
3283.1.1 = { holder=1021208 } # Skahaz (nc)
3316.1.1 = { holder=1023208 } # Fendahl (nc)


