1.1.1={
	law = succ_primogeniture
	liege = e_andalos
}
2980.1.1 = { holder=100174915 } # Osmund (nc)
3001.1.1={
	liege = 0
}
3021.1.1 = { holder=102174915 } # Symond (nc)
3038.1.1 = { holder=104174915 } # Horton (nc)
3069.1.1 = { holder=106174915 } # Royce (nc)
3077.1.1 = { holder=107174915 } # Rolley (nc)
3093.1.1 = { holder=112174915 } # Robar (nc)
3115.1.1 = { holder=114174915 } # Morton (nc)
3128.1.1 = { holder=116174915 } # Pate (nc)
3130.1.1 = { holder=119174915 } # Osfryd (nc)
3187.1.1 = { holder=123174915 } # Edmund (nc)
3245.1.1 = { holder=126174915 } # Elys (nc)
3263.1.1 = { holder=128174915 } # Wyl (nc)
3289.1.1 = { holder=133174915 } # Eon (nc)
