1.1.1={
	liege="e_yi_ti"
	law = succ_primogeniture
	law = agnatic_succession
	law = privilege_vassal_king
	effect = {
		add_law = privilege_vassal_king
	}
}
2995.1.1 = { holder=10069166 } # Wahab (nc)
3031.1.1 = { holder=10169166 } # Jabir (nc)
3058.1.1 = { holder=10569166 } # Mukhtar (nc)
3080.1.1 = { holder=10769166 } # Abdullah (nc)
3131.1.1 = { holder=11069166 } # Halil (nc)
3136.1.1 = { holder=11169166 } # Khaireddin (nc)
3185.1.1 = { holder=11369166 } # Ubayd (nc)
3191.1.1 = { holder=11769166 } # Hussayn (nc)
3210.1.1 = { holder=11969166 } # Qawurd (nc)
3265.1.1 = { holder=12269166 } # Azam (nc)
3276.1.1 = { holder=12769166 } # Jalil (nc)
3279.1.1 = { holder=13069166 } # Nizam (nc)


