#House Adiur#
10032901 = {
	name="Sumalika"	# a lord
	dynasty=32901

	religion="shadowbinders"
	culture="asshai"

	7055.1.1 = {birth="7055.1.1"}
	7071.1.1 = {add_trait=trained_warrior}
	7073.1.1 = {add_spouse=40032901}
	7128.1.1 = {death="7128.1.1"}
}
40032901 = {
	name="Quaithe"
	female=yes

	religion="shadowbinders"
	culture="asshai"

	7055.1.1 = {birth="7055.1.1"}
	7128.1.1 = {death="7128.1.1"}
}
10132901 = {
	name="Urnammu"	# not a lord
	dynasty=32901

	religion="shadowbinders"
	culture="asshai"

	father=10032901
	mother=40032901

	7076.1.1 = {birth="7076.1.1"}
	7092.1.1 = {add_trait=trained_warrior}
	7094.1.1 = {add_spouse=40132901}
	7117.1.1 = {death="7117.1.1"}
}
40132901 = {
	name="Belessa"
	female=yes

	religion="shadowbinders"
	culture="asshai"

	7076.1.1 = {birth="7076.1.1"}
	7117.1.1 = {death="7117.1.1"}
}
10232901 = {
	name="Quazur"	# not a lord
	dynasty=32901

	religion="shadowbinders"
	culture="asshai"

	father=10032901
	mother=40032901

	7078.1.1 = {birth="7078.1.1"}
	7094.1.1 = {add_trait=poor_warrior}
	7130.1.1 = {death="7130.1.1"}
}
10332901 = {
	name="Taram"	# not a lord
	female=yes
	dynasty=32901

	religion="shadowbinders"
	culture="asshai"

	father=10032901
	mother=40032901

	7079.1.1 = {birth="7079.1.1"}
	7111.1.1 = {death="7111.1.1"}
}
10432901 = {
	name="Sapurtum"	# not a lord
	female=yes
	dynasty=32901

	religion="shadowbinders"
	culture="asshai"

	father=10132901
	mother=40132901

	7095.1.1 = {birth="7095.1.1"}
	7178.1.1 = {death="7178.1.1"}
}
10532901 = {
	name="Awil"	# a lord
	dynasty=32901

	religion="shadowbinders"
	culture="asshai"

	father=10132901
	mother=40132901

	7097.1.1 = {birth="7097.1.1"}
	7113.1.1 = {add_trait=poor_warrior}
	7115.1.1 = {add_spouse=40532901}
	7143.1.1 = {death="7143.1.1"}
}
40532901 = {
	name="Aya"
	female=yes

	religion="shadowbinders"
	culture="asshai"

	7097.1.1 = {birth="7097.1.1"}
	7143.1.1 = {death="7143.1.1"}
}
10632901 = {
	name="Munawirtum"	# not a lord
	dynasty=32901

	religion="shadowbinders"
	culture="asshai"

	father=10132901
	mother=40132901

	7098.1.1 = {birth="7098.1.1"}
	7114.1.1 = {add_trait=poor_warrior}
	7162.1.1 = {death="7162.1.1"}
}
10732901 = {
	name="Dadanum"	# a lord
	dynasty=32901

	religion="shadowbinders"
	culture="asshai"

	father=10532901
	mother=40532901

	7121.1.1 = {birth="7121.1.1"}
	7137.1.1 = {add_trait=trained_warrior}
	7139.1.1 = {add_spouse=40732901}
	7154.1.1 = {death = {death_reason = death_murder}}
}
40732901 = {
	name="Aya"
	female=yes

	religion="shadowbinders"
	culture="asshai"

	7121.1.1 = {birth="7121.1.1"}
	7154.1.1 = {death="7154.1.1"}
}
10832901 = {
	name="Ishtup"	# not a lord
	dynasty=32901

	religion="shadowbinders"
	culture="asshai"

	father=10532901
	mother=40532901

	7122.1.1 = {birth="7122.1.1"}
	7138.1.1 = {add_trait=skilled_warrior}
	7140.1.1 = {add_spouse=40832901}
	7171.1.1 = {death="7171.1.1"}
}
40832901 = {
	name="Gemethega"
	female=yes

	religion="shadowbinders"
	culture="asshai"

	7122.1.1 = {birth="7122.1.1"}
	7171.1.1 = {death="7171.1.1"}
}
10932901 = {
	name="Bikku"	# not a lord
	female=yes
	dynasty=32901

	religion="shadowbinders"
	culture="asshai"

	father=10532901
	mother=40532901

	7125.1.1 = {birth="7125.1.1"}
	7161.1.1 = {death="7161.1.1"}
}
11032901 = {
	name="Enheduana"	# not a lord
	female=yes
	dynasty=32901

	religion="shadowbinders"
	culture="asshai"

	father=10532901
	mother=40532901

	7128.1.1 = {birth="7128.1.1"}
	7170.1.1 = {death="7170.1.1"}
}
11132901 = {
	name="Mamagal"	# a lord
	dynasty=32901

	religion="shadowbinders"
	culture="asshai"

	father=10732901
	mother=40732901

	7148.1.1 = {birth="7148.1.1"}
	7164.1.1 = {add_trait=poor_warrior}
	7166.1.1 = {add_spouse=41132901}
	7214.1.1 = {death="7214.1.1"}
}
41132901 = {
	name="Ishtare"
	female=yes

	religion="shadowbinders"
	culture="asshai"

	7148.1.1 = {birth="7148.1.1"}
	7214.1.1 = {death="7214.1.1"}
}
11232901 = {
	name="Nammu"	# not a lord
	female=yes
	dynasty=32901

	religion="shadowbinders"
	culture="asshai"

	father=10832901
	mother=40832901

	7147.1.1 = {birth="7147.1.1"}
	7189.1.1 = {death = {death_reason = death_accident}}
}
11332901 = {
	name="Bunuth"	# not a lord
	dynasty=32901

	religion="shadowbinders"
	culture="asshai"

	father=10832901
	mother=40832901

	7150.1.1 = {birth="7150.1.1"}
	7166.1.1 = {add_trait=trained_warrior}
	7202.1.1 = {death="7202.1.1"}
}
11432901 = {
	name="Tehuth"	# not a lord
	dynasty=32901

	religion="shadowbinders"
	culture="asshai"

	father=10832901
	mother=40832901

	7153.1.1 = {birth="7153.1.1"}
	7169.1.1 = {add_trait=trained_warrior}
	7206.1.1 = {death="7206.1.1"}
}
11532901 = {
	name="Damuzi"	# a lord
	dynasty=32901

	religion="shadowbinders"
	culture="asshai"

	father=11132901
	mother=41132901

	7179.1.1 = {birth="7179.1.1"}
	7195.1.1 = {add_trait=trained_warrior}
	7197.1.1 = {add_spouse=41532901}
	7233.1.1 = {death="7233.1.1"}
}
41532901 = {
	name="Daqqartum"
	female=yes

	religion="shadowbinders"
	culture="asshai"

	7179.1.1 = {birth="7179.1.1"}
	7233.1.1 = {death="7233.1.1"}
}
11632901 = {
	name="Ubaruth"	# not a lord
	dynasty=32901

	religion="shadowbinders"
	culture="asshai"

	father=11132901
	mother=41132901

	7181.1.1 = {birth="7181.1.1"}
	7197.1.1 = {add_trait=trained_warrior}
	7251.1.1 = {death="7251.1.1"}
}
11732901 = {
	name="Dadazig"	# not a lord
	dynasty=32901

	religion="shadowbinders"
	culture="asshai"

	father=11132901
	mother=41132901

	7182.1.1 = {birth="7182.1.1"}
	7198.1.1 = {add_trait=poor_warrior}
	7247.1.1 = {death="7247.1.1"}
}
11832901 = {
	name="Quaithe"	# not a lord
	female=yes
	dynasty=32901

	religion="shadowbinders"
	culture="asshai"

	father=11532901
	mother=41532901

	7202.1.1 = {birth="7202.1.1"}
	7251.1.1 = {death="7251.1.1"}
}
11932901 = {
	name="Qasmath"	# a lord
	dynasty=32901

	religion="shadowbinders"
	culture="asshai"

	father=11532901
	mother=41532901

	7204.1.1 = {birth="7204.1.1"}
	7220.1.1 = {add_trait=skilled_warrior}
	7222.1.1 = {add_spouse=41932901}
	7247.1.1 = {death="7247.1.1"}
}
41932901 = {
	name="Aya"
	female=yes

	religion="shadowbinders"
	culture="asshai"

	7204.1.1 = {birth="7204.1.1"}
	7247.1.1 = {death="7247.1.1"}
}
12032901 = {
	name="Shepsin"	# not a lord
	dynasty=32901

	religion="shadowbinders"
	culture="asshai"

	father=11532901
	mother=41532901

	7207.1.1 = {birth="7207.1.1"}
	7223.1.1 = {add_trait=trained_warrior}
	7225.1.1 = {add_spouse=42032901}
	7248.1.1 = {death="7248.1.1"}
}
42032901 = {
	name="Daqqartum"
	female=yes

	religion="shadowbinders"
	culture="asshai"

	7207.1.1 = {birth="7207.1.1"}
	7248.1.1 = {death="7248.1.1"}
}
12132901 = {
	name="Samuqan"	# a lord
	dynasty=32901

	religion="shadowbinders"
	culture="asshai"

	father=11932901
	mother=41932901

	7231.1.1 = {birth="7231.1.1"}
	7247.1.1 = {add_trait=poor_warrior}
	7249.1.1 = {add_spouse=42132901}
	7276.1.1 = {death="7276.1.1"}
}
42132901 = {
	name="Ahassuth"
	female=yes

	religion="shadowbinders"
	culture="asshai"

	7231.1.1 = {birth="7231.1.1"}
	7276.1.1 = {death="7276.1.1"}
}
12232901 = {
	name="Kithar"	# not a lord
	female=yes
	dynasty=32901

	religion="shadowbinders"
	culture="asshai"

	father=11932901
	mother=41932901

	7232.1.1 = {birth="7232.1.1"}
	7289.1.1 = {death="7289.1.1"}
}
12332901 = {
	name="Bau"	# not a lord
	female=yes
	dynasty=32901

	religion="shadowbinders"
	culture="asshai"

	father=12032901
	mother=42032901

	7235.1.1 = {birth="7235.1.1"}
	7269.1.1 = {death="7269.1.1"}
}
12432901 = {
	name="Erethkiga"	# not a lord
	female=yes
	dynasty=32901

	religion="shadowbinders"
	culture="asshai"

	father=12032901
	mother=42032901

	7237.1.1 = {birth="7237.1.1"}
	7265.1.1 = {death="7265.1.1"}
}
12532901 = {
	name="Utu"	# a lord
	dynasty=32901

	religion="shadowbinders"
	culture="asshai"

	father=12032901
	mother=42032901

	7239.1.1 = {birth="7239.1.1"}
	7255.1.1 = {add_trait=poor_warrior}
	7257.1.1 = {add_spouse=42532901}
	7315.1.1 = {death = {death_reason = death_accident}}
}
42532901 = {
	name="Gemithe"
	female=yes

	religion="shadowbinders"
	culture="asshai"

	7239.1.1 = {birth="7239.1.1"}
	7315.1.1 = {death="7315.1.1"}
}
12632901 = {
	name="Hunhal"	# not a lord
	dynasty=32901

	religion="shadowbinders"
	culture="asshai"

	father=12032901
	mother=42032901

	7241.1.1 = {birth="7241.1.1"}
	7257.1.1 = {add_trait=poor_warrior}
	7298.1.1 = {death="7298.1.1"}
}
12732901 = {
	name="Humbab"	# not a lord
	dynasty=32901

	religion="shadowbinders"
	culture="asshai"

	father=12532901
	mother=42532901

	7264.1.1 = {birth="7264.1.1"}
	7280.1.1 = {add_trait=skilled_warrior}
	7282.1.1 = {add_spouse=42732901}
	7305.1.1 = {death = {death_reason = death_accident}}
}
42732901 = {
	name="Nindukugga"
	female=yes

	religion="shadowbinders"
	culture="asshai"

	7264.1.1 = {birth="7264.1.1"}
	7305.1.1 = {death="7305.1.1"}
}
12832901 = {
	name="Ninsun"	# not a lord
	female=yes
	dynasty=32901

	religion="shadowbinders"
	culture="asshai"

	father=12532901
	mother=42532901

	7267.1.1 = {birth="7267.1.1"}
	7321.1.1 = {death="7321.1.1"}
}
12932901 = {
	name="Ibnatum"	# a lord
	dynasty=32901

	religion="shadowbinders"
	culture="asshai"

	father=12732901
	mother=42732901

	7284.1.1 = {birth="7284.1.1"}
	7300.1.1 = {add_trait=trained_warrior}
	7302.1.1 = {add_spouse=42932901}
	7340.1.1 = {death="7340.1.1"}
}
42932901 = {
	name="Erethe"
	female=yes

	religion="shadowbinders"
	culture="asshai"

	7284.1.1 = {birth="7284.1.1"}
	7340.1.1 = {death="7340.1.1"}
}
13032901 = {
	name="Quazur"	# not a lord
	dynasty=32901

	religion="shadowbinders"
	culture="asshai"

	father=12732901
	mother=42732901

	7287.1.1 = {birth="7287.1.1"}
	7303.1.1 = {add_trait=skilled_warrior}
	7338.1.1 = {death="7338.1.1"}
}
13132901 = {
	name="Ishtup"	# not a lord
	dynasty=32901

	religion="shadowbinders"
	culture="asshai"

	father=12732901
	mother=42732901

	7289.1.1 = {birth="7289.1.1"}
	7305.1.1 = {add_trait=poor_warrior}
	7332.1.1 = {death="7332.1.1"}
}
13232901 = {
	name="Ahassuth"	# not a lord
	female=yes
	dynasty=32901

	religion="shadowbinders"
	culture="asshai"

	father=12732901
	mother=42732901

	7290.1.1 = {birth="7290.1.1"}
	7326.1.1 = {death="7326.1.1"}
}
13332901 = {
	name="Qasmath"	# a lord
	dynasty=32901

	religion="shadowbinders"
	culture="asshai"

	father=12932901
	mother=42932901

	7312.1.1 = {birth="7312.1.1"}
	7328.1.1 = {add_trait=poor_warrior}
	7330.1.1 = {add_spouse=43332901}
	7373.1.1 = {death="7373.1.1"}
}
43332901 = {
	name="Ninsun"
	female=yes

	religion="shadowbinders"
	culture="asshai"

	7312.1.1 = {birth="7312.1.1"}
	7373.1.1 = {death="7373.1.1"}
}
13432901 = {
	name="Murrim"	# not a lord
	female=yes
	dynasty=32901

	religion="shadowbinders"
	culture="asshai"

	father=12932901
	mother=42932901

	7314.1.1 = {birth="7314.1.1"}
	7355.1.1 = {death="7355.1.1"}
}
13532901 = {
	name="Nammu"	# not a lord
	female=yes
	dynasty=32901

	religion="shadowbinders"
	culture="asshai"

	father=13332901
	mother=43332901

	7330.1.1 = {birth="7330.1.1"}
	7369.1.1 = {death="7369.1.1"}
}
13632901 = {
	name="Bunuth"	# a lord
	dynasty=32901

	religion="shadowbinders"
	culture="asshai"

	father=13332901
	mother=43332901

	7333.1.1 = {birth="7333.1.1"}
	7349.1.1 = {add_trait=skilled_warrior}
	7351.1.1 = {add_spouse=43632901}
	7374.1.1 = {death="7374.1.1"}
}
43632901 = {
	name="Erethkiga"
	female=yes

	religion="shadowbinders"
	culture="asshai"

	7333.1.1 = {birth="7333.1.1"}
	7374.1.1 = {death="7374.1.1"}
}
13732901 = {
	name="Enlil"	# not a lord
	dynasty=32901

	religion="shadowbinders"
	culture="asshai"

	father=13332901
	mother=43332901

	7334.1.1 = {birth="7334.1.1"}
	7350.1.1 = {add_trait=poor_warrior}
	7391.1.1 = {death="7391.1.1"}
}
13832901 = {
	name="Nanna"	# not a lord
	female=yes
	dynasty=32901

	religion="shadowbinders"
	culture="asshai"

	father=13332901
	mother=43332901

	7335.1.1 = {birth="7335.1.1"}
	7388.1.1 = {death="7388.1.1"}
}
13932901 = {
	name="Yatum"	# a lord
	dynasty=32901

	religion="shadowbinders"
	culture="asshai"

	father=13632901
	mother=43632901

	7358.1.1 = {birth="7358.1.1"}
	7374.1.1 = {add_trait=poor_warrior}
	7376.1.1 = {add_spouse=43932901}
}
43932901 = {
	name="Erethe"
	female=yes

	religion="shadowbinders"
	culture="asshai"

	7358.1.1 = {birth="7358.1.1"}
}
14032901 = {
	name="Quaithe"	# not a lord
	female=yes
	dynasty=32901
	
	martial = 2
	stewardship = 3
	intrigue = 7
	learning = 8
	diplomacy = 7

	religion="shadowbinders"
	culture="asshai"

	father=13632901
	mother=43632901
	
	add_trait = elusive_shadow
	
	7359.1.1 = {birth="7359.1.1"}
	7379.1.1 = {
		add_trait = shadowbinder
		add_trait = mystic
		effect = {
			k_asshai = { holder_scope = { ROOT = { move_character = PREV } } }
		}
	}
}
14132901 = {
	name="Bunuth"	# not a lord
	dynasty=32901

	religion="shadowbinders"
	culture="asshai"

	father=13632901
	mother=43632901

	7362.1.1 = {birth="7362.1.1"}
	7378.1.1 = {add_trait=trained_warrior}
	7380.1.1 = {add_spouse=44132901}
}
44132901 = {
	name="Nammu"
	female=yes

	religion="shadowbinders"
	culture="asshai"

	7362.1.1 = {birth="7362.1.1"}
}
14232901 = {
	name="Mushtal"	# not a lord
	dynasty=32901

	religion="shadowbinders"
	culture="asshai"

	father=13932901
	mother=43932901

	7379.1.1 = {birth="7379.1.1"}
	7395.1.1 = {add_trait=trained_warrior}
}
14332901 = {
	name="Gemethega"	# not a lord
	female=yes
	dynasty=32901

	religion="shadowbinders"
	culture="asshai"

	father=14132901
	mother=44132901

	7394.1.1 = {birth="7394.1.1"}
}
14432901 = {
	name="Nintuda"	# not a lord
	female=yes
	dynasty=32901

	religion="shadowbinders"
	culture="asshai"

	father=14132901
	mother=44132901

	7396.1.1 = {birth="7396.1.1"}
}
14532901 = {
	name="Munawirtum"	# not a lord
	dynasty=32901

	religion="shadowbinders"
	culture="asshai"

	father=14132901
	mother=44132901

	7399.1.1 = {birth="7399.1.1"}
	7415.1.1 = {add_trait=trained_warrior}
}
##Manpos
10033911 = {
	name="Kurum"	# a lord
	dynasty=33911

	religion="shadowbinders"
	culture="shadowlander"

	7072.1.1 = {birth="7072.1.1"}
	7088.1.1 = {add_trait=trained_warrior}
	7090.1.1 = {add_spouse=40033911}
	7134.1.1 = {death="7134.1.1"}
}
40033911 = {
	name="Urbau"
	female=yes

	religion="shadowbinders"
	culture="shadowlander"

	7072.1.1 = {birth="7072.1.1"}
	7134.1.1 = {death="7134.1.1"}
}
10133911 = {
	name="Belessa"	# not a lord
	female=yes
	dynasty=33911

	religion="shadowbinders"
	culture="shadowlander"

	father=10033911
	mother=40033911

	7092.1.1 = {birth="7092.1.1"}
	7160.1.1 = {death="7160.1.1"}
}
10233911 = {
	name="Yasmath"	# a lord
	dynasty=33911

	religion="shadowbinders"
	culture="shadowlander"

	father=10033911
	mother=40033911

	7094.1.1 = {birth="7094.1.1"}
	7110.1.1 = {add_trait=poor_warrior}
	7112.1.1 = {add_spouse=40233911}
	7143.1.1 = {death="7143.1.1"}
}
40233911 = {
	name="Quaithe"
	female=yes

	religion="shadowbinders"
	culture="shadowlander"

	7094.1.1 = {birth="7094.1.1"}
	7143.1.1 = {death="7143.1.1"}
}
10333911 = {
	name="Sapurtum"	# not a lord
	female=yes
	dynasty=33911

	religion="shadowbinders"
	culture="shadowlander"

	father=10033911
	mother=40033911

	7096.1.1 = {birth="7096.1.1"}
	7158.1.1 = {death="7158.1.1"}
}
10433911 = {
	name="Wusum"	# not a lord
	dynasty=33911

	religion="shadowbinders"
	culture="shadowlander"

	father=10033911
	mother=40033911

	7097.1.1 = {birth="7097.1.1"}
	7113.1.1 = {add_trait=skilled_warrior}
	7152.1.1 = {death="7152.1.1"}
}
10533911 = {
	name="Mushtal"	# a lord
	dynasty=33911

	religion="shadowbinders"
	culture="shadowlander"

	father=10233911
	mother=40233911

	7117.1.1 = {birth="7117.1.1"}
	7133.1.1 = {add_trait=poor_warrior}
	7135.1.1 = {add_spouse=40533911}
	7172.1.1 = {death="7172.1.1"}
}
40533911 = {
	name="Urbau"
	female=yes

	religion="shadowbinders"
	culture="shadowlander"

	7117.1.1 = {birth="7117.1.1"}
	7172.1.1 = {death="7172.1.1"}
}
10633911 = {
	name="Qasmath"	# not a lord
	dynasty=33911

	religion="shadowbinders"
	culture="shadowlander"

	father=10233911
	mother=40233911

	7119.1.1 = {birth="7119.1.1"}
	7135.1.1 = {add_trait=poor_warrior}
	7144.1.1 = {death="7144.1.1"}
}
10733911 = {
	name="Zimu"	# not a lord
	female=yes
	dynasty=33911

	religion="shadowbinders"
	culture="shadowlander"

	father=10233911
	mother=40233911

	7121.1.1 = {birth="7121.1.1"}
	7152.1.1 = {death="7152.1.1"}
}
10833911 = {
	name="Erethe"	# not a lord
	female=yes
	dynasty=33911

	religion="shadowbinders"
	culture="shadowlander"

	father=10233911
	mother=40233911

	7123.1.1 = {birth="7123.1.1"}
	7175.1.1 = {death="7175.1.1"}
}
10933911 = {
	name="Erethkiga"	# not a lord
	female=yes
	dynasty=33911

	religion="shadowbinders"
	culture="shadowlander"

	father=10533911
	mother=40533911

	7140.1.1 = {birth="7140.1.1"}
	7198.1.1 = {death="7198.1.1"}
}
11033911 = {
	name="Arganth"	# a lord
	dynasty=33911

	religion="shadowbinders"
	culture="shadowlander"

	father=10533911
	mother=40533911

	7143.1.1 = {birth="7143.1.1"}
	7159.1.1 = {add_trait=trained_warrior}
	7161.1.1 = {add_spouse=41033911}
	7190.1.1 = {death="7190.1.1"}
}
41033911 = {
	name="Ninsun"
	female=yes

	religion="shadowbinders"
	culture="shadowlander"

	7143.1.1 = {birth="7143.1.1"}
	7190.1.1 = {death="7190.1.1"}
}
11133911 = {
	name="Murrim"	# not a lord
	female=yes
	dynasty=33911

	religion="shadowbinders"
	culture="shadowlander"

	father=10533911
	mother=40533911

	7145.1.1 = {birth="7145.1.1"}
	7208.1.1 = {death="7208.1.1"}
}
11233911 = {
	name="Urbau"	# not a lord
	female=yes
	dynasty=33911

	religion="shadowbinders"
	culture="shadowlander"

	father=11033911
	mother=41033911

	7178.1.1 = {birth="7178.1.1"}
	7238.1.1 = {death="7238.1.1"}
}
11333911 = {
	name="Belshun"	# a lord
	dynasty=33911

	religion="shadowbinders"
	culture="shadowlander"

	father=11033911
	mother=41033911

	7181.1.1 = {birth="7181.1.1"}
	7197.1.1 = {add_trait=trained_warrior}
	7199.1.1 = {add_spouse=41333911}
	7254.1.1 = {death="7254.1.1"}
}
41333911 = {
	name="Ilutha"
	female=yes

	religion="shadowbinders"
	culture="shadowlander"

	7181.1.1 = {birth="7181.1.1"}
	7254.1.1 = {death="7254.1.1"}
}
11433911 = {
	name="Ilutha"	# not a lord
	female=yes
	dynasty=33911

	religion="shadowbinders"
	culture="shadowlander"

	father=11033911
	mother=41033911

	7183.1.1 = {birth="7183.1.1"}
	7223.1.1 = {death="7223.1.1"}
}
11533911 = {
	name="Shullat"	# not a lord
	dynasty=33911

	religion="shadowbinders"
	culture="shadowlander"

	father=11033911
	mother=41033911

	7185.1.1 = {birth="7185.1.1"}
	7201.1.1 = {add_trait=trained_warrior}
	7203.1.1 = {add_spouse=41533911}
	7239.1.1 = {death="7239.1.1"}
}
41533911 = {
	name="Enheduana"
	female=yes

	religion="shadowbinders"
	culture="shadowlander"

	7185.1.1 = {birth="7185.1.1"}
	7239.1.1 = {death="7239.1.1"}
}
11633911 = {
	name="Belessa"	# not a lord
	female=yes
	dynasty=33911

	religion="shadowbinders"
	culture="shadowlander"

	father=11333911
	mother=41333911

	7215.1.1 = {birth="7215.1.1"}
	7247.1.1 = {death="7247.1.1"}
}
11733911 = {
	name="Ninhursag"	# not a lord
	female=yes
	dynasty=33911

	religion="shadowbinders"
	culture="shadowlander"

	father=11333911
	mother=41333911

	7217.1.1 = {birth="7217.1.1"}
	7264.1.1 = {death = {death_reason = death_accident}}
}
11833911 = {
	name="Erethkiga"	# not a lord
	female=yes
	dynasty=33911

	religion="shadowbinders"
	culture="shadowlander"

	father=11333911
	mother=41333911

	7220.1.1 = {birth="7220.1.1"}
	7286.1.1 = {death="7286.1.1"}
}
11933911 = {
	name="Lugatum"	# a lord
	dynasty=33911

	religion="shadowbinders"
	culture="shadowlander"

	father=11333911
	mother=41333911

	7222.1.1 = {birth="7222.1.1"}
	7238.1.1 = {add_trait=poor_warrior}
	7240.1.1 = {add_spouse=41933911}
	7264.1.1 = {death="7264.1.1"}
}
41933911 = {
	name="Nanna"
	female=yes

	religion="shadowbinders"
	culture="shadowlander"

	7222.1.1 = {birth="7222.1.1"}
	7264.1.1 = {death="7264.1.1"}
}
12033911 = {
	name="Gemithe"	# not a lord
	female=yes
	dynasty=33911

	religion="shadowbinders"
	culture="shadowlander"

	father=11933911
	mother=41933911

	7256.1.1 = {birth="7256.1.1"}
	7289.1.1 = {death="7289.1.1"}
}
12133911 = {
	name="Ninsun"	# not a lord
	female=yes
	dynasty=33911

	religion="shadowbinders"
	culture="shadowlander"

	father=11533911
	mother=41533911

	7208.1.1 = {birth="7208.1.1"}
	7263.1.1 = {death="7263.1.1"}
}
12233911 = {
	name="Kugbau"	# a lord
	dynasty=33911

	religion="shadowbinders"
	culture="shadowlander"

	father=11533911
	mother=41533911

	7211.1.1 = {birth="7211.1.1"}
	7227.1.1 = {add_trait=poor_warrior}
	7229.1.1 = {add_spouse=42233911}
	7288.1.1 = {death="7288.1.1"}
}
42233911 = {
	name="Eala"
	female=yes

	religion="shadowbinders"
	culture="shadowlander"

	7211.1.1 = {birth="7211.1.1"}
	7288.1.1 = {death="7288.1.1"}
}
12333911 = {
	name="Irrara"	# not a lord
	dynasty=33911

	religion="shadowbinders"
	culture="shadowlander"

	father=11533911
	mother=41533911

	7213.1.1 = {birth="7213.1.1"}
	7229.1.1 = {add_trait=trained_warrior}
	7231.1.1 = {add_spouse=42333911}
	7255.1.1 = {death="7255.1.1"}
}
42333911 = {
	name="Zimu"
	female=yes

	religion="shadowbinders"
	culture="shadowlander"

	7213.1.1 = {birth="7213.1.1"}
	7255.1.1 = {death="7255.1.1"}
}
12433911 = {
	name="Erethkiga"	# not a lord
	female=yes
	dynasty=33911

	religion="shadowbinders"
	culture="shadowlander"

	father=12233911
	mother=42233911

	7236.1.1 = {birth="7236.1.1"}
	7312.1.1 = {death="7312.1.1"}
}
12533911 = {
	name="Nammu"	# not a lord
	female=yes
	dynasty=33911

	religion="shadowbinders"
	culture="shadowlander"

	father=12333911
	mother=42333911

	7236.1.1 = {birth="7236.1.1"}
	7289.1.1 = {death="7289.1.1"}
}
12633911 = {
	name="Munawirtum"	# a lord
	dynasty=33911

	religion="shadowbinders"
	culture="shadowlander"

	father=12333911
	mother=42333911

	7237.1.1 = {birth="7237.1.1"}
	7253.1.1 = {add_trait=trained_warrior}
	7255.1.1 = {add_spouse=42633911}
	7300.1.1 = {death="7300.1.1"}
}
42633911 = {
	name="Nindukugga"
	female=yes

	religion="shadowbinders"
	culture="shadowlander"

	7237.1.1 = {birth="7237.1.1"}
	7300.1.1 = {death="7300.1.1"}
}
12733911 = {
	name="Zimu"	# not a lord
	female=yes
	dynasty=33911

	religion="shadowbinders"
	culture="shadowlander"

	father=12633911
	mother=42633911

	7257.1.1 = {birth="7257.1.1"}
	7289.1.1 = {death="7289.1.1"}
}
12833911 = {
	name="Ibnatum"	# a lord
	dynasty=33911

	religion="shadowbinders"
	culture="shadowlander"

	father=12633911
	mother=42633911

	7259.1.1 = {birth="7259.1.1"}
	7275.1.1 = {add_trait=skilled_warrior}
	7277.1.1 = {add_spouse=42833911}
	7315.1.1 = {death="7315.1.1"}
}
42833911 = {
	name="Ahassuth"
	female=yes

	religion="shadowbinders"
	culture="shadowlander"

	7259.1.1 = {birth="7259.1.1"}
	7315.1.1 = {death="7315.1.1"}
}
12933911 = {
	name="Ninsun"	# not a lord
	female=yes
	dynasty=33911

	religion="shadowbinders"
	culture="shadowlander"

	father=12633911
	mother=42633911

	7262.1.1 = {birth="7262.1.1"}
	7316.1.1 = {death="7316.1.1"}
}
13033911 = {
	name="Sumalika"	# a lord
	dynasty=33911

	religion="shadowbinders"
	culture="shadowlander"

	father=12633911
	mother=42633911

	7265.1.1 = {birth="7265.1.1"}
	7281.1.1 = {add_trait=trained_warrior}
	7283.1.1 = {add_spouse=43033911}
	7323.1.1 = {death="7323.1.1"}
}
43033911 = {
	name="Irkalla"
	female=yes

	religion="shadowbinders"
	culture="shadowlander"

	7265.1.1 = {birth="7265.1.1"}
	7323.1.1 = {death="7323.1.1"}
}
13133911 = {
	name="Puabi"	# not a lord
	female=yes
	dynasty=33911

	religion="shadowbinders"
	culture="shadowlander"

	father=12833911
	mother=42833911

	7293.1.1 = {birth="7293.1.1"}
	7356.1.1 = {death="7356.1.1"}
}
13233911 = {
	name="Iluath"	# a lord
	dynasty=33911

	religion="shadowbinders"
	culture="shadowlander"

	father=13033911
	mother=43033911

	7297.1.1 = {birth="7297.1.1"}
	7313.1.1 = {add_trait=poor_warrior}
	7315.1.1 = {add_spouse=43233911}
	7372.1.1 = {death="7372.1.1"}
}
43233911 = {
	name="Zimu"
	female=yes

	religion="shadowbinders"
	culture="shadowlander"

	7297.1.1 = {birth="7297.1.1"}
	7372.1.1 = {death="7372.1.1"}
}
13333911 = {
	name="Lugatum"	# not a lord
	dynasty=33911

	religion="shadowbinders"
	culture="shadowlander"

	father=13033911
	mother=43033911

	7299.1.1 = {birth="7299.1.1"}
	7315.1.1 = {add_trait=skilled_warrior}
	7351.1.1 = {death = {death_reason = death_murder}}
}
13433911 = {
	name="Bikku"	# not a lord
	female=yes
	dynasty=33911

	religion="shadowbinders"
	culture="shadowlander"

	father=13033911
	mother=43033911

	7301.1.1 = {birth="7301.1.1"}
	7340.1.1 = {death="7340.1.1"}
}
13533911 = {
	name="Ubaruth"	# not a lord
	dynasty=33911

	religion="shadowbinders"
	culture="shadowlander"

	father=13033911
	mother=43033911

	7302.1.1 = {birth="7302.1.1"}
	7318.1.1 = {add_trait=poor_warrior}
	7337.1.1 = {death="7337.1.1"}
}
13633911 = {
	name="Daqqartum"	# not a lord
	female=yes
	dynasty=33911

	religion="shadowbinders"
	culture="shadowlander"

	father=13033911
	mother=43033911

	7303.1.1 = {birth="7303.1.1"}
	7355.1.1 = {death="7355.1.1"}
}
13733911 = {
	name="Shepsin"	# a lord
	dynasty=33911

	religion="shadowbinders"
	culture="shadowlander"

	father=13233911
	mother=43233911

	7317.1.1 = {birth="7317.1.1"}
	7333.1.1 = {add_trait=skilled_warrior}
	7335.1.1 = {add_spouse=43733911}
	7397.1.1 = {death="7397.1.1"}
}
43733911 = {
	name="Ilutha"
	female=yes

	religion="shadowbinders"
	culture="shadowlander"

	7317.1.1 = {birth="7317.1.1"}
	7397.1.1 = {death="7397.1.1"}
}
13833911 = {
	name="Aya"	# not a lord
	female=yes
	dynasty=33911

	religion="shadowbinders"
	culture="shadowlander"

	father=13233911
	mother=43233911

	7318.1.1 = {birth="7318.1.1"}
	7385.1.1 = {death="7385.1.1"}
}
13933911 = {
	name="Urbau"	# not a lord
	female=yes
	dynasty=33911

	religion="shadowbinders"
	culture="shadowlander"

	father=13233911
	mother=43233911

	7321.1.1 = {birth="7321.1.1"}
	7362.1.1 = {death="7362.1.1"}
}
14033911 = {
	name="Gudeath"	# not a lord
	dynasty=33911

	religion="shadowbinders"
	culture="shadowlander"

	father=13233911
	mother=43233911

	7322.1.1 = {birth="7322.1.1"}
	7338.1.1 = {add_trait=trained_warrior}
	7381.1.1 = {death="7381.1.1"}
}
14133911 = {
	name="Eala"	# not a lord
	female=yes
	dynasty=33911

	religion="shadowbinders"
	culture="shadowlander"

	father=13733911
	mother=43733911

	7342.1.1 = {birth="7342.1.1"}
	7389.1.1 = {death="7389.1.1"}
}
14233911 = {
	name="Shusuen"	# a lord
	dynasty=33911

	religion="shadowbinders"
	culture="shadowlander"

	father=13733911
	mother=43733911

	7344.1.1 = {birth="7344.1.1"}
	7360.1.1 = {add_trait=trained_warrior}
	7362.1.1 = {add_spouse=44233911}
}
44233911 = {
	name="Anu"
	female=yes

	religion="shadowbinders"
	culture="shadowlander"

	7344.1.1 = {birth="7344.1.1"}
}
14333911 = {
	name="Lipith"	# not a lord
	dynasty=33911

	religion="shadowbinders"
	culture="shadowlander"

	father=13733911
	mother=43733911

	7345.1.1 = {birth="7345.1.1"}
	7361.1.1 = {add_trait=trained_warrior}
	7363.1.1 = {add_spouse=44333911}
	7395.1.1 = {death="7395.1.1"}
}
44333911 = {
	name="Ahassuth"
	female=yes

	religion="shadowbinders"
	culture="shadowlander"

	7345.1.1 = {birth="7345.1.1"}
	7395.1.1 = {death="7395.1.1"}
}
14433911 = {
	name="Lugatum"	# not a lord
	dynasty=33911

	religion="shadowbinders"
	culture="shadowlander"

	father=14233911
	mother=44233911

	7369.1.1 = {birth="7369.1.1"}
	7385.1.1 = {add_trait=trained_warrior}
}
14533911 = {
	name="Utu"	# not a lord
	dynasty=33911

	religion="shadowbinders"
	culture="shadowlander"

	father=14333911
	mother=44333911

	7373.1.1 = {birth="7373.1.1"}
	7389.1.1 = {add_trait=trained_warrior}
}
##Kumirai
10033914 = {
	name="Samuqan"	# a lord
	dynasty=33914

	religion="shadowbinders"
	culture="shadowlander"

	7044.1.1 = {birth="7044.1.1"}
	7060.1.1 = {add_trait=trained_warrior}
	7062.1.1 = {add_spouse=40033914}
	7109.1.1 = {death="7109.1.1"}
}
40033914 = {
	name="Bau"
	female=yes

	religion="shadowbinders"
	culture="shadowlander"

	7044.1.1 = {birth="7044.1.1"}
	7109.1.1 = {death="7109.1.1"}
}
10133914 = {
	name="La'um"	# a lord
	dynasty=33914

	religion="shadowbinders"
	culture="shadowlander"

	father=10033914
	mother=40033914

	7076.1.1 = {birth="7076.1.1"}
	7092.1.1 = {add_trait=trained_warrior}
	7094.1.1 = {add_spouse=40133914}
	7136.1.1 = {death="7136.1.1"}
}
40133914 = {
	name="Delondra"
	female=yes

	religion="shadowbinders"
	culture="shadowlander"

	7076.1.1 = {birth="7076.1.1"}
	7136.1.1 = {death="7136.1.1"}
}
10233914 = {
	name="Taram"	# not a lord
	female=yes
	dynasty=33914

	religion="shadowbinders"
	culture="shadowlander"

	father=10033914
	mother=40033914

	7078.1.1 = {birth="7078.1.1"}
	7156.1.1 = {death="7156.1.1"}
}
10333914 = {
	name="Humbab"	# a lord
	dynasty=33914

	religion="shadowbinders"
	culture="shadowlander"

	father=10033914
	mother=40033914

	7081.1.1 = {birth="7081.1.1"}
	7097.1.1 = {add_trait=trained_warrior}
	7099.1.1 = {add_spouse=40333914}
	7154.1.1 = {death="7154.1.1"}
}
40333914 = {
	name="Waqrat"
	female=yes

	religion="shadowbinders"
	culture="shadowlander"

	7081.1.1 = {birth="7081.1.1"}
	7154.1.1 = {death="7154.1.1"}
}
10433914 = {
	name="Wusum"	# not a lord
	dynasty=33914

	religion="shadowbinders"
	culture="shadowlander"

	father=10033914
	mother=40033914

	7084.1.1 = {birth="7084.1.1"}
	7100.1.1 = {add_trait=skilled_warrior}
	7126.1.1 = {death="7126.1.1"}
}
10533914 = {
	name="Urbau"	# not a lord
	female=yes
	dynasty=33914

	religion="shadowbinders"
	culture="shadowlander"

	father=10133914
	mother=40133914

	7098.1.1 = {birth="7098.1.1"}
	7166.1.1 = {death="7166.1.1"}
}
10633914 = {
	name="Ninhursag"	# not a lord
	female=yes
	dynasty=33914

	religion="shadowbinders"
	culture="shadowlander"

	father=10133914
	mother=40133914

	7100.1.1 = {birth="7100.1.1"}
	7152.1.1 = {death="7152.1.1"}
}
10733914 = {
	name="Urbau"	# not a lord
	female=yes
	dynasty=33914

	religion="shadowbinders"
	culture="shadowlander"

	father=10333914
	mother=40333914

	7105.1.1 = {birth="7105.1.1"}
	7145.1.1 = {death="7145.1.1"}
}
10833914 = {
	name="Ammith"	# not a lord
	dynasty=33914

	religion="shadowbinders"
	culture="shadowlander"

	father=10333914
	mother=40333914

	7107.1.1 = {birth="7107.1.1"}
	7123.1.1 = {add_trait=trained_warrior}
	7125.1.1 = {add_spouse=40833914}
	7142.1.1 = {death="7142.1.1"}
}
40833914 = {
	name="Aya"
	female=yes

	religion="shadowbinders"
	culture="shadowlander"

	7107.1.1 = {birth="7107.1.1"}
	7142.1.1 = {death="7142.1.1"}
}
10933914 = {
	name="La'um"	# not a lord
	dynasty=33914

	religion="shadowbinders"
	culture="shadowlander"

	father=10333914
	mother=40333914

	7109.1.1 = {birth="7109.1.1"}
	7125.1.1 = {add_trait=trained_warrior}
	7158.1.1 = {death="7158.1.1"}
}
11033914 = {
	name="Enheduana"	# not a lord
	female=yes
	dynasty=33914

	religion="shadowbinders"
	culture="shadowlander"

	father=10333914
	mother=40333914

	7110.1.1 = {birth="7110.1.1"}
	7171.1.1 = {death="7171.1.1"}
}
11133914 = {
	name="Eala"	# not a lord
	female=yes
	dynasty=33914

	religion="shadowbinders"
	culture="shadowlander"

	father=10333914
	mother=40333914

	7112.1.1 = {birth="7112.1.1"}
	7156.1.1 = {death="7156.1.1"}
}
11233914 = {
	name="Taram"	# not a lord
	female=yes
	dynasty=33914

	religion="shadowbinders"
	culture="shadowlander"

	father=10833914
	mother=40833914

	7135.1.1 = {birth="7135.1.1"}
	7192.1.1 = {death="7192.1.1"}
}
11333914 = {
	name="Naqir"	# a lord
	dynasty=33914

	religion="shadowbinders"
	culture="shadowlander"

	father=10833914
	mother=40833914

	7137.1.1 = {birth="7137.1.1"}
	7153.1.1 = {add_trait=trained_warrior}
	7155.1.1 = {add_spouse=41333914}
	7213.1.1 = {death="7213.1.1"}
}
41333914 = {
	name="Summirathe"
	female=yes

	religion="shadowbinders"
	culture="shadowlander"

	7137.1.1 = {birth="7137.1.1"}
	7213.1.1 = {death="7213.1.1"}
}
11433914 = {
	name="Murrithe"	# not a lord
	female=yes
	dynasty=33914

	religion="shadowbinders"
	culture="shadowlander"

	father=10833914
	mother=40833914

	7138.1.1 = {birth="7138.1.1"}
	7189.1.1 = {death="7189.1.1"}
}
11533914 = {
	name="Utu"	# not a lord
	dynasty=33914

	religion="shadowbinders"
	culture="shadowlander"

	father=10833914
	mother=40833914

	7141.1.1 = {birth="7141.1.1"}
	7157.1.1 = {add_trait=skilled_warrior}
	7187.1.1 = {death="7187.1.1"}
}
11633914 = {
	name="Kuda"	# not a lord
	dynasty=33914

	religion="shadowbinders"
	culture="shadowlander"

	father=11333914
	mother=41333914

	7156.1.1 = {birth="7156.1.1"}
	7172.1.1 = {add_trait=skilled_warrior}
	7174.1.1 = {add_spouse=41633914}
	7208.1.1 = {death="7208.1.1"}
}
41633914 = {
	name="Summirathe"
	female=yes

	religion="shadowbinders"
	culture="shadowlander"

	7156.1.1 = {birth="7156.1.1"}
	7208.1.1 = {death="7208.1.1"}
}
11733914 = {
	name="Shulpae"	# a lord
	dynasty=33914

	religion="shadowbinders"
	culture="shadowlander"

	father=11633914
	mother=41633914

	7174.1.1 = {birth="7174.1.1"}
	7190.1.1 = {add_trait=trained_warrior}
	7192.1.1 = {add_spouse=41733914}
	7232.1.1 = {death="7232.1.1"}
}
41733914 = {
	name="Nanna"
	female=yes

	religion="shadowbinders"
	culture="shadowlander"

	7174.1.1 = {birth="7174.1.1"}
	7232.1.1 = {death="7232.1.1"}
}
11833914 = {
	name="Sapurtum"	# not a lord
	female=yes
	dynasty=33914

	religion="shadowbinders"
	culture="shadowlander"

	father=11633914
	mother=41633914

	7177.1.1 = {birth="7177.1.1"}
	7222.1.1 = {death="7222.1.1"}
}
11933914 = {
	name="Ibnatum"	# not a lord
	dynasty=33914

	religion="shadowbinders"
	culture="shadowlander"

	father=11633914
	mother=41633914

	7178.1.1 = {birth="7178.1.1"}
	7194.1.1 = {add_trait=skilled_warrior}
	7232.1.1 = {death="7232.1.1"}
}
12033914 = {
	name="Urbau"	# not a lord
	female=yes
	dynasty=33914

	religion="shadowbinders"
	culture="shadowlander"

	father=11633914
	mother=41633914

	7180.1.1 = {birth="7180.1.1"}
	7204.1.1 = {death="7204.1.1"}
}
12133914 = {
	name="Sidu"	# a lord
	dynasty=33914

	religion="shadowbinders"
	culture="shadowlander"

	father=11733914
	mother=41733914

	7203.1.1 = {birth="7203.1.1"}
	7219.1.1 = {add_trait=trained_warrior}
	7221.1.1 = {add_spouse=42133914}
	7239.1.1 = {death="7239.1.1"}
}
42133914 = {
	name="Ninhursag"
	female=yes

	religion="shadowbinders"
	culture="shadowlander"

	7203.1.1 = {birth="7203.1.1"}
	7239.1.1 = {death="7239.1.1"}
}
12233914 = {
	name="Quaiduri"	# not a lord
	female=yes
	dynasty=33914

	religion="shadowbinders"
	culture="shadowlander"

	father=11733914
	mother=41733914

	7204.1.1 = {birth="7204.1.1"}
	7282.1.1 = {death="7282.1.1"}
}
12333914 = {
	name="Warad"	# a lord
	dynasty=33914

	religion="shadowbinders"
	culture="shadowlander"

	father=12133914
	mother=42133914

	7235.1.1 = {birth="7235.1.1"}
	7251.1.1 = {add_trait=trained_warrior}
	7253.1.1 = {add_spouse=42333914}
	7271.1.1 = {death="7271.1.1"}
}
42333914 = {
	name="Bau"
	female=yes

	religion="shadowbinders"
	culture="shadowlander"

	7235.1.1 = {birth="7235.1.1"}
	7271.1.1 = {death="7271.1.1"}
}
12433914 = {
	name="Naqir"	# not a lord
	dynasty=33914

	religion="shadowbinders"
	culture="shadowlander"

	father=12133914
	mother=42133914

	7238.1.1 = {birth="7238.1.1"}
	7254.1.1 = {add_trait=skilled_warrior}
	7281.1.1 = {death="7281.1.1"}
}
12533914 = {
	name="Palusum"	# a lord
	dynasty=33914

	religion="shadowbinders"
	culture="shadowlander"

	father=12333914
	mother=42333914

	7268.1.1 = {birth="7268.1.1"}
	7284.1.1 = {add_trait=skilled_warrior}
	7286.1.1 = {add_spouse=42533914}
	7316.1.1 = {death="7316.1.1"}
}
42533914 = {
	name="Silili"
	female=yes

	religion="shadowbinders"
	culture="shadowlander"

	7268.1.1 = {birth="7268.1.1"}
	7316.1.1 = {death="7316.1.1"}
}
12633914 = {
	name="Enlil"	# a lord
	dynasty=33914

	religion="shadowbinders"
	culture="shadowlander"

	father=12333914
	mother=42333914

	7269.1.1 = {birth="7269.1.1"}
	7285.1.1 = {add_trait=trained_warrior}
	7287.1.1 = {add_spouse=42633914}
	7327.1.1 = {death="7327.1.1"}
}
42633914 = {
	name="Gemethega"
	female=yes

	religion="shadowbinders"
	culture="shadowlander"

	7269.1.1 = {birth="7269.1.1"}
	7327.1.1 = {death="7327.1.1"}
}
12733914 = {
	name="Gemithe"	# not a lord
	female=yes
	dynasty=33914

	religion="shadowbinders"
	culture="shadowlander"

	father=12533914
	mother=42533914

	7293.1.1 = {birth="7293.1.1"}
	7352.1.1 = {death="7352.1.1"}
}
12833914 = {
	name="Ahassuth"	# not a lord
	female=yes
	dynasty=33914

	religion="shadowbinders"
	culture="shadowlander"

	father=12533914
	mother=42533914

	7296.1.1 = {birth="7296.1.1"}
	7344.1.1 = {death="7344.1.1"}
}
12933914 = {
	name="Damuzi"	# a lord
	dynasty=33914

	religion="shadowbinders"
	culture="shadowlander"

	father=12633914
	mother=42633914

	7294.1.1 = {birth="7294.1.1"}
	7310.1.1 = {add_trait=trained_warrior}
	7312.1.1 = {add_spouse=42933914}
	7361.1.1 = {death="7361.1.1"}
}
42933914 = {
	name="Gemithe"
	female=yes

	religion="shadowbinders"
	culture="shadowlander"

	7294.1.1 = {birth="7294.1.1"}
	7361.1.1 = {death="7361.1.1"}
}
13033914 = {
	name="Puzur"	# not a lord
	dynasty=33914

	religion="shadowbinders"
	culture="shadowlander"

	father=12633914
	mother=42633914

	7296.1.1 = {birth="7296.1.1"}
	7312.1.1 = {add_trait=skilled_warrior}
	7346.1.1 = {death="7346.1.1"}
}
13133914 = {
	name="Dadanum"	# a lord
	dynasty=33914

	religion="shadowbinders"
	culture="shadowlander"

	father=12933914
	mother=42933914

	7328.1.1 = {birth="7328.1.1"}
	7344.1.1 = {add_trait=trained_warrior}
	7346.1.1 = {add_spouse=43133914}
	7362.1.1 = {death="7362.1.1"}
}
43133914 = {
	name="Eala"
	female=yes

	religion="shadowbinders"
	culture="shadowlander"

	7328.1.1 = {birth="7328.1.1"}
	7362.1.1 = {death="7362.1.1"}
}
13233914 = {
	name="Limer"	# a lord
	dynasty=33914

	religion="shadowbinders"
	culture="shadowlander"

	father=13133914
	mother=43133914

	7347.1.1 = {birth="7347.1.1"}
	7363.1.1 = {add_trait=trained_warrior}
	7365.1.1 = {add_spouse=43233914}
}
43233914 = {
	name="Shub-ad"
	female=yes

	religion="shadowbinders"
	culture="shadowlander"

	7347.1.1 = {birth="7347.1.1"}
}
13333914 = {
	name="Naqir"	# not a lord
	dynasty=33914

	religion="shadowbinders"
	culture="shadowlander"

	father=13133914
	mother=43133914

	7350.1.1 = {birth="7350.1.1"}
	7366.1.1 = {add_trait=skilled_warrior}
	7368.1.1 = {add_spouse=43333914}
}
43333914 = {
	name="Shub-ad"
	female=yes

	religion="shadowbinders"
	culture="shadowlander"

	7350.1.1 = {birth="7350.1.1"}
}
13433914 = {
	name="Shulpae"	# not a lord
	dynasty=33914

	religion="shadowbinders"
	culture="shadowlander"

	father=13133914
	mother=43133914

	7351.1.1 = {birth="7351.1.1"}
	7367.1.1 = {add_trait=trained_warrior}
}
13533914 = {
	name="Waqrat"	# not a lord
	female=yes
	dynasty=33914

	religion="shadowbinders"
	culture="shadowlander"

	father=13133914
	mother=43133914

	7353.1.1 = {birth="7353.1.1"}
}
13633914 = {
	name="Ninsun"	# not a lord
	female=yes
	dynasty=33914

	religion="shadowbinders"
	culture="shadowlander"

	father=13233914
	mother=43233914

	7376.1.1 = {birth="7376.1.1"}
}
13733914 = {
	name="Quaithe"	# not a lord
	female=yes
	dynasty=33914

	religion="shadowbinders"
	culture="shadowlander"

	father=13233914
	mother=43233914

	7377.1.1 = {birth="7377.1.1"}
}
13833914 = {
	name="Ninbanda"	# not a lord
	female=yes
	dynasty=33914

	religion="shadowbinders"
	culture="shadowlander"

	father=13233914
	mother=43233914

	7379.1.1 = {birth="7379.1.1"}
}
13933914 = {
	name="Ishtare"	# not a lord
	female=yes
	dynasty=33914

	religion="shadowbinders"
	culture="shadowlander"

	father=13233914
	mother=43233914

	7380.1.1 = {birth="7380.1.1"}
}
14033914 = {
	name="Nin"	# not a lord
	female=yes
	dynasty=33914

	religion="shadowbinders"
	culture="shadowlander"

	father=13333914
	mother=43333914

	7378.1.1 = {birth="7378.1.1"}
}
14133914 = {
	name="Qasmath"	# not a lord
	dynasty=33914

	religion="shadowbinders"
	culture="shadowlander"

	father=13333914
	mother=43333914

	7380.1.1 = {birth="7380.1.1"}
	7396.1.1 = {add_trait=skilled_warrior}
}
14233914 = {
	name="Gudeath"	# not a lord
	dynasty=33914

	religion="shadowbinders"
	culture="shadowlander"

	father=13333914
	mother=43333914

	7383.1.1 = {birth="7383.1.1"}
	7399.1.1 = {add_trait=skilled_warrior}
}
#The Shadow Mountains
10033901 = {
	name="Munawirtum"	# a lord
	dynasty=33901

	religion="shadowbinders"
	culture="shadowlander"

	7065.1.1 = {birth="7065.1.1"}
	7081.1.1 = {add_trait=skilled_warrior}
	7083.1.1 = {add_spouse=40033901}
	7137.1.1 = {death="7137.1.1"}
}
40033901 = {
	name="Ishtare"
	female=yes

	religion="shadowbinders"
	culture="shadowlander"

	7065.1.1 = {birth="7065.1.1"}
	7137.1.1 = {death="7137.1.1"}
}
10133901 = {
	name="Murrim"	# not a lord
	female=yes
	dynasty=33901

	religion="shadowbinders"
	culture="shadowlander"

	father=10033901
	mother=40033901

	7090.1.1 = {birth="7090.1.1"}
	7171.1.1 = {death="7171.1.1"}
}
10233901 = {
	name="Shub-ad"	# not a lord
	female=yes
	dynasty=33901

	religion="shadowbinders"
	culture="shadowlander"

	father=10033901
	mother=40033901

	7092.1.1 = {birth="7092.1.1"}
	7155.1.1 = {death="7155.1.1"}
}
10333901 = {
	name="Ishtup"	# a lord
	dynasty=33901

	religion="shadowbinders"
	culture="shadowlander"

	father=10033901
	mother=40033901

	7095.1.1 = {birth="7095.1.1"}
	7111.1.1 = {add_trait=poor_warrior}
	7113.1.1 = {add_spouse=40333901}
	7164.1.1 = {death="7164.1.1"}
}
40333901 = {
	name="Erethkiga"
	female=yes

	religion="shadowbinders"
	culture="shadowlander"

	7095.1.1 = {birth="7095.1.1"}
	7164.1.1 = {death="7164.1.1"}
}
10433901 = {
	name="Mushtal"	# not a lord
	dynasty=33901

	religion="shadowbinders"
	culture="shadowlander"

	father=10033901
	mother=40033901

	7096.1.1 = {birth="7096.1.1"}
	7112.1.1 = {add_trait=trained_warrior}
	7145.1.1 = {death="7145.1.1"}
}
10533901 = {
	name="Puzur"	# a lord
	dynasty=33901

	religion="shadowbinders"
	culture="shadowlander"

	father=10333901
	mother=40333901

	7113.1.1 = {birth="7113.1.1"}
	7129.1.1 = {add_trait=poor_warrior}
	7131.1.1 = {add_spouse=40533901}
	7180.1.1 = {death="7180.1.1"}
}
40533901 = {
	name="Bau"
	female=yes

	religion="shadowbinders"
	culture="shadowlander"

	7113.1.1 = {birth="7113.1.1"}
	7180.1.1 = {death="7180.1.1"}
}
10633901 = {
	name="Ubaruth"	# not a lord
	dynasty=33901

	religion="shadowbinders"
	culture="shadowlander"

	father=10333901
	mother=40333901

	7114.1.1 = {birth="7114.1.1"}
	7130.1.1 = {add_trait=skilled_warrior}
	7183.1.1 = {death="7183.1.1"}
}
10733901 = {
	name="Wusum"	# not a lord
	dynasty=33901

	religion="shadowbinders"
	culture="shadowlander"

	father=10333901
	mother=40333901

	7115.1.1 = {birth="7115.1.1"}
	7131.1.1 = {add_trait=skilled_warrior}
	7154.1.1 = {death="7154.1.1"}
}
10833901 = {
	name="Nammu"	# not a lord
	female=yes
	dynasty=33901

	religion="shadowbinders"
	culture="shadowlander"

	father=10333901
	mother=40333901

	7117.1.1 = {birth="7117.1.1"}
	7177.1.1 = {death="7177.1.1"}
}
10933901 = {
	name="Gemethega"	# not a lord
	female=yes
	dynasty=33901

	religion="shadowbinders"
	culture="shadowlander"

	father=10533901
	mother=40533901

	7131.1.1 = {birth="7131.1.1"}
	7205.1.1 = {death="7205.1.1"}
}
11033901 = {
	name="Quaithe"	# not a lord
	female=yes
	dynasty=33901

	religion="shadowbinders"
	culture="shadowlander"

	father=10533901
	mother=40533901

	7132.1.1 = {birth="7132.1.1"}
	7185.1.1 = {death="7185.1.1"}
}
11133901 = {
	name="Awil"	# not a lord
	dynasty=33901

	religion="shadowbinders"
	culture="shadowlander"

	father=10533901
	mother=40533901

	7133.1.1 = {birth="7133.1.1"}
	7149.1.1 = {add_trait=trained_warrior}
	7166.1.1 = {death="7166.1.1"}
}
11233901 = {
	name="Hunhal"	# a lord
	dynasty=33901

	religion="shadowbinders"
	culture="shadowlander"

	father=10533901
	mother=40533901

	7134.1.1 = {birth="7134.1.1"}
	7150.1.1 = {add_trait=trained_warrior}
	7152.1.1 = {add_spouse=41233901}
	7190.1.1 = {death="7190.1.1"}
}
41233901 = {
	name="Gemethega"
	female=yes

	religion="shadowbinders"
	culture="shadowlander"

	7134.1.1 = {birth="7134.1.1"}
	7190.1.1 = {death="7190.1.1"}
}
11333901 = {
	name="Wusum"	# not a lord
	dynasty=33901

	religion="shadowbinders"
	culture="shadowlander"

	father=10533901
	mother=40533901

	7137.1.1 = {birth="7137.1.1"}
	7153.1.1 = {add_trait=skilled_warrior}
	7180.1.1 = {death="7180.1.1"}
}
11433901 = {
	name="Quaithe"	# not a lord
	female=yes
	dynasty=33901

	religion="shadowbinders"
	culture="shadowlander"

	father=11233901
	mother=41233901

	7153.1.1 = {birth="7153.1.1"}
	7206.1.1 = {death="7206.1.1"}
}
11533901 = {
	name="Dadanum"	# a lord
	dynasty=33901

	religion="shadowbinders"
	culture="shadowlander"

	father=11233901
	mother=41233901

	7155.1.1 = {birth="7155.1.1"}
	7171.1.1 = {add_trait=trained_warrior}
	7173.1.1 = {add_spouse=41533901}
	7231.1.1 = {death="7231.1.1"}
}
41533901 = {
	name="Quaiduri"
	female=yes

	religion="shadowbinders"
	culture="shadowlander"

	7155.1.1 = {birth="7155.1.1"}
	7231.1.1 = {death="7231.1.1"}
}
11633901 = {
	name="Lugatum"	# a lord
	dynasty=33901

	religion="shadowbinders"
	culture="shadowlander"

	father=11533901
	mother=41533901

	7186.1.1 = {birth="7186.1.1"}
	7202.1.1 = {add_trait=skilled_warrior}
	7204.1.1 = {add_spouse=41633901}
	7253.1.1 = {death="7253.1.1"}
}
41633901 = {
	name="Taram"
	female=yes

	religion="shadowbinders"
	culture="shadowlander"

	7186.1.1 = {birth="7186.1.1"}
	7253.1.1 = {death="7253.1.1"}
}
11733901 = {
	name="Puzur"	# not a lord
	dynasty=33901

	religion="shadowbinders"
	culture="shadowlander"

	father=11533901
	mother=41533901

	7189.1.1 = {birth="7189.1.1"}
	7205.1.1 = {add_trait=poor_warrior}
	7231.1.1 = {death="7231.1.1"}
}
11833901 = {
	name="Yasmath"	# a lord
	dynasty=33901

	religion="shadowbinders"
	culture="shadowlander"

	father=11633901
	mother=41633901

	7215.1.1 = {birth="7215.1.1"}
	7231.1.1 = {add_trait=poor_warrior}
	7233.1.1 = {add_spouse=41833901}
	7267.1.1 = {death="7267.1.1"}
}
41833901 = {
	name="Silili"
	female=yes

	religion="shadowbinders"
	culture="shadowlander"

	7215.1.1 = {birth="7215.1.1"}
	7267.1.1 = {death="7267.1.1"}
}
11933901 = {
	name="Bikku"	# not a lord
	female=yes
	dynasty=33901

	religion="shadowbinders"
	culture="shadowlander"

	father=11633901
	mother=41633901

	7216.1.1 = {birth="7216.1.1"}
	7272.1.1 = {death="7272.1.1"}
}
12033901 = {
	name="Awil"	# a lord
	dynasty=33901

	religion="shadowbinders"
	culture="shadowlander"

	father=11633901
	mother=41633901

	7219.1.1 = {birth="7219.1.1"}
	7235.1.1 = {add_trait=trained_warrior}
	7237.1.1 = {add_spouse=42033901}
	7277.1.1 = {death = {death_reason = death_murder}}
}
42033901 = {
	name="Silili"
	female=yes

	religion="shadowbinders"
	culture="shadowlander"

	7219.1.1 = {birth="7219.1.1"}
	7277.1.1 = {death="7277.1.1"}
}
12133901 = {
	name="Eala"	# not a lord
	female=yes
	dynasty=33901

	religion="shadowbinders"
	culture="shadowlander"

	father=11833901
	mother=41833901

	7239.1.1 = {birth="7239.1.1"}
	7307.1.1 = {death="7307.1.1"}
}
12233901 = {
	name="Nawirum"	# a lord
	dynasty=33901

	religion="shadowbinders"
	culture="shadowlander"

	father=12033901
	mother=42033901

	7251.1.1 = {birth="7251.1.1"}
	7267.1.1 = {add_trait=poor_warrior}
	7269.1.1 = {add_spouse=42233901}
	7283.1.1 = {death="7283.1.1"}
}
42233901 = {
	name="Erethe"
	female=yes

	religion="shadowbinders"
	culture="shadowlander"

	7251.1.1 = {birth="7251.1.1"}
	7283.1.1 = {death="7283.1.1"}
}
12333901 = {
	name="Ninhursag"	# not a lord
	female=yes
	dynasty=33901

	religion="shadowbinders"
	culture="shadowlander"

	father=12033901
	mother=42033901

	7252.1.1 = {birth="7252.1.1"}
	7325.1.1 = {death="7325.1.1"}
}
12433901 = {
	name="Nammu"	# not a lord
	female=yes
	dynasty=33901

	religion="shadowbinders"
	culture="shadowlander"

	father=12033901
	mother=42033901

	7255.1.1 = {birth="7255.1.1"}
	7319.1.1 = {death="7319.1.1"}
}
12533901 = {
	name="Bunuth"	# a lord
	dynasty=33901

	religion="shadowbinders"
	culture="shadowlander"

	father=12233901
	mother=42233901

	7270.1.1 = {birth="7270.1.1"}
	7286.1.1 = {add_trait=skilled_warrior}
	7288.1.1 = {add_spouse=42533901}
	7303.1.1 = {death="7303.1.1"}
}
42533901 = {
	name="Daqqartum"
	female=yes

	religion="shadowbinders"
	culture="shadowlander"

	7270.1.1 = {birth="7270.1.1"}
	7333.1.1 = {death="7333.1.1"}
}
12633901 = {
	name="Bau"	# not a lord
	female=yes
	dynasty=33901

	religion="shadowbinders"
	culture="shadowlander"

	father=12533901
	mother=42533901

	7297.1.1 = {birth="7297.1.1"}
	7360.1.1 = {death="7360.1.1"}
}
12733901 = {
	name="Silili"	# not a lord
	female=yes
	dynasty=33901

	religion="shadowbinders"
	culture="shadowlander"

	father=12533901
	mother=42533901

	7300.1.1 = {birth="7300.1.1"}
	7367.1.1 = {death="7367.1.1"}
}
12833901 = {
	name="Wusum"	# a lord
	dynasty=33901

	religion="shadowbinders"
	culture="shadowlander"

	father=12533901
	mother=42533901

	7301.1.1 = {birth="7301.1.1"}
	7317.1.1 = {add_trait=poor_warrior}
	7324.1.1 = {add_spouse=42833901}
	7368.1.1 = {death="7368.1.1"}
}
42833901 = {
	name="Ninhursag"
	female=yes

	religion="shadowbinders"
	culture="shadowlander"

	7306.1.1 = {birth="7306.1.1"}
	7368.1.1 = {death="7368.1.1"}
}
12933901 = {
	name="Urbau"	# not a lord
	female=yes
	dynasty=33901

	religion="shadowbinders"
	culture="shadowlander"

	father=12833901
	mother=42833901

	7332.1.1 = {birth="7332.1.1"}
	7406.1.1 = {death="7406.1.1"}
}
13033901 = {
	name="Ugazum"	# a lord
	dynasty=33901

	religion="shadowbinders"
	culture="shadowlander"

	father=12833901
	mother=42833901

	7335.1.1 = {birth="7335.1.1"}
	7351.1.1 = {add_trait=trained_warrior}
	7353.1.1 = {add_spouse=43033901}
	7381.1.1 = {death="7381.1.1"}
}
43033901 = {
	name="Gemethega"
	female=yes

	religion="shadowbinders"
	culture="shadowlander"

	7335.1.1 = {birth="7335.1.1"}
	7381.1.1 = {death="7381.1.1"}
}
13133901 = {
	name="Enlil"	# a lord
	dynasty=33901

	religion="shadowbinders"
	culture="shadowlander"

	father=12833901
	mother=42833901

	7336.1.1 = {birth="7336.1.1"}
	7352.1.1 = {add_trait=poor_warrior}
	7354.1.1 = {add_spouse=43133901}
	7390.1.1 = {death="7390.1.1"}
}
43133901 = {
	name="Puabi"
	female=yes

	religion="shadowbinders"
	culture="shadowlander"

	7336.1.1 = {birth="7336.1.1"}
	7390.1.1 = {death="7390.1.1"}
}
13233901 = {
	name="Zimu"	# not a lord
	female=yes
	dynasty=33901

	religion="shadowbinders"
	culture="shadowlander"

	father=12833901
	mother=42833901

	7338.1.1 = {birth="7338.1.1"}
}
13333901 = {
	name="Ishtare"	# not a lord
	female=yes
	dynasty=33901

	religion="shadowbinders"
	culture="shadowlander"

	father=13033901
	mother=43033901

	7360.1.1 = {birth="7360.1.1"}
}
13433901 = {
	name="Sidu"	# a lord
	dynasty=33901

	religion="shadowbinders"
	culture="shadowlander"

	father=13133901
	mother=43133901

	7369.1.1 = {birth="7369.1.1"}
	7385.1.1 = {add_trait=trained_warrior}
	7387.1.1 = {add_spouse=43433901}
}
43433901 = {
	name="Ishtare"
	female=yes

	religion="shadowbinders"
	culture="shadowlander"

	7369.1.1 = {birth="7369.1.1"}
}
13533901 = {
	name="Ishtare"	# not a lord
	female=yes
	dynasty=33901

	religion="shadowbinders"
	culture="shadowlander"

	father=13433901
	mother=43433901

	7389.1.1 = {birth="7389.1.1"}
}
13633901 = {
	name="Amurri"	# not a lord
	dynasty=33901

	religion="shadowbinders"
	culture="shadowlander"

	father=13433901
	mother=43433901

	7392.1.1 = {birth="7392.1.1"}
	7408.1.1 = {add_trait=trained_warrior}
}
13733901 = {
	name="Ninhursag"	# not a lord
	female=yes
	dynasty=33901

	religion="shadowbinders"
	culture="shadowlander"

	father=13433901
	mother=43433901

	7394.1.1 = {birth="7394.1.1"}
}
13833901 = {
	name="Awil"	# not a lord
	dynasty=33901

	religion="shadowbinders"
	culture="shadowlander"

	father=13433901
	mother=43433901

	7395.1.1 = {birth="7395.1.1"}
	7411.1.1 = {add_trait=trained_warrior}
}
