###zo Hazdahn###Ruler of Hazdahn

100069190 = {
	name="Yarkhaz"	# a lord
	dynasty=69190

	religion="harpy"
	culture="ghiscari"

	7065.1.1 = {birth="7065.1.1"}
	7081.1.1 = {add_trait=poor_warrior}
	7083.1.1 = {add_spouse=400069190}
	7130.1.1 = {death="7130.1.1"}
}
400069190 = {
	name="Gezzella"
	female=yes

	religion="harpy"
	culture="ghiscari"

	7065.1.1 = {birth="7065.1.1"}
	7130.1.1 = {death="7130.1.1"}
}
100169190 = {
	name="Qezza"	# not a lord
	female=yes
	dynasty=69190

	religion="harpy"
	culture="ghiscari"

	father=100069190
	mother=400069190

	7091.1.1 = {birth="7091.1.1"}
	7112.1.1 = {death="7112.1.1"}
}
100269190 = {
	name="Yurkhaz"	# a lord
	dynasty=69190

	religion="harpy"
	culture="ghiscari"

	father=100069190
	mother=400069190

	7093.1.1 = {birth="7093.1.1"}
	7109.1.1 = {add_trait=poor_warrior}
	7111.1.1 = {add_spouse=400269190}
	7149.1.1 = {death="7149.1.1"}
}
400269190 = {
	name="Tezza"
	female=yes

	religion="harpy"
	culture="ghiscari"

	7093.1.1 = {birth="7093.1.1"}
	7149.1.1 = {death="7149.1.1"}
}
100369190 = {
	name="Tezza"	# not a lord
	female=yes
	dynasty=69190

	religion="harpy"
	culture="ghiscari"

	father=100269190
	mother=400269190

	7111.1.1 = {birth="7111.1.1"}
	7155.1.1 = {death="7155.1.1"}
}
100469190 = {
	name="Yezza"	# not a lord
	female=yes
	dynasty=69190

	religion="harpy"
	culture="ghiscari"

	father=100269190
	mother=400269190

	7114.1.1 = {birth="7114.1.1"}
	7141.1.1 = {death="7141.1.1"}
}
100569190 = {
	name="Faezdhar"	# not a lord
	dynasty=69190

	religion="harpy"
	culture="ghiscari"

	father=100269190
	mother=400269190

	7116.1.1 = {birth="7116.1.1"}
	7132.1.1 = {add_trait=poor_warrior}
	7149.1.1 = {death="7149.1.1"}
}
100669190 = {
	name="Gezzella"	# not a lord
	female=yes
	dynasty=69190

	religion="harpy"
	culture="ghiscari"

	father=100269190
	mother=400269190

	7119.1.1 = {birth="7119.1.1"}
	7160.1.1 = {death="7160.1.1"}
}
100769190 = {
	name="Barkhaz"	# a lord
	dynasty=69190

	religion="harpy"
	culture="ghiscari"

	father=100269190
	mother=400269190

	7121.1.1 = {birth="7121.1.1"}
	7137.1.1 = {add_trait=trained_warrior}
	7139.1.1 = {add_spouse=400769190}
	7178.1.1 = {death="7178.1.1"}
}
400769190 = {
	name="Selezzqa"
	female=yes

	religion="harpy"
	culture="ghiscari"

	7121.1.1 = {birth="7121.1.1"}
	7178.1.1 = {death="7178.1.1"}
}
100869190 = {
	name="Grazdan"	# a lord
	dynasty=69190

	religion="harpy"
	culture="ghiscari"

	father=100769190
	mother=400769190

	7149.1.1 = {birth="7149.1.1"}
	7165.1.1 = {add_trait=poor_warrior}
	7167.1.1 = {add_spouse=400869190}
	7223.1.1 = {death="7223.1.1"}
}
400869190 = {
	name="Jezhane"
	female=yes

	religion="harpy"
	culture="ghiscari"

	7149.1.1 = {birth="7149.1.1"}
	7223.1.1 = {death="7223.1.1"}
}
100969190 = {
	name="Tezza"	# not a lord
	female=yes
	dynasty=69190

	religion="harpy"
	culture="ghiscari"

	father=100769190
	mother=400769190

	7151.1.1 = {birth="7151.1.1"}
	7211.1.1 = {death="7211.1.1"}
}
101069190 = {
	name="Yezza"	# not a lord
	female=yes
	dynasty=69190

	religion="harpy"
	culture="ghiscari"

	father=100769190
	mother=400769190

	7154.1.1 = {birth="7154.1.1"}
	7209.1.1 = {death="7209.1.1"}
}
101169190 = {
	name="Ezzara"	# not a lord
	female=yes
	dynasty=69190

	religion="harpy"
	culture="ghiscari"

	father=100769190
	mother=400769190

	7157.1.1 = {birth="7157.1.1"}
	7214.1.1 = {death="7214.1.1"}
}
101269190 = {
	name="Prendahl"	# not a lord
	dynasty=69190

	religion="harpy"
	culture="ghiscari"

	father=100769190
	mother=400769190

	7159.1.1 = {birth="7159.1.1"}
	7175.1.1 = {add_trait=skilled_warrior}
	7192.1.1 = {death="7192.1.1"}
}
101369190 = {
	name="Yezza"	# not a lord
	female=yes
	dynasty=69190

	religion="harpy"
	culture="ghiscari"

	father=100869190
	mother=400869190

	7169.1.1 = {birth="7169.1.1"}
	7220.1.1 = {death="7220.1.1"}
}
101469190 = {
	name="Grazdhar"	# a lord
	dynasty=69190

	religion="harpy"
	culture="ghiscari"

	father=100869190
	mother=400869190

	7171.1.1 = {birth="7171.1.1"}
	7187.1.1 = {add_trait=poor_warrior}
	7189.1.1 = {add_spouse=401469190}
	7228.1.1 = {death="7228.1.1"}
}
401469190 = {
	name="Yezza"
	female=yes

	religion="harpy"
	culture="ghiscari"

	7171.1.1 = {birth="7171.1.1"}
	7228.1.1 = {death="7228.1.1"}
}
101569190 = {
	name="Dhazzar"	# not a lord
	female=yes
	dynasty=69190

	religion="harpy"
	culture="ghiscari"

	father=100869190
	mother=400869190

	7172.1.1 = {birth="7172.1.1"}
	7198.1.1 = {death="7198.1.1"}
}
101669190 = {
	name="Zaraq"	# not a lord
	dynasty=69190

	religion="harpy"
	culture="ghiscari"

	father=100869190
	mother=400869190

	7173.1.1 = {birth="7173.1.1"}
	7189.1.1 = {add_trait=poor_warrior}
	7218.1.1 = {death="7218.1.1"}
}
101769190 = {
	name="Barghaz"	# a lord
	dynasty=69190

	religion="harpy"
	culture="ghiscari"

	father=101469190
	mother=401469190

	7199.1.1 = {birth="7199.1.1"}
	7215.1.1 = {add_trait=poor_warrior}
	7217.1.1 = {add_spouse=401769190}
	7246.1.1 = {death="7246.1.1"}
}
401769190 = {
	name="Gezzella"
	female=yes

	religion="harpy"
	culture="ghiscari"

	7199.1.1 = {birth="7199.1.1"}
	7246.1.1 = {death="7246.1.1"}
}
101869190 = {
	name="Mazdhan"	# not a lord
	dynasty=69190

	religion="harpy"
	culture="ghiscari"

	father=101769190
	mother=401769190

	7234.1.1 = {birth="7234.1.1"}
	7235.1.1 = {death="7235.1.1"}
}
101969190 = {
	name="Barghaz"	# a lord
	dynasty=69190

	religion="harpy"
	culture="ghiscari"

	father=101769190
	mother=401769190

	7237.1.1 = {birth="7237.1.1"}
	7253.1.1 = {add_trait=trained_warrior}
	7255.1.1 = {add_spouse=401969190}
	7303.1.1 = {death="7303.1.1"}
}
401969190 = {
	name="Hazzea"
	female=yes

	religion="harpy"
	culture="ghiscari"

	7237.1.1 = {birth="7237.1.1"}
	7303.1.1 = {death="7303.1.1"}
}
102069190 = {
	name="Tellezzara"	# not a lord
	female=yes
	dynasty=69190

	religion="harpy"
	culture="ghiscari"

	father=101969190
	mother=401969190

	7260.1.1 = {birth="7260.1.1"}
	7339.1.1 = {death="7339.1.1"}
}
102169190 = {
	name="Faezdhar"	# a lord
	dynasty=69190

	religion="harpy"
	culture="ghiscari"

	father=101969190
	mother=401969190

	7262.1.1 = {birth="7262.1.1"}
	7278.1.1 = {add_trait=poor_warrior}
	7280.1.1 = {add_spouse=402169190}
	7307.1.1 = {death="7307.1.1"}
}
402169190 = {
	name="Galazza"
	female=yes

	religion="harpy"
	culture="ghiscari"

	7262.1.1 = {birth="7262.1.1"}
	7307.1.1 = {death="7307.1.1"}
}
102269190 = {
	name="Tellezzara"	# not a lord
	female=yes
	dynasty=69190

	religion="harpy"
	culture="ghiscari"

	father=101969190
	mother=401969190

	7265.1.1 = {birth="7265.1.1"}
	7332.1.1 = {death="7332.1.1"}
}
102369190 = {
	name="Grazdhan"	# not a lord
	dynasty=69190

	religion="harpy"
	culture="ghiscari"

	father=101969190
	mother=401969190

	7266.1.1 = {birth="7266.1.1"}
	7282.1.1 = {add_trait=poor_warrior}
	7298.1.1 = {death="7298.1.1"}
}
102469190 = {
	name="Selezzqa"	# not a lord
	female=yes
	dynasty=69190

	religion="harpy"
	culture="ghiscari"

	father=102169190
	mother=402169190

	7282.1.1 = {birth="7282.1.1"}
	7351.1.1 = {death="7351.1.1"}
}
102569190 = {
	name="Morghaz"	# a lord
	dynasty=69190

	religion="harpy"
	culture="ghiscari"

	father=102169190
	mother=402169190

	7285.1.1 = {birth="7285.1.1"}
	7301.1.1 = {add_trait=trained_warrior}
	7303.1.1 = {add_spouse=402569190}
	7332.1.1 = {death="7332.1.1"}
}
402569190 = {
	name="Ezzara"
	female=yes

	religion="harpy"
	culture="ghiscari"

	7285.1.1 = {birth="7285.1.1"}
	7332.1.1 = {death="7332.1.1"}
}
102669190 = {
	name="Mazdhan"	# a lord
	dynasty=69190

	religion="harpy"
	culture="ghiscari"

	father=102569190
	mother=402569190

	7303.1.1 = {birth="7303.1.1"}
	7319.1.1 = {add_trait=trained_warrior}
	7321.1.1 = {add_spouse=402669190}
	7369.1.1 = {death="7369.1.1"}
}
402669190 = {
	name="Hazzea"
	female=yes

	religion="harpy"
	culture="ghiscari"

	7303.1.1 = {birth="7303.1.1"}
	7369.1.1 = {death="7369.1.1"}
}
102769190 = {
	name="Azzea"	# not a lord
	female=yes
	dynasty=69190

	religion="harpy"
	culture="ghiscari"

	father=102569190
	mother=402569190

	7306.1.1 = {birth="7306.1.1"}
	7361.1.1 = {death="7361.1.1"}
}
102869190 = {
	name="Hizdhar"	# not a lord
	dynasty=69190

	religion="harpy"
	culture="ghiscari"

	father=102569190
	mother=402569190

	7307.1.1 = {birth="7307.1.1"}
	7323.1.1 = {add_trait=trained_warrior}
	7343.1.1 = {death="7343.1.1"}
}
102969190 = {
	name="Yezza"	# not a lord
	female=yes
	dynasty=69190

	religion="harpy"
	culture="ghiscari"

	father=102569190
	mother=402569190

	7308.1.1 = {birth="7308.1.1"}
	7384.1.1 = {death = {death_reason = death_accident}}
}
103069190 = {
	name="Barghaz"	# not a lord
	dynasty=69190

	religion="harpy"
	culture="ghiscari"

	father=102569190
	mother=402569190

	7309.1.1 = {birth="7309.1.1"}
	7325.1.1 = {add_trait=trained_warrior}
	7364.1.1 = {death="7364.1.1"}
}
103169190 = {
	name="Miklaz"	# a lord
	dynasty=69190

	religion="harpy"
	culture="ghiscari"

	father=102669190
	mother=402669190

	7334.1.1 = {birth="7334.1.1"}
	7350.1.1 = {add_trait=skilled_warrior}
	7352.1.1 = {add_spouse=403169190}
	7378.1.1 = {death="7378.1.1"}
}
403169190 = {
	name="Mezzala"
	female=yes

	religion="harpy"
	culture="ghiscari"

	7334.1.1 = {birth="7334.1.1"}
	7378.1.1 = {death="7378.1.1"}
}
103269190 = {
	name="Grazdhan"	# not a lord
	dynasty=69190

	religion="harpy"
	culture="ghiscari"

	father=102669190
	mother=402669190

	7337.1.1 = {birth="7337.1.1"}
	7353.1.1 = {add_trait=skilled_warrior}
	7381.1.1 = {death="7381.1.1"}
}
103369190 = {
	name="Miklaz"	# not a lord
	dynasty=69190

	religion="harpy"
	culture="ghiscari"

	father=102669190
	mother=402669190

	7338.1.1 = {birth="7338.1.1"}
	7354.1.1 = {add_trait=trained_warrior}
	7393.1.1 = {death="7393.1.1"}
}
103469190 = {
	name="Azzea"	# not a lord
	female=yes
	dynasty=69190

	religion="harpy"
	culture="ghiscari"

	father=102669190
	mother=402669190

	7340.1.1 = {birth="7340.1.1"}
	7391.1.1 = {death="7391.1.1"}
}
103569190 = {
	name="Sezqa"	# not a lord
	female=yes
	dynasty=69190

	religion="harpy"
	culture="ghiscari"

	father=102669190
	mother=402669190

	7342.1.1 = {birth="7342.1.1"}
	7393.1.1 = {death="7393.1.1"}
}
103669190 = {
	name="Faezdhar"	# a lord
	dynasty=69190

	religion="harpy"
	culture="ghiscari"

	father=103169190
	mother=403169190

	7360.1.1 = {birth="7360.1.1"}
	7376.1.1 = {add_trait=trained_warrior}
	7403.1.1 = {death = {death_reason = death_accident}}
}
103769190 = {
	name="Yarkhaz"	# not a lord
	dynasty=69190

	religion="harpy"
	culture="ghiscari"

	father=103169190
	mother=403169190

	7362.1.1 = {birth="7362.1.1"}
	7378.1.1 = {add_trait=master_warrior}
	7388.1.1 = {death="7388.1.1"}
}
103869190 = {
	name="Grazdhar"	# not a lord
	dynasty=69190

	religion="harpy"
	culture="ghiscari"

	father=103169190
	mother=403169190

	7364.1.1 = {birth="7364.1.1"}
	7380.1.1 = {add_trait=trained_warrior}
	7405.1.1 = {death="7405.1.1"}
}



####  House Tazraaq

100069200 = {
	name="Maezon"	# a lord
	dynasty=69200

	religion="harpy"
	culture="ghiscari"

	7073.1.1 = {birth="7073.1.1"}
	7089.1.1 = {add_trait=poor_warrior}
	7091.1.1 = {add_spouse=400069200}
	7146.1.1 = {death="7146.1.1"}
}
400069200 = {
	name="Qezza"
	female=yes

	religion="harpy"
	culture="ghiscari"

	7073.1.1 = {birth="7073.1.1"}
	7146.1.1 = {death="7146.1.1"}
}
100169200 = {
	name="Barkhaz"	# a lord
	dynasty=69200

	religion="harpy"
	culture="ghiscari"

	father=100069200
	mother=400069200

	7102.1.1 = {birth="7102.1.1"}
	7118.1.1 = {add_trait=poor_warrior}
	7120.1.1 = {add_spouse=400169200}
	7159.1.1 = {death="7159.1.1"}
}
400169200 = {
	name="Ezzara"
	female=yes

	religion="harpy"
	culture="ghiscari"

	7102.1.1 = {birth="7102.1.1"}
	7159.1.1 = {death="7159.1.1"}
}
100269200 = {
	name="Hazzaara"	# not a lord
	female=yes
	dynasty=69200

	religion="harpy"
	culture="ghiscari"

	father=100069200
	mother=400069200

	7103.1.1 = {birth="7103.1.1"}
	7144.1.1 = {death="7144.1.1"}
}
100369200 = {
	name="Fendahl"	# not a lord
	dynasty=69200

	religion="harpy"
	culture="ghiscari"

	father=100069200
	mother=400069200

	7106.1.1 = {birth="7106.1.1"}
	7122.1.1 = {add_trait=poor_warrior}
	7157.1.1 = {death="7157.1.1"}
}
100469200 = {
	name="Qezza"	# not a lord
	female=yes
	dynasty=69200

	religion="harpy"
	culture="ghiscari"

	father=100069200
	mother=400069200

	7108.1.1 = {birth="7108.1.1"}
	7159.1.1 = {death="7159.1.1"}
}
100569200 = {
	name="Mazdhan"	# a lord
	dynasty=69200

	religion="harpy"
	culture="ghiscari"

	father=100169200
	mother=400169200

	7131.1.1 = {birth="7131.1.1"}
	7147.1.1 = {add_trait=skilled_warrior}
	7149.1.1 = {add_spouse=400569200}
	7175.1.1 = {death="7175.1.1"}
}
400569200 = {
	name="Mezzara"
	female=yes

	religion="harpy"
	culture="ghiscari"

	7131.1.1 = {birth="7131.1.1"}
	7175.1.1 = {death="7175.1.1"}
}
100669200 = {
	name="Grazdan"	# not a lord
	dynasty=69200

	religion="harpy"
	culture="ghiscari"

	father=100169200
	mother=400169200

	7132.1.1 = {birth="7132.1.1"}
	7148.1.1 = {add_trait=poor_warrior}
	7187.1.1 = {death="7187.1.1"}
}
100769200 = {
	name="Gorzhak"	# a lord
	dynasty=69200

	religion="harpy"
	culture="ghiscari"

	father=100569200
	mother=400569200

	7163.1.1 = {birth="7163.1.1"}
	7179.1.1 = {add_trait=poor_warrior}
	7181.1.1 = {add_spouse=400769200}
	7223.1.1 = {death="7223.1.1"}
}
400769200 = {
	name="Selezzqa"
	female=yes

	religion="harpy"
	culture="ghiscari"

	7163.1.1 = {birth="7163.1.1"}
	7223.1.1 = {death="7223.1.1"}
}
100869200 = {
	name="Barkhaz"	# a lord
	dynasty=69200

	religion="harpy"
	culture="ghiscari"

	father=100769200
	mother=400769200

	7190.1.1 = {birth="7190.1.1"}
	7206.1.1 = {add_trait=skilled_warrior}
	7208.1.1 = {add_spouse=400869200}
	7227.1.1 = {death="7227.1.1"}
}
400869200 = {
	name="Selezzqa"
	female=yes

	religion="harpy"
	culture="ghiscari"

	7190.1.1 = {birth="7190.1.1"}
	7227.1.1 = {death="7227.1.1"}
}
100969200 = {
	name="Gezzella"	# not a lord
	female=yes
	dynasty=69200

	religion="harpy"
	culture="ghiscari"

	father=100869200
	mother=400869200

	7216.1.1 = {birth="7216.1.1"}
	7252.1.1 = {death="7252.1.1"}
}
101069200 = {
	name="Zaraq"	# a lord
	dynasty=69200

	religion="harpy"
	culture="ghiscari"

	father=100869200
	mother=400869200

	7217.1.1 = {birth="7217.1.1"}
	7233.1.1 = {add_trait=trained_warrior}
	7235.1.1 = {add_spouse=401069200}
	7239.1.1 = {death="7239.1.1"}
}
401069200 = {
	name="Ezzara"
	female=yes

	religion="harpy"
	culture="ghiscari"

	7217.1.1 = {birth="7217.1.1"}
	7239.1.1 = {death="7239.1.1"}
}
101169200 = {
	name="Jezhane"	# not a lord
	female=yes
	dynasty=69200

	religion="harpy"
	culture="ghiscari"

	father=100869200
	mother=400869200

	7219.1.1 = {birth="7219.1.1"}
	7289.1.1 = {death="7289.1.1"}
}
101269200 = {
	name="Maezon"	# a lord
	dynasty=69200

	religion="harpy"
	culture="ghiscari"

	father=101069200
	mother=401069200

	7239.1.1 = {birth="7239.1.1"}
	7255.1.1 = {add_trait=skilled_warrior}
	7270.1.1 = {add_spouse=401269200}
	7295.1.1 = {death="7295.1.1"}
}
401269200 = {
	name="Zellazara"
	female=yes

	religion="harpy"
	culture="ghiscari"

	7252.1.1 = {birth="7252.1.1"}
	7295.1.1 = {death="7295.1.1"}
}
101369200 = {
	name="Yarkhaz"	# a lord
	dynasty=69200

	religion="harpy"
	culture="ghiscari"

	father=101269200
	mother=401269200

	7285.1.1 = {birth="7285.1.1"}
	7301.1.1 = {add_trait=skilled_warrior}
	7303.1.1 = {add_spouse=401369200}
	7319.1.1 = {death="7319.1.1"}
}
401369200 = {
	name="Azzea"
	female=yes

	religion="harpy"
	culture="ghiscari"

	7285.1.1 = {birth="7285.1.1"}
	7319.1.1 = {death="7319.1.1"}
}
101469200 = {
	name="Hazzea"	# not a lord
	female=yes
	dynasty=69200

	religion="harpy"
	culture="ghiscari"

	father=101269200
	mother=401269200

	7286.1.1 = {birth="7286.1.1"}
	7327.1.1 = {death="7327.1.1"}
}
101569200 = {
	name="Reznak"	# a lord
	dynasty=69200

	religion="harpy"
	culture="ghiscari"

	father=101369200
	mother=401369200

	7314.1.1 = {birth="7314.1.1"}
	7330.1.1 = {add_trait=trained_warrior}
	7332.1.1 = {add_spouse=401569200}
	7347.1.1 = {death="7347.1.1"}
}
401569200 = {
	name="Hazzaara"
	female=yes

	religion="harpy"
	culture="ghiscari"

	7314.1.1 = {birth="7314.1.1"}
	7347.1.1 = {death="7347.1.1"}
}
101669200 = {
	name="Mezzara"	# not a lord
	female=yes
	dynasty=69200

	religion="harpy"
	culture="ghiscari"

	father=101369200
	mother=401369200

	7316.1.1 = {birth="7316.1.1"}
	7369.1.1 = {death="7369.1.1"}
}
101769200 = {
	name="Mazdhan"	# not a lord
	dynasty=69200

	religion="harpy"
	culture="ghiscari"

	father=101369200
	mother=401369200

	7317.1.1 = {birth="7317.1.1"}
	7333.1.1 = {add_trait=poor_warrior}
	7364.1.1 = {death="7364.1.1"}
}
101869200 = {
	name="Yurkhaz"	# not a lord
	dynasty=69200

	religion="harpy"
	culture="ghiscari"

	father=101369200
	mother=401369200

	7319.1.1 = {birth="7319.1.1"}
	7335.1.1 = {add_trait=skilled_warrior}
	7378.1.1 = {death="7378.1.1"}
}
101969200 = {
	name="Grazdhar"	# a lord
	dynasty=69200

	religion="harpy"
	culture="ghiscari"

	father=101569200
	mother=401569200

	7335.1.1 = {birth="7335.1.1"}
	7351.1.1 = {add_trait=skilled_warrior}
	7353.1.1 = {add_spouse=401969200}
	7399.1.1 = {death="7399.1.1"}
}
401969200 = {
	name="Gezzella"
	female=yes

	religion="harpy"
	culture="ghiscari"

	7335.1.1 = {birth="7335.1.1"}
	7399.1.1 = {death="7399.1.1"}
}
102069200 = {
	name="Paezhar"	# not a lord
	dynasty=69200

	religion="harpy"
	culture="ghiscari"

	father=101569200
	mother=401569200

	7336.1.1 = {birth="7336.1.1"}
	7352.1.1 = {add_trait=poor_warrior}
	7403.1.1 = {death="7403.1.1"}
}
102169200 = {
	name="Azzea"	# not a lord
	female=yes
	dynasty=69200

	religion="harpy"
	culture="ghiscari"

	father=101569200
	mother=401569200

	7337.1.1 = {birth="7337.1.1"}
	7402.1.1 = {death="7402.1.1"}
}
102269200 = {
	name="Skahaz"	# not a lord
	dynasty=69200

	religion="harpy"
	culture="ghiscari"

	father=101569200
	mother=401569200

	7339.1.1 = {birth="7339.1.1"}
	7355.1.1 = {add_trait=trained_warrior}
	7390.1.1 = {death="7390.1.1"}
}
102369200 = {
	name="Zaraq"	# a lord
	dynasty=69200

	religion="harpy"
	culture="ghiscari"

	father=101969200
	mother=401969200

	7353.1.1 = {birth="7353.1.1"}
	7369.1.1 = {add_trait=trained_warrior}
	7418.1.1 = {death="7418.1.1"}
}
102469200 = {
	name="Ghazdor"	# not a lord
	dynasty=69200

	religion="harpy"
	culture="ghiscari"

	father=101969200
	mother=401969200

	7356.1.1 = {birth="7356.1.1"}
	7372.1.1 = {add_trait=poor_warrior}
	7379.1.1 = {death="7379.1.1"}
}



####  House Bahraz

100069201 = {
	name="Fendahl"	# a lord
	dynasty=69201

	religion="harpy"
	culture="ghiscari"

	7066.1.1 = {birth="7066.1.1"}
	7082.1.1 = {add_trait=poor_warrior}
	7084.1.1 = {add_spouse=400069201}
	7152.1.1 = {death="7152.1.1"}
}
400069201 = {
	name="Dhazzar"
	female=yes

	religion="harpy"
	culture="ghiscari"

	7066.1.1 = {birth="7066.1.1"}
	7152.1.1 = {death="7152.1.1"}
}
100169201 = {
	name="Mezzala"	# not a lord
	female=yes
	dynasty=69201

	religion="harpy"
	culture="ghiscari"

	father=100069201
	mother=400069201

	7093.1.1 = {birth="7093.1.1"}
	7117.1.1 = {death="7117.1.1"}
}
100269201 = {
	name="Zaraq"	# a lord
	dynasty=69201

	religion="harpy"
	culture="ghiscari"

	father=100069201
	mother=400069201

	7096.1.1 = {birth="7096.1.1"}
	7112.1.1 = {add_trait=trained_warrior}
	7114.1.1 = {add_spouse=400269201}
	7156.1.1 = {death = {death_reason = death_accident}}
}
400269201 = {
	name="Qazella"
	female=yes

	religion="harpy"
	culture="ghiscari"

	7096.1.1 = {birth="7096.1.1"}
	7156.1.1 = {death="7156.1.1"}
}
100369201 = {
	name="Qazella"	# not a lord
	female=yes
	dynasty=69201

	religion="harpy"
	culture="ghiscari"

	father=100069201
	mother=400069201

	7099.1.1 = {birth="7099.1.1"}
	7147.1.1 = {death="7147.1.1"}
}
100469201 = {
	name="Tezza"	# not a lord
	female=yes
	dynasty=69201

	religion="harpy"
	culture="ghiscari"

	father=100069201
	mother=400069201

	7101.1.1 = {birth="7101.1.1"}
	7154.1.1 = {death = {death_reason = death_murder}}
}
100569201 = {
	name="Paezhar"	# not a lord
	dynasty=69201

	religion="harpy"
	culture="ghiscari"

	father=100269201
	mother=400269201

	7117.1.1 = {birth="7117.1.1"}
	7133.1.1 = {add_trait=trained_warrior}
	7156.1.1 = {death="7156.1.1"}
}
100669201 = {
	name="Yezza"	# not a lord
	female=yes
	dynasty=69201

	religion="harpy"
	culture="ghiscari"

	father=100269201
	mother=400269201

	7119.1.1 = {birth="7119.1.1"}
	7165.1.1 = {death="7165.1.1"}
}
100769201 = {
	name="Hazzaara"	# not a lord
	female=yes
	dynasty=69201

	religion="harpy"
	culture="ghiscari"

	father=100269201
	mother=400269201

	7121.1.1 = {birth="7121.1.1"}
	7199.1.1 = {death="7199.1.1"}
}
100869201 = {
	name="Barghaz"	# a lord
	dynasty=69201

	religion="harpy"
	culture="ghiscari"

	father=100269201
	mother=400269201

	7122.1.1 = {birth="7122.1.1"}
	7138.1.1 = {add_trait=poor_warrior}
	7140.1.1 = {add_spouse=400869201}
	7197.1.1 = {death="7197.1.1"}
}
400869201 = {
	name="Mellezzara"
	female=yes

	religion="harpy"
	culture="ghiscari"

	7122.1.1 = {birth="7122.1.1"}
	7197.1.1 = {death="7197.1.1"}
}
100969201 = {
	name="Mazdhan"	# not a lord
	dynasty=69201

	religion="harpy"
	culture="ghiscari"

	father=100269201
	mother=400269201

	7124.1.1 = {birth="7124.1.1"}
	7140.1.1 = {add_trait=poor_warrior}
	7175.1.1 = {death="7175.1.1"}
}
101069201 = {
	name="Paezhar"	# a lord
	dynasty=69201

	religion="harpy"
	culture="ghiscari"

	father=100869201
	mother=400869201

	7150.1.1 = {birth="7150.1.1"}
	7166.1.1 = {add_trait=poor_warrior}
	7168.1.1 = {add_spouse=401069201}
	7212.1.1 = {death="7212.1.1"}
}
401069201 = {
	name="Tezza"
	female=yes

	religion="harpy"
	culture="ghiscari"

	7150.1.1 = {birth="7150.1.1"}
	7212.1.1 = {death="7212.1.1"}
}
101169201 = {
	name="Hazzaara"	# not a lord
	female=yes
	dynasty=69201

	religion="harpy"
	culture="ghiscari"

	father=100869201
	mother=400869201

	7152.1.1 = {birth="7152.1.1"}
	7185.1.1 = {death="7185.1.1"}
}
101269201 = {
	name="Mazdhan"	# a lord
	dynasty=69201

	religion="harpy"
	culture="ghiscari"

	father=101069201
	mother=401069201

	7172.1.1 = {birth="7172.1.1"}
	7188.1.1 = {add_trait=trained_warrior}
	7190.1.1 = {add_spouse=401269201}
	7218.1.1 = {death="7218.1.1"}
}
401269201 = {
	name="Dhazzar"
	female=yes

	religion="harpy"
	culture="ghiscari"

	7172.1.1 = {birth="7172.1.1"}
	7218.1.1 = {death="7218.1.1"}
}
101369201 = {
	name="Maezon"	# not a lord
	dynasty=69201

	religion="harpy"
	culture="ghiscari"

	father=101069201
	mother=401069201

	7173.1.1 = {birth="7173.1.1"}
	7189.1.1 = {add_trait=trained_warrior}
	7214.1.1 = {death="7214.1.1"}
}
101469201 = {
	name="Yarkhaz"	# not a lord
	dynasty=69201

	religion="harpy"
	culture="ghiscari"

	father=101069201
	mother=401069201

	7176.1.1 = {birth="7176.1.1"}
	7192.1.1 = {add_trait=poor_warrior}
	7232.1.1 = {death="7232.1.1"}
}
101569201 = {
	name="Dhazzar"	# not a lord
	female=yes
	dynasty=69201

	religion="harpy"
	culture="ghiscari"

	father=101269201
	mother=401269201

	7193.1.1 = {birth="7193.1.1"}
	7259.1.1 = {death="7259.1.1"}
}
101669201 = {
	name="Azzak"	# a lord
	dynasty=69201

	religion="harpy"
	culture="ghiscari"

	father=101269201
	mother=401269201

	7196.1.1 = {birth="7196.1.1"}
	7212.1.1 = {add_trait=poor_warrior}
	7214.1.1 = {add_spouse=401669201}
	7243.1.1 = {death="7243.1.1"}
}
401669201 = {
	name="Tezza"
	female=yes

	religion="harpy"
	culture="ghiscari"

	7196.1.1 = {birth="7196.1.1"}
	7243.1.1 = {death="7243.1.1"}
}
101769201 = {
	name="Reznak"	# a lord
	dynasty=69201

	religion="harpy"
	culture="ghiscari"

	father=101669201
	mother=401669201

	7220.1.1 = {birth="7220.1.1"}
	7236.1.1 = {add_trait=skilled_warrior}
	7238.1.1 = {add_spouse=401769201}
	7266.1.1 = {death="7266.1.1"}
}
401769201 = {
	name="Ellezzara"
	female=yes

	religion="harpy"
	culture="ghiscari"

	7220.1.1 = {birth="7220.1.1"}
	7266.1.1 = {death="7266.1.1"}
}
101869201 = {
	name="Harghaz"	# a lord
	dynasty=69201

	religion="harpy"
	culture="ghiscari"

	father=101769201
	mother=401769201

	7238.1.1 = {birth="7238.1.1"}
	7254.1.1 = {add_trait=poor_warrior}
	7256.1.1 = {add_spouse=401869201}
	7318.1.1 = {death="7318.1.1"}
}
401869201 = {
	name="Sezqa"
	female=yes

	religion="harpy"
	culture="ghiscari"

	7238.1.1 = {birth="7238.1.1"}
	7318.1.1 = {death="7318.1.1"}
}
101969201 = {
	name="Hazzea"	# not a lord
	female=yes
	dynasty=69201

	religion="harpy"
	culture="ghiscari"

	father=101769201
	mother=401769201

	7241.1.1 = {birth="7241.1.1"}
	7302.1.1 = {death="7302.1.1"}
}
102069201 = {
	name="Tellezzara"	# not a lord
	female=yes
	dynasty=69201

	religion="harpy"
	culture="ghiscari"

	father=101769201
	mother=401769201

	7242.1.1 = {birth="7242.1.1"}
	7310.1.1 = {death="7310.1.1"}
}
102169201 = {
	name="Mezzara"	# not a lord
	female=yes
	dynasty=69201

	religion="harpy"
	culture="ghiscari"

	father=101869201
	mother=401869201

	7266.1.1 = {birth="7266.1.1"}
	7312.1.1 = {death="7312.1.1"}
}
102269201 = {
	name="Azzea"	# not a lord
	female=yes
	dynasty=69201

	religion="harpy"
	culture="ghiscari"

	father=101869201
	mother=401869201

	7269.1.1 = {birth="7269.1.1"}
	7309.1.1 = {death="7309.1.1"}
}
102369201 = {
	name="Skahaz"	# a lord
	dynasty=69201

	religion="harpy"
	culture="ghiscari"

	father=101869201
	mother=401869201

	7271.1.1 = {birth="7271.1.1"}
	7287.1.1 = {add_trait=poor_warrior}
	7289.1.1 = {add_spouse=402369201}
	7332.1.1 = {death="7332.1.1"}
}
402369201 = {
	name="Galazza"
	female=yes

	religion="harpy"
	culture="ghiscari"

	7271.1.1 = {birth="7271.1.1"}
	7332.1.1 = {death="7332.1.1"}
}
102469201 = {
	name="Selezzqa"	# not a lord
	female=yes
	dynasty=69201

	religion="harpy"
	culture="ghiscari"

	father=101869201
	mother=401869201

	7272.1.1 = {birth="7272.1.1"}
	7323.1.1 = {death="7323.1.1"}
}
102569201 = {
	name="Grazdan"	# a lord
	dynasty=69201

	religion="harpy"
	culture="ghiscari"

	father=102369201
	mother=402369201

	7300.1.1 = {birth="7300.1.1"}
	7316.1.1 = {add_trait=poor_warrior}
	7318.1.1 = {add_spouse=402569201}
	7353.1.1 = {death = {death_reason = death_murder}}
}
402569201 = {
	name="Hazzea"
	female=yes

	religion="harpy"
	culture="ghiscari"

	7300.1.1 = {birth="7300.1.1"}
	7353.1.1 = {death="7353.1.1"}
}
102669201 = {
	name="Selezzqa"	# not a lord
	female=yes
	dynasty=69201

	religion="harpy"
	culture="ghiscari"

	father=102569201
	mother=402569201

	7324.1.1 = {birth="7324.1.1"}
	7366.1.1 = {death="7366.1.1"}
}
102769201 = {
	name="Selezzqa"	# not a lord
	female=yes
	dynasty=69201

	religion="harpy"
	culture="ghiscari"

	father=102569201
	mother=402569201

	7327.1.1 = {birth="7327.1.1"}
	7376.1.1 = {death="7376.1.1"}
}
102869201 = {
	name="Haznak"	# a lord
	dynasty=69201

	religion="harpy"
	culture="ghiscari"

	father=102569201
	mother=402569201

	7329.1.1 = {birth="7329.1.1"}
	7345.1.1 = {add_trait=master_warrior}
	7347.1.1 = {add_spouse=402869201}
	7370.1.1 = {death="7370.1.1"}
}
402869201 = {
	name="Sezqa"
	female=yes

	religion="harpy"
	culture="ghiscari"

	7329.1.1 = {birth="7329.1.1"}
	7370.1.1 = {death="7370.1.1"}
}
102969201 = {
	name="Tezza"	# not a lord
	female=yes
	dynasty=69201

	religion="harpy"
	culture="ghiscari"

	father=102569201
	mother=402569201

	7330.1.1 = {birth="7330.1.1"}
	7381.1.1 = {death="7381.1.1"}
}
103069201 = {
	name="Grazdhan"	# a lord
	dynasty=69201

	religion="harpy"
	culture="ghiscari"

	father=102869201
	mother=402869201

	7352.1.1 = {birth="7352.1.1"}
	7368.1.1 = {add_trait=skilled_warrior}
	7420.1.1 = {death="7420.1.1"}
}
103169201 = {
	name="Dhazzar"	# not a lord
	female=yes
	dynasty=69201

	religion="harpy"
	culture="ghiscari"

	father=102869201
	mother=402869201

	7355.1.1 = {birth="7355.1.1"}
	7415.1.1 = {death="7415.1.1"}
}
103269201 = {
	name="Yarkhaz"	# not a lord
	dynasty=69201

	religion="harpy"
	culture="ghiscari"

	father=102869201
	mother=402869201

	7356.1.1 = {birth="7356.1.1"}
	7372.1.1 = {add_trait=poor_warrior}
	7408.1.1 = {death="7408.1.1"}
}


####  House Larghaz

100069202 = {
	name="Barkhaz"	# a lord
	dynasty=69202

	religion="harpy"
	culture="ghiscari"

	7063.1.1 = {birth="7063.1.1"}
	7079.1.1 = {add_trait=poor_warrior}
	7081.1.1 = {add_spouse=400069202}
	7130.1.1 = {death="7130.1.1"}
}
400069202 = {
	name="Mezzara"
	female=yes

	religion="harpy"
	culture="ghiscari"

	7063.1.1 = {birth="7063.1.1"}
	7130.1.1 = {death="7130.1.1"}
}
100169202 = {
	name="Bharkaz"	# a lord
	dynasty=69202

	religion="harpy"
	culture="ghiscari"

	father=100069202
	mother=400069202

	7091.1.1 = {birth="7091.1.1"}
	7107.1.1 = {add_trait=poor_warrior}
	7109.1.1 = {add_spouse=400169202}
	7142.1.1 = {death="7142.1.1"}
}
400169202 = {
	name="Qezza"
	female=yes

	religion="harpy"
	culture="ghiscari"

	7091.1.1 = {birth="7091.1.1"}
	7142.1.1 = {death="7142.1.1"}
}
100269202 = {
	name="Ghazdor"	# a lord
	dynasty=69202

	religion="harpy"
	culture="ghiscari"

	father=100169202
	mother=400169202

	7123.1.1 = {birth="7123.1.1"}
	7139.1.1 = {add_trait=trained_warrior}
	7141.1.1 = {add_spouse=400269202}
	7172.1.1 = {death="7172.1.1"}
}
400269202 = {
	name="Azzara"
	female=yes

	religion="harpy"
	culture="ghiscari"

	7123.1.1 = {birth="7123.1.1"}
	7172.1.1 = {death="7172.1.1"}
}
100369202 = {
	name="Hazzaara"	# not a lord
	female=yes
	dynasty=69202

	religion="harpy"
	culture="ghiscari"

	father=100169202
	mother=400169202

	7126.1.1 = {birth="7126.1.1"}
	7175.1.1 = {death="7175.1.1"}
}
100469202 = {
	name="Grazdhar"	# a lord
	dynasty=69202

	religion="harpy"
	culture="ghiscari"

	father=100269202
	mother=400269202

	7143.1.1 = {birth="7143.1.1"}
	7159.1.1 = {add_trait=poor_warrior}
	7161.1.1 = {add_spouse=400469202}
	7179.1.1 = {death="7179.1.1"}
}
400469202 = {
	name="Azzea"
	female=yes

	religion="harpy"
	culture="ghiscari"

	7143.1.1 = {birth="7143.1.1"}
	7179.1.1 = {death="7179.1.1"}
}
100569202 = {
	name="Azzea"	# not a lord
	female=yes
	dynasty=69202

	religion="harpy"
	culture="ghiscari"

	father=100269202
	mother=400269202

	7145.1.1 = {birth="7145.1.1"}
	7192.1.1 = {death="7192.1.1"}
}
100669202 = {
	name="Galazza"	# not a lord
	female=yes
	dynasty=69202

	religion="harpy"
	culture="ghiscari"

	father=100269202
	mother=400269202

	7147.1.1 = {birth="7147.1.1"}
	7204.1.1 = {death="7204.1.1"}
}
100769202 = {
	name="Hizdhar"	# a lord
	dynasty=69202

	religion="harpy"
	culture="ghiscari"

	father=100469202
	mother=400469202

	7161.1.1 = {birth="7161.1.1"}
	7177.1.1 = {add_trait=skilled_warrior}
	7179.1.1 = {add_spouse=400769202}
	7220.1.1 = {death="7220.1.1"}
}
400769202 = {
	name="Ellezzara"
	female=yes

	religion="harpy"
	culture="ghiscari"

	7161.1.1 = {birth="7161.1.1"}
	7220.1.1 = {death="7220.1.1"}
}
100869202 = {
	name="Dhazzar"	# not a lord
	female=yes
	dynasty=69202

	religion="harpy"
	culture="ghiscari"

	father=100469202
	mother=400469202

	7162.1.1 = {birth="7162.1.1"}
	7228.1.1 = {death="7228.1.1"}
}
100969202 = {
	name="Yarkhaz"	# not a lord
	dynasty=69202

	religion="harpy"
	culture="ghiscari"

	father=100469202
	mother=400469202

	7163.1.1 = {birth="7163.1.1"}
	7179.1.1 = {add_trait=poor_warrior}
	7242.1.1 = {death="7242.1.1"}
}
101069202 = {
	name="Reznak"	# a lord
	dynasty=69202

	religion="harpy"
	culture="ghiscari"

	father=100769202
	mother=400769202

	7186.1.1 = {birth="7186.1.1"}
	7202.1.1 = {add_trait=poor_warrior}
	7204.1.1 = {add_spouse=401069202}
	7236.1.1 = {death="7236.1.1"}
}
401069202 = {
	name="Galazza"
	female=yes

	religion="harpy"
	culture="ghiscari"

	7186.1.1 = {birth="7186.1.1"}
	7236.1.1 = {death="7236.1.1"}
}
101169202 = {
	name="Morghaz"	# a lord
	dynasty=69202

	religion="harpy"
	culture="ghiscari"

	father=101069202
	mother=401069202

	7210.1.1 = {birth="7210.1.1"}
	7226.1.1 = {add_trait=trained_warrior}
	7228.1.1 = {add_spouse=401169202}
	7265.1.1 = {death="7265.1.1"}
}
401169202 = {
	name="Yezza"
	female=yes

	religion="harpy"
	culture="ghiscari"

	7210.1.1 = {birth="7210.1.1"}
	7265.1.1 = {death="7265.1.1"}
}
101269202 = {
	name="Hazzea"	# not a lord
	female=yes
	dynasty=69202

	religion="harpy"
	culture="ghiscari"

	father=101069202
	mother=401069202

	7212.1.1 = {birth="7212.1.1"}
	7286.1.1 = {death="7286.1.1"}
}
101369202 = {
	name="Zellazara"	# not a lord
	female=yes
	dynasty=69202

	religion="harpy"
	culture="ghiscari"

	father=101069202
	mother=401069202

	7214.1.1 = {birth="7214.1.1"}
	7283.1.1 = {death="7283.1.1"}
}
101469202 = {
	name="Yezzan"	# a lord
	dynasty=69202

	religion="harpy"
	culture="ghiscari"

	father=101169202
	mother=401169202

	7228.1.1 = {birth="7228.1.1"}
	7244.1.1 = {add_trait=poor_warrior}
	7246.1.1 = {add_spouse=401469202}
	7286.1.1 = {death="7286.1.1"}
}
401469202 = {
	name="Gezzella"
	female=yes

	religion="harpy"
	culture="ghiscari"

	7228.1.1 = {birth="7228.1.1"}
	7286.1.1 = {death="7286.1.1"}
}
101569202 = {
	name="Jezhane"	# not a lord
	female=yes
	dynasty=69202

	religion="harpy"
	culture="ghiscari"

	father=101469202
	mother=401469202

	7251.1.1 = {birth="7251.1.1"}
	7312.1.1 = {death="7312.1.1"}
}
101669202 = {
	name="Yezzan"	# a lord
	dynasty=69202

	religion="harpy"
	culture="ghiscari"

	father=101469202
	mother=401469202

	7254.1.1 = {birth="7254.1.1"}
	7270.1.1 = {add_trait=trained_warrior}
	7272.1.1 = {add_spouse=401669202}
	7323.1.1 = {death="7323.1.1"}
}
401669202 = {
	name="Ellezzara"
	female=yes

	religion="harpy"
	culture="ghiscari"

	7254.1.1 = {birth="7254.1.1"}
	7323.1.1 = {death="7323.1.1"}
}
101769202 = {
	name="Dhazzar"	# not a lord
	female=yes
	dynasty=69202

	religion="harpy"
	culture="ghiscari"

	father=101469202
	mother=401469202

	7256.1.1 = {birth="7256.1.1"}
	7309.1.1 = {death="7309.1.1"}
}
101869202 = {
	name="Ezzara"	# not a lord
	female=yes
	dynasty=69202

	religion="harpy"
	culture="ghiscari"

	father=101669202
	mother=401669202

	7281.1.1 = {birth="7281.1.1"}
	7323.1.1 = {death="7323.1.1"}
}
101969202 = {
	name="Zaraq"	# a lord
	dynasty=69202

	religion="harpy"
	culture="ghiscari"

	father=101669202
	mother=401669202

	7283.1.1 = {birth="7283.1.1"}
	7299.1.1 = {add_trait=poor_warrior}
	7301.1.1 = {add_spouse=401969202}
	7340.1.1 = {death="7340.1.1"}
}
401969202 = {
	name="Sezqa"
	female=yes

	religion="harpy"
	culture="ghiscari"

	7283.1.1 = {birth="7283.1.1"}
	7340.1.1 = {death="7340.1.1"}
}
102069202 = {
	name="Qazella"	# not a lord
	female=yes
	dynasty=69202

	religion="harpy"
	culture="ghiscari"

	father=101969202
	mother=401969202

	7301.1.1 = {birth="7301.1.1"}
	7326.1.1 = {death="7326.1.1"}
}
102169202 = {
	name="Azzak"	# a lord
	dynasty=69202

	religion="harpy"
	culture="ghiscari"

	father=101969202
	mother=401969202

	7302.1.1 = {birth="7302.1.1"}
	7318.1.1 = {add_trait=poor_warrior}
	7320.1.1 = {add_spouse=402169202}
	7360.1.1 = {death="7360.1.1"}
}
402169202 = {
	name="Hazzaara"
	female=yes

	religion="harpy"
	culture="ghiscari"

	7302.1.1 = {birth="7302.1.1"}
	7360.1.1 = {death="7360.1.1"}
}
102269202 = {
	name="Mezzara"	# not a lord
	female=yes
	dynasty=69202

	religion="harpy"
	culture="ghiscari"

	father=102169202
	mother=402169202

	7320.1.1 = {birth="7320.1.1"}
	7391.1.1 = {death = {death_reason = death_murder}}
}
102369202 = {
	name="Barghaz"	# a lord
	dynasty=69202

	religion="harpy"
	culture="ghiscari"

	father=102169202
	mother=402169202

	7323.1.1 = {birth="7323.1.1"}
	7339.1.1 = {add_trait=poor_warrior}
	7341.1.1 = {add_spouse=402369202}
	7385.1.1 = {death="7385.1.1"}
}
402369202 = {
	name="Azzara"
	female=yes

	religion="harpy"
	culture="ghiscari"

	7323.1.1 = {birth="7323.1.1"}
	7385.1.1 = {death="7385.1.1"}
}
102469202 = {
	name="Grazdhan"	# not a lord
	dynasty=69202

	religion="harpy"
	culture="ghiscari"

	father=102169202
	mother=402169202

	7326.1.1 = {birth="7326.1.1"}
	7342.1.1 = {add_trait=skilled_warrior}
	7388.1.1 = {death="7388.1.1"}
}
102569202 = {
	name="Tezza"	# not a lord
	female=yes
	dynasty=69202

	religion="harpy"
	culture="ghiscari"

	father=102369202
	mother=402369202

	7352.1.1 = {birth="7352.1.1"}
	7411.1.1 = {death="7411.1.1"}
}
102669202 = {
	name="Ghazdor"	# a lord
	dynasty=69202

	religion="harpy"
	culture="ghiscari"

	father=102369202
	mother=402369202

	7353.1.1 = {birth="7353.1.1"}
	7369.1.1 = {add_trait=master_warrior}
	7403.1.1 = {death="7403.1.1"}
}
102769202 = {
	name="Sezqa"	# not a lord
	female=yes
	dynasty=69202

	religion="harpy"
	culture="ghiscari"

	father=102369202
	mother=402369202

	7355.1.1 = {birth="7355.1.1"}
	7402.1.1 = {death="7402.1.1"}
}
102869202 = {
	name="Haznak"	# not a lord
	dynasty=69202

	religion="harpy"
	culture="ghiscari"

	father=102369202
	mother=402369202

	7357.1.1 = {birth="7357.1.1"}
	7373.1.1 = {add_trait=poor_warrior}
	7407.1.1 = {death="7407.1.1"}
}
102969202 = {
	name="Miklaz"	# not a lord
	dynasty=69202

	religion="harpy"
	culture="ghiscari"

	father=102369202
	mother=402369202

	7358.1.1 = {birth="7358.1.1"}
	7374.1.1 = {add_trait=poor_warrior}
	7415.1.1 = {death = {death_reason = death_accident}}
}



####  House Hiznhak

100069205 = {
	name="Zaraq"	# a lord
	dynasty=69205

	religion="harpy"
	culture="ghiscari"

	7060.1.1 = {birth="7060.1.1"}
	7076.1.1 = {add_trait=poor_warrior}
	7078.1.1 = {add_spouse=400069205}
	7132.1.1 = {death="7132.1.1"}
}
400069205 = {
	name="Ezzara"
	female=yes

	religion="harpy"
	culture="ghiscari"

	7060.1.1 = {birth="7060.1.1"}
	7132.1.1 = {death="7132.1.1"}
}
100169205 = {
	name="Ghazdor"	# a lord
	dynasty=69205

	religion="harpy"
	culture="ghiscari"

	father=100069205
	mother=400069205

	7088.1.1 = {birth="7088.1.1"}
	7104.1.1 = {add_trait=trained_warrior}
	7106.1.1 = {add_spouse=400169205}
	7157.1.1 = {death="7157.1.1"}
}
400169205 = {
	name="Hazzea"
	female=yes

	religion="harpy"
	culture="ghiscari"

	7088.1.1 = {birth="7088.1.1"}
	7157.1.1 = {death="7157.1.1"}
}
100269205 = {
	name="Maezon"	# a lord
	dynasty=69205

	religion="harpy"
	culture="ghiscari"

	father=100169205
	mother=400169205

	7121.1.1 = {birth="7121.1.1"}
	7137.1.1 = {add_trait=skilled_warrior}
	7139.1.1 = {add_spouse=400269205}
	7163.1.1 = {death="7163.1.1"}
}
400269205 = {
	name="Ezzara"
	female=yes

	religion="harpy"
	culture="ghiscari"

	7121.1.1 = {birth="7121.1.1"}
	7163.1.1 = {death="7163.1.1"}
}
100369205 = {
	name="Skahaz"	# a lord
	dynasty=69205

	religion="harpy"
	culture="ghiscari"

	father=100269205
	mother=400269205

	7153.1.1 = {birth="7153.1.1"}
	7169.1.1 = {add_trait=poor_warrior}
	7171.1.1 = {add_spouse=400369205}
	7211.1.1 = {death="7211.1.1"}
}
400369205 = {
	name="Tezza"
	female=yes

	religion="harpy"
	culture="ghiscari"

	7153.1.1 = {birth="7153.1.1"}
	7211.1.1 = {death="7211.1.1"}
}
100469205 = {
	name="Maezon"	# not a lord
	dynasty=69205

	religion="harpy"
	culture="ghiscari"

	father=100269205
	mother=400269205

	7155.1.1 = {birth="7155.1.1"}
	7171.1.1 = {add_trait=trained_warrior}
	7213.1.1 = {death="7213.1.1"}
}
100569205 = {
	name="Yezza"	# not a lord
	female=yes
	dynasty=69205

	religion="harpy"
	culture="ghiscari"

	father=100269205
	mother=400269205

	7156.1.1 = {birth="7156.1.1"}
	7211.1.1 = {death="7211.1.1"}
}
100669205 = {
	name="Mezzala"	# not a lord
	female=yes
	dynasty=69205

	religion="harpy"
	culture="ghiscari"

	father=100369205
	mother=400369205

	7178.1.1 = {birth="7178.1.1"}
	7225.1.1 = {death="7225.1.1"}
}
100769205 = {
	name="Selezzqa"	# not a lord
	female=yes
	dynasty=69205

	religion="harpy"
	culture="ghiscari"

	father=100369205
	mother=400369205

	7180.1.1 = {birth="7180.1.1"}
	7230.1.1 = {death="7230.1.1"}
}
100869205 = {
	name="Yurkhaz"	# a lord
	dynasty=69205

	religion="harpy"
	culture="ghiscari"

	father=100369205
	mother=400369205

	7181.1.1 = {birth="7181.1.1"}
	7197.1.1 = {add_trait=trained_warrior}
	7199.1.1 = {add_spouse=400869205}
	7234.1.1 = {death="7234.1.1"}
}
400869205 = {
	name="Qazella"
	female=yes

	religion="harpy"
	culture="ghiscari"

	7181.1.1 = {birth="7181.1.1"}
	7234.1.1 = {death="7234.1.1"}
}
100969205 = {
	name="Selezzqa"	# not a lord
	female=yes
	dynasty=69205

	religion="harpy"
	culture="ghiscari"

	father=100369205
	mother=400369205

	7184.1.1 = {birth="7184.1.1"}
	7230.1.1 = {death="7230.1.1"}
}
101069205 = {
	name="Ghazdor"	# not a lord
	dynasty=69205

	religion="harpy"
	culture="ghiscari"

	father=100369205
	mother=400369205

	7185.1.1 = {birth="7185.1.1"}
	7201.1.1 = {add_trait=poor_warrior}
	7259.1.1 = {death = {death_reason = death_murder}}
}
101169205 = {
	name="Grazdhan"	# not a lord
	dynasty=69205

	religion="harpy"
	culture="ghiscari"

	father=100869205
	mother=400869205

	7205.1.1 = {birth="7205.1.1"}
	7221.1.1 = {add_trait=poor_warrior}
	7227.1.1 = {death="7227.1.1"}
}
101269205 = {
	name="Grazdhar"	# a lord
	dynasty=69205

	religion="harpy"
	culture="ghiscari"

	father=100869205
	mother=400869205

	7206.1.1 = {birth="7206.1.1"}
	7222.1.1 = {add_trait=poor_warrior}
	7224.1.1 = {add_spouse=401269205}
	7262.1.1 = {death="7262.1.1"}
}
401269205 = {
	name="Azzea"
	female=yes

	religion="harpy"
	culture="ghiscari"

	7206.1.1 = {birth="7206.1.1"}
	7262.1.1 = {death="7262.1.1"}
}
101369205 = {
	name="Grazdan"	# not a lord
	dynasty=69205

	religion="harpy"
	culture="ghiscari"

	father=100869205
	mother=400869205

	7209.1.1 = {birth="7209.1.1"}
	7225.1.1 = {add_trait=poor_warrior}
	7265.1.1 = {death="7265.1.1"}
}
101469205 = {
	name="Bharkaz"	# not a lord
	dynasty=69205

	religion="harpy"
	culture="ghiscari"

	father=100869205
	mother=400869205

	7210.1.1 = {birth="7210.1.1"}
	7226.1.1 = {add_trait=trained_warrior}
	7270.1.1 = {death="7270.1.1"}
}
101569205 = {
	name="Azzea"	# not a lord
	female=yes
	dynasty=69205

	religion="harpy"
	culture="ghiscari"

	father=101269205
	mother=401269205

	7227.1.1 = {birth="7227.1.1"}
	7287.1.1 = {death="7287.1.1"}
}
101669205 = {
	name="Paezhar"	# a lord
	dynasty=69205

	religion="harpy"
	culture="ghiscari"

	father=101269205
	mother=401269205

	7230.1.1 = {birth="7230.1.1"}
	7246.1.1 = {add_trait=poor_warrior}
	7248.1.1 = {add_spouse=401669205}
	7274.1.1 = {death="7274.1.1"}
}
401669205 = {
	name="Dhazzar"
	female=yes

	religion="harpy"
	culture="ghiscari"

	7230.1.1 = {birth="7230.1.1"}
	7274.1.1 = {death="7274.1.1"}
}
101769205 = {
	name="Tezza"	# not a lord
	female=yes
	dynasty=69205

	religion="harpy"
	culture="ghiscari"

	father=101269205
	mother=401269205

	7231.1.1 = {birth="7231.1.1"}
	7308.1.1 = {death="7308.1.1"}
}
101869205 = {
	name="Sezqa"	# not a lord
	female=yes
	dynasty=69205

	religion="harpy"
	culture="ghiscari"

	father=101269205
	mother=401269205

	7232.1.1 = {birth="7232.1.1"}
	7275.1.1 = {death="7275.1.1"}
}
101969205 = {
	name="Gorzhak"	# a lord
	dynasty=69205

	religion="harpy"
	culture="ghiscari"

	father=101669205
	mother=401669205

	7249.1.1 = {birth="7249.1.1"}
	7265.1.1 = {add_trait=poor_warrior}
	7267.1.1 = {add_spouse=401969205}
	7317.1.1 = {death = {death_reason = death_murder}}
}
401969205 = {
	name="Ezzara"
	female=yes

	religion="harpy"
	culture="ghiscari"

	7249.1.1 = {birth="7249.1.1"}
	7317.1.1 = {death="7317.1.1"}
}
102069205 = {
	name="Hazzaara"	# not a lord
	female=yes
	dynasty=69205

	religion="harpy"
	culture="ghiscari"

	father=101669205
	mother=401669205

	7250.1.1 = {birth="7250.1.1"}
	7291.1.1 = {death="7291.1.1"}
}
102169205 = {
	name="Yarkhaz"	# a lord
	dynasty=69205

	religion="harpy"
	culture="ghiscari"

	father=101969205
	mother=401969205

	7268.1.1 = {birth="7268.1.1"}
	7284.1.1 = {add_trait=poor_warrior}
	7286.1.1 = {add_spouse=402169205}
	7329.1.1 = {death = {death_reason = death_murder}}
}
402169205 = {
	name="Mezzala"
	female=yes

	religion="harpy"
	culture="ghiscari"

	7268.1.1 = {birth="7268.1.1"}
	7329.1.1 = {death="7329.1.1"}
}
102269205 = {
	name="Zellazara"	# not a lord
	female=yes
	dynasty=69205

	religion="harpy"
	culture="ghiscari"

	father=101969205
	mother=401969205

	7270.1.1 = {birth="7270.1.1"}
	7323.1.1 = {death="7323.1.1"}
}
102369205 = {
	name="Zellazara"	# not a lord
	female=yes
	dynasty=69205

	religion="harpy"
	culture="ghiscari"

	father=102169205
	mother=402169205

	7287.1.1 = {birth="7287.1.1"}
	7326.1.1 = {death="7326.1.1"}
}
102469205 = {
	name="Azzara"	# not a lord
	female=yes
	dynasty=69205

	religion="harpy"
	culture="ghiscari"

	father=102169205
	mother=402169205

	7289.1.1 = {birth="7289.1.1"}
	7336.1.1 = {death="7336.1.1"}
}
102569205 = {
	name="Ghazdor"	# a lord
	dynasty=69205

	religion="harpy"
	culture="ghiscari"

	father=102169205
	mother=402169205

	7292.1.1 = {birth="7292.1.1"}
	7308.1.1 = {add_trait=skilled_warrior}
	7310.1.1 = {add_spouse=402569205}
	7347.1.1 = {death="7347.1.1"}
}
402569205 = {
	name="Ezzara"
	female=yes

	religion="harpy"
	culture="ghiscari"

	7292.1.1 = {birth="7292.1.1"}
	7347.1.1 = {death="7347.1.1"}
}
102669205 = {
	name="Fendahl"	# not a lord
	dynasty=69205

	religion="harpy"
	culture="ghiscari"

	father=102169205
	mother=402169205

	7294.1.1 = {birth="7294.1.1"}
	7310.1.1 = {add_trait=poor_warrior}
	7325.1.1 = {death="7325.1.1"}
}
102769205 = {
	name="Qazella"	# not a lord
	female=yes
	dynasty=69205

	religion="harpy"
	culture="ghiscari"

	father=102169205
	mother=402169205

	7296.1.1 = {birth="7296.1.1"}
	7356.1.1 = {death="7356.1.1"}
}
102869205 = {
	name="Yurkhaz"	# a lord
	dynasty=69205

	religion="harpy"
	culture="ghiscari"

	father=102569205
	mother=402569205

	7314.1.1 = {birth="7314.1.1"}
	7330.1.1 = {add_trait=poor_warrior}
	7332.1.1 = {add_spouse=402869205}
	7358.1.1 = {death="7358.1.1"}
}
402869205 = {
	name="Tellezzara"
	female=yes

	religion="harpy"
	culture="ghiscari"

	7314.1.1 = {birth="7314.1.1"}
	7358.1.1 = {death="7358.1.1"}
}
102969205 = {
	name="Tezza"	# not a lord
	female=yes
	dynasty=69205

	religion="harpy"
	culture="ghiscari"

	father=102569205
	mother=402569205

	7315.1.1 = {birth="7315.1.1"}
	7349.1.1 = {death="7349.1.1"}
}
103069205 = {
	name="Galazza"	# not a lord
	female=yes
	dynasty=69205

	religion="harpy"
	culture="ghiscari"

	father=102569205
	mother=402569205

	7318.1.1 = {birth="7318.1.1"}
	7378.1.1 = {death="7378.1.1"}
}
103169205 = {
	name="Gorzhak"	# not a lord
	dynasty=69205

	religion="harpy"
	culture="ghiscari"

	father=102569205
	mother=402569205

	7320.1.1 = {birth="7320.1.1"}
	7336.1.1 = {add_trait=master_warrior}
	7354.1.1 = {death = {death_reason = death_accident}}
}
103269205 = {
	name="Hazzea"	# not a lord
	female=yes
	dynasty=69205

	religion="harpy"
	culture="ghiscari"

	father=102869205
	mother=402869205

	7337.1.1 = {birth="7337.1.1"}
	7394.1.1 = {death="7394.1.1"}
}
103369205 = {
	name="Barkhaz"	# a lord
	dynasty=69205

	religion="harpy"
	culture="ghiscari"

	father=102869205
	mother=402869205

	7340.1.1 = {birth="7340.1.1"}
	7356.1.1 = {add_trait=poor_warrior}
	7358.1.1 = {add_spouse=403369205}
	7389.1.1 = {death="7389.1.1"}
}
403369205 = {
	name="Tellezzara"
	female=yes

	religion="harpy"
	culture="ghiscari"

	7340.1.1 = {birth="7340.1.1"}
	7389.1.1 = {death="7389.1.1"}
}
103469205 = {
	name="Skahaz"	# not a lord
	dynasty=69205

	religion="harpy"
	culture="ghiscari"

	father=102869205
	mother=402869205

	7343.1.1 = {birth="7343.1.1"}
	7359.1.1 = {add_trait=trained_warrior}
	7399.1.1 = {death="7399.1.1"}
}
103569205 = {
	name="Zellazara"	# not a lord
	female=yes
	dynasty=69205

	religion="harpy"
	culture="ghiscari"

	father=102869205
	mother=402869205

	7344.1.1 = {birth="7344.1.1"}
	7396.1.1 = {death="7396.1.1"}
}
103669205 = {
	name="Maezon"	# a lord
	dynasty=69205

	religion="harpy"
	culture="ghiscari"

	father=103369205
	mother=403369205

	7372.1.1 = {birth="7372.1.1"}
	7388.1.1 = {add_trait=trained_warrior}
	7431.1.1 = {death="7431.1.1"}
}
103769205 = {
	name="Ellezzara"	# not a lord
	female=yes
	dynasty=69205

	religion="harpy"
	culture="ghiscari"

	father=103369205
	mother=403369205

	7375.1.1 = {birth="7375.1.1"}
	7414.1.1 = {death="7414.1.1"}
}
103869205 = {
	name="Harghaz"	# not a lord
	dynasty=69205

	religion="harpy"
	culture="ghiscari"

	father=103369205
	mother=403369205

	7378.1.1 = {birth="7378.1.1"}
	7394.1.1 = {add_trait=master_warrior}
	7414.1.1 = {death="7414.1.1"}
}
103969205 = {
	name="Maezon"	# not a lord
	dynasty=69205

	religion="harpy"
	culture="ghiscari"

	father=103369205
	mother=403369205

	7380.1.1 = {birth="7380.1.1"}
	7396.1.1 = {add_trait=trained_warrior}
	7433.1.1 = {death="7433.1.1"}
}
