##  House Ramesh
10055960 = {
	name="Danh"	# not a lord
	dynasty=55960

	religion="yiti_gods"
	culture="yi_ti"

	7058.1.1 = {birth="7058.1.1"}
	7074.1.1 = {add_trait=poor_warrior}
	7076.1.1 = {add_spouse=40055960}
	7131.1.1 = {death="7131.1.1"}
}
40055960 = {
	name="Hoa"
	female=yes

	religion="yiti_gods"
	culture="yi_ti"

	7058.1.1 = {birth="7058.1.1"}
	7131.1.1 = {death="7131.1.1"}
}
10155960 = {
	name="Mu"	# not a lord
	female=yes
	dynasty=55960

	religion="yiti_gods"
	culture="yi_ti"

	father=10055960
	mother=40055960

	7084.1.1 = {birth="7084.1.1"}
	7119.1.1 = {death="7119.1.1"}
}
10255960 = {
	name="Vien"	# a lord
	dynasty=55960

	religion="yiti_gods"
	culture="yi_ti"

	father=10055960
	mother=40055960

	7087.1.1 = {birth="7087.1.1"}
	7103.1.1 = {add_trait=poor_warrior}
	7105.1.1 = {add_spouse=40255960}
	7155.1.1 = {death="7155.1.1"}
}
40255960 = {
	name="Zu"
	female=yes

	religion="yiti_gods"
	culture="yi_ti"

	7087.1.1 = {birth="7087.1.1"}
	7155.1.1 = {death="7155.1.1"}
}
10355960 = {
	name="Kim Cuc"	# not a lord
	female=yes
	dynasty=55960

	religion="yiti_gods"
	culture="yi_ti"

	father=10055960
	mother=40055960

	7088.1.1 = {birth="7088.1.1"}
	7143.1.1 = {death="7143.1.1"}
}
10455960 = {
	name="Huan"	# not a lord
	dynasty=55960

	religion="yiti_gods"
	culture="yi_ti"

	father=10255960
	mother=40255960

	7109.1.1 = {birth="7109.1.1"}
	7125.1.1 = {add_trait=poor_warrior}
	7140.1.1 = {death="7140.1.1"}
}
10555960 = {
	name="Xhe"	# a lord
	dynasty=55960

	religion="yiti_gods"
	culture="yi_ti"

	father=10255960
	mother=40255960

	7112.1.1 = {birth="7112.1.1"}
	7128.1.1 = {add_trait=poor_warrior}
	7130.1.1 = {add_spouse=40555960}
	7170.1.1 = {death="7170.1.1"}
}
40555960 = {
	name="Chi"
	female=yes

	religion="yiti_gods"
	culture="yi_ti"

	7112.1.1 = {birth="7112.1.1"}
	7170.1.1 = {death="7170.1.1"}
}
10655960 = {
	name="Truc"	# not a lord
	dynasty=55960

	religion="yiti_gods"
	culture="yi_ti"

	father=10255960
	mother=40255960

	7113.1.1 = {birth="7113.1.1"}
	7129.1.1 = {add_trait=trained_warrior}
	7167.1.1 = {death="7167.1.1"}
}
10755960 = {
	name="Ming"	# not a lord
	female=yes
	dynasty=55960

	religion="yiti_gods"
	culture="yi_ti"

	father=10255960
	mother=40255960

	7114.1.1 = {birth="7114.1.1"}
	7163.1.1 = {death="7163.1.1"}
}
10855960 = {
	name="Xun"	# a lord
	dynasty=55960

	religion="yiti_gods"
	culture="yi_ti"

	father=10555960
	mother=40555960

	7144.1.1 = {birth="7144.1.1"}
	7160.1.1 = {add_trait=poor_warrior}
	7162.1.1 = {add_spouse=40855960}
	7191.1.1 = {death = {death_reason = death_murder}}
}
40855960 = {
	name="Ling"
	female=yes

	religion="yiti_gods"
	culture="yi_ti"

	7144.1.1 = {birth="7144.1.1"}
	7191.1.1 = {death="7191.1.1"}
}
10955960 = {
	name="Mai"	# not a lord
	female=yes
	dynasty=55960

	religion="yiti_gods"
	culture="yi_ti"

	father=10555960
	mother=40555960

	7147.1.1 = {birth="7147.1.1"}
	7192.1.1 = {death="7192.1.1"}
}
11055960 = {
	name="Vinh"	# not a lord
	dynasty=55960

	religion="yiti_gods"
	culture="yi_ti"

	father=10555960
	mother=40555960

	7149.1.1 = {birth="7149.1.1"}
	7165.1.1 = {add_trait=poor_warrior}
	7207.1.1 = {death="7207.1.1"}
}
11155960 = {
	name="Quan"	# a lord
	dynasty=55960

	religion="yiti_gods"
	culture="yi_ti"

	father=10855960
	mother=40855960

	7172.1.1 = {birth="7172.1.1"}
	7188.1.1 = {add_trait=trained_warrior}
	7190.1.1 = {add_spouse=41155960}
	7225.1.1 = {death="7225.1.1"}
}
41155960 = {
	name="Tu"
	female=yes

	religion="yiti_gods"
	culture="yi_ti"

	7172.1.1 = {birth="7172.1.1"}
	7225.1.1 = {death="7225.1.1"}
}
11255960 = {
	name="Sang"	# not a lord
	dynasty=55960

	religion="yiti_gods"
	culture="yi_ti"

	father=10855960
	mother=40855960

	7175.1.1 = {birth="7175.1.1"}
	7191.1.1 = {add_trait=skilled_warrior}
	7226.1.1 = {death="7226.1.1"}
}
11355960 = {
	name="Huan"	# a lord
	dynasty=55960

	religion="yiti_gods"
	culture="yi_ti"

	father=11155960
	mother=41155960

	7194.1.1 = {birth="7194.1.1"}
	7210.1.1 = {add_trait=skilled_warrior}
	7212.1.1 = {add_spouse=41355960}
	7231.1.1 = {death = {death_reason = death_execution}}
}
41355960 = {
	name="Hong"
	female=yes

	religion="yiti_gods"
	culture="yi_ti"

	7194.1.1 = {birth="7194.1.1"}
	7231.1.1 = {death="7231.1.1"}
}
11455960 = {
	name="Ba"	# not a lord
	dynasty=55960

	religion="yiti_gods"
	culture="yi_ti"

	father=11155960
	mother=41155960

	7197.1.1 = {birth="7197.1.1"}
	7213.1.1 = {add_trait=master_warrior}
	7224.1.1 = {death = {death_reason = death_murder}}
}
11555960 = {
	name="Hao"	# not a lord
	dynasty=55960

	religion="yiti_gods"
	culture="yi_ti"

	father=11155960
	mother=41155960

	7198.1.1 = {birth="7198.1.1"}
	7214.1.1 = {add_trait=poor_warrior}
	7253.1.1 = {death="7253.1.1"}
}
11655960 = {
	name="Thi"	# not a lord
	female=yes
	dynasty=55960

	religion="yiti_gods"
	culture="yi_ti"

	father=11355960
	mother=41355960

	7213.1.1 = {birth="7213.1.1"}
	7268.1.1 = {death="7268.1.1"}
}
11755960 = {
	name="Hong"	# not a lord
	female=yes
	dynasty=55960

	religion="yiti_gods"
	culture="yi_ti"

	father=11355960
	mother=41355960

	7214.1.1 = {birth="7214.1.1"}
	7249.1.1 = {death="7249.1.1"}
}
11855960 = {
	name="Chun"	# a lord
	dynasty=55960

	religion="yiti_gods"
	culture="yi_ti"

	father=11355960
	mother=41355960

	7215.1.1 = {birth="7215.1.1"}
	7231.1.1 = {add_trait=poor_warrior}
	7233.1.1 = {add_spouse=41855960}
	7242.1.1 = {death="7242.1.1"}
}
41855960 = {
	name="Cam"
	female=yes

	religion="yiti_gods"
	culture="yi_ti"

	7215.1.1 = {birth="7215.1.1"}
	7242.1.1 = {death="7242.1.1"}
}
11955960 = {
	name="Phong"	# not a lord
	dynasty=55960

	religion="yiti_gods"
	culture="yi_ti"

	father=11355960
	mother=41355960

	7218.1.1 = {birth="7218.1.1"}
	7234.1.1 = {add_trait=poor_warrior}
	7275.1.1 = {death="7275.1.1"}
}
12055960 = {
	name="Dai"	# a lord
	dynasty=55960

	religion="yiti_gods"
	culture="yi_ti"

	father=11855960
	mother=41855960

	7234.1.1 = {birth="7234.1.1"}
	7250.1.1 = {add_trait=poor_warrior}
	7252.1.1 = {add_spouse=42055960}
	7282.1.1 = {death="7282.1.1"}
}
42055960 = {
	name="Shi"
	female=yes

	religion="yiti_gods"
	culture="yi_ti"

	7234.1.1 = {birth="7234.1.1"}
	7282.1.1 = {death="7282.1.1"}
}
12155960 = {
	name="Chi"	# not a lord
	female=yes
	dynasty=55960

	religion="yiti_gods"
	culture="yi_ti"

	father=12055960
	mother=42055960

	7255.1.1 = {birth="7255.1.1"}
	7332.1.1 = {death="7332.1.1"}
}
12255960 = {
	name="Hai"	# a lord
	dynasty=55960

	religion="yiti_gods"
	culture="yi_ti"

	father=12055960
	mother=42055960

	7257.1.1 = {birth="7257.1.1"}
	7273.1.1 = {add_trait=skilled_warrior}
	7275.1.1 = {add_spouse=42255960}
	7335.1.1 = {death="7335.1.1"}
}
42255960 = {
	name="Chau"
	female=yes

	religion="yiti_gods"
	culture="yi_ti"

	7257.1.1 = {birth="7257.1.1"}
	7335.1.1 = {death="7335.1.1"}
}
12355960 = {
	name="Chinh"	# not a lord
	dynasty=55960

	religion="yiti_gods"
	culture="yi_ti"

	father=12055960
	mother=42055960

	7259.1.1 = {birth="7259.1.1"}
	7275.1.1 = {add_trait=poor_warrior}
	7332.1.1 = {death="7332.1.1"}
}
12455960 = {
	name="Quy"	# not a lord
	dynasty=55960

	religion="yiti_gods"
	culture="yi_ti"

	father=12055960
	mother=42055960

	7260.1.1 = {birth="7260.1.1"}
	7276.1.1 = {add_trait=skilled_warrior}
	7298.1.1 = {death="7298.1.1"}
}
12555960 = {
	name="Qi"	# not a lord
	female=yes
	dynasty=55960

	religion="yiti_gods"
	culture="yi_ti"

	father=12255960
	mother=42255960

	7278.1.1 = {birth="7278.1.1"}
	7339.1.1 = {death="7339.1.1"}
}
12655960 = {
	name="Shi"	# not a lord
	female=yes
	dynasty=55960

	religion="yiti_gods"
	culture="yi_ti"

	father=12255960
	mother=42255960

	7281.1.1 = {birth="7281.1.1"}
	7360.1.1 = {death="7360.1.1"}
}
12755960 = {
	name="Zuang"	# a lord
	dynasty=55960

	religion="yiti_gods"
	culture="yi_ti"

	father=12255960
	mother=42255960

	7284.1.1 = {birth="7284.1.1"}
	7300.1.1 = {add_trait=trained_warrior}
	7302.1.1 = {add_spouse=42755960}
	7338.1.1 = {death="7338.1.1"}
}
42755960 = {
	name="Thi"
	female=yes

	religion="yiti_gods"
	culture="yi_ti"

	7284.1.1 = {birth="7284.1.1"}
	7338.1.1 = {death="7338.1.1"}
}
12855960 = {
	name="Ngon"	# not a lord
	female=yes
	dynasty=55960

	religion="yiti_gods"
	culture="yi_ti"

	father=12255960
	mother=42255960

	7286.1.1 = {birth="7286.1.1"}
	7331.1.1 = {death="7331.1.1"}
}
12955960 = {
	name="Trai"	# a lord
	dynasty=55960

	religion="yiti_gods"
	culture="yi_ti"

	father=12755960
	mother=42755960

	7303.1.1 = {birth="7303.1.1"}
	7319.1.1 = {add_trait=trained_warrior}
	7321.1.1 = {add_spouse=42955960}
	7362.1.1 = {death="7362.1.1"}
}
42955960 = {
	name="Xiu"
	female=yes

	religion="yiti_gods"
	culture="yi_ti"

	7303.1.1 = {birth="7303.1.1"}
	7362.1.1 = {death="7362.1.1"}
}
13055960 = {
	name="Huan"	# not a lord
	dynasty=55960

	religion="yiti_gods"
	culture="yi_ti"

	father=12755960
	mother=42755960

	7304.1.1 = {birth="7304.1.1"}
	7320.1.1 = {add_trait=poor_warrior}
	7364.1.1 = {death="7364.1.1"}
}
13155960 = {
	name="Zu"	# not a lord
	female=yes
	dynasty=55960

	religion="yiti_gods"
	culture="yi_ti"

	father=12755960
	mother=42755960

	7306.1.1 = {birth="7306.1.1"}
	7350.1.1 = {death="7350.1.1"}
}
13255960 = {
	name="Hai"	# not a lord
	dynasty=55960

	religion="yiti_gods"
	culture="yi_ti"

	father=12755960
	mother=42755960

	7307.1.1 = {birth="7307.1.1"}
	7323.1.1 = {add_trait=poor_warrior}
	7349.1.1 = {death = {death_reason = death_accident}}
}
13355960 = {
	name="Bai"	# a lord
	dynasty=55960

	religion="yiti_gods"
	culture="yi_ti"

	father=12955960
	mother=42955960

	7322.1.1 = {birth="7322.1.1"}
	7338.1.1 = {add_trait=poor_warrior}
	7386.1.1 = {death = {death_reason = death_accident}}
}
13455960 = {
	name="Ling"	# not a lord
	female=yes
	dynasty=55960

	religion="yiti_gods"
	culture="yi_ti"

	father=12955960
	mother=42955960

	7324.1.1 = {birth="7324.1.1"}
	7378.1.1 = {death="7378.1.1"}
}
13555960 = {
	name="Chien"	# not a lord
	dynasty=55960

	religion="yiti_gods"
	culture="yi_ti"

	father=12955960
	mother=42955960

	7325.1.1 = {birth="7325.1.1"}
	7341.1.1 = {add_trait=skilled_warrior}
	7357.1.1 = {death="7357.1.1"}
}
13655960 = {
	name="Bu"	# a lord
	dynasty=55960

	religion="yiti_gods"
	culture="yi_ti"

	father=12955960
	mother=42955960

	7327.1.1 = {birth="7327.1.1"}
	7343.1.1 = {add_trait=trained_warrior}
	7345.1.1 = {add_spouse=43655960}
	7377.1.1 = {death="7377.1.1"}
}
43655960 = {
	name="Hong"
	female=yes

	religion="yiti_gods"
	culture="yi_ti"

	7327.1.1 = {birth="7327.1.1"}
	7377.1.1 = {death="7377.1.1"}
}
13755960 = {
	name="Bao"	# a lord
	dynasty=55960

	religion="yiti_gods"
	culture="yi_ti"

	father=13655960
	mother=43655960

	7354.1.1 = {birth="7354.1.1"}
	7370.1.1 = {add_trait=skilled_warrior}
	7372.1.1 = {add_spouse=43755960}
}
43755960 = {
	name="Nguyet"
	female=yes

	religion="yiti_gods"
	culture="yi_ti"

	7354.1.1 = {birth="7354.1.1"}
}
13855960 = {
	name="Minh"	# not a lord
	dynasty=55960

	religion="yiti_gods"
	culture="yi_ti"

	father=13655960
	mother=43655960

	7355.1.1 = {birth="7355.1.1"}
	7371.1.1 = {add_trait=poor_warrior}
}
13955960 = {
	name="Cho"	# a lord
	dynasty=55960

	religion="yiti_gods"
	culture="yi_ti"

	father=13755960
	mother=43755960

	7375.1.1 = {birth="7375.1.1"}
	7391.1.1 = {add_trait=trained_warrior}
}


####  House Alhazred - Empresses of Leng
15055963 = {
	name="Khiara"	# The great
	female=yes
	dynasty=55963
	
	martial = 5
	diplomacy = 8
	stewardship = 8
	intrigue = 7
	learning = 6

	religion="yiti_gods"
	culture="lengi"
	
	add_trait = fair
	add_trait = tall
	add_trait = grey_eminence
	add_trait = just
	add_trait = humble
	add_trait = diligent
	
	6975.1.1 = {birth="6975.1.1"}
	7002.1.1 = {add_matrilineal_spouse=45055963}
	7020.1.1 = {give_nickname = nick_the_great}
	7041.1.1 = {death="7041.1.1"}
}
45055963 = {
	name="Gang"

	religion="yiti_gods"
	culture="yi_ti"

	6975.1.1 = {birth="6975.1.1"}
	6991.1.1 = {add_trait=trained_warrior}
	7041.1.1 = {death="7041.1.1"}
}
15155963 = {
	name="Turua"	# a lord
	female=yes
	dynasty=55963

	religion="yiti_gods"
	culture="lengi"
	
	mother=15055963
	father=45055963

	7005.1.1 = {birth="7005.1.1"}
	7026.1.1 = {add_matrilineal_spouse=45155963}
	7062.1.1 = {death="7062.1.1"}
}
45155963 = {
	name="Chinh"

	religion="yiti_gods"
	culture="yi_ti"

	7005.1.1 = {birth="7005.1.1"}
	7021.1.1 = {add_trait=trained_warrior}
	7062.1.1 = {death="7062.1.1"}
}
15255963 = {
	name="Lavinia"	# a lord
	female=yes
	dynasty=55963

	religion="yiti_gods"
	culture="lengi"
	
	mother=15155963
	father=45155963
	
	add_trait = tall

	7031.1.1 = {birth="7031.1.1"}
	7051.1.1 = {add_matrilineal_spouse=45255963}
	7095.1.1 = {death="7095.1.1"}
}
45255963 = {
	name="Van"

	religion="yiti_gods"
	culture="yi_ti"

	7031.1.1 = {birth="7031.1.1"}
	7047.1.1 = {add_trait=trained_warrior}
	7095.1.1 = {death="7095.1.1"}
}
10055963 = {
	name="Kassogtha"	# a lord
	female=yes
	dynasty=55963

	religion="yiti_gods"
	culture="lengi"
	
	mother=15255963
	father=45255963
	
	add_trait = tall

	7065.1.1 = {birth="7065.1.1"}
	7083.1.1 = {add_matrilineal_spouse=40055963}
	7131.1.1 = {death="7131.1.1"}
}
40055963 = {
	name="Tu"

	religion="yiti_gods"
	culture="yi_ti"

	7065.1.1 = {birth="7065.1.1"}
	7081.1.1 = {add_trait=poor_warrior}
	7131.1.1 = {death="7131.1.1"}
}
10155963 = {
	name="Gzxtyos"	# not a lord
	female=yes
	dynasty=55963

	religion="yiti_gods"
	culture="lengi"

	mother=10055963
	father=40055963
	
	add_trait = tall

	7089.1.1 = {birth="7089.1.1"}
	7132.1.1 = {death="7132.1.1"}
}
10255963 = {
	name="Khiara"	# a lord
	female=yes
	dynasty=55963

	religion="yiti_gods"
	culture="lengi"

	mother=10055963
	father=40055963

	7091.1.1 = {birth="7091.1.1"}
	7109.1.1 = {add_matrilineal_spouse=40255963}
	7139.1.1 = {death="7139.1.1"}
}
40255963 = {
	name="Truc"

	religion="yiti_gods"
	culture="yi_ti"

	7091.1.1 = {birth="7091.1.1"}
	7107.1.1 = {add_trait=poor_warrior}
	7139.1.1 = {death="7139.1.1"}
}
10355963 = {
	name="Gleetha"	# not a lord
	female=yes
	dynasty=55963

	religion="yiti_gods"
	culture="lengi"

	mother=10055963
	father=40055963

	7093.1.1 = {birth="7093.1.1"}
	7128.1.1 = {death="7128.1.1"}
}
10455963 = {
	name="Voltiyiga"	# not a lord
	female=yes
	dynasty=55963

	religion="yiti_gods"
	culture="lengi"

	mother=10255963
	father=40255963
	
	add_trait = tall

	7112.1.1 = {birth="7112.1.1"}
	7148.1.1 = {death="7148.1.1"}
}
10555963 = {
	name="Abigail"	# not a lord
	female=yes
	dynasty=55963

	religion="yiti_gods"
	culture="lengi"

	mother=10255963
	father=40255963

	7113.1.1 = {birth="7113.1.1"}
	7163.1.1 = {death="7163.1.1"}
}
10655963 = {
	name="Dzewa"	# a lord
	female=yes
	dynasty=55963

	religion="yiti_gods"
	culture="lengi"

	mother=10255963
	father=40255963
	
	add_trait = tall

	7116.1.1 = {birth="7116.1.1"}
	7134.1.1 = {add_matrilineal_spouse=40655963}
	7175.1.1 = {death="7175.1.1"}
}
40655963 = {
	name="Hai"

	religion="yiti_gods"
	culture="yi_ti"

	7116.1.1 = {birth="7116.1.1"}
	7132.1.1 = {add_trait=poor_warrior}
	7175.1.1 = {death="7175.1.1"}
}
10755963 = {
	name="Lavinia"
	female=yes
	dynasty=55963

	religion="yiti_gods"
	culture="lengi"

	mother=10655963
	father=40655963

	7140.1.1 = {birth="7140.1.1"}
	7156.1.1 = {add_trait=poor_warrior}
	7158.1.1 = {add_spouse=40755963}
	7196.1.1 = {death = {death_reason = death_murder}}
}
40755963 = {
	name="Sang"	# a lord

	religion="yiti_gods"
	culture="yi_ti"

	7140.1.1 = {birth="7140.1.1"}
	7196.1.1 = {death="7196.1.1"}
}
10855963 = {
	name="Cthylla"	# a lord
	female=yes
	dynasty=55963

	religion="yiti_gods"
	culture="lengi"

	mother=10755963
	father=40755963

	7172.1.1 = {birth="7172.1.1"}
	7190.1.1 = {add_matrilineal_spouse=40855963}
	7226.1.1 = {death = {death_reason = death_murder}}
}
40855963 = {
	name="Duc"

	religion="yiti_gods"
	culture="yi_ti"

	7172.1.1 = {birth="7172.1.1"}
	7188.1.1 = {add_trait=poor_warrior}
	7226.1.1 = {death="7226.1.1"}
}
10955963 = {
	name="Ei'lor"	# not a lord
	dynasty=55963

	religion="yiti_gods"
	culture="lengi"

	mother=10755963
	father=40755963

	7173.1.1 = {birth="7173.1.1"}
	7189.1.1 = {add_trait=poor_warrior}
	7232.1.1 = {death="7232.1.1"}
}
11055963 = {
	name="Obed"	# not a lord
	dynasty=55963

	religion="yiti_gods"
	culture="lengi"

	mother=10755963
	father=40755963

	7175.1.1 = {birth="7175.1.1"}
	7191.1.1 = {add_trait=poor_warrior}
	7227.1.1 = {death="7227.1.1"}
}
11155963 = {
	name="Mynoghra"	# not a lord
	female=yes
	dynasty=55963

	religion="yiti_gods"
	culture="lengi"

	mother=10855963
	father=40855963
	
	add_trait = tall

	7190.1.1 = {birth="7190.1.1"}
	7223.1.1 = {death="7223.1.1"}
}
11255963 = {
	name="Khiara"	# a lord
	female=yes
	dynasty=55963

	religion="yiti_gods"
	culture="lengi"

	mother=10855963
	father=40855963
	
	add_trait = tall

	7192.1.1 = {birth="7192.1.1"}
	7210.1.1 = {add_matrilineal_spouse=41255963}
	7247.1.1 = {death="7247.1.1"}
}
41255963 = {
	name="Bo"

	religion="yiti_gods"
	culture="yi_ti"

	7192.1.1 = {birth="7192.1.1"}
	7208.1.1 = {add_trait=poor_warrior}
	7247.1.1 = {death="7247.1.1"}
}
11355963 = {
	name="Zanthu"	# not a lord
	dynasty=55963

	religion="yiti_gods"
	culture="lengi"

	mother=10855963
	father=40855963
	
	add_trait = tall

	7194.1.1 = {birth="7194.1.1"}
	7210.1.1 = {add_trait=skilled_warrior}
	7264.1.1 = {death="7264.1.1"}
}
11455963 = {
	name="Dhumin"	# not a lord
	dynasty=55963

	religion="yiti_gods"
	culture="lengi"

	mother=10855963
	father=40855963

	7195.1.1 = {birth="7195.1.1"}
	7211.1.1 = {add_trait=poor_warrior}
	7248.1.1 = {death="7248.1.1"}
}
11555963 = {
	name="Byatis"	# not a lord
	dynasty=55963

	religion="yiti_gods"
	culture="lengi"

	mother=11255963
	father=41255963

	7213.1.1 = {birth="7213.1.1"}
	7229.1.1 = {add_trait=poor_warrior}
	7247.1.1 = {death = {death_reason = death_murder}}
}
11655963 = {
	name="Zanthu"	# a lord
	female=yes
	dynasty=55963

	religion="yiti_gods"
	culture="lengi"

	mother=11255963
	father=41255963
	
	add_trait = tall

	7214.1.1 = {birth="7214.1.1"}
	7232.1.1 = {add_matrilineal_spouse=41655963}
	7277.1.1 = {death="7277.1.1"}
}
41655963 = {
	name="Trang"

	religion="yiti_gods"
	culture="yi_ti"

	7214.1.1 = {birth="7214.1.1"}
	7230.1.1 = {add_trait=poor_warrior}
	7277.1.1 = {death="7277.1.1"}
}
11755963 = {
	name="Exior"	# not a lord
	dynasty=55963

	religion="yiti_gods"
	culture="lengi"

	mother=11255963
	father=41255963

	7215.1.1 = {birth="7215.1.1"}
	7231.1.1 = {add_trait=trained_warrior}
	7262.1.1 = {death="7262.1.1"}
}
11855963 = {
	name="Turua"	# a lord
	female=yes
	dynasty=55963

	religion="yiti_gods"
	culture="lengi"

	mother=11655963
	father=41655963
	
	add_trait = tall

	7243.1.1 = {birth="7243.1.1"}
	7261.1.1 = {add_matrilineal_spouse=41855963}
	7297.1.1 = {death="7297.1.1"}
}
41855963 = {
	name="Sang"

	religion="yiti_gods"
	culture="yi_ti"

	7243.1.1 = {birth="7243.1.1"}
	7259.1.1 = {add_trait=poor_warrior}
	7297.1.1 = {death="7297.1.1"}
}
11955963 = {
	name="Quyagen"	# not a lord
	dynasty=55963

	religion="yiti_gods"
	culture="lengi"

	mother=11655963
	father=41655963
	
	add_trait = tall

	7246.1.1 = {birth="7246.1.1"}
	7262.1.1 = {add_trait=poor_warrior}
	7267.1.1 = {death="7267.1.1"}
}
12055963 = {
	name="Thanaroa"	# a lord
	female=yes
	dynasty=55963

	religion="yiti_gods"
	culture="lengi"

	mother=11855963
	father=41855963

	7270.1.1 = {birth="7270.1.1"}
	7288.1.1 = {add_matrilineal_spouse=42055963}
	7321.1.1 = {death="7321.1.1"}
}
42055963 = {
	name="Zong"

	religion="yiti_gods"
	culture="yi_ti"

	7270.1.1 = {birth="7270.1.1"}
	7286.1.1 = {add_trait=poor_warrior}
	7321.1.1 = {death="7321.1.1"}
}
12155963 = {
	name="Ruhtra"	# not a lord
	dynasty=55963

	religion="yiti_gods"
	culture="lengi"

	mother=11855963
	father=41855963

	7272.1.1 = {birth="7272.1.1"}
	7288.1.1 = {add_trait=poor_warrior}
	7324.1.1 = {death="7324.1.1"}
}
12255963 = {
	name="Dygra"	# a lord
	female=yes
	dynasty=55963

	religion="yiti_gods"
	culture="lengi"

	mother=12055963
	father=42055963

	7304.1.1 = {birth="7304.1.1"}
	7322.1.1 = {add_matrilineal_spouse=42255963}
	7365.1.1 = {death="7365.1.1"}
}
42255963 = {
	name="Han"

	religion="yiti_gods"
	culture="yi_ti"

	7304.1.1 = {birth="7304.1.1"}
	7320.1.1 = {add_trait=poor_warrior}
	7365.1.1 = {death="7365.1.1"}
}
12355963 = {
	name="Istasha"	# not a lord
	female=yes
	dynasty=55963

	religion="yiti_gods"
	culture="lengi"

	mother=12055963
	father=42055963
	
	add_trait = tall

	7306.1.1 = {birth="7306.1.1"}
	7380.1.1 = {death="7380.1.1"}
}
12455963 = {
	name="Lavinia"	# not a lord
	female=yes
	dynasty=55963

	religion="yiti_gods"
	culture="lengi"

	mother=12255963
	father=42255963
	
	add_trait = tall

	7335.1.1 = {birth="7335.1.1"}
	7382.1.1 = {death="7382.1.1"}
}
12555963 = {
	name="Inpesca"	# a lord
	female=yes
	dynasty=55963

	religion="yiti_gods"
	culture="lengi"

	mother=12255963
	father=42255963
	
	add_trait = tall

	7337.1.1 = {birth="7337.1.1"}
	7355.1.1 = {add_matrilineal_spouse=42555963}
}
42555963 = {
	name="Truc"

	religion="yiti_gods"
	culture="yi_ti"

	7337.1.1 = {birth="7337.1.1"}
	7353.1.1 = {add_trait=poor_warrior}
}
12655963 = {
	name="Khiara"	# not a lord
	female=yes
	dynasty=55963

	religion="yiti_gods"
	culture="lengi"

	mother=12255963
	father=42255963

	7338.1.1 = {birth="7338.1.1"}
}
12755963 = {
	name="Ragnalla"	# not a lord
	female=yes
	dynasty=55963

	religion="yiti_gods"
	culture="lengi"

	mother=12255963
	father=42255963
	
	add_trait = tall

	7341.1.1 = {birth="7341.1.1"}
}
12855963 = {
	name="Xotli"	# not a lord
	female=yes
	dynasty=55963

	religion="yiti_gods"
	culture="lengi"

	mother=12555963
	father=42555963

	7361.1.1 = {birth="7361.1.1"}
	7396.1.1 = {death="7396.1.1"}
}
42855963 = {
	name="Trai"

	religion="yiti_gods"
	culture="yi_ti"

	7361.1.1 = {birth="7361.1.1"}
	7377.1.1 = {add_trait=poor_warrior}
	7379.1.1 = {add_matrilineal_spouse=12855963}
	7396.1.1 = {death="7396.1.1"}
}
12955963 = {
	name="Saa'itii"	# not a lord
	female=yes
	dynasty=55963

	religion="yiti_gods"
	culture="lengi"

	mother=12555963
	father=42555963
	
	add_trait = tall

	7362.1.1 = {birth="7362.1.1"}
	7397.1.1 = {death="7397.1.1"}
}
13055963 = {
	name="Xirdneth"	# not a lord
	dynasty=55963

	religion="yiti_gods"
	culture="lengi"

	mother=12555963
	father=42555963

	7363.1.1 = {birth="7363.1.1"}
	7379.1.1 = {add_trait=poor_warrior}
}
13155963 = {
	name="Khiara"	# not a lord
	female=yes
	dynasty=55963

	religion="yiti_gods"
	culture="lengi"

	father=42855963
	mother=12855963
	
	add_trait = tall

	7383.1.1 = {birth="7383.1.1"}
}


###  House Chandesh
100055962 = {
	name="Yusuf"	# a lord
	dynasty=55962

	religion="yiti_gods"
	culture="lengi"
	
	add_trait=tall

	7053.1.1 = {birth="7053.1.1"}
	7069.1.1 = {add_trait=poor_warrior}
	7071.1.1 = {add_spouse=400055962}
	7138.1.1 = {death="7138.1.1"}
}
400055962 = {
	name="Paymaneh"
	female=yes

	religion="yiti_gods"
	culture="lengi"
	
	add_trait=tall

	7053.1.1 = {birth="7053.1.1"}
	7138.1.1 = {death="7138.1.1"}
}
100155962 = {
	name="Mirza"	# a lord
	dynasty=55962

	religion="yiti_gods"
	culture="lengi"

	father=100055962
	mother=400055962
	
	add_trait=tall

	7078.1.1 = {birth="7078.1.1"}
	7094.1.1 = {add_trait=poor_warrior}
	7096.1.1 = {add_spouse=400155962}
	7153.1.1 = {death="7153.1.1"}
}
400155962 = {
	name="Nyawela"
	female=yes

	religion="yiti_gods"
	culture="lengi"
	
	add_trait=tall

	7078.1.1 = {birth="7078.1.1"}
	7153.1.1 = {death="7153.1.1"}
}
100255962 = {
	name="Azam"	# not a lord
	dynasty=55962

	religion="yiti_gods"
	culture="lengi"
	
	add_trait=tall

	father=100055962
	mother=400055962

	7079.1.1 = {birth="7079.1.1"}
	7095.1.1 = {add_trait=skilled_warrior}
	7138.1.1 = {death="7138.1.1"}
}
100355962 = {
	name="Hussayn"	# not a lord
	dynasty=55962

	religion="yiti_gods"
	culture="lengi"
	
	add_trait=tall

	father=100055962
	mother=400055962

	7081.1.1 = {birth="7081.1.1"}
	7096.1.1 = {add_trait=trained_warrior}
	7106.1.1 = {death="7106.1.1"}
}
100455962 = {
	name="Paywand"	# not a lord
	female=yes
	dynasty=55962

	religion="yiti_gods"
	culture="lengi"
	
	add_trait=tall

	father=100055962
	mother=400055962

	7083.1.1 = {birth="7083.1.1"}
	7129.1.1 = {death="7129.1.1"}
}
100555962 = {
	name="Sajida"	# not a lord
	female=yes
	dynasty=55962

	religion="yiti_gods"
	culture="lengi"
	
	add_trait=tall

	father=100055962
	mother=400055962

	7084.1.1 = {birth="7084.1.1"}
	7138.1.1 = {death="7138.1.1"}
}
100655962 = {
	name="Mukhtar"	# a lord
	dynasty=55962

	religion="yiti_gods"
	culture="lengi"
	
	add_trait=tall

	father=100155962
	mother=400155962

	7112.1.1 = {birth="7112.1.1"}
	7128.1.1 = {add_trait=trained_warrior}
	7130.1.1 = {add_spouse=400655962}
	7176.1.1 = {death="7176.1.1"}
}
400655962 = {
	name="Zaynab"
	female=yes

	religion="yiti_gods"
	culture="lengi"
	
	add_trait=tall

	7112.1.1 = {birth="7112.1.1"}
	7176.1.1 = {death="7176.1.1"}
}
100755962 = {
	name="Uways"	# not a lord
	dynasty=55962

	religion="yiti_gods"
	culture="lengi"

	father=100155962
	mother=400155962

	7114.1.1 = {birth="7114.1.1"}
	7130.1.1 = {add_trait=trained_warrior}
	7192.1.1 = {death="7192.1.1"}
}
100855962 = {
	name="Saaman"	# not a lord
	female=yes
	dynasty=55962

	religion="yiti_gods"
	culture="lengi"
	
	add_trait=tall

	father=100655962
	mother=400655962

	7145.1.1 = {birth="7145.1.1"}
	7192.1.1 = {death="7192.1.1"}
}
100955962 = {
	name="Husam"	# a lord
	dynasty=55962

	religion="yiti_gods"
	culture="lengi"
	
	add_trait=tall

	father=100655962
	mother=400655962

	7147.1.1 = {birth="7147.1.1"}
	7163.1.1 = {add_trait=skilled_warrior}
	7165.1.1 = {add_spouse=400955962}
	7217.1.1 = {death = {death_reason = death_accident}}
}
400955962 = {
	name="Sheeftah"
	female=yes

	religion="yiti_gods"
	culture="lengi"
	
	add_trait=tall

	7147.1.1 = {birth="7147.1.1"}
	7217.1.1 = {death="7217.1.1"}
}
101055962 = {
	name="Tanaz"	# not a lord
	female=yes
	dynasty=55962

	religion="yiti_gods"
	culture="lengi"

	father=100955962
	mother=400955962

	7169.1.1 = {birth="7169.1.1"}
	7220.1.1 = {death="7220.1.1"}
}
101155962 = {
	name="Mubarak"	# not a lord
	dynasty=55962

	religion="yiti_gods"
	culture="lengi"

	father=100955962
	mother=400955962

	7172.1.1 = {birth="7172.1.1"}
	7188.1.1 = {add_trait=trained_warrior}
	7208.1.1 = {death="7208.1.1"}
}
101255962 = {
	name="Yusuf"	# a lord
	dynasty=55962

	religion="yiti_gods"
	culture="lengi"

	father=100955962
	mother=400955962
	
	add_trait=tall

	7173.1.1 = {birth="7173.1.1"}
	7189.1.1 = {add_trait=poor_warrior}
	7191.1.1 = {add_spouse=401255962}
	7218.1.1 = {death="7218.1.1"}
}
401255962 = {
	name="Sabba"
	female=yes

	religion="yiti_gods"
	culture="lengi"
	
	add_trait=tall

	7173.1.1 = {birth="7173.1.1"}
	7218.1.1 = {death="7218.1.1"}
}
101355962 = {
	name="Youkhanna"	# a lord
	dynasty=55962

	religion="yiti_gods"
	culture="lengi"

	father=101255962
	mother=401255962
	
	add_trait=tall

	7197.1.1 = {birth="7197.1.1"}
	7213.1.1 = {add_trait=poor_warrior}
	7215.1.1 = {add_spouse=401355962}
	7267.1.1 = {death="7267.1.1"}
}
401355962 = {
	name="Shogofa"
	female=yes

	religion="yiti_gods"
	culture="lengi"
	
	add_trait=tall

	7197.1.1 = {birth="7197.1.1"}
	7267.1.1 = {death="7267.1.1"}
}
101455962 = {
	name="Rasa"	# not a lord
	female=yes
	dynasty=55962

	religion="yiti_gods"
	culture="lengi"

	father=101255962
	mother=401255962
	
	add_trait=tall

	7200.1.1 = {birth="7200.1.1"}
	7231.1.1 = {death="7231.1.1"}
}
101555962 = {
	name="Najib"	# a lord
	dynasty=55962

	religion="yiti_gods"
	culture="lengi"

	father=101355962
	mother=401355962
	
	add_trait=tall

	7221.1.1 = {birth="7221.1.1"}
	7237.1.1 = {add_trait=poor_warrior}
	7239.1.1 = {add_spouse=401555962}
	7277.1.1 = {death="7277.1.1"}
}
401555962 = {
	name="Saghar"
	female=yes

	religion="yiti_gods"
	culture="lengi"
	
	add_trait=tall

	7221.1.1 = {birth="7221.1.1"}
	7277.1.1 = {death="7277.1.1"}
}
101655962 = {
	name="Adila"	# not a lord
	female=yes
	dynasty=55962

	religion="yiti_gods"
	culture="lengi"

	father=101355962
	mother=401355962

	7223.1.1 = {birth="7223.1.1"}
	7252.1.1 = {death = {death_reason = death_accident}}
}
101755962 = {
	name="Fadl"	# not a lord
	dynasty=55962

	religion="yiti_gods"
	culture="lengi"

	father=101355962
	mother=401355962
	
	add_trait=tall

	7225.1.1 = {birth="7225.1.1"}
	7241.1.1 = {add_trait=poor_warrior}
	7267.1.1 = {death="7267.1.1"}
}
101855962 = {
	name="Uways"	# a lord
	dynasty=55962

	religion="yiti_gods"
	culture="lengi"

	father=101555962
	mother=401555962
	
	add_trait=tall

	7244.1.1 = {birth="7244.1.1"}
	7260.1.1 = {add_trait=trained_warrior}
	7262.1.1 = {add_spouse=401855962}
	7279.1.1 = {death="7279.1.1"}
}
401855962 = {
	name="Faghira"
	female=yes

	religion="yiti_gods"
	culture="lengi"

	7244.1.1 = {
		birth="7244.1.1"
		effect = { set_character_flag = no_tallness }
	}
	7290.1.1 = {death="7290.1.1"}
}
101955962 = {
	name="Halil"	# not a lord
	dynasty=55962

	religion="yiti_gods"
	culture="lengi"

	father=101555962
	mother=401555962
	
	add_trait=tall

	7245.1.1 = {birth="7245.1.1"}
	7261.1.1 = {add_trait=trained_warrior}
	7301.1.1 = {death="7301.1.1"}
}
102055962 = {
	name="Jahaira"	# not a lord
	female=yes
	dynasty=55962

	religion="yiti_gods"
	culture="lengi"

	father=101555962
	mother=401555962
	
	add_trait=tall

	7248.1.1 = {birth="7248.1.1"}
	7308.1.1 = {death="7308.1.1"}
}
102155962 = {
	name="Uways"	# a lord
	dynasty=55962

	religion="yiti_gods"
	culture="lengi"

	father=101855962
	mother=401855962

	7264.1.1 = {birth="7264.1.1"}
	7280.1.1 = {add_trait=poor_warrior}
	7295.1.1 = {add_spouse=402155962}
	7322.1.1 = {death = {death_reason = death_accident}}
}
402155962 = {
	name="Semeah"
	female=yes

	religion="yiti_gods"
	culture="lengi"
	
	add_trait=tall

	7277.1.1 = {birth="7277.1.1"}
	7322.1.1 = {death="7322.1.1"}
}
102255962 = {
	name="Muzaffaraddin"	# not a lord
	dynasty=55962

	religion="yiti_gods"
	culture="lengi"

	father=101855962
	mother=401855962
	
	add_trait=tall

	7269.1.1 = {birth="7269.1.1"}
	7285.1.1 = {add_trait=skilled_warrior}
	7334.1.1 = {death="7334.1.1"}
}
102355962 = {
	name="Uways"	# not a lord
	dynasty=55962

	religion="yiti_gods"
	culture="lengi"

	father=101855962
	mother=401855962
	
	add_trait=tall

	7272.1.1 = {birth="7272.1.1"}
	7288.1.1 = {add_trait=trained_warrior}
	7328.1.1 = {death="7328.1.1"}
}
102455962 = {
	name="Sami"	# a lord
	dynasty=55962

	religion="yiti_gods"
	culture="lengi"

	father=102155962
	mother=402155962
	
	add_trait=tall

	7306.1.1 = {birth="7306.1.1"}
	7322.1.1 = {add_trait=skilled_warrior}
	7324.1.1 = {add_spouse=402455962}
	7376.1.1 = {death="7376.1.1"}
}
402455962 = {
	name="Sajida"
	female=yes

	religion="yiti_gods"
	culture="lengi"
	
	add_trait=tall

	7306.1.1 = {birth="7306.1.1"}
	7376.1.1 = {death="7376.1.1"}
}
102555962 = {
	name="Shokouh"	# not a lord
	female=yes
	dynasty=55962

	religion="yiti_gods"
	culture="lengi"

	father=102155962
	mother=402155962
	
	add_trait=tall

	7308.1.1 = {birth="7308.1.1"}
	7340.1.1 = {death="7340.1.1"}
}
102655962 = {
	name="Rashida"	# not a lord
	female=yes
	dynasty=55962

	religion="yiti_gods"
	culture="lengi"

	father=102155962
	mother=402155962
	
	add_trait=tall

	7309.1.1 = {birth="7309.1.1"}
	7359.1.1 = {death="7359.1.1"}
}
102755962 = {
	name="Shamir"	# not a lord
	dynasty=55962

	religion="yiti_gods"
	culture="lengi"

	father=102155962
	mother=402155962

	7312.1.1 = {birth="7312.1.1"}
	7328.1.1 = {add_trait=trained_warrior}
	7355.1.1 = {death="7355.1.1"}
}
102855962 = {
	name="Kamala"	# not a lord
	female=yes
	dynasty=55962

	religion="yiti_gods"
	culture="lengi"

	father=102455962
	mother=402455962
	
	add_trait=tall

	7341.1.1 = {birth="7341.1.1"}
	7376.1.1 = {death="7376.1.1"}
}
102955962 = {
	name="Alim"	# a lord
	dynasty=55962

	religion="yiti_gods"
	culture="lengi"

	father=102455962
	mother=402455962
	
	add_trait=tall

	7342.1.1 = {birth="7342.1.1"}
	7358.1.1 = {add_trait=skilled_warrior}
	7360.1.1 = {add_spouse=402955962}
	7388.1.1 = {death="7388.1.1"}
}
402955962 = {
	name="Shararah"
	female=yes

	religion="yiti_gods"
	culture="lengi"

	7342.1.1 = {
		birth="7342.1.1"
		effect = { set_character_flag = no_tallness }
	}
	7388.1.1 = {death="7388.1.1"}
}
103055962 = {
	name="Bakr"	# not a lord
	dynasty=55962

	religion="yiti_gods"
	culture="lengi"

	father=102455962
	mother=402455962
	
	add_trait=tall

	7343.1.1 = {birth="7343.1.1"}
	7359.1.1 = {add_trait=poor_warrior}
	7391.1.1 = {death="7391.1.1"}
}
103155962 = {
	name="Shokouh"	# not a lord
	female=yes
	dynasty=55962

	religion="yiti_gods"
	culture="lengi"

	father=102955962
	mother=402955962
	
	add_trait=tall

	7365.1.1 = {birth="7365.1.1"}
	7411.1.1 = {death="7411.1.1"}
}
103255962 = {
	name="Jaleel"	# a lord
	dynasty=55962

	religion="yiti_gods"
	culture="lengi"

	father=102955962
	mother=402955962
	
	add_trait=tall

	7368.1.1 = {birth="7368.1.1"}
	7384.1.1 = {add_trait=poor_warrior}
	7386.1.1 = {add_spouse=403255962}
}
403255962 = {
	name="Taneen"
	female=yes

	religion="yiti_gods"
	culture="lengi"
	
	add_trait=tall

	7368.1.1 = {birth="7368.1.1"}
}
103355962 = {
	name="Adila"	# not a lord
	female=yes
	dynasty=55962

	religion="yiti_gods"
	culture="lengi"

	father=103255962
	mother=403255962
	
	add_trait=tall

	7388.1.1 = {birth="7388.1.1"}
}
103455962 = {
	name="Khaireddin"	# not a lord
	dynasty=55962

	religion="yiti_gods"
	culture="lengi"

	father=103255962
	mother=403255962
	
	add_trait=tall

	7391.1.1 = {birth="7391.1.1"}
	7407.1.1 = {add_trait=poor_warrior}
}

## House Xu Lo
10065971 = {
	name="Yu"	# a lord
	dynasty=65971

	religion="yiti_gods"
	culture="yi_ti"

	7044.1.1 = {birth="7044.1.1"}
	7060.1.1 = {add_trait=trained_warrior}
	7062.1.1 = {add_spouse=40065971}
	7123.1.1 = {death="7123.1.1"}
}
40065971 = {
	name="Kim"
	female=yes

	religion="yiti_gods"
	culture="yi_ti"

	7044.1.1 = {birth="7044.1.1"}
	7123.1.1 = {death="7123.1.1"}
}
10165971 = {
	name="Xuan"	# a lord
	dynasty=65971

	religion="yiti_gods"
	culture="yi_ti"

	father=10065971
	mother=40065971

	7071.1.1 = {birth="7071.1.1"}
	7087.1.1 = {add_trait=trained_warrior}
	7089.1.1 = {add_spouse=40165971}
	7130.1.1 = {death = {death_reason = death_accident}}
}
40165971 = {
	name="Shu"
	female=yes

	religion="yiti_gods"
	culture="yi_ti"

	7071.1.1 = {birth="7071.1.1"}
	7130.1.1 = {death="7130.1.1"}
}
10265971 = {
	name="Xhe"	# not a lord
	dynasty=65971

	religion="yiti_gods"
	culture="yi_ti"

	father=10065971
	mother=40065971

	7073.1.1 = {birth="7073.1.1"}
	7089.1.1 = {add_trait=trained_warrior}
	7108.1.1 = {death="7108.1.1"}
}
10365971 = {
	name="Mai"	# not a lord
	female=yes
	dynasty=65971

	religion="yiti_gods"
	culture="yi_ti"

	father=10065971
	mother=40065971

	7075.1.1 = {birth="7075.1.1"}
	7131.1.1 = {death="7131.1.1"}
}
10465971 = {
	name="Doq"	# not a lord
	dynasty=65971

	religion="yiti_gods"
	culture="yi_ti"

	father=10065971
	mother=40065971

	7077.1.1 = {birth="7077.1.1"}
	7093.1.1 = {add_trait=poor_warrior}
	7134.1.1 = {death="7134.1.1"}
}
10565971 = {
	name="Bai"	# a lord
	dynasty=65971

	religion="yiti_gods"
	culture="yi_ti"

	father=10165971
	mother=40165971

	7099.1.1 = {birth="7099.1.1"}
	7115.1.1 = {add_trait=skilled_warrior}
	7117.1.1 = {add_spouse=40565971}
	7151.1.1 = {death="7151.1.1"}
}
40565971 = {
	name="Bich"
	female=yes

	religion="yiti_gods"
	culture="yi_ti"

	7099.1.1 = {birth="7099.1.1"}
	7151.1.1 = {death="7151.1.1"}
}
10665971 = {
	name="Dai"	# not a lord
	dynasty=65971

	religion="yiti_gods"
	culture="yi_ti"

	father=10165971
	mother=40165971

	7101.1.1 = {birth="7101.1.1"}
	7117.1.1 = {add_trait=trained_warrior}
	7147.1.1 = {death="7147.1.1"}
}
10765971 = {
	name="Yu"	# a lord
	dynasty=65971

	religion="yiti_gods"
	culture="yi_ti"

	father=10565971
	mother=40565971

	7122.1.1 = {birth="7122.1.1"}
	7138.1.1 = {add_trait=trained_warrior}
	7140.1.1 = {add_spouse=40765971}
	7192.1.1 = {death="7192.1.1"}
}
40765971 = {
	name="Tu"
	female=yes

	religion="yiti_gods"
	culture="yi_ti"

	7122.1.1 = {birth="7122.1.1"}
	7192.1.1 = {death="7192.1.1"}
}
10865971 = {
	name="Zong"	# not a lord
	dynasty=65971

	religion="yiti_gods"
	culture="yi_ti"

	father=10565971
	mother=40565971

	7125.1.1 = {birth="7125.1.1"}
	7141.1.1 = {add_trait=poor_warrior}
	7143.1.1 = {add_spouse=40865971}
	7185.1.1 = {death="7185.1.1"}
}
40865971 = {
	name="Xiu"
	female=yes

	religion="yiti_gods"
	culture="yi_ti"

	7125.1.1 = {birth="7125.1.1"}
	7185.1.1 = {death="7185.1.1"}
}
10965971 = {
	name="Cuc"	# not a lord
	female=yes
	dynasty=65971

	religion="yiti_gods"
	culture="yi_ti"

	father=10765971
	mother=40765971

	7154.1.1 = {birth="7154.1.1"}
	7192.1.1 = {death="7192.1.1"}
}
11065971 = {
	name="Ya"	# not a lord
	female=yes
	dynasty=65971

	religion="yiti_gods"
	culture="yi_ti"

	father=10865971
	mother=40865971

	7152.1.1 = {birth="7152.1.1"}
	7203.1.1 = {death="7203.1.1"}
}
11165971 = {
	name="Gai"	# a lord
	dynasty=65971

	religion="yiti_gods"
	culture="yi_ti"

	father=10865971
	mother=40865971

	7155.1.1 = {birth="7155.1.1"}
	7171.1.1 = {add_trait=poor_warrior}
	7173.1.1 = {add_spouse=41165971}
	7200.1.1 = {death="7200.1.1"}
}
41165971 = {
	name="Ngoc"
	female=yes

	religion="yiti_gods"
	culture="yi_ti"

	7155.1.1 = {birth="7155.1.1"}
	7200.1.1 = {death="7200.1.1"}
}
11265971 = {
	name="Ly"	# not a lord
	female=yes
	dynasty=65971

	religion="yiti_gods"
	culture="yi_ti"

	father=11165971
	mother=41165971

	7175.1.1 = {birth="7175.1.1"}
	7221.1.1 = {death="7221.1.1"}
}
11365971 = {
	name="Peng"	# not a lord
	female=yes
	dynasty=65971

	religion="yiti_gods"
	culture="yi_ti"

	father=11165971
	mother=41165971

	7176.1.1 = {birth="7176.1.1"}
	7222.1.1 = {death="7222.1.1"}
}
11465971 = {
	name="Xiu"	# not a lord
	female=yes
	dynasty=65971

	religion="yiti_gods"
	culture="yi_ti"

	father=11165971
	mother=41165971

	7178.1.1 = {birth="7178.1.1"}
	7202.1.1 = {death="7202.1.1"}
}
11565971 = {
	name="Thinh"	# a lord
	dynasty=65971

	religion="yiti_gods"
	culture="yi_ti"

	father=11165971
	mother=41165971

	7181.1.1 = {birth="7181.1.1"}
	7197.1.1 = {add_trait=trained_warrior}
	7199.1.1 = {add_spouse=41565971}
	7234.1.1 = {death="7234.1.1"}
}
41565971 = {
	name="Linh"
	female=yes

	religion="yiti_gods"
	culture="yi_ti"

	7181.1.1 = {birth="7181.1.1"}
	7234.1.1 = {death="7234.1.1"}
}
11665971 = {
	name="Bu"	# a lord
	dynasty=65971

	religion="yiti_gods"
	culture="yi_ti"

	father=11565971
	mother=41565971

	7200.1.1 = {birth="7200.1.1"}
	7216.1.1 = {add_trait=poor_warrior}
	7218.1.1 = {add_spouse=41665971}
	7236.1.1 = {death="7236.1.1"}
}
41665971 = {
	name="Hoa"
	female=yes

	religion="yiti_gods"
	culture="yi_ti"

	7200.1.1 = {birth="7200.1.1"}
	7236.1.1 = {death="7236.1.1"}
}
11765971 = {
	name="Nguyet"	# not a lord
	female=yes
	dynasty=65971

	religion="yiti_gods"
	culture="yi_ti"

	father=11565971
	mother=41565971

	7201.1.1 = {birth="7201.1.1"}
	7255.1.1 = {death="7255.1.1"}
}
11865971 = {
	name="An"	# a lord
	dynasty=65971

	religion="yiti_gods"
	culture="yi_ti"

	father=11665971
	mother=41665971

	7222.1.1 = {birth="7222.1.1"}
	7238.1.1 = {add_trait=skilled_warrior}
	7240.1.1 = {add_spouse=41865971}
	7288.1.1 = {death="7288.1.1"}
}
41865971 = {
	name="Tu"
	female=yes

	religion="yiti_gods"
	culture="yi_ti"

	7222.1.1 = {birth="7222.1.1"}
	7288.1.1 = {death="7288.1.1"}
}
11965971 = {
	name="Fai"	# a lord
	dynasty=65971

	religion="yiti_gods"
	culture="yi_ti"

	father=11865971
	mother=41865971

	7244.1.1 = {birth="7244.1.1"}
	7260.1.1 = {add_trait=trained_warrior}
	7262.1.1 = {add_spouse=41965971}
	7298.1.1 = {death="7298.1.1"}
}
41965971 = {
	name="Linh"
	female=yes

	religion="yiti_gods"
	culture="yi_ti"

	7244.1.1 = {birth="7244.1.1"}
	7298.1.1 = {death="7298.1.1"}
}
12065971 = {
	name="Tien"	# not a lord
	female=yes
	dynasty=65971

	religion="yiti_gods"
	culture="yi_ti"

	father=11865971
	mother=41865971

	7247.1.1 = {birth="7247.1.1"}
	7298.1.1 = {death="7298.1.1"}
}
12165971 = {
	name="Gang"	# not a lord
	dynasty=65971

	religion="yiti_gods"
	culture="yi_ti"

	father=11865971
	mother=41865971

	7250.1.1 = {birth="7250.1.1"}
	7266.1.1 = {add_trait=poor_warrior}
	7303.1.1 = {death="7303.1.1"}
}
12265971 = {
	name="Nguyet"	# not a lord
	female=yes
	dynasty=65971

	religion="yiti_gods"
	culture="yi_ti"

	father=11865971
	mother=41865971

	7253.1.1 = {birth="7253.1.1"}
	7322.1.1 = {death="7322.1.1"}
}
12365971 = {
	name="Hieu"	# not a lord
	dynasty=65971

	religion="yiti_gods"
	culture="yi_ti"

	father=11865971
	mother=41865971

	7256.1.1 = {birth="7256.1.1"}
	7272.1.1 = {add_trait=trained_warrior}
	7309.1.1 = {death="7309.1.1"}
}
12465971 = {
	name="Mo"	# a lord
	dynasty=65971

	religion="yiti_gods"
	culture="yi_ti"

	father=11965971
	mother=41965971

	7269.1.1 = {birth="7269.1.1"}
	7285.1.1 = {add_trait=skilled_warrior}
	7287.1.1 = {add_spouse=42465971}
	7307.1.1 = {death = {death_reason = death_battle}}
}
42465971 = {
	name="Ya"
	female=yes

	religion="yiti_gods"
	culture="yi_ti"

	7269.1.1 = {birth="7269.1.1"}
	7307.1.1 = {death="7307.1.1"}
}
12565971 = {
	name="Ru"	# not a lord
	dynasty=65971

	religion="yiti_gods"
	culture="yi_ti"

	father=11965971
	mother=41965971

	7270.1.1 = {birth="7270.1.1"}
	7286.1.1 = {add_trait=skilled_warrior}
	7288.1.1 = {add_spouse=42565971}
	7314.1.1 = {death="7314.1.1"}
}
42565971 = {
	name="Cuc"
	female=yes

	religion="yiti_gods"
	culture="yi_ti"

	7270.1.1 = {birth="7270.1.1"}
	7314.1.1 = {death="7314.1.1"}
}
12665971 = {
	name="Hao"	# a lord
	dynasty=65971

	religion="yiti_gods"
	culture="yi_ti"

	father=12465971
	mother=42465971

	7287.1.1 = {birth="7287.1.1"}
	7303.1.1 = {add_trait=poor_warrior}
	7305.1.1 = {add_spouse=42665971}
	7347.1.1 = {death="7347.1.1"}
}
42665971 = {
	name="Shu"
	female=yes

	religion="yiti_gods"
	culture="yi_ti"

	7287.1.1 = {birth="7287.1.1"}
	7347.1.1 = {death="7347.1.1"}
}
12765971 = {
	name="Ngon"	# not a lord
	female=yes
	dynasty=65971

	religion="yiti_gods"
	culture="yi_ti"

	father=12465971
	mother=42465971

	7290.1.1 = {birth="7290.1.1"}
	7369.1.1 = {death="7369.1.1"}
}
12865971 = {
	name="Hue"	# not a lord
	female=yes
	dynasty=65971

	religion="yiti_gods"
	culture="yi_ti"

	father=12665971
	mother=42665971

	7313.1.1 = {birth="7313.1.1"}
	7372.1.1 = {death="7372.1.1"}
}
12965971 = {
	name="Han"	# a lord
	dynasty=65971

	religion="yiti_gods"
	culture="yi_ti"

	father=12565971
	mother=42565971

	7291.1.1 = {birth="7291.1.1"}
	7307.1.1 = {add_trait=skilled_warrior}
	7309.1.1 = {add_spouse=42965971}
	7368.1.1 = {death = {death_reason = death_battle}}
}
42965971 = {
	name="Shu"
	female=yes

	religion="yiti_gods"
	culture="yi_ti"

	7291.1.1 = {birth="7291.1.1"}
	7368.1.1 = {death="7368.1.1"}
}
13065971 = {
	name="Peng"	# not a lord
	female=yes
	dynasty=65971

	religion="yiti_gods"
	culture="yi_ti"

	father=12565971
	mother=42565971

	7294.1.1 = {birth="7294.1.1"}
	7345.1.1 = {death="7345.1.1"}
}
13165971 = {
	name="Ning"	# not a lord
	female=yes
	dynasty=65971

	religion="yiti_gods"
	culture="yi_ti"

	father=12965971
	mother=42965971

	7325.1.1 = {birth="7325.1.1"}
	7380.1.1 = {death="7380.1.1"}
}
13265971 = {
	name="Joq"	# not a lord
	dynasty=65971

	religion="yiti_gods"
	culture="yi_ti"

	father=12965971
	mother=42965971

	7328.1.1 = {birth="7328.1.1"}
	7344.1.1 = {add_trait=poor_warrior}
	7346.1.1 = {add_spouse=43265971}
	7362.1.1 = {death="7362.1.1"}
}
43265971 = {
	name="Kim"
	female=yes

	religion="yiti_gods"
	culture="yi_ti"

	7328.1.1 = {birth="7328.1.1"}
	7362.1.1 = {death="7362.1.1"}
}
13365971 = {
	name="Ba"	# not a lord
	dynasty=65971

	religion="yiti_gods"
	culture="yi_ti"

	father=12965971
	mother=42965971

	7330.1.1 = {birth="7330.1.1"}
	7346.1.1 = {add_trait=poor_warrior}
	7366.1.1 = {death="7366.1.1"}
}
13465971 = {
	name="Loi"	# a lord
	dynasty=65971

	religion="yiti_gods"
	culture="yi_ti"

	father=13265971
	mother=43265971

	7349.1.1 = {birth="7349.1.1"}
	7365.1.1 = {add_trait=poor_warrior}
	7367.1.1 = {add_spouse=43465971}
}
43465971 = {
	name="Ngon"
	female=yes

	religion="yiti_gods"
	culture="yi_ti"

	7349.1.1 = {birth="7349.1.1"}
}
13565971 = {
	name="Huynh"	# not a lord
	dynasty=65971

	religion="yiti_gods"
	culture="yi_ti"

	father=13265971
	mother=43265971

	7352.1.1 = {birth="7352.1.1"}
	7368.1.1 = {add_trait=trained_warrior}
}
13665971 = {
	name="Chinh"	# not a lord
	dynasty=65971

	religion="yiti_gods"
	culture="yi_ti"

	father=13465971
	mother=43465971

	7367.1.1 = {birth="7367.1.1"}
	7383.1.1 = {add_trait=poor_warrior}
}
13765971 = {
	name="Shi"	# not a lord
	female=yes
	dynasty=65971

	religion="yiti_gods"
	culture="yi_ti"

	father=13465971
	mother=43465971

	7368.1.1 = {birth="7368.1.1"}
}
### House Son
10065977 = {
	name="Minh"	# a lord
	dynasty=65977

	religion="yiti_gods"
	culture="yi_ti"

	7065.1.1 = {birth="7065.1.1"}
	7081.1.1 = {add_trait=poor_warrior}
	7083.1.1 = {add_spouse=40065977}
	7140.1.1 = {death="7140.1.1"}
}
40065977 = {
	name="Thu"
	female=yes

	religion="yiti_gods"
	culture="yi_ti"

	7065.1.1 = {birth="7065.1.1"}
	7140.1.1 = {death="7140.1.1"}
}
10165977 = {
	name="Shu"	# not a lord
	female=yes
	dynasty=65977

	religion="yiti_gods"
	culture="yi_ti"

	father=10065977
	mother=40065977

	7097.1.1 = {birth="7097.1.1"}
	7145.1.1 = {death="7145.1.1"}
}
10265977 = {
	name="Xun"	# a lord
	dynasty=65977

	religion="yiti_gods"
	culture="yi_ti"

	father=10065977
	mother=40065977

	7099.1.1 = {birth="7099.1.1"}
	7115.1.1 = {add_trait=skilled_warrior}
	7117.1.1 = {add_spouse=40265977}
	7157.1.1 = {death="7157.1.1"}
}
40265977 = {
	name="Qi"
	female=yes

	religion="yiti_gods"
	culture="yi_ti"

	7099.1.1 = {birth="7099.1.1"}
	7157.1.1 = {death="7157.1.1"}
}
10365977 = {
	name="Huynh"	# not a lord
	dynasty=65977

	religion="yiti_gods"
	culture="yi_ti"

	father=10065977
	mother=40065977

	7102.1.1 = {birth="7102.1.1"}
	7118.1.1 = {add_trait=trained_warrior}
	7144.1.1 = {death="7144.1.1"}
}
10465977 = {
	name="Phuong"	# not a lord
	female=yes
	dynasty=65977

	religion="yiti_gods"
	culture="yi_ti"

	father=10265977
	mother=40265977

	7118.1.1 = {birth="7118.1.1"}
	7166.1.1 = {death="7166.1.1"}
}
10565977 = {
	name="Gai"	# not a lord
	dynasty=65977

	religion="yiti_gods"
	culture="yi_ti"

	father=10265977
	mother=40265977

	7119.1.1 = {birth="7119.1.1"}
	7135.1.1 = {add_trait=skilled_warrior}
	7137.1.1 = {add_spouse=40565977}
	7157.1.1 = {death = {death_reason = death_murder}}
}
40565977 = {
	name="Chau"
	female=yes

	religion="yiti_gods"
	culture="yi_ti"

	7119.1.1 = {birth="7119.1.1"}
	7157.1.1 = {death="7157.1.1"}
}
10665977 = {
	name="Xhe"	# a lord
	dynasty=65977

	religion="yiti_gods"
	culture="yi_ti"

	father=10565977
	mother=40565977

	7143.1.1 = {birth="7143.1.1"}
	7159.1.1 = {add_trait=skilled_warrior}
	7161.1.1 = {add_spouse=40665977}
	7201.1.1 = {death="7201.1.1"}
}
40665977 = {
	name="Hanh"
	female=yes

	religion="yiti_gods"
	culture="yi_ti"

	7143.1.1 = {birth="7143.1.1"}
	7201.1.1 = {death="7201.1.1"}
}
10765977 = {
	name="Phuc"	# a lord
	dynasty=65977

	religion="yiti_gods"
	culture="yi_ti"

	father=10565977
	mother=40565977

	7144.1.1 = {birth="7144.1.1"}
	7160.1.1 = {add_trait=trained_warrior}
	7162.1.1 = {add_spouse=40765977}
	7213.1.1 = {death="7213.1.1"}
}
40765977 = {
	name="Chau"
	female=yes

	religion="yiti_gods"
	culture="yi_ti"

	7144.1.1 = {birth="7144.1.1"}
	7213.1.1 = {death="7213.1.1"}
}
10865977 = {
	name="Ly"	# not a lord
	female=yes
	dynasty=65977

	religion="yiti_gods"
	culture="yi_ti"

	father=10665977
	mother=40665977

	7171.1.1 = {birth="7171.1.1"}
	7233.1.1 = {death="7233.1.1"}
}
10965977 = {
	name="Thao"	# a lord
	dynasty=65977

	religion="yiti_gods"
	culture="yi_ti"

	father=10765977
	mother=40765977

	7167.1.1 = {birth="7167.1.1"}
	7183.1.1 = {add_trait=trained_warrior}
	7185.1.1 = {add_spouse=40965977}
	7226.1.1 = {death="7226.1.1"}
}
40965977 = {
	name="Ngoc"
	female=yes

	religion="yiti_gods"
	culture="yi_ti"

	7167.1.1 = {birth="7167.1.1"}
	7226.1.1 = {death="7226.1.1"}
}
11065977 = {
	name="Hieu"	# a lord
	dynasty=65977

	religion="yiti_gods"
	culture="yi_ti"

	father=10965977
	mother=40965977

	7200.1.1 = {birth="7200.1.1"}
	7216.1.1 = {add_trait=master_warrior}
	7218.1.1 = {add_spouse=41065977}
	7260.1.1 = {death="7260.1.1"}
}
41065977 = {
	name="Thuy"
	female=yes

	religion="yiti_gods"
	culture="yi_ti"

	7200.1.1 = {birth="7200.1.1"}
	7260.1.1 = {death="7260.1.1"}
}
11165977 = {
	name="Phuong"	# not a lord
	female=yes
	dynasty=65977

	religion="yiti_gods"
	culture="yi_ti"

	father=10965977
	mother=40965977

	7202.1.1 = {birth="7202.1.1"}
	7235.1.1 = {death="7235.1.1"}
}
11265977 = {
	name="Chen"	# not a lord
	dynasty=65977

	religion="yiti_gods"
	culture="yi_ti"

	father=10965977
	mother=40965977

	7203.1.1 = {birth="7203.1.1"}
	7219.1.1 = {add_trait=trained_warrior}
	7283.1.1 = {death="7283.1.1"}
}
11365977 = {
	name="Kim"	# not a lord
	female=yes
	dynasty=65977

	religion="yiti_gods"
	culture="yi_ti"

	father=10965977
	mother=40965977

	7205.1.1 = {birth="7205.1.1"}
	7236.1.1 = {death="7236.1.1"}
}
11465977 = {
	name="Shu"	# not a lord
	female=yes
	dynasty=65977

	religion="yiti_gods"
	culture="yi_ti"

	father=10965977
	mother=40965977

	7207.1.1 = {birth="7207.1.1"}
	7257.1.1 = {death="7257.1.1"}
}
11565977 = {
	name="Xuan"	# a lord
	dynasty=65977

	religion="yiti_gods"
	culture="yi_ti"

	father=11065977
	mother=41065977

	7223.1.1 = {birth="7223.1.1"}
	7239.1.1 = {add_trait=trained_warrior}
	7241.1.1 = {add_spouse=41565977}
	7276.1.1 = {death="7276.1.1"}
}
41565977 = {
	name="Kim"
	female=yes

	religion="yiti_gods"
	culture="yi_ti"

	7223.1.1 = {birth="7223.1.1"}
	7276.1.1 = {death="7276.1.1"}
}
11665977 = {
	name="Cuc"	# not a lord
	female=yes
	dynasty=65977

	religion="yiti_gods"
	culture="yi_ti"

	father=11065977
	mother=41065977

	7224.1.1 = {birth="7224.1.1"}
	7300.1.1 = {death="7300.1.1"}
}
11765977 = {
	name="Tien"	# not a lord
	female=yes
	dynasty=65977

	religion="yiti_gods"
	culture="yi_ti"

	father=11065977
	mother=41065977

	7227.1.1 = {birth="7227.1.1"}
	7263.1.1 = {death="7263.1.1"}
}
11865977 = {
	name="Huynh"	# not a lord
	dynasty=65977

	religion="yiti_gods"
	culture="yi_ti"

	father=11065977
	mother=41065977

	7229.1.1 = {birth="7229.1.1"}
	7245.1.1 = {add_trait=trained_warrior}
	7252.1.1 = {death="7252.1.1"}
}
11965977 = {
	name="Hoa"	# not a lord
	female=yes
	dynasty=65977

	religion="yiti_gods"
	culture="yi_ti"

	father=11565977
	mother=41565977

	7252.1.1 = {birth="7252.1.1"}
	7306.1.1 = {death="7306.1.1"}
}
12065977 = {
	name="Quan"	# a lord
	dynasty=65977

	religion="yiti_gods"
	culture="yi_ti"

	father=11565977
	mother=41565977

	7255.1.1 = {birth="7255.1.1"}
	7271.1.1 = {add_trait=skilled_warrior}
	7273.1.1 = {add_spouse=42065977}
	7309.1.1 = {death="7309.1.1"}
}
42065977 = {
	name="Bich"
	female=yes

	religion="yiti_gods"
	culture="yi_ti"

	7255.1.1 = {birth="7255.1.1"}
	7309.1.1 = {death="7309.1.1"}
}
12165977 = {
	name="Phuc"	# not a lord
	dynasty=65977

	religion="yiti_gods"
	culture="yi_ti"

	father=11565977
	mother=41565977

	7257.1.1 = {birth="7257.1.1"}
	7273.1.1 = {add_trait=skilled_warrior}
	7326.1.1 = {death="7326.1.1"}
}
12265977 = {
	name="Thao"	# a lord
	dynasty=65977

	religion="yiti_gods"
	culture="yi_ti"

	father=12065977
	mother=42065977

	7281.1.1 = {birth="7281.1.1"}
	7297.1.1 = {add_trait=skilled_warrior}
	7299.1.1 = {add_spouse=42265977}
	7336.1.1 = {death="7336.1.1"}
}
42265977 = {
	name="Shu"
	female=yes

	religion="yiti_gods"
	culture="yi_ti"

	7281.1.1 = {birth="7281.1.1"}
	7336.1.1 = {death="7336.1.1"}
}
12365977 = {
	name="Shu"	# not a lord
	female=yes
	dynasty=65977

	religion="yiti_gods"
	culture="yi_ti"

	father=12265977
	mother=42265977

	7308.1.1 = {birth="7308.1.1"}
	7370.1.1 = {death="7370.1.1"}
}
12465977 = {
	name="Van"	# a lord
	dynasty=65977

	religion="yiti_gods"
	culture="yi_ti"

	father=12265977
	mother=42265977

	7310.1.1 = {birth="7310.1.1"}
	7326.1.1 = {add_trait=poor_warrior}
	7328.1.1 = {add_spouse=42465977}
	7367.1.1 = {death="7367.1.1"}
}
42465977 = {
	name="Quyen"
	female=yes

	religion="yiti_gods"
	culture="yi_ti"

	7310.1.1 = {birth="7310.1.1"}
	7367.1.1 = {death="7367.1.1"}
}
12565977 = {
	name="Dong"	# not a lord
	dynasty=65977

	religion="yiti_gods"
	culture="yi_ti"

	father=12265977
	mother=42265977

	7313.1.1 = {birth="7313.1.1"}
	7329.1.1 = {add_trait=poor_warrior}
	7389.1.1 = {death="7389.1.1"}
}
12665977 = {
	name="Ngoc"	# not a lord
	female=yes
	dynasty=65977

	religion="yiti_gods"
	culture="yi_ti"

	father=12265977
	mother=42265977

	7315.1.1 = {birth="7315.1.1"}
	7373.1.1 = {death="7373.1.1"}
}
12765977 = {
	name="Ling"	# not a lord
	female=yes
	dynasty=65977

	religion="yiti_gods"
	culture="yi_ti"

	father=12265977
	mother=42265977

	7317.1.1 = {birth="7317.1.1"}
	7383.1.1 = {death="7383.1.1"}
}
12865977 = {
	name="An"	# a lord
	dynasty=65977

	religion="yiti_gods"
	culture="yi_ti"

	father=12465977
	mother=42465977

	7342.1.1 = {birth="7342.1.1"}
	7358.1.1 = {add_trait=trained_warrior}
	7360.1.1 = {add_spouse=42865977}
}
42865977 = {
	name="Shu"
	female=yes

	religion="yiti_gods"
	culture="yi_ti"

	7342.1.1 = {birth="7342.1.1"}
}
12965977 = {
	name="Nguyet"	# not a lord
	female=yes
	dynasty=65977

	religion="yiti_gods"
	culture="yi_ti"

	father=12465977
	mother=42465977

	7344.1.1 = {birth="7344.1.1"}
	7390.1.1 = {death="7390.1.1"}
}
13065977 = {
	name="Minh"	# not a lord
	dynasty=65977

	religion="yiti_gods"
	culture="yi_ti"

	father=12465977
	mother=42465977

	7346.1.1 = {birth="7346.1.1"}
	7362.1.1 = {add_trait=poor_warrior}
	7364.1.1 = {add_spouse=43065977}
}
43065977 = {
	name="Ly"
	female=yes

	religion="yiti_gods"
	culture="yi_ti"

	7346.1.1 = {birth="7346.1.1"}
}
13165977 = {
	name="Minh"	# not a lord
	dynasty=65977

	religion="yiti_gods"
	culture="yi_ti"

	father=12865977
	mother=42865977

	7371.1.1 = {birth="7371.1.1"}
	7387.1.1 = {add_trait=trained_warrior}
}
13265977 = {
	name="Hong"	# not a lord
	female=yes
	dynasty=65977

	religion="yiti_gods"
	culture="yi_ti"

	father=12865977
	mother=42865977

	7372.1.1 = {birth="7372.1.1"}
}
13365977 = {
	name="Tien"	# not a lord
	female=yes
	dynasty=65977

	religion="yiti_gods"
	culture="yi_ti"

	father=12865977
	mother=42865977

	7375.1.1 = {birth="7375.1.1"}
}
13465977 = {
	name="Zuang"	# not a lord
	dynasty=65977

	religion="yiti_gods"
	culture="yi_ti"

	father=13065977
	mother=43065977

	7367.1.1 = {birth="7367.1.1"}
	7383.1.1 = {add_trait=trained_warrior}
}
13565977 = {
	name="Danh"	# not a lord
	dynasty=65977

	religion="yiti_gods"
	culture="yi_ti"

	father=13065977
	mother=43065977

	7368.1.1 = {birth="7368.1.1"}
	7384.1.1 = {add_trait=skilled_warrior}
}
13665977 = {
	name="Phuong"	# not a lord
	female=yes
	dynasty=65977

	religion="yiti_gods"
	culture="yi_ti"

	father=13065977
	mother=43065977

	7370.1.1 = {birth="7370.1.1"}
}

###House Gtuhanai
10055988 = {
	name="Shathak"	# a lord
	dynasty=55988

	religion="yiti_gods"
	culture="lengi"

	7059.1.1 = {birth="7059.1.1"}
	7075.1.1 = {add_trait=trained_warrior}
	7077.1.1 = {add_spouse=40055988}
	7116.1.1 = {death="7116.1.1"}
}
40055988 = {
	name="Thanaroa"
	female=yes

	religion="yiti_gods"
	culture="lengi"

	7059.1.1 = {birth="7059.1.1"}
	7116.1.1 = {death="7116.1.1"}
}
10155988 = {
	name="Vibur"	# a lord
	dynasty=55988

	religion="yiti_gods"
	culture="lengi"

	father=10055988
	mother=40055988

	7092.1.1 = {birth="7092.1.1"}
	7108.1.1 = {add_trait=trained_warrior}
	7122.1.1 = {death="7122.1.1"}
}
10255988 = {
	name="Yakthoob"	# a lord
	dynasty=55988

	religion="yiti_gods"
	culture="lengi"

	father=10055988
	mother=40055988

	7094.1.1 = {birth="7094.1.1"}
	7110.1.1 = {add_trait=trained_warrior}
	7112.1.1 = {add_spouse=40255988}
	7174.1.1 = {death="7174.1.1"}
}
40255988 = {
	name="Dythalla"
	female=yes

	religion="yiti_gods"
	culture="lengi"

	7094.1.1 = {birth="7094.1.1"}
	7174.1.1 = {death="7174.1.1"}
}
10355988 = {
	name="Pharol"	# not a lord
	dynasty=55988

	religion="yiti_gods"
	culture="lengi"

	father=10255988
	mother=40255988

	7115.1.1 = {birth="7115.1.1"}
	7131.1.1 = {add_trait=poor_warrior}
	7133.1.1 = {add_spouse=40355988}
	7165.1.1 = {death = {death_reason = death_murder}}
}
40355988 = {
	name="Lavinia"
	female=yes

	religion="yiti_gods"
	culture="lengi"

	7115.1.1 = {birth="7115.1.1"}
	7165.1.1 = {death="7165.1.1"}
}
10455988 = {
	name="Y'lla"	# not a lord
	female=yes
	dynasty=55988

	religion="yiti_gods"
	culture="lengi"

	father=10355988
	mother=40355988

	7144.1.1 = {birth="7144.1.1"}
	7203.1.1 = {death="7203.1.1"}
}
10555988 = {
	name="Japhet"	# a lord
	dynasty=55988

	religion="yiti_gods"
	culture="lengi"

	father=10355988
	mother=40355988

	7145.1.1 = {birth="7145.1.1"}
	7161.1.1 = {add_trait=poor_warrior}
	7163.1.1 = {add_spouse=40555988}
	7190.1.1 = {death="7190.1.1"}
}
40555988 = {
	name="Idh-yaa"
	female=yes

	religion="yiti_gods"
	culture="lengi"

	7145.1.1 = {birth="7145.1.1"}
	7190.1.1 = {death="7190.1.1"}
}
10655988 = {
	name="Abdul"	# not a lord
	dynasty=55988

	religion="yiti_gods"
	culture="lengi"

	father=10355988
	mother=40355988

	7147.1.1 = {birth="7147.1.1"}
	7163.1.1 = {add_trait=poor_warrior}
	7221.1.1 = {death="7221.1.1"}
}
10755988 = {
	name="Lavinia"	# not a lord
	female=yes
	dynasty=55988

	religion="yiti_gods"
	culture="lengi"

	father=10555988
	mother=40555988

	7168.1.1 = {birth="7168.1.1"}
	7225.1.1 = {death="7225.1.1"}
}
10855988 = {
	name="Kassogtha"	# not a lord
	female=yes
	dynasty=55988

	religion="yiti_gods"
	culture="lengi"

	father=10555988
	mother=40555988

	7169.1.1 = {birth="7169.1.1"}
	7211.1.1 = {death = {death_reason = death_murder}}
}
10955988 = {
	name="Yhagni"	# not a lord
	female=yes
	dynasty=55988

	religion="yiti_gods"
	culture="lengi"

	father=10555988
	mother=40555988

	7171.1.1 = {birth="7171.1.1"}
	7216.1.1 = {death = {death_reason = death_murder}}
}
11055988 = {
	name="Pharol"	# a lord
	dynasty=55988

	religion="yiti_gods"
	culture="lengi"

	father=10555988
	mother=40555988

	7173.1.1 = {birth="7173.1.1"}
	7189.1.1 = {add_trait=skilled_warrior}
	7191.1.1 = {add_spouse=41055988}
	7224.1.1 = {death="7224.1.1"}
}
41055988 = {
	name="Scathach"
	female=yes

	religion="yiti_gods"
	culture="lengi"

	7173.1.1 = {birth="7173.1.1"}
	7224.1.1 = {death="7224.1.1"}
}
11155988 = {
	name="Hastalyk"	# a lord
	dynasty=55988

	religion="yiti_gods"
	culture="lengi"

	father=11055988
	mother=41055988

	7195.1.1 = {birth="7195.1.1"}
	7211.1.1 = {add_trait=trained_warrior}
	7213.1.1 = {add_spouse=41155988}
	7243.1.1 = {death="7243.1.1"}
}
41155988 = {
	name="Thanaroa"
	female=yes

	religion="yiti_gods"
	culture="lengi"

	7195.1.1 = {birth="7195.1.1"}
	7243.1.1 = {death="7243.1.1"}
}
11255988 = {
	name="Mormo"	# not a lord
	dynasty=55988

	religion="yiti_gods"
	culture="lengi"

	father=11055988
	mother=41055988

	7196.1.1 = {birth="7196.1.1"}
	7212.1.1 = {add_trait=skilled_warrior}
	7243.1.1 = {death="7243.1.1"}
}
11355988 = {
	name="Dygra"	# not a lord
	female=yes
	dynasty=55988

	religion="yiti_gods"
	culture="lengi"

	father=11055988
	mother=41055988

	7197.1.1 = {birth="7197.1.1"}
	7256.1.1 = {death="7256.1.1"}
}
11455988 = {
	name="Xotli"	# not a lord
	female=yes
	dynasty=55988

	religion="yiti_gods"
	culture="lengi"

	father=11155988
	mother=41155988

	7223.1.1 = {birth="7223.1.1"}
	7280.1.1 = {death="7280.1.1"}
}
11555988 = {
	name="Summanus"	# a lord
	dynasty=55988

	religion="yiti_gods"
	culture="lengi"

	father=11155988
	mother=41155988

	7225.1.1 = {birth="7225.1.1"}
	7241.1.1 = {add_trait=trained_warrior}
	7243.1.1 = {add_spouse=41555988}
	7275.1.1 = {death="7275.1.1"}
}
41555988 = {
	name="Nctolhu"
	female=yes

	religion="yiti_gods"
	culture="lengi"

	7225.1.1 = {birth="7225.1.1"}
	7275.1.1 = {death="7275.1.1"}
}
11655988 = {
	name="Inpesca"	# not a lord
	female=yes
	dynasty=55988

	religion="yiti_gods"
	culture="lengi"

	father=11555988
	mother=41555988

	7254.1.1 = {birth="7254.1.1"}
	7320.1.1 = {death="7320.1.1"}
}
11755988 = {
	name="Kaalut"	# a lord
	dynasty=55988

	religion="yiti_gods"
	culture="lengi"

	father=11555988
	mother=41555988

	7257.1.1 = {birth="7257.1.1"}
	7273.1.1 = {add_trait=trained_warrior}
	7275.1.1 = {add_spouse=41755988}
	7282.1.1 = {death="7282.1.1"}
}
41755988 = {
	name="Sthanee"
	female=yes

	religion="yiti_gods"
	culture="lengi"

	7257.1.1 = {birth="7257.1.1"}
	7300.1.1 = {death="7300.1.1"}
}
11855988 = {
	name="Kassogtha"	# a lord
	female=yes
	dynasty=55988

	religion="yiti_gods"
	culture="lengi"

	father=11755988
	mother=41755988

	7280.1.1 = {birth="7280.1.1"}
	7337.1.1 = {death="7337.1.1"}
}
41855988 = {
	name="Ammutseba"

	religion="yiti_gods"
	culture="lengi"

	7286.1.1 = {birth="7286.1.1"}
	7302.1.1 = {add_trait=poor_warrior}
	7304.1.1 = {add_spouse=11855988}
	7337.1.1 = {death="7337.1.1"}
}
11955988 = {
	name="Ayi'ig"	# not a lord
	female=yes
	dynasty=55988

	religion="yiti_gods"
	culture="lengi"

	father=11755988
	mother=41755988

	7282.1.1 = {birth="7282.1.1"}
	7352.1.1 = {death="7352.1.1"}
}
12055988 = {
	name="Abdul"	# a lord
	dynasty=55988

	religion="yiti_gods"
	culture="lengi"

	father=41855988
	mother=11855988

	7315.1.1 = {birth="7315.1.1"}
	7331.1.1 = {add_trait=poor_warrior}
	7333.1.1 = {add_spouse=42055988}
	7362.1.1 = {death="7362.1.1"}
}
42055988 = {
	name="Istasha"
	female=yes

	religion="yiti_gods"
	culture="lengi"

	7315.1.1 = {birth="7315.1.1"}
	7362.1.1 = {death="7362.1.1"}
}
12155988 = {
	name="Inpesca"	# not a lord
	female=yes
	dynasty=55988

	religion="yiti_gods"
	culture="lengi"

	father=41855988
	mother=11855988

	7310.1.1 = {birth="7310.1.1"}
	7372.1.1 = {death="7372.1.1"}
}
12255988 = {
	name="Chaugnar"	# a lord
	dynasty=55988

	religion="yiti_gods"
	culture="lengi"

	father=12055988
	mother=42055988

	7347.1.1 = {birth="7347.1.1"}
	7363.1.1 = {add_trait=poor_warrior}
	7365.1.1 = {add_spouse=42255988}
	7378.1.1 = {death = {death_reason = death_battle}}
}
42255988 = {
	name="Gzxtyos"
	female=yes

	religion="yiti_gods"
	culture="lengi"

	7347.1.1 = {birth="7347.1.1"}
	7378.1.1 = {death="7378.1.1"}
}
12355988 = {
	name="Byatis"	# a lord
	dynasty=55988

	religion="yiti_gods"
	culture="lengi"

	father=12255988
	mother=42255988

	7365.1.1 = {birth="7365.1.1"}
	7381.1.1 = {add_trait=poor_warrior}
	7383.1.1 = {add_spouse=42355988}
}
42355988 = {
	name="Gleetha"
	female=yes

	religion="yiti_gods"
	culture="lengi"

	7365.1.1 = {birth="7365.1.1"}
}
12455988 = {
	name="Arwassa"	# not a lord
	dynasty=55988

	religion="yiti_gods"
	culture="lengi"

	father=12255988
	mother=42255988

	7367.1.1 = {birth="7367.1.1"}
	7383.1.1 = {add_trait=poor_warrior}
}
12555988 = {
	name="Gleetha"	# not a lord
	female=yes
	dynasty=55988

	religion="yiti_gods"
	culture="lengi"

	father=12255988
	mother=42255988

	7368.1.1 = {birth="7368.1.1"}
}
12655988 = {
	name="Kurpannga"	# not a lord
	dynasty=55988

	religion="yiti_gods"
	culture="lengi"

	father=12255988
	mother=42255988

	7369.1.1 = {birth="7369.1.1"}
	7385.1.1 = {add_trait=trained_warrior}
}
12755988 = {
	name="Kassogtha"	# not a lord
	female=yes
	dynasty=55988

	religion="yiti_gods"
	culture="lengi"

	father=12355988
	mother=42355988

	7386.1.1 = {birth="7386.1.1"}
}
12855988 = {
	name="Alijah"	# not a lord
	dynasty=55988

	religion="yiti_gods"
	culture="lengi"

	father=12355988
	mother=42355988

	7389.1.1 = {birth="7389.1.1"}
	7405.1.1 = {add_trait=poor_warrior}
}
12955988 = {
	name="Aylith"	# not a lord
	female=yes
	dynasty=55988

	religion="yiti_gods"
	culture="lengi"

	father=12355988
	mother=42355988

	7391.1.1 = {birth="7391.1.1"}
}
13055988 = {
	name="Saa'itii"	# not a lord
	female=yes
	dynasty=55988

	religion="yiti_gods"
	culture="lengi"

	father=12355988
	mother=42355988

	7392.1.1 = {birth="7392.1.1"}
}


