###  House Erosenes

150300540 = {
	name="Groleo"	# a lord
	dynasty=55925

	religion="weeping_lady"
	culture="lysene"

	7064.1.1 = {birth="7064.1.1"}
	7082.1.1 = {add_spouse=250300540}
	7125.1.1 = {death="7125.1.1"}
}
250300540 = {
	name="Bellonara"
	female=yes

	religion="weeping_lady"
	culture="lysene"

	7066.1.1 = {birth="7066.1.1"}
	7123.1.1 = {death="7123.1.1"}
}
100300540 = {
	name="Allequo"	# a lord
	dynasty=55925

	religion="weeping_lady"
	culture="lysene"

	father=150300540
	mother=250300540

	7083.1.1 = {birth="7083.1.1"}
	7118.1.1 = {add_trait=poor_warrior}
	7120.1.1 = {add_spouse=200300540}
	7156.1.1 = {death="7156.1.1"}
}
200300540 = {
	name="Bellonara"
	female=yes

	religion="weeping_lady"
	culture="lysene"

	7083.1.1 = {birth="7083.1.1"}
	7156.1.1 = {death="7156.1.1"}
}
101300540 = {
	name="Collio"	# a lord
	dynasty=55925

	religion="weeping_lady"
	culture="lysene"

	father=100300540
	mother=200300540

	7121.1.1 = {birth="7121.1.1"}
	7137.1.1 = {add_trait=poor_warrior}
	7139.1.1 = {add_spouse=201300540}
	7161.1.1 = {death="7161.1.1"}
}
201300540 = {
	name="Ferrega"
	female=yes

	religion="weeping_lady"
	culture="lysene"

	7121.1.1 = {birth="7121.1.1"}
	7161.1.1 = {death="7161.1.1"}
}
102300540 = {
	name="Ferrega"	# not a lord
	female=yes
	dynasty=55925

	religion="weeping_lady"
	culture="lysene"

	father=100300540
	mother=200300540

	7122.1.1 = {birth="7122.1.1"}
	7165.1.1 = {death="7165.1.1"}
}
103300540 = {
	name="Denia"	# not a lord
	female=yes
	dynasty=55925

	religion="weeping_lady"
	culture="lysene"

	father=100300540
	mother=200300540

	7123.1.1 = {birth="7123.1.1"}
	7164.1.1 = {death="7164.1.1"}
}
104300540 = {
	name="Yorka"	# not a lord
	female=yes
	dynasty=55925

	religion="weeping_lady"
	culture="lysene"

	father=101300540
	mother=201300540

	7144.1.1 = {birth="7144.1.1"}
	7192.1.1 = {death = {death_reason = death_accident}}
}
105300540 = {
	name="Lothea"	# not a lord
	female=yes
	dynasty=55925

	religion="weeping_lady"
	culture="lysene"

	father=101300540
	mother=201300540

	7145.1.1 = {birth="7145.1.1"}
	7202.1.1 = {death="7202.1.1"}
}
106300540 = {
	name="Alia"	# not a lord
	female=yes
	dynasty=55925

	religion="weeping_lady"
	culture="lysene"

	father=101300540
	mother=201300540

	7147.1.1 = {birth="7147.1.1"}
	7210.1.1 = {death="7210.1.1"}
}
107300540 = {
	name="Syrio"	# a lord
	dynasty=55925

	religion="weeping_lady"
	culture="lysene"

	father=101300540
	mother=201300540

	7148.1.1 = {birth="7148.1.1"}
	7164.1.1 = {add_trait=trained_warrior}
	7166.1.1 = {add_spouse=207300540}
	7198.1.1 = {death="7198.1.1"}
}
207300540 = {
	name="Rogga"
	female=yes

	religion="weeping_lady"
	culture="lysene"

	7148.1.1 = {birth="7148.1.1"}
	7198.1.1 = {death="7198.1.1"}
}
108300540 = {
	name="Serenei"	# not a lord
	female=yes
	dynasty=55925

	religion="weeping_lady"
	culture="lysene"

	father=101300540
	mother=201300540

	7150.1.1 = {birth="7150.1.1"}
	7203.1.1 = {death="7203.1.1"}
}
110300540 = {
	name="Pynto"	# a lord
	dynasty=55925

	religion="weeping_lady"
	culture="lysene"

	father=107300540
	mother=207300540

	7168.1.1 = {birth="7168.1.1"}
	7184.1.1 = {add_trait=trained_warrior}
	7186.1.1 = {add_spouse=210300540}
	7219.1.1 = {death="7219.1.1"}
}
210300540 = {
	name="Taena"
	female=yes

	religion="weeping_lady"
	culture="lysene"

	7168.1.1 = {birth="7168.1.1"}
	7219.1.1 = {death="7219.1.1"}
}
111300540 = {
	name="Khorane"	# a lord
	dynasty=55925

	religion="weeping_lady"
	culture="lysene"

	father=107300540
	mother=207300540

	7182.1.1 = {birth="7182.1.1"}
	7198.1.1 = {add_trait=trained_warrior}
	7210.1.1 = {add_spouse=211300540}
	7223.1.1 = {death="7223.1.1"}
}
211300540 = {
	name="Lucerre"
	female=yes

	religion="weeping_lady"
	culture="lysene"

	7182.1.1 = {birth="7182.1.1"}
	7223.1.1 = {death="7223.1.1"}
}
112300540 = {
	name="Gyleno"	# not a lord
	dynasty=55925

	religion="weeping_lady"
	culture="lysene"

	father=107300540
	mother=207300540

	7184.1.1 = {birth="7184.1.1"}
	7210.1.1 = {add_trait=poor_warrior}
	7212.1.1 = {add_spouse=212300540}
	7253.1.1 = {death="7253.1.1"}
}
212300540 = {
	name="Lothea"
	female=yes

	religion="weeping_lady"
	culture="lysene"

	7184.1.1 = {birth="7184.1.1"}
	7253.1.1 = {death="7253.1.1"}
}
113300540 = {
	name="Gylono"	# a lord
	dynasty=55925

	religion="weeping_lady"
	culture="lysene"

	father=111300540
	mother=211300540

	7214.1.1 = {birth="7214.1.1"}
	7230.1.1 = {add_trait=trained_warrior}
	7232.1.1 = {add_spouse=213300540}
	7265.1.1 = {death="7265.1.1"}
}
213300540 = {
	name="Nohia"
	female=yes

	religion="weeping_lady"
	culture="lysene"

	7214.1.1 = {birth="7214.1.1"}
	7265.1.1 = {death="7265.1.1"}
}
115300540 = {
	name="Betharios"	# not a lord
	female=yes
	dynasty=55925

	religion="weeping_lady"
	culture="lysene"

	father=111300540
	mother=211300540

	7216.1.1 = {birth="7216.1.1"}
	7275.1.1 = {death="7275.1.1"}
}
116300540 = {
	name="Moredea"	# not a lord
	female=yes
	dynasty=55925

	religion="weeping_lady"
	culture="lysene"

	father=113300540
	mother=213300540

	7234.1.1 = {birth="7234.1.1"}
	7285.1.1 = {death="7285.1.1"}
}
117300540 = {
	name="Joss"	# a lord
	dynasty=55925

	religion="weeping_lady"
	culture="lysene"

	father=113300540
	mother=213300540

	7235.1.1 = {birth="7235.1.1"}
	7251.1.1 = {add_trait=master_warrior}
	7253.1.1 = {add_spouse=217300540}
	7308.1.1 = {death="7308.1.1"}
}
217300540 = {
	name="Yna"
	female=yes

	religion="weeping_lady"
	culture="lysene"

	7235.1.1 = {birth="7235.1.1"}
	7308.1.1 = {death="7308.1.1"}
}
118300540 = {
	name="Torma"	# not a lord
	female=yes
	dynasty=55925

	religion="weeping_lady"
	culture="lysene"

	father=117300540
	mother=217300540

	7255.1.1 = {birth="7255.1.1"}
	7307.1.1 = {death="7307.1.1"}
}
119300540 = {
	name="Orbela"	# not a lord
	female=yes
	dynasty=55925

	religion="weeping_lady"
	culture="lysene"

	father=117300540
	mother=217300540

	7257.1.1 = {birth="7257.1.1"}
	7324.1.1 = {death="7324.1.1"}
}
120300540 = {
	name="Serala"	# not a lord
	female=yes
	dynasty=55925

	religion="weeping_lady"
	culture="lysene"

	father=117300540
	mother=217300540

	7259.1.1 = {birth="7259.1.1"}
	7316.1.1 = {death="7316.1.1"}
}
121300540 = {
	name="Tagganaro"	# a lord
	dynasty=55925

	religion="weeping_lady"
	culture="lysene"

	father=117300540
	mother=217300540

	7262.1.1 = {birth="7262.1.1"}
	7278.1.1 = {add_trait=poor_warrior}
	7280.1.1 = {add_spouse=221300540}
	7339.1.1 = {death="7339.1.1"}
}
221300540 = {
	name="Ferrega"
	female=yes

	religion="weeping_lady"
	culture="lysene"

	7262.1.1 = {birth="7262.1.1"}
	7339.1.1 = {death="7339.1.1"}
}
122300540 = {
	name="Jaqea"	# not a lord
	female=yes
	dynasty=55925

	religion="weeping_lady"
	culture="lysene"

	father=117300540
	mother=217300540

	7264.1.1 = {birth="7264.1.1"}
	7305.1.1 = {death="7305.1.1"}
}
124300540 = {
	name="Brusco"	# a lord
	dynasty=55925

	religion="weeping_lady"
	culture="lysene"

	father=121300540
	mother=221300540

	7290.1.1 = {birth="7290.1.1"}
	7306.1.1 = {add_trait=poor_warrior}
	7308.1.1 = {add_spouse=224300540}
	7354.1.1 = {death="7354.1.1"}
}
224300540 = {
	name="Taena"
	female=yes

	religion="weeping_lady"
	culture="lysene"

	7290.1.1 = {birth="7290.1.1"}
	7354.1.1 = {death="7354.1.1"}
}
125300540 = {
	name="Ternesia"	# not a lord
	female=yes
	dynasty=55925

	religion="weeping_lady"
	culture="lysene"

	father=121300540
	mother=221300540

	7292.1.1 = {birth="7292.1.1"}
	7369.1.1 = {death="7369.1.1"}
}
126300540 = {
	name="Betharios"	# not a lord
	female=yes
	dynasty=55925

	religion="weeping_lady"
	culture="lysene"

	father=121300540
	mother=221300540

	7295.1.1 = {birth="7295.1.1"}
	7352.1.1 = {death="7352.1.1"}
}
127300540 = {
	name="Ternesio"	# a lord
	dynasty=55925

	religion="weeping_lady"
	culture="lysene"

	father=124300540
	mother=224300540

	7318.1.1 = {birth="7318.1.1"}
	7334.1.1 = {add_trait=trained_warrior}
	7336.1.1 = {add_spouse=227300540}
	7370.1.1 = {death = {death_reason = death_accident}}
}
227300540 = {
	name="Syrea"
	female=yes

	religion="weeping_lady"
	culture="lysene"

	7318.1.1 = {birth="7318.1.1"}
	7362.1.1 = {death="7362.1.1"}
}
128300540 = {
	name="Allaquo"	# not a lord
	dynasty=55925
	
	martial = 10

	religion="weeping_lady"
	culture="lysene"

	father=124300540
	mother=224300540
	
	add_trait = ambitious

	7321.1.1 = {birth="7321.1.1"}
	7337.1.1 = {add_trait=trained_warrior}
	7373.1.1 = {death="7373.1.1"}
}
129300540 = {
	name="Ternesia"	# not a lord
	female=yes
	dynasty=55925

	religion="weeping_lady"
	culture="lysene"

	father=127300540
	mother=227300540

	7336.1.1 = {birth="7336.1.1"}
	7379.1.1 = {death = {death_reason = death_accident}}
}
2003994 = {
	name="Orbello"
	dynasty=55925 

	culture="lysene"
	religion="weeping_lady"

	father=127300540
	mother=227300540

	7359.1.1 = {birth="7359.1.1"}
	7381.1.1 = {add_spouse=21003994}
}
21003994 = {
	name="Taeneyrs"
	female=yes

	culture="lysene"
	religion="weeping_lady"

	7359.1.1 = {birth="7359.1.1"}
}
2013994 = {
	name="Tregar"
	dynasty=55925 

	culture="lysene"
	religion="weeping_lady"

	father=2003994
	mother=21003994

	7384.1.1 = {birth="7384.1.1"}
}
2023994 = {
	name="Sharako"
	dynasty=55925 

	culture="lysene"
	religion="weeping_lady"

	father=2003994
	mother=21003994

	7388.1.1 = {birth="7388.1.1"}
}
###  House Ormollen

11001386 = {
	name="Doniphos"	# a lord
	dynasty=1386

	religion="weeping_lady"
	culture="lysene"

	7059.1.1 = {birth="7059.1.1"}
	7075.1.1 = {add_spouse=21001386}
	7127.1.1 = {death="7127.1.1"}
}
21001386 = {
	name="Serenie"
	female=yes

	religion="weeping_lady"
	culture="lysene"

	7064.1.1 = {birth="7064.1.1"}
	7129.1.1 = {death="7129.1.1"}
}
10001386 = {
	name="Sullhiem"	# a lord
	dynasty=1386

	religion="weeping_lady"
	culture="lysene"

	father=11001386
	mother=21001386

	7084.1.1 = {birth="7084.1.1"}
	7116.1.1 = {add_trait=poor_warrior}
	7118.1.1 = {add_spouse=20001386}
	7163.1.1 = {death="7163.1.1"}
}
20001386 = {
	name="Terrios"
	female=yes

	religion="weeping_lady"
	culture="lysene"

	7084.1.1 = {birth="7084.1.1"}
	7163.1.1 = {death="7163.1.1"}
}
10011386 = {
	name="Lothea"	# not a lord
	female=yes
	dynasty=1386

	religion="weeping_lady"
	culture="lysene"

	father=10001386
	mother=20001386

	7122.1.1 = {birth="7122.1.1"}
	7172.1.1 = {death="7172.1.1"}
}
10021386 = {
	name="Tagganaro"	# a lord
	dynasty=1386

	religion="weeping_lady"
	culture="lysene"

	father=10001386
	mother=20001386

	7124.1.1 = {birth="7124.1.1"}
	7140.1.1 = {add_trait=poor_warrior}
	7166.1.1 = {death="7166.1.1"}
}
10031386 = {
	name="Luco"	# not a lord
	dynasty=1386

	religion="weeping_lady"
	culture="lysene"

	father=10001386
	mother=20001386

	7126.1.1 = {birth="7126.1.1"}
	7142.1.1 = {add_trait=poor_warrior}
	7144.1.1 = {add_spouse=20031386}
	7167.1.1 = {death="7167.1.1"}
}
20031386 = {
	name="Betharios"
	female=yes

	religion="weeping_lady"
	culture="lysene"

	7126.1.1 = {birth="7126.1.1"}
	7167.1.1 = {death="7167.1.1"}
}
10041386 = {
	name="Cossoma"	# not a lord
	female=yes
	dynasty=1386

	religion="weeping_lady"
	culture="lysene"

	father=10001386
	mother=20001386

	7129.1.1 = {birth="7129.1.1"}
	7180.1.1 = {death="7180.1.1"}
}
10051386 = {
	name="Lucerre"	# not a lord
	female=yes
	dynasty=1386

	religion="weeping_lady"
	culture="lysene"

	father=10031386
	mother=20031386

	7151.1.1 = {birth="7151.1.1"}
	7231.1.1 = {death="7231.1.1"}
}
10061386 = {
	name="Qarro"	# a lord
	dynasty=1386

	religion="weeping_lady"
	culture="lysene"

	father=10031386
	mother=20031386

	7152.1.1 = {birth="7152.1.1"}
	7168.1.1 = {add_trait=poor_warrior}
	7170.1.1 = {add_spouse=20061386}
	7212.1.1 = {death="7212.1.1"}
}
20061386 = {
	name="Izembara"
	female=yes

	religion="weeping_lady"
	culture="lysene"

	7152.1.1 = {birth="7152.1.1"}
	7212.1.1 = {death="7212.1.1"}
}
10071386 = {
	name="Terrios"	# not a lord
	female=yes
	dynasty=1386

	religion="weeping_lady"
	culture="lysene"

	father=10031386
	mother=20031386

	7154.1.1 = {birth="7154.1.1"}
	7196.1.1 = {death="7196.1.1"}
}
10081386 = {
	name="Joss"	# not a lord
	dynasty=1386

	religion="weeping_lady"
	culture="lysene"

	father=10031386
	mother=20031386

	7155.1.1 = {birth="7155.1.1"}
	7171.1.1 = {add_trait=poor_warrior}
	7204.1.1 = {death="7204.1.1"}
}
10091386 = {
	name="Gylenios"	# not a lord
	female=yes
	dynasty=1386

	religion="weeping_lady"
	culture="lysene"

	father=10061386
	mother=20061386

	7170.1.1 = {birth="7170.1.1"}
	7217.1.1 = {death="7217.1.1"}
}
10101386 = {
	name="Lysono"	# a lord
	dynasty=1386

	religion="weeping_lady"
	culture="lysene"

	father=10061386
	mother=20061386

	7171.1.1 = {birth="7171.1.1"}
	7187.1.1 = {add_trait=trained_warrior}
	7189.1.1 = {add_spouse=20101386}
	7228.1.1 = {death="7228.1.1"}
}
20101386 = {
	name="Myrmellios"
	female=yes

	religion="weeping_lady"
	culture="lysene"

	7171.1.1 = {birth="7171.1.1"}
	7228.1.1 = {death="7228.1.1"}
}
10111386 = {
	name="Myrmellios"	# not a lord
	female=yes
	dynasty=1386

	religion="weeping_lady"
	culture="lysene"

	father=10061386
	mother=20061386

	7174.1.1 = {birth="7174.1.1"}
	7230.1.1 = {death="7230.1.1"}
}
10121386 = {
	name="Terro"	# not a lord
	dynasty=1386

	religion="weeping_lady"
	culture="lysene"

	father=10101386
	mother=20101386

	7192.1.1 = {birth="7192.1.1"}
	7206.1.1 = {death="7206.1.1"}
}
10131386 = {
	name="Roggo"	# a lord
	dynasty=1386

	religion="weeping_lady"
	culture="lysene"

	father=10101386
	mother=20101386

	7204.1.1 = {birth="7204.1.1"}
	7220.1.1 = {add_trait=trained_warrior}
	7222.1.1 = {add_spouse=20131386}
	7262.1.1 = {death="7262.1.1"}
}
20131386 = {
	name="Serra"
	female=yes

	religion="weeping_lady"
	culture="lysene"

	7204.1.1 = {birth="7204.1.1"}
	7262.1.1 = {death="7262.1.1"}
}
10141386 = {
	name="Ollo"	# not a lord
	dynasty=1386

	religion="weeping_lady"
	culture="lysene"

	father=10101386
	mother=20101386

	7206.1.1 = {birth="7206.1.1"}
	7222.1.1 = {add_trait=trained_warrior}
	7284.1.1 = {death="7284.1.1"}
}
10151386 = {
	name="Terro"	# not a lord
	dynasty=1386

	religion="weeping_lady"
	culture="lysene"

	father=10101386
	mother=20101386

	7207.1.1 = {birth="7207.1.1"}
	7223.1.1 = {add_trait=trained_warrior}
	7245.1.1 = {death = {death_reason = death_battle}}
}
10161386 = {
	name="Brea"	# not a lord
	female=yes
	dynasty=1386

	religion="weeping_lady"
	culture="lysene"

	father=10131386
	mother=20131386

	7235.1.1 = {birth="7235.1.1"}
	7272.1.1 = {death="7272.1.1"}
}
10171386 = {
	name="Gyleno"	# a lord
	dynasty=1386

	religion="weeping_lady"
	culture="lysene"

	father=10131386
	mother=20131386

	7237.1.1 = {birth="7237.1.1"}
	7253.1.1 = {add_trait=trained_warrior}
	7255.1.1 = {add_spouse=20171386}
	7297.1.1 = {death="7297.1.1"}
}
20171386 = {
	name="Jaqea"
	female=yes

	religion="weeping_lady"
	culture="lysene"

	7237.1.1 = {birth="7237.1.1"}
	7297.1.1 = {death="7297.1.1"}
}
10181386 = {
	name="Narbo"	# not a lord
	dynasty=1386

	religion="weeping_lady"
	culture="lysene"

	father=10131386
	mother=20131386

	7238.1.1 = {birth="7238.1.1"}
	7254.1.1 = {add_trait=poor_warrior}
	7256.1.1 = {add_spouse=20181386}
	7293.1.1 = {death="7293.1.1"}
}
20181386 = {
	name="Qarria"
	female=yes

	religion="weeping_lady"
	culture="lysene"

	7238.1.1 = {birth="7238.1.1"}
	7293.1.1 = {death="7293.1.1"}
}
10191386 = {
	name="Jaqen"	# not a lord
	dynasty=1386

	religion="weeping_lady"
	culture="lysene"

	father=10131386
	mother=20131386

	7239.1.1 = {birth="7239.1.1"}
	7255.1.1 = {add_trait=master_warrior}
	7257.1.1 = {add_spouse=20191386}
	7312.1.1 = {death="7312.1.1"}
}
20191386 = {
	name="Orios"
	female=yes

	religion="weeping_lady"
	culture="lysene"

	7239.1.1 = {birth="7239.1.1"}
	7312.1.1 = {death="7312.1.1"}
}
10201386 = {
	name="Ternesio"	# not a lord
	dynasty=1386

	religion="weeping_lady"
	culture="lysene"

	father=10171386
	mother=20171386

	7255.1.1 = {birth="7255.1.1"}
	7271.1.1 = {add_trait=poor_warrior}
	7296.1.1 = {death="7296.1.1"}
}
10211386 = {
	name="Jaqen"	# not a lord
	dynasty=1386

	religion="weeping_lady"
	culture="lysene"

	father=10171386
	mother=20171386

	7257.1.1 = {birth="7257.1.1"}
	7273.1.1 = {add_trait=poor_warrior}
	7295.1.1 = {death = {death_reason = death_murder}}
}
10221386 = {
	name="Gylora"	# not a lord
	female=yes
	dynasty=1386

	religion="weeping_lady"
	culture="lysene"

	father=10171386
	mother=20171386

	7268.1.1 = {birth="7268.1.1"}
	7292.1.1 = {death="7292.1.1"}
}
10231386 = {
	name="Collio"	# a lord
	dynasty=1386

	religion="weeping_lady"
	culture="lysene"

	father=10171386
	mother=20171386

	7270.1.1 = {birth="7270.1.1"}
	7286.1.1 = {add_trait=skilled_warrior}
	7288.1.1 = {add_spouse=20231386}
	7321.1.1 = {death="7321.1.1"}
}
20231386 = {
	name="Mellario"
	female=yes

	religion="weeping_lady"
	culture="lysene"

	7270.1.1 = {birth="7270.1.1"}
	7321.1.1 = {death="7321.1.1"}
}
10241386 = {
	name="Bellegere"	# not a lord
	female=yes
	dynasty=1386

	religion="weeping_lady"
	culture="lysene"

	father=10171386
	mother=20171386

	7273.1.1 = {birth="7273.1.1"}
	7328.1.1 = {death="7328.1.1"}
}
10251386 = {
	name="Ezzere"	# not a lord
	female=yes
	dynasty=1386

	religion="weeping_lady"
	culture="lysene"

	father=10171386
	mother=20171386

	7274.1.1 = {birth="7274.1.1"}
	7331.1.1 = {death="7331.1.1"}
}
10261386 = {
	name="Alia"	# not a lord
	female=yes
	dynasty=1386

	religion="weeping_lady"
	culture="lysene"

	father=10171386
	mother=20171386

	7277.1.1 = {birth="7277.1.1"}
	7303.1.1 = {death="7303.1.1"}
}
10271386 = {
	name="Roro"	# a lord
	dynasty=1386

	religion="weeping_lady"
	culture="lysene"

	father=10231386
	mother=20231386

	7297.1.1 = {birth="7297.1.1"}
	7313.1.1 = {add_trait=poor_warrior}
	7315.1.1 = {add_spouse=20271386}
	7334.1.1 = {death = {death_reason = death_battle}}
}
20271386 = {
	name="Ferrega"
	female=yes

	religion="weeping_lady"
	culture="lysene"

	7297.1.1 = {birth="7297.1.1"}
	7334.1.1 = {death="7334.1.1"}
}
10281386 = {
	name="Lysono"	# not a lord
	dynasty=1386

	religion="weeping_lady"
	culture="lysene"

	father=10231386
	mother=20231386

	7298.1.1 = {birth="7298.1.1"}
	7314.1.1 = {add_spouse=20281386}
	7316.1.1 = {death="7316.1.1"}
}
20281386 = {
	name="Umma"
	female=yes

	religion="weeping_lady"
	culture="lysene"

	7298.1.1 = {birth="7298.1.1"}
	7316.1.1 = {death="7316.1.1"}
}
10291386 = {
	name="Yna"	# not a lord
	female=yes
	dynasty=1386

	religion="weeping_lady"
	culture="lysene"

	father=10231386
	mother=20231386

	7299.1.1 = {birth="7299.1.1"}
	7338.1.1 = {death="7338.1.1"}
}
10301386 = {
	name="Tagganaria"	# not a lord
	female=yes
	dynasty=1386

	religion="weeping_lady"
	culture="lysene"

	father=10231386
	mother=20231386

	7301.1.1 = {birth="7301.1.1"}
	7339.1.1 = {death="7339.1.1"}
}
10311386 = {
	name="Syrio"	# a lord
	dynasty=1386

	religion="weeping_lady"
	culture="lysene"

	father=10271386
	mother=20271386

	7320.1.1 = {birth="7320.1.1"}
	7341.1.1 = {add_trait=skilled_warrior}
	7342.1.1 = {add_spouse=20381386}
	7374.1.1 = {death="7374.1.1"}
}
20381386 = {
	name="Nyssa"
	female=yes

	religion="weeping_lady"
	culture="lysene"

	7325.1.1 = {birth="7325.1.1"}
	7370.1.1 = {death="7370.1.1"}
}
88108 = {
	name="Tregar"
	dynasty=1386 #Ormollen
	religion="weeping_lady"
	culture="lysene"

	father=10311386
	mother=20381386

	add_trait="fortune_builder"
	add_trait="lustful"

	7350.1.1={
		birth="7350.1.1"
	}
	7372.1.1={
		add_spouse=488108
	}
} 
488108 = {
	name="Melyssa"
	female=yes

	religion="weeping_lady"
	culture="lysene"

	7350.1.1 = {birth="7350.1.1"}
	7390.1.1 = {death="7390.1.1"}
}
881108 = {
	name="Syrio"
	dynasty=1386 #Ormollen
	religion="weeping_lady"
	culture="lysene"

	father=88108
	mother=488108

	7374.1.1={
		birth="7374.1.1"
	}
} 
882108 = {
	name="Mellario"
	dynasty=1386 #Ormollen
	female=yes
	religion="weeping_lady"
	culture="lysene"

	father=88108
	mother=488108

	7377.1.1={
		birth="7377.1.1"
	}
} 
883108 = {
	name="Parquello"
	dynasty=1386 #Ormollen
	religion="weeping_lady"
	culture="lysene"

	father=88108
	mother=488108

	7381.1.1={
		birth="7381.1.1"
	}
} 

### House Sathmantes

150300546 = {
	name="Vaelar"	# a lord
	dynasty=300546

	religion="rhllor"
	culture="lysene"

	7061.1.1 = {birth="7061.1.1"}
	7083.1.1 = {add_spouse=250300546}
	7136.1.1 = {death="7136.1.1"}
}
250300546 = {
	name="Daenys"
	female=yes

	religion="rhllor"
	culture="lysene"

	7062.1.1 = {birth="7062.1.1"}
	7136.1.1 = {death="7136.1.1"}
}
100300546 = {
	name="Roro"	# a lord
	dynasty=300546

	religion="rhllor"
	culture="lysene"

	father=150300546
	mother=250300546

	7085.1.1 = {birth="7085.1.1"}
	7126.1.1 = {add_trait=poor_warrior}
	7128.1.1 = {add_spouse=200300546}
	7179.1.1 = {death="7179.1.1"}
}
200300546 = {
	name="Mellario"
	female=yes

	religion="rhllor"
	culture="lysene"

	7085.1.1 = {birth="7085.1.1"}
	7179.1.1 = {death="7179.1.1"}
}
101300546 = {
	name="Alia"	# not a lord
	female=yes
	dynasty=300546

	religion="rhllor"
	culture="lysene"

	father=100300546
	mother=200300546

	7132.1.1 = {birth="7132.1.1"}
	7204.1.1 = {death="7204.1.1"}
}
102300546 = {
	name="Bellegere"	# not a lord
	female=yes
	dynasty=300546

	religion="rhllor"
	culture="lysene"

	father=100300546
	mother=200300546

	7134.1.1 = {birth="7134.1.1"}
	7180.1.1 = {death="7180.1.1"}
}
104300546 = {
	name="Umma"	# not a lord
	female=yes
	dynasty=300546

	religion="rhllor"
	culture="lysene"

	father=100300546
	mother=200300546

	7139.1.1 = {birth="7139.1.1"}
	7162.1.1 = {death="7162.1.1"}
}
105300546 = {
	name="Sallodhor"	# a lord
	dynasty=300546

	religion="rhllor"
	culture="lysene"

	father=100300546
	mother=200300546

	7140.1.1 = {birth="7140.1.1"}
	7156.1.1 = {add_trait=trained_warrior}
	7158.1.1 = {add_spouse=205300546}
	7206.1.1 = {death="7206.1.1"}
}
205300546 = {
	name="Gylora"
	female=yes

	religion="rhllor"
	culture="lysene"

	7140.1.1 = {birth="7140.1.1"}
	7206.1.1 = {death="7206.1.1"}
}
106300546 = {
	name="Tagganaro"	# a lord
	dynasty=300546

	religion="rhllor"
	culture="lysene"

	father=105300546
	mother=205300546

	7164.1.1 = {birth="7164.1.1"}
	7182.1.1 = {add_spouse=206300546}
	7229.1.1 = {death="7229.1.1"}
}
206300546 = {
	name="Cossoma"
	female=yes

	religion="rhllor"
	culture="lysene"

	7164.1.1 = {birth="7164.1.1"}
	7180.1.1 = {add_trait=poor_warrior}
	7229.1.1 = {death="7229.1.1"}
}
107300546 = {
	name="Taena"	# not a lord
	female=yes
	dynasty=300546

	religion="rhllor"
	culture="lysene"

	father=106300546
	mother=206300546

	7189.1.1 = {birth="7189.1.1"}
	7246.1.1 = {death="7246.1.1"}
}
109300546 = {
	name="Syrio"	# a lord
	dynasty=300546

	religion="rhllor"
	culture="lysene"

	father=106300546
	mother=206300546

	7193.1.1 = {birth="7193.1.1"}
	7209.1.1 = {add_trait=poor_warrior}
	7211.1.1 = {add_spouse=209300546}
	7268.1.1 = {death="7268.1.1"}
}
209300546 = {
	name="Meralyia"
	female=yes

	religion="rhllor"
	culture="lysene"

	7193.1.1 = {birth="7193.1.1"}
	7268.1.1 = {death="7268.1.1"}
}
111300546 = {
	name="Tormo"	# not a lord
	dynasty=300546

	religion="rhllor"
	culture="lysene"

	father=109300546
	mother=209300546

	7215.1.1 = {birth="7215.1.1"}
	7231.1.1 = {add_trait=poor_warrior}
	7258.1.1 = {death="7258.1.1"}
}
112300546 = {
	name="Ordello"	# a lord
	dynasty=300546

	religion="rhllor"
	culture="lysene"

	father=109300546
	mother=209300546

	7216.1.1 = {birth="7216.1.1"}
	7232.1.1 = {add_trait=poor_warrior}
	7234.1.1 = {add_spouse=212300546}
	7296.1.1 = {death="7296.1.1"}
}
212300546 = {
	name="Pynta"
	female=yes

	religion="rhllor"
	culture="lysene"

	7216.1.1 = {birth="7216.1.1"}
	7296.1.1 = {death="7296.1.1"}
}
113300546 = {
	name="Moreo"	# not a lord
	dynasty=300546

	religion="rhllor"
	culture="lysene"

	father=109300546
	mother=209300546

	7218.1.1 = {birth="7218.1.1"}
	7234.1.1 = {add_trait=trained_warrior}
	7236.1.1 = {add_spouse=213300546}
	7259.1.1 = {death="7259.1.1"}
}
213300546 = {
	name="Myrmellios"
	female=yes

	religion="rhllor"
	culture="lysene"

	7218.1.1 = {birth="7218.1.1"}
	7259.1.1 = {death="7259.1.1"}
}
114300546 = {
	name="Beqqo"	# not a lord
	dynasty=300546

	religion="rhllor"
	culture="lysene"

	father=112300546
	mother=212300546

	7240.1.1 = {birth="7240.1.1"}
	7256.1.1 = {add_trait=trained_warrior}
	7286.1.1 = {death="7286.1.1"}
}
115300546 = {
	name="Illyrio"	# a lord
	dynasty=300546

	religion="rhllor"
	culture="lysene"

	father=112300546
	mother=212300546

	7243.1.1 = {birth="7243.1.1"}
	7259.1.1 = {add_trait=trained_warrior}
	7261.1.1 = {add_spouse=215300546}
	7305.1.1 = {death="7305.1.1"}
}
215300546 = {
	name="Serra"
	female=yes

	religion="rhllor"
	culture="lysene"

	7243.1.1 = {birth="7243.1.1"}
	7305.1.1 = {death="7305.1.1"}
}
116300546 = {
	name="Lotho"	# not a lord
	dynasty=300546

	religion="rhllor"
	culture="lysene"

	father=112300546
	mother=212300546

	7246.1.1 = {birth="7246.1.1"}
	7262.1.1 = {add_trait=trained_warrior}
	7264.1.1 = {add_spouse=216300546}
	7275.1.1 = {death="7275.1.1"}
}
216300546 = {
	name="Gylora"
	female=yes

	religion="rhllor"
	culture="lysene"

	7246.1.1 = {birth="7246.1.1"}
	7275.1.1 = {death="7275.1.1"}
}
117300546 = {
	name="Ordello"	# a lord
	dynasty=300546

	religion="rhllor"
	culture="lysene"

	father=115300546
	mother=215300546

	7267.1.1 = {birth="7267.1.1"}
	7283.1.1 = {add_trait=trained_warrior}
	7285.1.1 = {add_spouse=217300546}
	7327.1.1 = {death="7327.1.1"}
}
217300546 = {
	name="Talea"
	female=yes

	religion="rhllor"
	culture="lysene"

	7267.1.1 = {birth="7267.1.1"}
	7327.1.1 = {death="7327.1.1"}
}
118300546 = {
	name="Izembaro"	# a lord
	dynasty=300546

	religion="rhllor"
	culture="lysene"

	father=117300546
	mother=217300546

	7292.1.1 = {birth="7292.1.1"}
	7308.1.1 = {add_trait=poor_warrior}
	7310.1.1 = {add_spouse=218300546}
	7349.1.1 = {death="7349.1.1"}
}
218300546 = {
	name="Cossoma"
	female=yes

	religion="rhllor"
	culture="lysene"

	7292.1.1 = {birth="7292.1.1"}
	7349.1.1 = {death="7349.1.1"}
}
119300546 = {
	name="Tycho"	# not a lord
	dynasty=300546

	religion="rhllor"
	culture="lysene"

	father=117300546
	mother=217300546

	7295.1.1 = {birth="7295.1.1"}
	7311.1.1 = {add_trait=trained_warrior}
	7375.1.1 = {death="7375.1.1"}
}
120300546 = {
	name="Ferrego"	# not a lord
	dynasty=300546

	religion="rhllor"
	culture="lysene"

	father=117300546
	mother=217300546

	7297.1.1 = {birth="7297.1.1"}
	7313.1.1 = {add_trait=poor_warrior}
	7361.1.1 = {death="7361.1.1"}
}
121300546 = {
	name="Yna"	# not a lord
	female=yes
	dynasty=300546

	religion="rhllor"
	culture="lysene"

	father=118300546
	mother=218300546

	7318.1.1 = {birth="7318.1.1"}
	7374.1.1 = {death="7374.1.1"}
}
122300546 = {
	name="Tycho"	# a lord
	dynasty=300546

	religion="rhllor"
	culture="lysene"

	father=118300546
	mother=218300546

	7320.1.1 = {birth="7320.1.1"}
	7336.1.1 = {add_trait=poor_warrior}
	7374.1.1 = {death="7374.1.1"}
}
123300546 = {
	name="Ezzere"	# not a lord
	female=yes
	dynasty=300546

	religion="rhllor"
	culture="lysene"

	father=118300546
	mother=218300546

	7322.1.1 = {birth="7322.1.1"}
	7358.1.1 = {death="7358.1.1"}
}
124300546 = {
	name="Lanna"	# not a lord
	female=yes
	dynasty=300546

	religion="rhllor"
	culture="lysene"

	father=118300546
	mother=218300546

	7325.1.1 = {birth="7325.1.1"}
	7394.1.1 = {death="7394.1.1"}
}
125300546 = {
	name="Gyleno"	# a lord
	dynasty=300546

	religion="rhllor"
	culture="lysene"

	father=122300546

	7351.1.1 = {birth="7351.1.1"}
	7367.1.1 = {add_trait=poor_warrior}
	7370.1.1 = {add_spouse=225300546}
}
225300546 = {
	name="Nyssa"
	female=yes

	religion="rhllor"
	culture="lysene"


	7351.1.1 = {birth="7351.1.1"}
}
126300546 = {
	name="Yorko"	# not a lord
	dynasty=300546

	religion="rhllor"
	culture="lysene"

	father=122300546

	7353.1.1 = {birth="7353.1.1"}
	7369.1.1 = {add_trait=poor_warrior}
}
151300546 = {
	name="Kohrane"	# canon
	dynasty=300546

	religion="rhllor"
	culture="lysene"

	father=125300546
	mother=225300546

	7376.1.1 = {birth="7376.1.1"}
}
132300546 = {
	name="Tycho"	# not a lord
	dynasty=300546

	religion="rhllor"
	culture="lysene"

	father=125300546
	mother=225300546

	7380.1.1 = {birth="7380.1.1"}
}

###  House Rogare

150300539 = {
	name="Nyessos"	# a lord
	dynasty=55999

	religion="rhllor"
	culture="lysene"

	7060.1.1 = {birth="7060.1.1"}
	7076.1.1 = { add_trait="truth" }
	7082.1.1 = {add_spouse=250300539}
	7129.1.1 = {death="7129.1.1"}
}
250300539 = {
	name="Bellegre"
	female=yes

	religion="rhllor"
	culture="lysene"

	7066.1.1 = {birth="7066.1.1"}
	7130.1.1 = {death="7130.1.1"}
}
100300539 = {
	name="Doniphos"	# a lord
	dynasty=55999

	religion="rhllor"
	culture="lysene"

	father=150300539
	mother=250300539

	7090.1.1 = {birth="7090.1.1"}
	7122.1.1 = {add_trait=poor_warrior}
	7124.1.1 = {add_spouse=200300539}
	7129.1.1 = { add_trait="truth" }
	7175.1.1 = {death="7175.1.1"}
}
200300539 = {
	name="Betharios"
	female=yes

	religion="rhllor"
	culture="lysene"

	7090.1.1 = {birth="7090.1.1"}
	7175.1.1 = {death="7175.1.1"}
}
101300539 = {
	name="Beqqo"	# not a lord
	dynasty=55999

	religion="rhllor"
	culture="lysene"

	father=100300539
	mother=200300539

	7130.1.1 = {birth="7130.1.1"}
	7146.1.1 = {add_trait=master_warrior}
	7155.1.1 = {death="7155.1.1"}
}
102300539 = {
	name="Serala"	# not a lord
	female=yes
	dynasty=55999

	religion="rhllor"
	culture="lysene"

	father=100300539
	mother=200300539

	7129.1.1 = {birth="7129.1.1"}
	7181.1.1 = {death="7181.1.1"}
}
103300539 = {
	name="Syrea"	# not a lord
	female=yes
	dynasty=55999

	religion="rhllor"
	culture="lysene"

	father=100300539
	mother=200300539

	7132.1.1 = {birth="7132.1.1"}
	7183.1.1 = {death="7183.1.1"}
}
104300539 = {
	name="Orbelo"	# a lord
	dynasty=55999

	religion="rhllor"
	culture="lysene"

	father=100300539
	mother=200300539

	7134.1.1 = {birth="7134.1.1"}
	7150.1.1 = {add_trait=skilled_warrior}
	7152.1.1 = {add_spouse=204300539}
	7175.1.1 = { add_trait="truth" }
	7177.1.1 = {death="7177.1.1"}
}
204300539 = {
	name="Gylenios"
	female=yes

	religion="rhllor"
	culture="lysene"

	7134.1.1 = {birth="7134.1.1"}
	7177.1.1 = {death="7177.1.1"}
}
105300539 = {
	name="Orbela"	# not a lord
	female=yes
	dynasty=55999

	religion="rhllor"
	culture="lysene"

	father=100300539
	mother=200300539

	7135.1.1 = {birth="7135.1.1"}
	7192.1.1 = {death="7192.1.1"}
}
106300539 = {
	name="Oro"	# a lord
	dynasty=55999

	religion="rhllor"
	culture="lysene"

	father=104300539
	mother=204300539

	7155.1.1 = {birth="7155.1.1"}
	7171.1.1 = {add_trait=skilled_warrior}
	7173.1.1 = {add_spouse=206300539}
	7177.1.1 = { add_trait="truth" }
	7215.1.1 = {death="7215.1.1"}
}
206300539 = {
	name="Meralyia"
	female=yes

	religion="rhllor"
	culture="lysene"

	7155.1.1 = {birth="7155.1.1"}
	7215.1.1 = {death="7215.1.1"}
}
107300539 = {
	name="Gyleno"	# a lord
	dynasty=55999

	religion="rhllor"
	culture="lysene"

	father=106300539
	mother=206300539

	7176.1.1 = {birth="7176.1.1"}
	7192.1.1 = {add_trait=poor_warrior}
	7195.1.1 = {add_spouse=207300539}
	7215.1.1 = { add_trait="truth" }
	7225.1.1 = {death="7225.1.1"}
}
207300539 = {
	name="Myrmellios"
	female=yes

	religion="rhllor"
	culture="lysene"

	7176.1.1 = {birth="7176.1.1"}
	7225.1.1 = {death="7225.1.1"}
}
108300539 = {
	name="Lysandro"	# a lord
	dynasty=55999
	
	stewardship=8
	martial=2
	diplomacy=7
	intrigue=3
	learning=3

	religion="rhllor"
	culture="high_valyrian"

	father=107300539
	mother=207300539
	
	add_trait=ambitious
	add_trait=ruthless
	add_trait=gregarious
	add_trait=midas_touched
	add_trait=quick

	7195.1.1 = {
		birth="7195.1.1"
		effect = { culture = lysene }
	}
	7211.1.1 = {add_trait=trained_warrior}
	7214.1.1 = {add_spouse=208300539}
	7225.1.1 = { add_trait="truth" }
	7230.1.1 = { 
		give_nickname=nick_the_magnificent
	}
	7240.1.1 = {
		culture = lysene
		death={
			death_reason = death_murder_unknown
		}
	}
}
208300539 = {
	name="Lothea"
	female=yes

	religion="rhllor"
	culture="lysene"

	7195.1.1 = {birth="7195.1.1"}
	7240.1.1 = {death="7240.1.1"}
}
109300539 = {
	name="Drazenko"	# Prince Consort of Dorne
	dynasty=55999
	
	diplomacy=8

	religion="rhllor"
	culture="high_valyrian"

	father=107300539
	mother=207300539
	
	add_trait=ambitious
	add_trait=grey_eminence

	7200.1.1 = {
		birth="7200.1.1"
		effect = { culture = lysene }
	}
	7216.1.1 = {add_trait=skilled_warrior}
	7240.1.1 = {
		culture = lysene
		death={
			death_reason = death_murder_unknown
		}
	}
}
110300539 = {
	name="Lysaro"	# A Lord
	dynasty=55999
	
	stewardship=4
	diplomacy=1
	intrigue=3
	martial=3
	learning=4

	religion="rhllor"
	culture="high_valyrian"

	father=108300539
	mother=208300539
	
	add_trait=indulgent_wastrel
	add_trait=greedy
	add_trait=proud
	add_trait=ambitious
	add_trait=wroth
	add_trait=rude

	7214.1.1 = {
		birth="7214.1.1"
		effect = { culture = lysene }
	}
	7235.1.1 = {
		effect = {
			if = {
				limit = { 
					is_ruler = no 
					NOT = { year = 8139 }
				}
				e_iron_throne = { holder_scope = { ROOT = { move_character = PREV } } }
			}
		}
	}
	7245.1.1 = {
		culture = lysene
		death = {
			death_reason = death_execution #scourged to death
		}
	}
}
159300539 = {
	name="Larra"	# Married Viserys II Targaryen
	female=yes
	dynasty=55999
	dna="akaiangicdp"
	properties="0e00"

	religion="rhllor"
	culture="high_valyrian"
	
	add_trait=fair
	add_trait=shy
	add_trait=proud

	father=108300539
	mother=208300539

	7215.1.1 = {
		birth="7215.1.1"
		effect = { culture = lysene }
	}
	7239.6.1 = {
		effect = {
			b_rogare = { holder_scope = { ROOT = { move_character = PREV } } }
		}
	}
	7245.1.1 = {
		culture = lysene
		death="7245.1.1"
	}
}
112300539 = {
	name="Moredo"	# not a lord
	dynasty=55999
	
	martial=7

	religion="rhllor"
	culture="high_valyrian"

	father=108300539
	mother=208300539
	
	add_trait=skilled_tactician
	add_trait=diligent
	add_trait=just

	7221.1.1 = {
		birth="7221.1.1"
		effect = { culture = lysene }
	}
	7237.1.1 = {
		add_trait=skilled_warrior
		effect = {
			if = {
				limit = { 
					is_ruler = no 
					NOT = { year = 8139 }
				}
				e_iron_throne = { holder_scope = { ROOT = { move_character = PREV } } }
			}
		}
	}
	7239.1.1 = {add_spouse=212300539}
	7240.1.1 = { add_trait="truth" }
	7265.1.1 = {
		culture = lysene
		death="7265.1.1"
	}
}
212300539 = {
	name="Meralyia"
	female=yes

	religion="rhllor"
	culture="lysene"

	7221.1.1 = {birth="7221.1.1"}
	7265.1.1 = {death="7265.1.1"}
}
113300539 = {
	name="Qarria"	# not a lord
	female=yes
	dynasty=55999

	religion="rhllor"
	culture="lysene"

	father=112300539
	mother=212300539

	7247.1.1 = {birth="7247.1.1"}
	7299.1.1 = {death = {death_reason = death_accident}}
}
114300539 = {
	name="Orbelo"	# a lord
	dynasty=55999

	religion="rhllor"
	culture="lysene"

	father=112300539
	mother=212300539

	7248.1.1 = {birth="7248.1.1"}
	7260.1.1 = { add_trait="truth" }
	7264.1.1 = {add_trait=skilled_warrior}
	7266.1.1 = {add_spouse=214300539}
	7309.1.1 = {death="7309.1.1"}
}
214300539 = {
	name="Nohia"
	female=yes

	religion="rhllor"
	culture="lysene"

	7248.1.1 = {birth="7248.1.1"}
	7309.1.1 = {death="7309.1.1"}
}
115300539 = {
	name="Tagganaria"	# not a lord
	female=yes
	dynasty=55999

	religion="rhllor"
	culture="lysene"

	father=112300539
	mother=212300539

	7251.1.1 = {birth="7251.1.1"}
	7330.1.1 = {death="7330.1.1"}
}
116300539 = {
	name="Ternesia"	# not a lord
	female=yes
	dynasty=55999

	religion="rhllor"
	culture="lysene"

	father=112300539
	mother=212300539

	7252.1.1 = {birth="7252.1.1"}
	7285.1.1 = {death="7285.1.1"}
}
117300539 = {
	name="Ollo"	# not a lord
	dynasty=55999

	religion="rhllor"
	culture="lysene"

	father=114300539
	mother=214300539

	7267.1.1 = {birth="7267.1.1"}
	7280.1.1 = {death = {death_reason = death_murder}}
}
118300539 = {
	name="Denyo"	# not a lord
	dynasty=55999

	religion="rhllor"
	culture="lysene"

	father=114300539
	mother=214300539

	7269.1.1 = {birth="7269.1.1"}
	7285.1.1 = {add_trait=skilled_warrior}
	7304.1.1 = {death="7304.1.1"}
}
119300539 = {
	name="Moreo"	# a lord
	dynasty=55999

	religion="rhllor"
	culture="lysene"

	father=114300539
	mother=214300539

	7271.1.1 = {birth="7271.1.1"}
	7287.1.1 = {add_trait=trained_warrior}
	7289.1.1 = {add_spouse=219300539}
	7309.1.1 = { add_trait="truth" }
	7333.1.1 = {death="7333.1.1"}
}
219300539 = {
	name="Lucerre"
	female=yes

	religion="rhllor"
	culture="lysene"

	7271.1.1 = {birth="7271.1.1"}
	7333.1.1 = {death="7333.1.1"}
}
120300539 = {
	name="Gyleno"	# a lord
	dynasty=55999

	religion="rhllor"
	culture="lysene"

	father=119300539
	mother=219300539

	7291.1.1 = {birth="7291.1.1"}
	7307.1.1 = {add_trait=poor_warrior}
	7309.1.1 = {add_spouse=220300539}
	7333.1.1 = { add_trait="truth" }
	7352.1.1 = {death="7352.1.1"}
}
220300539 = {
	name="Syrea"
	female=yes

	religion="rhllor"
	culture="lysene"

	7291.1.1 = {birth="7291.1.1"}
	7352.1.1 = {death="7352.1.1"}
}
121300539 = {
	name="Qarria"	# not a lord
	female=yes
	dynasty=55999

	religion="rhllor"
	culture="lysene"

	father=119300539
	mother=219300539

	7293.1.1 = {birth="7293.1.1"}
	7339.1.1 = {death="7339.1.1"}
}
122300539 = {
	name="Yorka"	# not a lord
	female=yes
	dynasty=55999

	religion="rhllor"
	culture="lysene"

	father=119300539
	mother=219300539

	7295.1.1 = {birth="7295.1.1"}
	7313.1.1 = {death="7313.1.1"}
}
123300539 = {
	name="Orbelo"	# a lord
	dynasty=55999

	religion="rhllor"
	culture="lysene"

	father=120300539
	mother=220300539

	7318.1.1 = {birth="7318.1.1"}
	7334.1.1 = {add_trait=trained_warrior}
	7336.1.1 = {add_spouse=223300539}
	7352.1.1 = { add_trait="truth" }
	7360.1.1 = {death="7360.1.1"}
}
223300539 = {
	name="Qarria"
	female=yes

	religion="rhllor"
	culture="lysene"

	7318.1.1 = {birth="7318.1.1"}
	7360.1.1 = {death="7360.1.1"}
}
124300539 = {
	name="Gylora"	# not a lord
	female=yes
	dynasty=55999

	religion="rhllor"
	culture="lysene"

	father=120300539
	mother=220300539

	7319.1.1 = {birth="7319.1.1"}
	7370.1.1 = {death="7370.1.1"}
}
125300539 = {
	name="Byan"	# a lord
	dynasty=55999

	religion="rhllor"
	culture="lysene"

	father=123300539
	mother=223300539

	7353.1.1 = {birth="7353.1.1"}
	7360.1.1 = { add_trait="truth" }
	7369.1.1 = {add_trait=trained_warrior}
	7375.1.1 = {add_spouse=225300539}
}
225300539 = {
	name="Serra"
	female=yes

	religion="rhllor"
	culture="lysene"

	7353.1.1 = {birth="7353.1.1"}
}
126300539 = {
	name="Syrio"	# not a lord
	dynasty=55999

	religion="rhllor"
	culture="lysene"

	father=123300539
	mother=223300539

	7356.1.1 = {birth="7356.1.1"}
	7372.1.1 = {add_trait=skilled_warrior}
}
151300539 = {
	name="Gyleno"
	dynasty=55999

	religion="rhllor"
	culture="lysene"

	father=125300539
	mother=225300539

	7378.1.1 = {birth="7378.1.1"}
}
152300539 = {
	name="Mellario"	
	female=yes
	dynasty=55999

	religion="rhllor"
	culture="lysene"

	father=125300539
	mother=225300539

	7381.1.1 = {birth="7381.1.1"}
}
153300539 = {
	name="Tybaro"
	dynasty=55999

	religion="rhllor"
	culture="lysene"

	father=125300539
	mother=225300539

	7384.1.1 = {birth="7384.1.1"}
}

### House Lohar

150300523 = {
	name="Maelys"	# a lord
	dynasty=300523

	religion="weeping_lady"
	culture="lysene"

	7060.1.1 = {birth="7060.1.1"}
	7082.1.1 = {add_spouse=250300523}
	7118.1.1 = {death="7118.1.1"}
}
250300523 = {
	name="Shiera"
	female=yes

	religion="weeping_lady"
	culture="lysene"

	7063.1.1 = {birth="7063.1.1"}
	7124.1.1 = {death="7124.1.1"}
}
100300523 = {
	name="Beqqo"	# a lord
	dynasty=300523

	religion="weeping_lady"
	culture="lysene"

	father=150300523
	mother=250300523

	7093.1.1 = {birth="7093.1.1"}
	7128.1.1 = {add_trait=poor_warrior}
	7130.1.1 = {add_spouse=200300523}
	7180.1.1 = {death="7180.1.1"}
}
200300523 = {
	name="Moredea"
	female=yes

	religion="weeping_lady"
	culture="lysene"

	7093.1.1 = {birth="7093.1.1"}
	7180.1.1 = {death="7180.1.1"}
}
101300523 = {
	name="Talea"	# not a lord
	female=yes
	dynasty=300523

	religion="weeping_lady"
	culture="lysene"

	father=100300523
	mother=200300523

	7131.1.1 = {birth="7131.1.1"}
	7160.1.1 = {death="7160.1.1"}
}
102300523 = {
	name="Allaquo"	# a lord
	dynasty=300523

	religion="weeping_lady"
	culture="lysene"

	father=100300523
	mother=200300523

	7133.1.1 = {birth="7133.1.1"}
	7149.1.1 = {add_trait=trained_warrior}
	7151.1.1 = {add_spouse=202300523}
	7186.1.1 = {death="7186.1.1"}
}
202300523 = {
	name="Bellonara"
	female=yes

	religion="weeping_lady"
	culture="lysene"

	7133.1.1 = {birth="7133.1.1"}
	7186.1.1 = {death="7186.1.1"}
}
103300523 = {
	name="Pynto"	# a lord
	dynasty=300523

	religion="weeping_lady"
	culture="lysene"

	father=102300523
	mother=202300523

	7153.1.1 = {birth="7153.1.1"}
	7169.1.1 = {add_trait=trained_warrior}
	7171.1.1 = {add_spouse=203300523}
	7215.1.1 = {death = {death_reason = death_murder}}
}
203300523 = {
	name="Alia"
	female=yes

	religion="weeping_lady"
	culture="lysene"

	7153.1.1 = {birth="7153.1.1"}
	7215.1.1 = {death = {death_reason = death_murder}}
}
104300523 = {
	name="Umma"	# not a lord
	female=yes
	dynasty=300523

	religion="weeping_lady"
	culture="lysene"

	father=102300523
	mother=202300523

	7155.1.1 = {birth="7155.1.1"}
	7180.1.1 = {death="7180.1.1"}
}
105300523 = {
	name="Myrmellios"	# not a lord
	female=yes
	dynasty=300523

	religion="weeping_lady"
	culture="lysene"

	father=103300523
	mother=203300523

	7188.1.1 = {birth="7188.1.1"}
	7221.1.1 = {death="7221.1.1"}
}
106300523 = {
	name="Sharako"	# a lord, canon
	dynasty=300523
	
	martial = 9

	religion="weeping_lady"
	culture="lysene"

	father=103300523
	mother=203300523
	
	add_trait = skilled_tactician

	7179.1.1 = {birth="7179.1.1"}
	7205.1.1 = {add_trait=skilled_warrior}
	7207.1.1 = {add_spouse=206300523}
	7230.1.1 = {death="7230.1.1"}
}
206300523 = {
	name="Syrea"
	female=yes

	religion="weeping_lady"
	culture="lysene"

	7179.1.1 = {birth="7179.1.1"}
	7233.1.1 = {death="7233.1.1"}
}
107300523 = {
	name="Tregar"	# not a lord
	dynasty=300523

	religion="weeping_lady"
	culture="lysene"

	father=103300523
	mother=203300523

	7181.1.1 = {birth="7181.1.1"}
	7197.1.1 = {add_trait=poor_warrior}
	7199.1.1 = {add_spouse=207300523}
	7213.1.1 = {death="7213.1.1"}
}
207300523 = {
	name="Nohia"
	female=yes

	religion="weeping_lady"
	culture="lysene"

	7181.1.1 = {birth="7181.1.1"}
	7213.1.1 = {death="7213.1.1"}
}
108300523 = {
	name="Meralyn"	# not a lord
	dynasty=300523

	religion="weeping_lady"
	culture="lysene"

	father=106300523
	mother=206300523

	7222.1.1 = {birth="7222.1.1"}
	7238.1.1 = {add_trait=skilled_warrior}
	7290.1.1 = {death="7290.1.1"}
}
109300523 = {
	name="Talea"	# not a lord
	female=yes
	dynasty=300523

	religion="weeping_lady"
	culture="lysene"

	father=106300523
	mother=206300523

	7225.1.1 = {birth="7225.1.1"}
	7273.1.1 = {death="7273.1.1"}
}
110300523 = {
	name="Mellario"	# a lord
	female=yes
	dynasty=300523

	religion="weeping_lady"
	culture="lysene"

	father=107300523
	mother=207300523

	7205.1.1 = {birth="7205.1.1"}
	7266.1.1 = { death = { death_reason = death_murder } }
}
111300523 = {
	name="Tregar"	# a lord
	dynasty=300523

	religion="weeping_lady"
	culture="lysene"

	father=107300523
	mother=207300523

	7209.1.1 = {birth="7209.1.1"}
	7225.1.1 = {add_trait=trained_warrior}
	7227.1.1 = {add_spouse=211300523}
	7260.1.1 = {death="7260.1.1"}
}
211300523 = {
	name="Cossoma"
	female=yes

	religion="weeping_lady"
	culture="lysene"

	7209.1.1 = {birth="7209.1.1"}
	7267.1.1 = {death="7267.1.1"}
}
112300523 = {
	name="Illyrio"	# a lord
	dynasty=300523

	religion="weeping_lady"
	culture="lysene"

	father=111300523
	mother=211300523

	7248.1.1 = {birth="7248.1.1"}
	7268.1.1 = {add_trait=poor_warrior}
	7270.1.1 = {add_spouse=212300523}
	7308.1.1 = {death="7308.1.1"}
}
212300523 = {
	name="Gylenios"
	female=yes

	religion="weeping_lady"
	culture="lysene"

	7248.1.1 = {birth="7248.1.1"}
	7308.1.1 = {death="7308.1.1"}
}
113300523 = {
	name="Oro"	# not a lord
	dynasty=300523

	religion="weeping_lady"
	culture="lysene"

	father=111300523
	mother=211300523

	7258.1.1 = {birth="7258.1.1"}
	7274.1.1 = {add_trait=poor_warrior}
	7276.1.1 = {add_spouse=213300523}
	7315.1.1 = {death="7315.1.1"}
}
213300523 = {
	name="Mera"
	female=yes

	religion="weeping_lady"
	culture="lysene"

	7258.1.1 = {birth="7258.1.1"}
	7315.1.1 = {death="7315.1.1"}
}
114300523 = {
	name="Tycho"	# a lord
	dynasty=300523

	religion="weeping_lady"
	culture="lysene"

	father=112300523
	mother=212300523

	7270.1.1 = {birth="7270.1.1"}
	7286.1.1 = {add_trait=skilled_warrior}
	7288.1.1 = {add_spouse=214300523}
	7332.1.1 = {death="7332.1.1"}
}
214300523 = {
	name="Betharios"
	female=yes

	religion="weeping_lady"
	culture="lysene"

	7270.1.1 = {birth="7270.1.1"}
	7332.1.1 = {death="7332.1.1"}
}
115300523 = {
	name="Tycha"	# not a lord
	female=yes
	dynasty=300523

	religion="weeping_lady"
	culture="lysene"

	father=112300523
	mother=212300523

	7273.1.1 = {birth="7273.1.1"}
	7332.1.1 = {death="7332.1.1"}
}
116300523 = {
	name="Beqqo"	# not a lord
	dynasty=300523

	religion="weeping_lady"
	culture="lysene"

	father=114300523
	mother=214300523

	7301.1.1 = {birth="7301.1.1"}
	7316.1.1 = {add_spouse=216300523}
	7319.1.1 = {death = {death_reason = death_accident}}
}
216300523 = {
	name="Rogga"
	female=yes

	religion="weeping_lady"
	culture="lysene"

	7301.1.1 = {birth="7301.1.1"}
	7319.1.1 = {death="7319.1.1"}
}
117300523 = {
	name="Yna"	# not a lord
	female=yes
	dynasty=300523

	religion="weeping_lady"
	culture="lysene"

	father=114300523
	mother=214300523

	7303.1.1 = {birth="7303.1.1"}
	7332.1.1 = {death = {death_reason = death_murder}}
}
118300523 = {
	name="Tregar"	# a lord
	dynasty=300523

	religion="weeping_lady"
	culture="lysene"

	father=114300523
	mother=214300523

	7304.1.1 = {birth="7304.1.1"}
	7320.1.1 = {add_trait=poor_warrior}
	7322.1.1 = {add_spouse=218300523}
	7344.1.1 = {death="7344.1.1"}
}
218300523 = {
	name="Lothea"
	female=yes

	religion="weeping_lady"
	culture="lysene"

	7304.1.1 = {birth="7304.1.1"}
	7344.1.1 = {death="7344.1.1"}
}
119300523 = {
	name="Ezzere"	# not a lord
	female=yes
	dynasty=300523

	religion="weeping_lady"
	culture="lysene"

	father=114300523
	mother=214300523

	7305.1.1 = {birth="7305.1.1"}
	7325.1.1 = {death="7325.1.1"}
}
120300523 = {
	name="Lothea"	# not a lord
	female=yes
	dynasty=300523

	religion="weeping_lady"
	culture="lysene"

	father=118300523
	mother=218300523

	7325.1.1 = {birth="7325.1.1"}
}
121300523 = {
	name="Gyleno"	# a lord
	dynasty=300523

	religion="weeping_lady"
	culture="lysene"

	father=118300523
	mother=218300523

	7326.1.1 = {birth="7326.1.1"}
	7342.1.1 = {add_trait=poor_warrior}
	7344.1.1 = {add_spouse=221300523}
	7377.1.1 = {death="7377.1.1"}
}
221300523 = {
	name="Taena"
	female=yes

	religion="weeping_lady"
	culture="lysene"

	7326.1.1 = {birth="7326.1.1"}
	7377.1.1 = {death="7377.1.1"}
}
122300523 = {
	name="Illyrio"	# a lord
	dynasty=300523

	religion="weeping_lady"
	culture="lysene"

	father=121300523
	mother=221300523

	7360.1.1 = {birth="7360.1.1"}
	7376.1.1 = {add_trait=skilled_warrior}
	7381.1.1 = {add_spouse=222300523}
}
222300523 = {
	name="Bellagere"
	female=yes

	religion="weeping_lady"
	culture="lysene"

	7360.1.1 = {birth="7360.1.1"}
}
123300523 = {
	name="Bellonara"	# not a lord
	female=yes
	dynasty=300523

	religion="weeping_lady"
	culture="lysene"

	father=121300523
	mother=221300523

	7361.1.1 = {birth="7361.1.1"}
}
124300523 = {
	name="Orbela"	# not a lord
	female=yes
	dynasty=300523

	religion="weeping_lady"
	culture="lysene"

	father=121300523
	mother=221300523

	7362.1.1 = {birth="7362.1.1"}
	7411.1.1 = {death="7411.1.1"}
}
125300523 = {
	name="Khorane"	# not a lord
	dynasty=300523

	religion="weeping_lady"
	culture="lysene"

	father=121300523
	mother=221300523

	7365.1.1 = {birth="7365.1.1"}
	7381.1.1 = {add_trait=poor_warrior}
}
126300523 = {
	name="Terrios"	# not a lord
	female=yes
	dynasty=300523

	religion="weeping_lady"
	culture="lysene"

	father=121300523
	mother=221300523

	7367.1.1 = {birth="7367.1.1"}
	7377.1.1 = {death="7377.1.1"}
}
127300523 = {
	name="Ternessio"
	dynasty=300523

	religion="weeping_lady"
	culture="lysene"

	father=122300523
	mother=222300523

	7383.1.1 = {birth="7383.1.1"}
}

###Pirates of the Stepstones###
#Sunstone
100982367 = {
	name="Mero"	# not a lord
	dynasty=982367

	religion="pirate"
	culture="lysene"

	7075.1.1 = {birth="7075.1.1"}
	7091.1.1 = {add_trait=trained_warrior}
	7124.1.1 = {death="7124.1.1"}
}
101982367 = {
	name="Denyo"	# a lord
	dynasty=982367

	religion="pirate"
	culture="lysene"

	father=100982367

	7107.1.1 = {birth="7107.1.1"}
	7123.1.1 = {add_trait=trained_warrior}
	7146.1.1 = {death="7146.1.1"}
}
104982367 = {
	name="Yorko"	# a lord
	dynasty=982367

	religion="pirate"
	culture="lysene"

	father=101982367

	7130.1.1 = {birth="7130.1.1"}
	7146.1.1 = {add_trait=skilled_warrior}
	7189.1.1 = {death="7189.1.1"}
}
105982367 = {
	name="Ternesio"	# a lord
	dynasty=982367

	religion="pirate"
	culture="lysene"

	father=104982367

	7157.1.1 = {birth="7157.1.1"}
	7173.1.1 = {add_trait=poor_warrior}
	7237.1.1 = {death="7237.1.1"}
}
109982367 = {
	name="Allaquo"	# a lord
	dynasty=982367

	religion="pirate"
	culture="lysene"

	father=105982367

	7177.1.1 = {birth="7177.1.1"}
	7193.1.1 = {add_trait=trained_warrior}
	7244.1.1 = {death="7244.1.1"}
}
112982367 = {
	name="Tycho"	# a lord
	dynasty=982367

	religion="pirate"
	culture="lysene"

	father=109982367

	7215.1.1 = {birth="7215.1.1"}
	7231.1.1 = {add_trait=skilled_warrior}
	7260.1.1 = {death="7260.1.1"}
}
113982367 = {
	name="Ordello"	# a lord
	dynasty=982367

	religion="pirate"
	culture="lysene"

	father=112982367

	7237.1.1 = {birth="7237.1.1"}
	7253.1.1 = {add_trait=poor_warrior}
	7275.1.1 = {death = {death_reason = death_murder}}
}
114982367 = {
	name="Sallodhor"	# a lord
	dynasty=982367

	religion="pirate"
	culture="lysene"

	father=113982367

	7256.1.1 = {birth="7256.1.1"}
	7272.1.1 = {add_trait=skilled_warrior}
	7302.1.1 = {death = {death_reason = death_murder}}
}
115982367 = {
	name="Meralyn"	# a lord
	dynasty=982367

	religion="pirate"
	culture="lysene"

	father=114982367

	7280.1.1 = {birth="7280.1.1"}
	7296.1.1 = {add_trait=poor_warrior}
	7334.1.1 = {death="7334.1.1"}
}
116982367 = {
	name="Daario"	# a lord
	dynasty=982367

	religion="pirate"
	culture="lysene"

	father=115982367

	7308.1.1 = {birth="7308.1.1"}
	7324.1.1 = {add_trait=master_warrior}
	7354.1.1 = {death="7354.1.1"}
}
117982367 = {
	name="Tormo"	# a lord
	dynasty=982367

	religion="pirate"
	culture="lysene"

	father=116982367

	7334.1.1 = {birth="7334.1.1"}
	7350.1.1 = {add_trait=poor_warrior}
}
118982367 = {
	name="Ferrego"	# not a lord
	dynasty=982367

	religion="pirate"
	culture="lysene"

	father=117982367

	7364.1.1 = {birth="7364.1.1"}
	7380.1.1 = {add_trait=trained_warrior}
}
###House Saan###
100982370 = {
	name="Lysono"	# a lord
	dynasty=982370

	religion="pirate"
	culture="lysene"
	
	add_trait = ruthless
	add_trait = tough_soldier

	7075.1.1 = {birth="7075.1.1"}
	7091.1.1 = {add_trait=trained_warrior}
	7093.1.1 = {add_spouse=400982370}
	7124.1.1 = {death="7124.1.1"}
}
400982370 = {
	name="Orbela"
	female=yes

	religion="pirate"
	culture="lysene"

	7075.1.1 = {birth="7075.1.1"}
	7124.1.1 = {death="7124.1.1"}
}
101982370 = {
	name="Salassor"	# a lord
	dynasty=982370

	religion="pirate"
	culture="lysene"

	father=100982370
	mother=400982370
	
	add_trait = ruthless
	add_trait = tough_soldier

	7107.1.1 = {birth="7107.1.1"}
	7123.1.1 = {add_trait=trained_warrior}
	7125.1.1 = {add_spouse=401982370}
	7157.1.1 = {death="7157.1.1"}
}
401982370 = {
	name="Qarria"
	female=yes

	religion="pirate"
	culture="lysene"

	7107.1.1 = {birth="7107.1.1"}
	7157.1.1 = {death="7157.1.1"}
}
102982370 = {
	name="Groleo"	# not a lord
	dynasty=982370

	religion="pirate"
	culture="lysene"

	father=100982370
	mother=400982370

	7109.1.1 = {birth="7109.1.1"}
	7125.1.1 = {add_trait=trained_warrior}
	7180.1.1 = {death = {death_reason = death_accident}}
}
103982370 = {
	name="Jaqea"	# not a lord
	female=yes
	dynasty=982370

	religion="pirate"
	culture="lysene"

	father=101982370
	mother=401982370

	7142.1.1 = {birth="7142.1.1"}
	7166.1.1 = {death="7166.1.1"}
}
105982370 = {
	name="Collio"	# a lord
	dynasty=982370

	religion="pirate"
	culture="lysene"

	father=101982370
	mother=401982370

	7147.1.1 = {birth="7147.1.1"}
	7163.1.1 = {add_trait=poor_warrior}
	7165.1.1 = {add_spouse=405982370}
	7215.1.1 = {death="7215.1.1"}
}
405982370 = {
	name="Betharios"
	female=yes

	religion="pirate"
	culture="lysene"

	7147.1.1 = {birth="7147.1.1"}
	7215.1.1 = {death="7215.1.1"}
}
106982370 = {
	name="Tregar"	# a lord
	dynasty=982370

	religion="pirate"
	culture="lysene"

	father=105982370
	mother=405982370

	7175.1.1 = {birth="7175.1.1"}
	7191.1.1 = {add_trait=skilled_warrior}
	7193.1.1 = {add_spouse=406982370}
	7238.1.1 = {death="7238.1.1"}
}
406982370 = {
	name="Ternesia"
	female=yes

	religion="pirate"
	culture="lysene"

	7175.1.1 = {birth="7175.1.1"}
	7238.1.1 = {death="7238.1.1"}
}
107982370 = {
	name="Ferrega"	# not a lord
	female=yes
	dynasty=982370

	religion="pirate"
	culture="lysene"

	father=105982370
	mother=405982370

	7176.1.1 = {birth="7176.1.1"}
	7222.1.1 = {death="7222.1.1"}
}
108982370 = {
	name="Taena"	# not a lord
	female=yes
	dynasty=982370

	religion="pirate"
	culture="lysene"

	father=106982370
	mother=406982370

	7196.1.1 = {birth="7196.1.1"}
	7249.1.1 = {death="7249.1.1"}
}
110982370 = {
	name="Sulleham"	# a lord, semi canon from the MUSH
	dynasty=982370

	religion="pirate"
	culture="lysene"

	father=106982370
	mother=406982370

	7201.1.1 = {birth="7201.1.1"}
	7217.1.1 = {add_trait=skilled_warrior}
	7219.1.1 = {add_spouse=410982370}
	7267.1.1 = {death="7267.1.1"}
}
410982370 = {
	name="Mellario"
	female=yes

	religion="pirate"
	culture="lysene"

	7201.1.1 = {birth="7201.1.1"}
	7267.1.1 = {death="7267.1.1"}
}
150982370 = {
	name="Saathos"	# Canon, Corsair King
	dynasty=982370
	
	martial=5
	stewardship=3
	diplomacy=5
	intrigue=4
	learning=2

	religion="pirate"
	culture="lysene"

	father=106982370
	mother=406982370
	
	add_trait=ambitious
	add_trait=deceitful
	add_trait=brave
	add_trait=skilled_tactician
	
	7202.1.1 = {birth="7202.1.1"}
	7218.1.1 = {add_trait=trained_warrior}
	7255.1.1 = {
		death="7255.1.1"
	}
}
111982370 = {
	name="Gyleno"	# a lord
	dynasty=982370

	religion="pirate"
	culture="lysene"

	father=110982370
	mother=410982370

	7228.1.1 = {birth="7228.1.1"}
	7244.1.1 = {add_trait=trained_warrior}
	7246.1.1 = {add_spouse=411982370}
	7280.1.1 = {death = {death_reason = death_battle}}
}
411982370 = {
	name="Rogga"
	female=yes

	religion="pirate"
	culture="lysene"

	7228.1.1 = {birth="7228.1.1"}
	7280.1.1 = {death="7280.1.1"}
}
112982370 = {
	name="Lysono"	# a lord
	dynasty=982370

	religion="pirate"
	culture="lysene"

	father=111982370
	mother=411982370

	7257.1.1 = {birth="7257.1.1"}
	7273.1.1 = {add_trait=poor_warrior}
	7275.1.1 = {add_spouse=412982370}
	7319.1.1 = {death="7319.1.1"}
}
412982370 = {
	name="Alia"
	female=yes

	religion="pirate"
	culture="lysene"

	7257.1.1 = {birth="7257.1.1"}
	7319.1.1 = {death="7319.1.1"}
}
113982370 = {
	name="Qarria"	# not a lord
	female=yes
	dynasty=982370

	religion="pirate"
	culture="lysene"

	father=111982370
	mother=411982370

	7259.1.1 = {birth="7259.1.1"}
	7308.1.1 = {death="7308.1.1"}
}
114982370 = {
	name="Noho"	# a lord
	dynasty=982370

	religion="pirate"
	culture="lysene"

	father=112982370
	mother=412982370

	7290.1.1 = {birth="7290.1.1"}
	7306.1.1 = {add_trait=skilled_warrior}
	7350.1.1 = {death="7350.1.1"}
}
115982370 = {
	name="Ordello"	# a lord
	dynasty=982370

	religion="pirate"
	culture="lysene"

	father=112982370
	mother=412982370

	7291.1.1 = {birth="7291.1.1"}
	7307.1.1 = {add_trait=trained_warrior}
	7309.1.1 = {add_spouse=415982370}
	7353.1.1 = {death="7353.1.1"}
}
415982370 = {
	name="Rogga"
	female=yes

	religion="pirate"
	culture="lysene"

	7291.1.1 = {birth="7291.1.1"}
	7366.1.1 = {death="7366.1.1"}
}
117982370 = {
	name="Terro"	# not a lord
	dynasty=982370

	religion="pirate"
	culture="lysene"

	father=115982370
	mother=415982370

	7325.1.1 = {birth="7325.1.1"}
	7341.1.1 = {add_trait=poor_warrior}
	7345.1.1 = {death="7345.1.1"}
}
118982370 = {
	name="Samarro"	# a lord
	dynasty=982370

	religion="pirate"
	culture="lysene"
	
	martial=12
	diplomacy=10
	intrigue=8
	stewardship=5
	add_trait="pirate"
	add_trait=greedy
	add_trait=ruthless
	add_trait=proud

	father=115982370
	mother=415982370

	7327.1.1 = {birth="7327.1.1"}
	7343.1.1 = {add_trait=skilled_warrior}
	7345.1.1 = {add_spouse=418982370}
	7359.1.1 = {
		give_nickname = nick_the_last_valyrian
		effect = { 
			set_character_flag = band_of_nine
			liege = {
				reverse_opinion = {
					who = ROOT
					modifier = opinion_band_of_nine
					years = 20
				}
			}	
		} 
	}
	7380.1.1 = {death="7380.1.1"}
}
418982370 = {
	name="Terrios"
	female=yes

	religion="pirate"
	culture="lysene"

	7327.1.1 = {birth="7327.1.1"}
	7380.1.1 = {death="7380.1.1"}
}

### Bloodstone rulers to stop fix targaryen title history
1001639 = {
	name="Syrio"	# not a lord
	dynasty=982375

	religion="pirate"
	culture="lysene"
	
	add_trait = poison

	7065.1.1 = {birth="7065.1.1"}
	7081.1.1 = {add_trait=skilled_warrior}
	7083.1.1 = {add_spouse=4001639}
	7123.1.1 = {death="7123.1.1"}
}
4001639 = {
	name="Syrea"
	female=yes

	religion="pirate"
	culture="lysene"

	7065.1.1 = {birth="7065.1.1"}
	7123.1.1 = {death="7123.1.1"}
}
1011639 = {
	name="Mero"	# a lord
	dynasty=982375

	religion="pirate"
	culture="lysene"

	father=1001639
	mother=4001639

	7094.1.1 = {birth="7094.1.1"}
	7110.1.1 = {add_trait=skilled_warrior}
	7112.1.1 = {add_spouse=4011639}
	7123.1.1 = {add_trait = poison}
	7132.1.1 = {death="7132.1.1"}
}
4011639 = {
	name="Lanna"
	female=yes

	religion="pirate"
	culture="lysene"

	7094.1.1 = {birth="7094.1.1"}
	7132.1.1 = {death="7132.1.1"}
}
1051639 = {
	name="Daario"	# not a lord
	dynasty=982375

	religion="pirate"
	culture="lysene"

	father=1001639
	mother=4001639

	7096.1.1 = {birth="7096.1.1"}
	7112.1.1 = {add_trait=poor_warrior}
	7154.1.1 = {death="7154.1.1"}
}
1061639 = {
	name="Torma"	# not a lord
	female=yes
	dynasty=982375

	religion="pirate"
	culture="lysene"

	father=1011639
	mother=4011639

	7122.1.1 = {birth="7122.1.1"}
	7128.1.1 = {death="7128.1.1"}
}
1071639 = {
	name="Moredo"	# a lord
	dynasty=982375

	religion="pirate"
	culture="lysene"

	father=1011639
	mother=4011639

	7125.1.1 = {birth="7125.1.1"}
	7132.1.1 = {add_trait = poison}
	7141.1.1 = {add_trait=trained_warrior}
	7143.1.1 = {add_spouse=4071639}
	7181.1.1 = {death="7181.1.1"}
}
4071639 = {
	name="Moredea"
	female=yes

	religion="pirate"
	culture="lysene"

	7125.1.1 = {birth="7125.1.1"}
	7181.1.1 = {death="7181.1.1"}
}
1081639 = {
	name="Yorko"	# a lord
	dynasty=982375

	religion="pirate"
	culture="lysene"

	father=1071639
	mother=4071639

	7154.1.1 = {birth="7154.1.1"}
	7170.1.1 = {add_trait=trained_warrior}
	7172.1.1 = {add_spouse=4081639}
	7181.1.1 = {add_trait = poison}
	7229.1.1 = {death="7229.1.1"}
}
4081639 = {
	name="Bellonara"
	female=yes

	religion="pirate"
	culture="lysene"

	7154.1.1 = {birth="7154.1.1"}
	7229.1.1 = {death="7229.1.1"}
}
1091639 = {
	name="Yorka"	# not a lord
	female=yes
	dynasty=982375

	religion="pirate"
	culture="lysene"

	father=1081639
	mother=4081639

	7183.1.1 = {birth="7183.1.1"}
	7239.1.1 = {death="7239.1.1"}
}
1101639 = {
	name="Meralyn"	# a lord
	dynasty=982375

	religion="pirate"
	culture="lysene"

	father=1081639
	mother=4081639

	7186.1.1 = {birth="7186.1.1"}
	7202.1.1 = {add_trait=skilled_warrior}
	7204.1.1 = {add_spouse=4101639}
	7229.1.1 = {add_trait = poison}
	7231.1.1 = {death="7231.1.1"}
}
4101639 = {
	name="Talea"
	female=yes

	religion="pirate"
	culture="lysene"

	7186.1.1 = {birth="7186.1.1"}
	7231.1.1 = {death="7231.1.1"}
}
1111639 = {
	name="Areo"	# a lord
	dynasty=982375

	religion="pirate"
	culture="lysene"

	father=1101639
	mother=4101639

	7215.1.1 = {birth="7215.1.1"}
	7231.1.1 = {
		add_trait=skilled_warrior
		add_trait=poison
	}
	7233.1.1 = {add_spouse=4111639}
	7253.1.1 = {death = {death_reason = death_execution}}
}
4111639 = {
	name="Lucerre"
	female=yes

	religion="pirate"
	culture="lysene"

	7215.1.1 = {birth="7215.1.1"}
	7253.1.1 = {death="7253.1.1"}
}
1121639 = {
	name="Terro"	# not a lord
	dynasty=982375

	religion="pirate"
	culture="lysene"

	father=1101639
	mother=4101639

	7216.1.1 = {birth="7216.1.1"}
	7232.1.1 = {add_trait=poor_warrior}
	7271.1.1 = {death="7271.1.1"}
}
1131639 = {
	name="Orbela"	# not a lord
	female=yes
	dynasty=982375

	religion="pirate"
	culture="lysene"

	father=1111639
	mother=4111639

	7239.1.1 = {birth="7239.1.1"}
	7292.1.1 = {death="7292.1.1"}
}
1141639 = {
	name="Beqqo"	# a lord
	dynasty=982375

	religion="pirate"
	culture="lysene"

	father=1111639
	mother=4111639

	7241.1.1 = {birth="7241.1.1"}
	7253.1.1 = {add_trait = poison}
	7257.1.1 = {add_trait=trained_warrior}
	7259.1.1 = {add_spouse=4141639}
	7285.1.1 = {death = {death_reason = death_battle}}
}
4141639 = {
	name="Brea"
	female=yes

	religion="pirate"
	culture="lysene"

	7241.1.1 = {birth="7241.1.1"}
	7285.1.1 = {death="7285.1.1"}
}
1151639 = {
	name="Moreo"	# a lord
	dynasty=982375

	religion="pirate"
	culture="lysene"

	father=1141639
	mother=4141639

	7259.1.1 = {birth="7259.1.1"}
	7275.1.1 = {add_trait=trained_warrior}
	7285.1.1 = {add_trait = poison}
	7317.1.1 = {death="7317.1.1"}
}
1161639 = {
	name="Jaqen"	# not a lord
	dynasty=982375

	religion="pirate"
	culture="lysene"

	father=1141639
	mother=4141639

	7261.1.1 = {birth="7261.1.1"}
	7277.1.1 = {add_trait=master_warrior}
	7316.1.1 = {death = {death_reason = death_accident}}
}
1171639 = {
	name="Denyo"	# a lord
	dynasty=982375

	religion="pirate"
	culture="lysene"

	father=1141639
	mother=4141639

	7264.1.1 = {birth="7264.1.1"}
	7280.1.1 = {add_trait=trained_warrior}
	7282.1.1 = {add_spouse=4171639}
	7317.1.1 = {add_trait = poison}
	7322.1.1 = {death="7322.1.1"}
}
4171639 = {
	name="Betharios"
	female=yes

	religion="pirate"
	culture="lysene"

	7264.1.1 = {birth="7264.1.1"}
	7322.1.1 = {death="7322.1.1"}
}
1181639 = {
	name="Sallodhor"	# not a lord
	dynasty=982375

	religion="pirate"
	culture="lysene"

	father=1141639
	mother=4141639

	7266.1.1 = {birth="7266.1.1"}
	7282.1.1 = {add_trait=poor_warrior}
	7342.1.1 = {death="7342.1.1"}
}
1191639 = {
	name="Illyrio"	# a lord
	dynasty=982375

	religion="pirate"
	culture="lysene"

	father=1171639
	mother=4171639

	7295.1.1 = {birth="7295.1.1"}
	7311.1.1 = {add_trait=poor_warrior}
	7313.1.1 = {add_spouse=4191639}
	7322.1.1 = {add_trait = poison}
	7351.1.1 = {death = {death_reason = death_accident}}
}
4191639 = {
	name="Ferrega"
	female=yes

	religion="pirate"
	culture="lysene"

	7295.1.1 = {birth="7295.1.1"}
	7360.1.1 = {death="7360.1.1"}
}
10001639 = {
	name="Roro"	# a lord
	dynasty=982375

	religion="pirate"
	culture="lysene"

	father=1191639
	mother=4191639

	7328.1.1 = {birth="7328.1.1"}
	7344.1.1 = {add_trait=skilled_warrior}
	7346.1.1 = {add_spouse=40001639}
	7360.11.11 = {add_trait = poison}
	7381.1.1 = {death = {death_reason = death_battle}}
}
40001639 = {
	name="Narba"
	female=yes

	religion="pirate"
	culture="lysene"

	7328.1.1 = {birth="7328.1.1"}
	7381.1.1 = {death="7381.1.1"}
}
1201639 = {
	name="Sallodhor"	# not a lord
	dynasty=982375

	religion="pirate"
	culture="lysene"

	father=1191639
	mother=4191639

	7330.1.1 = {birth="7330.1.1"}
	7346.1.1 = {add_trait=poor_warrior}
	7383.1.1 = {death="7383.1.1"}
}
1211639 = {
	name="Pynta"	# not a lord
	female=yes
	dynasty=982375

	religion="pirate"
	culture="lysene"

	father=1191639
	mother=4191639

	7331.1.1 = {birth="7331.1.1"}
	7380.1.1 = {death="7380.1.1"}
}
10011639 = {
	name="Lothea"	# not a lord
	female=yes
	dynasty=982375

	religion="pirate"
	culture="lysene"

	father=10001639
	mother=40001639

	7351.1.1 = {birth="7351.1.1"}
	7427.1.1 = {death="7427.1.1"}
}
10021639 = {
	name = "Gyleno"	# a lord
	dynasty = 982375
	dna = blfdepiddfu
	properties = mn0eck000000

	religion = pirate
	culture = lysene

	father = 10001639
	mother = 40001639
	
	diplomacy = 6
	martial = 6
	stewardship = 5
	intrigue = 5
	learning = 3
	
	add_trait = fair
	add_trait = ruthless
	add_trait = brave
	add_trait = deceitful
	add_trait = gregarious
	add_trait = lustful

	7362.1.1 = { birth= "7362.1.1" }
	7378.1.1 = {
		add_trait = tough_soldier
		add_trait = trained_warrior
		add_trait = duelist
		add_trait = trickster
	}
	7380.1.1 = { add_spouse=40021639 }
	7381.1.1 = {add_trait = poison}
}
40021639 = {
	name="Betharios"
	female=yes

	religion="pirate"
	culture="lysene"

	7352.1.1 = {birth="7352.1.1"}
	7418.1.1 = {death="7418.1.1"}
}
# 10031639 = {
	# name="Moredo"	# not a lord
	# dynasty=982375

	# religion="pirate"
	# culture="lysene"

	# father=10001639
	# mother=40001639

	# 7354.1.1 = {birth="7354.1.1"}
	# 7370.1.1 = {add_trait=skilled_warrior}
	# 7398.1.1 = {death="7398.1.1"}
# }
# 10041639 = {
	# name="Jaqen"	# not a lord
	# dynasty=982375

	# religion="pirate"
	# culture="lysene"

	# father=10001639
	# mother=40001639

	# 7355.1.1 = {birth="7355.1.1"}
	# 7371.1.1 = {add_trait=trained_warrior}
	# 7389.1.1 = {death="7389.1.1"}
# }
10051639 = {
	name="Gylora"	# not a lord
	female=yes
	dynasty=982375

	religion="pirate"
	culture="lysene"

	father=10001639
	mother=40001639

	7357.1.1 = {birth="7357.1.1"}
	7397.1.1 = {death = {death_reason = death_dungeon}}
}
10061639 = {
	name="Tormo"	# not a lord
	dynasty=982375

	religion="pirate"
	culture="lysene"

	father=10021639
	mother=40021639

	7389.1.1 = {birth="7389.1.1"}
}
10071639 = {
	name="Daario"	# not a lord
	dynasty=982375

	religion="pirate"
	culture="lysene"

	father=10021639
	mother=40021639

	7392.1.1 = {birth="7392.1.1"}
}
10081639 = {
	name="Ternesia"	# not a lord
	female=yes
	dynasty=982375

	religion="pirate"
	culture="lysene"

	father=10021639
	mother=40021639

	7396.1.1 = {birth="7396.1.1"}
}
10091639 = {
	name="Alia"	# not a lord
	female=yes
	dynasty=982375

	religion="pirate"
	culture="lysene"

	mother=10051639

	7397.1.1 = {birth="7397.1.1"}
}
