namespace = nicknames_wildlings

#nicknames_wildlings.1 - Wildling nicknames. [AI only]
character_event = {
	id = nicknames_wildlings.1
	desc = "Wildlings" 
	
	is_triggered_only = yes
	min_age = 14
	max_age = 40
	culture_group = free_folk
	hide_window = yes
		
	trigger = {
		OR = {
			is_ruler = yes
			prestige = 200
		}
		has_nickname = no
		NOT = { trait = maester }
		NOT = { trait = archmaester }
		NOT = { has_priest_trait_trigger = yes }	
	}
	
	option = {
		name = "OK"

		if = {
			limit = {
				OR = {
					trait = duelist
					trait = wroth
				}
			}
			random_list = {
				50 = { }
				50 = { give_nickname = nick_shieldbreaker }
			}
		}
		
		if = {
			limit = {
				OR = {
					trait = hunter
					trait = impaler
				}	
			}
			random_list = {
				50 = { }
				50 = { give_nickname = nick_sealskinner }
			}
		}
		
		if = {
			limit = {
				OR = {
					learning = 12
					trait = scholar
				}
			}
			random_list = {
				50 = { }
				50 = { give_nickname = nick_the_wanderer }
			}
		}
		
		if = {
			limit = {
				combat_rating = 6
				OR = {
					trait = wroth
					trait = aggressive_leader
					trait = lunatic
				}	
			}
			random_list = {
				50 = { }
				50 = { give_nickname = nick_crowkiller }
			}
		}
		
		if = {
			limit = {
				trait = gregarious
			}
			random_list = {
				50 = { }
				50 = { give_nickname = nick_tall_talker }
			}
		}
		
		if = {
			limit = {
				OR = {
					trait = hunter
					trait = falconer
				}
			}
			random_list = {
				50 = { }
				50 = { give_nickname = nick_the_hunter }
			}
		}
		
		if = {
			limit = {
				has_fair_trait_trigger = yes
				OR = {
					has_fashionable_groomed_trigger = yes
					trait = gregarious
					diplomacy = 12
				}	
			}
			random_list = {
				50 = { }
				50 = { give_nickname = nick_the_handsome }
			}
		}
		
		if = {
			limit = {
				martial = 10
				combat_rating = 6
				is_female = yes
			}
			random_list = {
				50 = { }
				50 = { give_nickname = nick_the_spearwife }
			}
		}
		
		if = {
			limit = {
				trait = poet
			}
			random_list = {
				50 = { }
				50 = { give_nickname = nick_the_bard }
			}
		}
		
		if = {
			limit = {
				martial = 10
				combat_rating = 6
				OR = {
					trait = proud
					trait = aggressive_leader
					trait = lunatic
					trait = brave
					trait = ambitious
				}	
			}
			random_list = {
				50 = { }
				50 = { give_nickname = nick_widow_maker }
			}
		}
		
		if = {
			limit = {
				martial = 16
			}
			random_list = {
				50 = { }
				50 = { give_nickname = nick_hornblower }
			}
		}
		
		if = {
			limit = {
				OR = {
					trait = is_fat
					trait = boar
					is_strong_trigger = yes
				}
			}
			random_list = {
				50 = { }
				50 = { give_nickname = nick_the_boar }
			}
		}
		
		if = {
			limit = {
				OR = {
					trait = wolf
					combat_rating = 8
				}	
			}
			random_list = {
				50 = { }
				50 = { give_nickname = nick_the_wolf }
			}
		}
		
		if = {
			limit = {
				OR = {
					trait = brownbear
					trait = snowbear
					AND = {
						trait = tall
						OR = {
							is_strong_trigger = yes
							trait = is_fat
						}
					}	
				}
			}
			random_list = {
				50 = { }
				50 = { give_nickname = nick_the_bear }
			}
		}
		
		if = {
			limit = {
				OR = {
					trait = eagle
					combat_rating = 8
				}	
			}
			random_list = {
				50 = { }
				50 = { give_nickname = nick_the_eagle }
			}
		}
		
		if = {
			limit = {
				OR  = {
					trait = shadowcat
					combat_rating = 8
				}
			}
			random_list = {
				50 = { }
				50 = { give_nickname = nick_the_shadowcat }
			}
		}
		if = {
			limit = {
				OR  = {
					trait = wolf
					trait = brownbear
					trait = snowbear
					trait = direwolf
					trait = crow
					trait = eagle
					trait = shadowcat
					trait = boar
					trait = raven
				}
			}
			random_list = {
				50 = { }
				50 = { give_nickname = nick_the_skinchanger  }
			}
		}
		# if = {
			# limit = {
				# trait = gluttonous
			# }
			# random_list = {
				# 50 = { }
				# 50 = { give_nickname = nick_eater_herds }
			# }
		# }
		# if = {
			# limit = {
				# trait = deceitful
			# }
			# random_list = {
				# 50 = { }
				# 50 = { give_nickname = nick_forked_tounge }
			# }
		# }
		# if = {
			# limit = {
				# trait = honest
			# }
			# random_list = {
				# 50 = { }
				# 50 = { give_nickname = nick_truth_teller }
			# }
		# }
	}
}