###########################################
#                                         #
# RIP Physician Events           		  #
# ID RIP.11050-RIP.11500                  #
#                                         #
###########################################

# Written by Alexander Oltner

namespace = RIP

### Look for a Court Physician

character_event = {
	id = RIP.11050
	desc = EVTDESC_RIP_11050
	picture = GFX_evt_courier
	border = GFX_event_normal_frame_religion

	is_triggered_only = yes

	immediate = {
		set_character_flag = looking_for_court_physician
	}

	option = {
		name = EVTOPTA_RIP_11050
		hidden_tooltip = { character_event = { id = RIP.11051 days = 10 random = 10 } }
	}
}

# Found a Court Physician
character_event = {
	id = RIP.11051
	hide_window = yes

	is_triggered_only = yes

	immediate = {
		clr_character_flag = looking_for_court_physician
		#set_character_flag = found_court_physician #doesnt seem to do anything
		random_list = {
			4 = { # Drunk Village Physician (Unschooled, 18+ Learning)
				modifier = {
					factor = 0
					AND = {
						has_character_flag = got_physician_village_drunkard
						NOT = { had_character_flag = { flag = got_physician_village_drunkard days = 3650 } }
					}
				}
				capital_scope = {
					ROOT = {
						create_random_priest = {
							religion = PREV
							culture = PREV
							dynasty = none
							random_traits = yes
							female = no
							health = 6
							trait = detached_priest
							trait = drunkard
							flag = is_court_physician
							flag = physician_village_drunkard
						}
						new_character = {
							change_learning = 8
							remove_trait = temperate
							gain_weight_medium_effect = yes
							weight_trait_check_effect = yes
							remove_trait = scholar
							remove_trait = mystic
							random_list = { # Is the Physician a Quack?
								90 = {
								}
								10 = {
									set_character_flag = physician_is_quack
								}
							}
							save_event_target_as = recruited_physician_target
							character_event = { id = RIP.11052 }
						}
					}
				}	
			} 
			5 = { # Ship's Physician (Physician)
				modifier = {
					factor = 0
					AND = {
						has_character_flag = got_physician_ships_physician
						NOT = { had_character_flag = { flag = got_physician_ships_physician days = 3650 } }
					}
				}
				modifier = {
					factor = 0
					NOT = {
						any_realm_province = {
							port = yes
						}
					}
				}
				modifier = {
					factor = 0
					trait = wildling
					capital_scope = { 
						OR = {
							region = world_beyond_the_wall 
							region = world_the_wall
						}	
					}
				}
				modifier = {
					factor = 0
					is_nomadic = yes
				}
				random_realm_province = {
					limit = {
						port = yes
					}
					save_event_target_as = physician_port_target
					ROOT = {
						create_random_intriguer = {
							religion = PREV
							culture = PREV
							dynasty = none
							random_traits = yes
							female = no
							health = 6
							trait = detached_priest
							trait = one_legged
							trait = greedy
							flag = is_court_physician
							flag = physician_ships_physician
						}
						new_character = {
							
							change_learning = 8
							remove_trait = charitable
							remove_lifestyle_trait_effect = yes
							add_trait = physician
							add_character_modifier = {
								modifier = pet_parrot
								duration = -1
							}
							random_list = { # Is the Physician a Quack?
								90 = {
								}
								10 = {
									set_character_flag = physician_is_quack
								}
							}
							give_nickname = nick_the_sea_devil
							save_event_target_as = recruited_physician_target
							character_event = { id = RIP.11052 }
						}
					}
				}

			}
			5 = { # Wise Hermit Dwarf (Physician)
				modifier = {
					factor = 0
					AND = {
						has_character_flag = got_physician_wise_dwarf
						NOT = { had_character_flag = { flag = got_physician_wise_dwarf days = 3650 } }
					}
				}
				modifier = {
					factor = 0
					NOT = {
						any_realm_province = {
							OR = {
								terrain = forest
								terrain = jungle
							}
						}
					}
				}
				random_realm_province = {
					limit = {
						OR = {
							terrain = forest
							terrain = jungle
						}
					}
					save_event_target_as = physician_forest_target
					ROOT = {
						create_random_priest = {
							religion = PREV
							culture = PREV
							dynasty = none
							random_traits = yes
							female = no
							attributes = {
								martial = 1
							}
							health = 6
							trait = ugly
							trait = dwarf
							trait = shrewd
							trait = shy
							flag = is_court_physician
							flag = physician_wise_dwarf
							flag = ai_flag_refuse_conversion
						}
						new_character = {
							change_learning = 3
							remove_lifestyle_trait_effect = yes
							if = {
								limit = { maester_culture_trigger = yes }
								add_trait = maester
								join_society = hermetics
								while = {
									limit = { NOT = { society_rank == 3 } }
									society_rank_up = 1
								}	
								if = {
									limit = { trait = mastermind_theologian }
									if = {
										limit = { NOT = { has_character_flag = choosing_hermetic_art } }
										add_random_maester_specialisation_effect = yes					
									}	
									while = {
										limit = { NOT = { has_links_level_4_trigger = yes } }
										add_random_maester_link_effect = yes
									}
								}
								else_if = {
									limit = { trait = scholarly_theologian }
									if = {
										limit = { NOT = { has_character_flag = choosing_hermetic_art } }
										add_random_maester_specialisation_effect = yes					
									}	
									while = {
										limit = { NOT = { has_links_level_3_trigger = yes } }
										add_random_maester_link_effect = yes
									}
								}
								else_if = {
									limit = { trait = martial_cleric }	
									while = {
										limit = { NOT = { has_links_level_2_trigger = yes } }
										add_random_maester_link_effect = yes
									}
								}
								else = {
									while = {
										limit = { NOT = { has_links_for_maester_rank_trigger = yes } }
										add_random_maester_link_effect = yes
									}
								}
								set_special_character_title = title_maester
								set_character_flag = no_court_invites
							}	
							else = {
								random_list = {
									80 = { add_trait = physician }
									20 = { add_trait = herbologist }
								}	
							}
							remove_trait = fair
							remove_trait = gregarious
							remove_trait = slow
							remove_trait = imbecile
							remove_trait = dull
							random_list = { # Is the Physician a Quack?
								90 = {
								}
								10 = {
									set_character_flag = physician_is_quack
								}
							}
							save_event_target_as = recruited_physician_target
							character_event = { id = RIP.11052 }
						}
					}
				}			
			}
			5 = { # Condemned Sorcerer (Mystic)
				modifier = {
					factor = 0
					AND = {
						has_character_flag = got_physician_condemned_sorcerer
						NOT = { had_character_flag = { flag = got_physician_condemned_sorcerer days = 3650 } }
					}
				}
				modifier = {
					factor = 0
					NOT = {
						job_spymaster = {
							always = yes
						}
					}
				}
				modifier = {
					factor = 0
					NOT = {
						any_realm_province = {
							any_province_holding = {
								holding_type = city
							}
						}
					}
				}
				modifier = {
					factor = 0
					trait = wildling
					capital_scope = { 
						OR = {
							region = world_beyond_the_wall 
							region = world_the_wall
						}	
					}
				}
				random_realm_province = {
					limit = {
						any_province_holding = {
							holding_type = city
						}
					}
					random_province_holding = {
						limit = {
							holding_type = city
						}
						save_event_target_as = sorcerer_city_target
					}
					ROOT = {
						create_random_intriguer = {
							religion = PREV
							culture = PREV
							dynasty = none
							random_traits = yes
							female = no
							health = 6
							trait = mystic
							flag = is_court_physician
							flag = physician_condemned_sorcerer
						}
						new_character = {
							change_learning = 8
							random_list = { # Is the Physician a Quack?
								80 = {
								}
								20 = {
									set_character_flag = physician_is_quack
								}
							}
							become_heretic = yes
							save_event_target_as = recruited_physician_target
							character_event = { id = RIP.11052 }
						}
					}
				}
			}
			5 = { # Cynical Clergyman (Mystic)
				modifier = {
					factor = 0
					AND = {
						has_character_flag = got_physician_cynical_clergyman
						NOT = { had_character_flag = { flag = got_physician_cynical_clergyman days = 3650 } }
					}
				}
				modifier = {
					factor = 0
					NOT = {
						any_realm_province = {
							any_province_holding = {
								holding_type = temple
							}
						}
					}
				}
				modifier = {
					factor = 0
					trait = wildling
					capital_scope = { 
						OR = {
							region = world_beyond_the_wall 
							region = world_the_wall
						}	
					}
				}
				random_realm_province = {
					limit = {
						any_province_holding = {
							holding_type = temple
						}
					}
					random_province_holding = {
						limit = {
							holding_type = temple
						}
						save_event_target_as = clergyman_temple_target
					}
					ROOT = {
						random_list = {
							50 = {
								modifier = {
									factor = 0
									religion_allows_male_temple_holders = no
								}
								create_random_priest = {
									religion = PREV
									culture = PREV
									dynasty = none
									random_traits = yes
									female = no
									health = 7
									trait = mystic
									trait = cynical
									flag = is_court_physician
									flag = physician_cynical_clergyman
								}
							}
							50 = {
								modifier = {
									factor = 0
									NOR = {
										religion = the_seven
										religion_allows_female_temple_holders = yes
									}
								}
								create_random_priest = {
									religion = PREV
									culture = PREV
									dynasty = none
									random_traits = yes
									female = yes
									health = 7
									trait = mystic
									trait = cynical
									flag = is_court_physician
									flag = physician_cynical_clergyman
								}
							}
						}
						
						new_character = {	
							change_learning = 3
							random_list = { # Random chance to add Physician
								50 = {
									add_trait = physician
									change_learning = -2
								}
								20 = {
									add_trait = herbologist
									change_learning = -1
								}
								50 = {
									
								}
							}
							add_priest_trait_effect = yes
							remove_trait = zealous
							random_list = { # Is the Physician a Quack?
								90 = {
								}
								10 = {
									set_character_flag = physician_is_quack
								}
							}
							save_event_target_as = recruited_physician_target
							character_event = { id = RIP.11052 }
						}
					}
				}
				
			}
			5 = { # YiTish Doctor (Mystic) 
				modifier = {
					factor = 0
					AND = {
						has_character_flag = got_physician_chinese_doctor
						NOT = { had_character_flag = { flag = got_physician_chinese_doctor days = 3650 } }
					}
				}
				modifier = {
					factor = 0
					NOT = {
						any_realm_province = {
							has_trade_post = yes
						}
					}
				}
				modifier = {
					factor = 0
					trait = wildling
					capital_scope = { 
						OR = {
							region = world_beyond_the_wall 
							region = world_the_wall
						}	
					}
				}
				random_realm_province = {
					limit = {
						has_trade_post = yes
					}
					save_event_target_as = chinese_silk_road_target
				}
				create_random_diplomat = {
					religion = yiti_gods
					culture = yi_ti
					dynasty = none
					age = 50
					random_traits = yes
					female = no
					attributes = {
						diplomacy = 2
					}
					health = 7
					trait = mystic
					trait = poet
					flag = is_court_physician
					flag = physician_chinese_doctor
					flag = ai_flag_refuse_conversion
				}
				new_character = {
					change_learning = 6
					random_list = { # Random chance to add Physician
						50 = {
							add_trait = physician
						}
						20 = { add_trait = herbologist }
						50 = {
							
						}
					}
					random_list = { # Is the Physician a Quack?
						90 = {
						}
						10 = {
							set_character_flag = physician_is_quack
						}
					}
					save_event_target_as = recruited_physician_target
					character_event = { id = RIP.11052 }
				}
			}
			5 = { # Travelling Free Cities Scholar (Scholar or Mystic) 
				modifier = {
					factor = 0
					AND = {
						has_character_flag = got_physician_arab_scholar
						NOT = { had_character_flag = { flag = got_physician_arab_scholar days = 3650 } }
					}
				}
				modifier = {
					factor = 0
					NOT = {
						any_realm_province = {
							has_trade_post = yes
							port = yes
						}
					}
				}
				modifier = {
					factor = 0
					trait = wildling
					capital_scope = { 
						OR = {
							region = world_beyond_the_wall 
							region = world_the_wall
						}	
					}
				}
				random_realm_province = {
					limit = {
						has_trade_post = yes
						port = yes
					}
					save_event_target_as = arab_scholar_trade_post_target
				}
				random_list = {
					25 = { # pentos
						create_random_priest = {
							culture = pentosi
							religion = rhllor
							dynasty = actually_culture
							random_traits = yes
							female = no
							health = 6
							flag = is_court_physician
							flag = physician_arab_scholar
							flag = ai_flag_refuse_conversion
						}
						new_character = {
							change_learning = 3
							remove_lifestyle_trait_effect = yes
							random_list = { # Random chance to add Physician
								50 = {
									add_trait = physician
								}
								20 = { add_trait = herbologist }
								50 = {
									
								}
							}
							random_list = { # Is the Physician a Quack?
								90 = {
								}
								10 = {
									set_character_flag = physician_is_quack
								}
							}
							save_event_target_as = recruited_physician_target
							character_event = { id = RIP.11052 }
						}
					}
					25 = { # braavos
						create_random_priest = {
							culture = braavosi
							religion = moonsingers
							dynasty = actually_culture
							random_traits = yes
							female = no
							health = 6
							trait = mystic
							flag = is_court_physician
							flag = physician_arab_scholar
							flag = ai_flag_refuse_conversion
						}
						new_character = {
							change_learning = 3
							random_list = { # Random chance to add Physician
								50 = {
									add_trait = physician
								}
								20 = { add_trait = herbologist }
								50 = {
									
								}
							}
							random_list = { # Is the Physician a Quack?
								90 = {
								}
								10 = {
									set_character_flag = physician_is_quack
								}
							}
							save_event_target_as = recruited_physician_target
							character_event = { id = RIP.11052 }
						}
					}
					10 = { # Volantene
						create_random_priest = {
							culture = eastern_valyrian
							religion = valyrian_rel
							dynasty = actually_culture
							random_traits = yes
							female = no
							health = 6
							flag = is_court_physician
							flag = physician_arab_scholar
							flag = ai_flag_refuse_conversion
						}
						new_character = {
							change_learning = 3
							remove_lifestyle_trait_effect = yes
							random_list = { # Random chance to add Physician
								50 = {
									add_trait = physician
								}
								20 = { add_trait = herbologist }
								50 = {
									
								}
							}
							random_list = { # Is the Physician a Quack?
								90 = {
								}
								10 = {
									set_character_flag = physician_is_quack
								}
							}
							save_event_target_as = recruited_physician_target
							character_event = { id = RIP.11052 }
						}
					}
					25 = { # Myr
						create_random_priest = {
							culture = myrman
							religion = rhllor
							dynasty = actually_culture
							random_traits = yes
							female = no
							health = 6
							trait = mystic
							flag = is_court_physician
							flag = physician_arab_scholar
							flag = ai_flag_refuse_conversion
						}
						new_character = {
							change_learning = 3
							random_list = { # Random chance to add Physician
								50 = {
									add_trait = physician
								}
								20 = { add_trait = herbologist }
								50 = {
									
								}
							}
							random_list = { # Is the Physician a Quack?
								90 = {
								}
								10 = {
									set_character_flag = physician_is_quack
								}
							}
							save_event_target_as = recruited_physician_target
							character_event = { id = RIP.11052 }
						}
					}
				}
			}
			5 = { # Beloved Wise Man (Physician)
				modifier = {
					factor = 0
					AND = {
						has_character_flag = got_physician_beloved_wise_man
						NOT = { had_character_flag = { flag = got_physician_beloved_wise_man days = 3650 } }
					}
				}
				capital_scope = {
					ROOT = {
						random_list = {
							75 = {
								create_random_priest = {
									religion = PREV
									culture = PREV
									dynasty = none
									age = 70
									random_traits = yes
									female = no
									attributes = {
										diplomacy = 2
									}
									health = 7
									trait = mastermind_theologian 
									trait = kind
									trait = charitable
									trait = quick
									trait = celibate
									flag = is_court_physician
									flag = physician_beloved_wise_man
								}
								new_character = {
									change_learning = 3 
									remove_lifestyle_trait_effect = yes
									if = {
										limit = { maester_culture_trigger = yes }
										add_trait = maester
										join_society = hermetics
										while = {
											limit = { NOT = { society_rank == 3 } }
											society_rank_up = 1
										}	
										if = {
											limit = { trait = mastermind_theologian }
											if = {
												limit = { NOT = { has_character_flag = choosing_hermetic_art } }
												add_random_maester_specialisation_effect = yes					
											}	
											while = {
												limit = { NOT = { has_links_level_4_trigger = yes } }
												add_random_maester_link_effect = yes
											}
										}
										else_if = {
											limit = { trait = scholarly_theologian }
											if = {
												limit = { NOT = { has_character_flag = choosing_hermetic_art } }
												add_random_maester_specialisation_effect = yes					
											}	
											while = {
												limit = { NOT = { has_links_level_3_trigger = yes } }
												add_random_maester_link_effect = yes
											}
										}
										else_if = {
											limit = { trait = martial_cleric }	
											while = {
												limit = { NOT = { has_links_level_2_trigger = yes } }
												add_random_maester_link_effect = yes
											}
										}
										else = {
											while = {
												limit = { NOT = { has_links_for_maester_rank_trigger = yes } }
												add_random_maester_link_effect = yes
											}
										}
										set_special_character_title = title_maester
										set_character_flag = no_court_invites
									}	
									else = {
										random_list = {
											80 = { add_trait = physician }
											20 = { add_trait = herbologist }
										}	
									}
									remove_trait = greedy
									remove_trait = wroth
									remove_trait = cruel
									remove_trait = lustful
									remove_trait = dull
									remove_trait = slow
									remove_trait = imbecile
									remove_trait = genius
									random_list = { # Random chance to add Scholar
										30 = {
											add_trait = scholar
											change_learning = -2
										}
										70 = {
											
										}
									}
									random_list = { # Is the Physician a Quack?
										90 = {
										}
										10 = {
											set_character_flag = physician_is_quack
										}
									}
									save_event_target_as = recruited_physician_target
									character_event = { id = RIP.11052 }
								}
							}
							25 = {
								create_random_priest = {
									religion = PREV
									culture = PREV
									dynasty = none
									age = 70
									random_traits = yes
									female = yes
									attributes = {
										diplomacy = 2
									}
									health = 7
									trait = mastermind_theologian 
									trait = kind
									trait = charitable
									trait = quick
									trait = celibate
									flag = is_court_physician
									flag = physician_beloved_wise_man
								}
								new_character = {
									change_learning = 3
									remove_lifestyle_trait_effect = yes
									if = {
										limit = { maester_culture_trigger = yes }
										add_trait = maester
										join_society = hermetics
										while = {
											limit = { NOT = { society_rank == 3 } }
											society_rank_up = 1
										}	
										if = {
											limit = { trait = mastermind_theologian }
											if = {
												limit = { NOT = { has_character_flag = choosing_hermetic_art } }
												add_random_maester_specialisation_effect = yes					
											}	
											while = {
												limit = { NOT = { has_links_level_4_trigger = yes } }
												add_random_maester_link_effect = yes
											}
										}
										else_if = {
											limit = { trait = scholarly_theologian }
											if = {
												limit = { NOT = { has_character_flag = choosing_hermetic_art } }
												add_random_maester_specialisation_effect = yes					
											}	
											while = {
												limit = { NOT = { has_links_level_3_trigger = yes } }
												add_random_maester_link_effect = yes
											}
										}
										else_if = {
											limit = { trait = martial_cleric }	
											while = {
												limit = { NOT = { has_links_level_2_trigger = yes } }
												add_random_maester_link_effect = yes
											}
										}
										else = {
											while = {
												limit = { NOT = { has_links_for_maester_rank_trigger = yes } }
												add_random_maester_link_effect = yes
											}
										}
										set_special_character_title = title_maester
										set_character_flag = no_court_invites
									}	
									else = {
										random_list = {
											80 = { add_trait = physician }
											20 = { add_trait = herbologist }
										}	
									}
									remove_trait = greedy
									remove_trait = wroth
									remove_trait = cruel
									remove_trait = lustful
									remove_trait = dull
									remove_trait = slow
									remove_trait = imbecile
									remove_trait = genius
									random_list = { # Random chance to add Scholar
										30 = {
											add_trait = scholar
											change_learning = -2
										}
										70 = {
											
										}
									}
									random_list = { # Is the Physician a Quack?
										90 = {
										}
										10 = {
											set_character_flag = physician_is_quack
										}
									}
									save_event_target_as = recruited_physician_target
									character_event = { id = RIP.11052 }
								}
							}
						}
					}
				}	
			}
			2 = { # Wandering Genius (18+ Learning)
				modifier = {
					factor = 0
					AND = {
						has_character_flag = got_physician_wandering_genius
						NOT = { had_character_flag = { flag = got_physician_wandering_genius days = 3650 } }
					}
				}
				modifier = {
					factor = 0.25
					trait = wildling
					capital_scope = { 
						OR = {
							region = world_beyond_the_wall 
							region = world_the_wall
						}	
					}
				}
				create_random_priest = {
					religion = rhllor
					culture = random
					dynasty = none
					random_traits = yes
					female = no
					health = 6
					trait = genius
					trait = adventurer
					trait = one_eyed
					trait = celibate
					flag = is_court_physician
					flag = physician_wandering_genius
					flag = ai_flag_refuse_conversion
				}
				new_character = {
					check_for_defunct_culture_effect = yes
					change_learning = 3
					remove_trait = dull
					remove_trait = slow
					remove_trait = imbecile
					remove_trait = quick
					remove_trait = lustful
					give_nickname = nick_the_wise
					random_list = { # Is the Physician a Quack?
						90 = {
						}
						10 = {
							set_character_flag = physician_is_quack
						}
					}
					save_event_target_as = recruited_physician_target
					character_event = { id = RIP.11052 }
				}
			}
			2 = { # Erudite Herbalist (High Learning)
				modifier = {
					factor = 0
					AND = {
						has_character_flag = got_physician_erudite_herbalist
						NOT = { had_character_flag = { flag = got_physician_erudite_herbalist days = 3650 } }
					}
				}
				capital_scope = {
					ROOT = {
						random_list = {
							75 = {
								create_random_priest = {
									religion = PREV
									culture = PREV
									dynasty = none
									random_traits = yes
									female = no
									health = 5

									trait = erudite
									trait = herbologist
									flag = is_court_physician
									flag = physician_erudite_herbalist
								}
								new_character = {
									change_learning = 3
									random_list = { # Is the Physician a Quack?
										90 = {
										}
										10 = {
											set_character_flag = physician_is_quack
										}
									}
									save_event_target_as = recruited_physician_target
									character_event = { id = RIP.11052 }
								}
							}
							25 = {
								create_random_priest = {
									religion = PREV
									culture = PREV
									dynasty = none
									random_traits = yes
									female = yes
									health = 5
									trait = erudite
									trait = herbologist
									flag = is_court_physician
									flag = physician_erudite_herbalist
								}
								new_character = {
									change_learning = 3
									random_list = { # Is the Physician a Quack?
										90 = {
										}
										10 = {
											set_character_flag = physician_is_quack
										}
									}
									save_event_target_as = recruited_physician_target
									character_event = { id = RIP.11052 }
								}
							}
						}
					}
				}	
			}
			5 = { # Pagan Mystic (Mystic)
				modifier = {
					factor = 0
					AND = {
						has_character_flag = got_physician_pagan_mystic
						NOT = { had_character_flag = { flag = got_physician_pagan_mystic days = 3650 } }
					}
				}
				modifier = {
					factor = 0
					OR = {
						culture = lhazareen
						culture = naathi
						culture = dothraki
						culture = jogos_nhai
					}	
				}
				modifier = {
					factor = 0
					trait = wildling
					capital_scope = { 
						OR = {
							region = world_beyond_the_wall 
							region = world_the_wall
						}	
					}
				}
				random_list = {
					50 = {
						create_random_priest = {
							culture = lhazareen
							religion = great_shepherd
							dynasty = none
							random_traits = yes
							female = yes
							age = 59
							health = 6
							trait = mystic
							trait = zealous
							flag = is_court_physician
							flag = physician_pagan_mystic
							flag = ai_flag_refuse_conversion
						}
						new_character = {
							change_learning = 3
							random_list = { # Is the Physician a Quack?
								90 = {
								}
								10 = {
									set_character_flag = physician_is_quack
								}
							}
							save_event_target_as = recruited_physician_target
							character_event = { id = RIP.11052 }
						}
					}
					50 = {
						create_random_priest = {
							culture = naathi
							religion = nath_pagan
							dynasty = none
							random_traits = yes
							female = yes
							age = 21
							health = 6
							trait = mystic
							trait = zealous
							flag = is_court_physician
							flag = physician_pagan_mystic
							flag = ai_flag_refuse_conversion
						}
						new_character = {
							change_learning = 3
							random_list = { # Is the Physician a Quack?
								90 = {
								}
								10 = {
									set_character_flag = physician_is_quack
								}
							}
							save_event_target_as = recruited_physician_target
							character_event = { id = RIP.11052 }
						}
					}
					50 = { 
						create_random_priest = {
							culture = dothraki
							religion = dothraki_pagan
							dynasty = none
							random_traits = yes
							female = yes
							age = 49
							health = 6
							trait = mystic
							trait = zealous
							flag = is_court_physician
							flag = physician_pagan_mystic
							flag = ai_flag_refuse_conversion
						}
						new_character = {
							change_learning = 3
							random_list = { # Is the Physician a Quack?
								90 = {
								}
								10 = {
									set_character_flag = physician_is_quack
								}
							}
							save_event_target_as = recruited_physician_target
							character_event = { id = RIP.11052 }
						}
					}
					50 = { # African Mystic
						modifier = {
							factor = 0
							NOR = {
								capital_scope = {
									region = world_jogos_nhai
								}
								culture = jogos_nhai
							}
						}
						create_random_priest = {
							culture = jogos_nhai
							religion = jogos_pagan
							dynasty = none
							random_traits = yes
							female = yes
							age = 38
							health = 6
							trait = mystic
							trait = zealous
							flag = is_court_physician
							flag = physician_pagan_mystic
							flag = ai_flag_refuse_conversion
						}
						new_character = {
							change_learning = 3
							random_list = { # Is the Physician a Quack?
								90 = {
								}
								10 = {
									set_character_flag = physician_is_quack
								}
							}
							save_event_target_as = recruited_physician_target
							character_event = { id = RIP.11052 }
						}
					}
				}
			}
			5 = { # Insane Zealot (Scholar)
				modifier = {
					factor = 0
					AND = {
						has_character_flag = got_physician_insane_zealot
						NOT = { had_character_flag = { flag = got_physician_insane_zealot days = 3650 } }
					}
				}
				modifier = {
					factor = 0
					NOT = {
						any_realm_province = {
							any_province_holding = {
								holding_type = temple
							}
						}
					}
				}
				random_realm_province = {
					limit = {
						any_province_holding = {
							holding_type = temple
						}
					}
					random_province_holding = {
						limit = {
							holding_type = temple
						}
						save_event_target_as = zealot_temple_target
					}
					ROOT = {
						random_list = {
							50 = {
								modifier = {
									factor = 0
									religion_allows_male_temple_holders = no
								}
								create_random_priest = {
									religion = PREV
									culture = PREV
									dynasty = none
									random_traits = yes
									female = no
									health = 6
									trait = scholar
									trait = zealous
									trait = cruel
									trait = possessed
									flag = is_court_physician
									flag = physician_insane_zealot
								}
							}
							50 = {
								modifier = {
									factor = 0
									NOR = {
										religion = the_seven
										religion_allows_female_temple_holders = yes
									}
								}
								create_random_priest = {
									religion = PREV
									culture = PREV
									dynasty = none
									random_traits = yes
									female = yes
									health = 6
									trait = scholar
									trait = zealous
									trait = cruel
									trait = possessed
									flag = is_court_physician
									flag = physician_insane_zealot
								}
							}
						}	
						new_character = {
							remove_trait = cynical
							remove_trait = kind
							random_list = { # Random chance to add Physician
								50 = {
									add_trait = physician
									change_learning = -2
								}
								20 = { 
									add_trait = herbologist
									change_learning = -1
								}
								50 = {
									
								}
							}
							add_priest_trait_effect = yes
							random_list = { # Is the Physician a Quack?
								90 = {
								}
								10 = {
									set_character_flag = physician_is_quack
								}
							}
							save_event_target_as = recruited_physician_target
							character_event = { id = RIP.11052 }
						}
					}
				}
				
			}
			5 = { # Well-Traveled Pilgrim (Mystic)
				modifier = {
					factor = 0
					AND = {
						has_character_flag = got_physician_well_traveled_pilgrim
						NOT = { had_character_flag = { flag = got_physician_well_traveled_pilgrim days = 3650 } }
					}
				}
				modifier = {
					factor = 0
					trait = wildling
					capital_scope = { 
						OR = {
							region = world_beyond_the_wall 
							region = world_the_wall
						}	
					}
				}
				capital_scope = {
					ROOT = {
						create_random_priest = {
							religion = PREV
							culture = PREV
							dynasty = none
							age = 41
							random_traits = yes
							female = no
							health = 6
							trait = mystic
							trait = humble
							flag = is_court_physician
							flag = physician_well_traveled_pilgrim
						}
						new_character = {
							change_learning = 3
							add_scarred_tiered_effect = yes
							random_list = { # Random chance to add Physician
								50 = {
									add_trait = physician
									change_learning = -2
								}
								20 = { 
									add_trait = herbologist
									change_learning = -1
								}
								50 = {
									
								}
							}
							random_list = { # Is the Physician a Quack?
								90 = {
								}
								10 = {
									set_character_flag = physician_is_quack
								}
							}
							save_event_target_as = recruited_physician_target
							character_event = { id = RIP.11052 }
						}
					}
				}	
			}
			5 = { # Student of Medicine (Physician)
				modifier = {
					factor = 0
					AND = {
						has_character_flag = got_physician_student_of_medicine
						NOT = { had_character_flag = { flag = got_physician_student_of_medicine days = 3650 } }
					}
				}
				modifier = {
					factor = 0
					NOT = {
						any_realm_province = {
							any_province_holding = {
								holding_type = city
							}
						}
					}
				}
				modifier = {
					factor = 0
					trait = wildling
					capital_scope = { 
						OR = {
							region = world_beyond_the_wall 
							region = world_the_wall
						}	
					}
				}
				random_realm_province = {
					limit = {
						any_province_holding = {
							holding_type = city
						}
					}
					random_province_holding = {
						limit = {
							holding_type = city
						}
						save_event_target_as = student_city_target
					}
					ROOT = {
						create_random_priest = {
							religion = PREV
							culture = PREV
							dynasty = none
							age = 19
							random_traits = yes
							female = no
							health = 6
							flag = is_court_physician
							flag = physician_student_of_medicine
						}
						new_character = {
							remove_lifestyle_trait_effect = yes
							if = {
								limit = { maester_culture_trigger = yes }
								add_trait = maester
								join_society = hermetics
								while = {
									limit = { NOT = { society_rank == 3 } }
									society_rank_up = 1
								}	
								if = {
									limit = { trait = mastermind_theologian }
									if = {
										limit = { NOT = { has_character_flag = choosing_hermetic_art } }
										add_random_maester_specialisation_effect = yes					
									}	
									while = {
										limit = { NOT = { has_links_level_4_trigger = yes } }
										add_random_maester_link_effect = yes
									}
								}
								else_if = {
									limit = { trait = scholarly_theologian }
									if = {
										limit = { NOT = { has_character_flag = choosing_hermetic_art } }
										add_random_maester_specialisation_effect = yes					
									}	
									while = {
										limit = { NOT = { has_links_level_3_trigger = yes } }
										add_random_maester_link_effect = yes
									}
								}
								else_if = {
									limit = { trait = martial_cleric }	
									while = {
										limit = { NOT = { has_links_level_2_trigger = yes } }
										add_random_maester_link_effect = yes
									}
								}
								else = {
									while = {
										limit = { NOT = { has_links_for_maester_rank_trigger = yes } }
										add_random_maester_link_effect = yes
									}
								}
								set_special_character_title = title_maester
								set_character_flag = no_court_invites
							}	
							else = {
								add_trait = physician	
							}
							random_list = { # Flavor Randomization
								80 = { 
									# Nothing
								}
								10 = { 
									add_trait = legit_bastard
								}
								10 = { 
									add_trait = drunkard
								}
							}
							random_list = { # Is the Physician a Quack?
								90 = {
								}
								10 = {
									set_character_flag = physician_is_quack
								}
							}
							save_event_target_as = recruited_physician_target
							character_event = { id = RIP.11052 }
						}
					}
				}
				
			}
			4 = { # Blind Miracle Worker (Mystic)
				modifier = {
					factor = 0
					AND = {
						has_character_flag = got_physician_blind_miracle_worker
						NOT = { had_character_flag = { flag = got_physician_blind_miracle_worker days = 3650 } }
					}
				}
				capital_scope = {
					ROOT = {
						create_random_priest = {
							religion = PREV
							culture = PREV
							dynasty = none
							random_traits = yes
							female = no
							age = 62
							health = 6
							trait = mystic
							trait = blinded_age
							flag = is_court_physician
							flag = physician_blind_miracle_worker
						}
						new_character = {
							change_learning = 6
							health = 4
							give_nickname = nick_the_blind
							random_list = { # Is the Physician a Quack?
								90 = {
								}
								10 = {
									set_character_flag = physician_is_quack
								}
							}
							save_event_target_as = recruited_physician_target
							character_event = { id = RIP.11052 }
						}
					}	
				}
			}
			4 = { # Field Surgeon (Physician)
				modifier = {
					factor = 0
					AND = {
						has_character_flag = got_physician_field_surgeon
						NOT = { had_character_flag = { flag = got_physician_field_surgeon days = 3650 } }
					}
				}
				capital_scope = {
					ROOT = {
						create_random_soldier = {
							religion = PREV
							culture = PREV
							dynasty = none
							random_traits = yes
							female = no
							health = 6
							trait = tough_soldier 
							trait = trained_warrior
							trait = physician
							trait = robust
							trait = wroth
							trait = cruel
							flag = is_court_physician
							flag = physician_field_surgeon
						}
						new_character = {
							change_martial = 4
							change_learning = 8
							add_scarred_tiered_effect = yes
							remove_trait = weak
							remove_trait = feeble
							remove_trait = kind
							remove_trait = patient
							random_list = { # Flavor Randomization
								20 = { 
									# Nothing
								}
								20 = {
									add_trait = one_handed
								}
								20 = {
									add_trait = one_eyed
								}
								20 = { 
									add_trait = legit_bastard
								}
								20 = { 
									add_trait = drunkard
								}
							}
							random_list = { # Is the Physician a Quack?
								90 = {
								}
								10 = {
									set_character_flag = physician_is_quack
								}
							}
							save_event_target_as = recruited_physician_target
							character_event = { id = RIP.11052 }
						}
					}
				}	
			}
			5 = { # Schooled Eunuch (Physician)
				modifier = {
					factor = 0
					AND = {
						has_character_flag = got_physician_schooled_eunuch
						NOT = { had_character_flag = { flag = got_physician_schooled_eunuch days = 3650 } }
					}
				}
				modifier = {
					factor = 0
					trait = wildling
					capital_scope = { 
						OR = {
							region = world_beyond_the_wall 
							region = world_the_wall
						}	
					}
				}
				capital_scope = {
					ROOT = {
						create_random_intriguer = {
							religion = PREV
							culture = PREV
							dynasty = none
							age = 26
							random_traits = yes
							female = no
							health = 6
							trait = shrewd
							trait = eunuch
							trait = gluttonous
							flag = is_court_physician
							flag = physician_schooled_eunuch
							flag = ai_flag_refuse_conversion
						}
						new_character = {
							gain_weight_medium_effect = yes
							weight_trait_check_effect = yes
							change_learning = 6
							remove_lifestyle_trait_effect = yes
							if = {
								limit = { maester_culture_trigger = yes }
								add_trait = maester
								join_society = hermetics
								while = {
									limit = { NOT = { society_rank == 3 } }
									society_rank_up = 1
								}	
								if = {
									limit = { trait = mastermind_theologian }
									if = {
										limit = { NOT = { has_character_flag = choosing_hermetic_art } }
										add_random_maester_specialisation_effect = yes					
									}	
									while = {
										limit = { NOT = { has_links_level_4_trigger = yes } }
										add_random_maester_link_effect = yes
									}
								}
								else_if = {
									limit = { trait = scholarly_theologian }
									if = {
										limit = { NOT = { has_character_flag = choosing_hermetic_art } }
										add_random_maester_specialisation_effect = yes					
									}	
									while = {
										limit = { NOT = { has_links_level_3_trigger = yes } }
										add_random_maester_link_effect = yes
									}
								}
								else_if = {
									limit = { trait = martial_cleric }	
									while = {
										limit = { NOT = { has_links_level_2_trigger = yes } }
										add_random_maester_link_effect = yes
									}
								}
								else = {
									while = {
										limit = { NOT = { has_links_for_maester_rank_trigger = yes } }
										add_random_maester_link_effect = yes
									}
								}
								set_special_character_title = title_maester
								set_character_flag = no_court_invites
							}	
							else = {
								add_trait = physician
							}
							remove_trait = temperate
							remove_trait = dull
							remove_trait = slow
							remove_trait = imbecile
							random_list = { # Is the Physician a Quack?
								90 = {
								}
								10 = {
									set_character_flag = physician_is_quack
								}
							}
							save_event_target_as = recruited_physician_target
							character_event = { id = RIP.11052 }
						}
					}
				}	
			}
			7 = { # Witch (Mystic)
				modifier = {
					factor = 0
					AND = {
						has_character_flag = got_physician_witch
						NOT = { had_character_flag = { flag = got_physician_witch days = 3650 } }
					}
				}
				capital_scope = {
					ROOT = {
						random_list = {
							50 = { # Same Religion & Culture as ROOT + Attractive
								create_random_intriguer = {
									religion = PREV
									culture = PREV
									dynasty = none
									age = 21
									random_traits = yes
									female = yes
									attributes = {
										intrigue = 6
									}
									health = 6
									trait = mystic
									trait = fair
									flag = is_court_physician
									flag = physician_witch
								}
								new_character = {
									change_learning = 8
									remove_trait = ugly
									random_list = { # Random chance to add Physician
										10 = {
											add_trait = physician
											change_learning = -2
										}
										10 = {
											add_trait = herbologist
											change_learning = -1
										}
										90 = {
											
										}
									}
									random_list = { # Is the Physician a Quack?
										90 = {
										}
										10 = {
											set_character_flag = physician_is_quack
										}
									}
									save_event_target_as = recruited_physician_target
									character_event = { id = RIP.11052 }
								}
							}
							50 = { # Same Religion & Culture as ROOT + Disfigured
								create_random_intriguer = {
									religion = PREV
									culture = PREV
									dynasty = none
									age = 53
									random_traits = yes
									female = yes
									attributes = {
										intrigue = 6
									}
									health = 6
									trait = mystic
									trait = disfigured
									flag = is_court_physician
									flag = physician_witch
								}
								new_character = {
									change_learning = 8
									remove_trait = fair
									random_list = { # Random chance to add Physician
										50 = {
											add_trait = physician
											change_learning = -2
										}
										10 = {
											add_trait = herbologist
											change_learning = -1
										}
										50 = {
											
										}
									}
									random_list = { # Is the Physician a Quack?
										90 = {
										}
										10 = {
											set_character_flag = physician_is_quack
										}
									}
									save_event_target_as = recruited_physician_target
									character_event = { id = RIP.11052 }
								}
							}
						}
					}
				}	
			}
			1 = { # Horse M.D.
				modifier = {
					factor = 0.2
				}
				modifier = {
					factor = 0
					AND = {
						has_character_flag = got_physician_horse_md
						NOT = { had_character_flag = { flag = got_physician_horse_md days = 3650 } }
					}
				}
				modifier = {
					factor = 0
					NOT = { trait = lunatic }
				}
				modifier = {
					factor = 0
					AND = {
						ai = yes
						NOT = {
							has_game_rule = {
								name = silly_events
								value = unrestricted
							}
						}
					}
				}
				modifier = {
					factor = 0
					has_game_rule = {
						name = silly_events
						value = off
					}
				}
				modifier = {
					factor = 0
					NOT = { magic_returned_trigger = yes }
				}
				# modifier = {
					# factor = 0
					# has_game_rule = {
						# name = supernatural_events
						# value = off
					# }
				# }
				create_character = {
					name = "Horse M.D."
					age = 16
					religion = ROOT
					culture = horse
					race = horse
					dynasty = NONE
					trait = horse
					trait = imbecile
					trait = stubborn
					trait = fair
					trait = strong
					flag = is_court_physician
					flag = physician_horse_md
				}
				new_character = {
					save_event_target_as = recruited_physician_target
					character_event = { id = RIP.11052 }
				}
			}
			
			4 = { # Travelling Shadowbinder (High Learning)
				modifier = {
					factor = 0
					AND = {
						has_character_flag = got_physician_travelling_nestorian
						NOT = { had_character_flag = { flag = got_physician_travelling_nestorian days = 3650 } }
					}
				}
				modifier = {
					factor = 0
					trait = wildling
					capital_scope = { 
						OR = {
							region = world_beyond_the_wall 
							region = world_the_wall
						}	
					}
				}
				create_random_priest = {
					culture = asshai
					religion = shadowbinders
					dynasty = none
					random_traits = yes
					female = yes
					health = 6
					trait = theologian
					trait = zealous
					trait = shadowbinder
					flag = is_court_physician
					flag = physician_travelling_nestorian
					flag = ai_flag_refuse_conversion
				}
				new_character = {
					change_learning = 3
					remove_trait = cynical
					random_list = { # Is the Physician a Quack?
						90 = {
						}
						10 = {
							set_character_flag = physician_is_quack
						}
					}
					save_event_target_as = recruited_physician_target
					character_event = { id = RIP.11052 }
				}
			}
			
			4 = { # Summer Isalnder Doctor (Physician)
				modifier = {
					factor = 0
					AND = {
						has_character_flag = got_physician_mazdan_doctor
						NOT = { had_character_flag = { flag = got_physician_mazdan_doctor days = 3650 } }
					}
				}
				modifier = {
					factor = 0
					trait = wildling
					capital_scope = { 
						OR = {
							region = world_beyond_the_wall 
							region = world_the_wall
						}	
					}
				}
				create_random_priest = {
					culture = summer_islander
					religion = summer_rel
					dynasty = none
					random_traits = yes
					female = no
					health = 6
					trait = physician
					trait = erudite
					flag = is_court_physician
					flag = physician_mazdan_doctor
					flag = ai_flag_refuse_conversion
				}
				new_character = {
					change_learning = 3
					random_list = { # Is the Physician a Quack?
						90 = {
						}
						10 = {
							set_character_flag = physician_is_quack
						}
					}
					save_event_target_as = recruited_physician_target
					character_event = { id = RIP.11052 }
				}
			}
			
			4 = { # starry_wisdom Merchant
				modifier = {
					factor = 0
					AND = {
						has_character_flag = got_physician_manichean_merchant
						NOT = { had_character_flag = { flag = got_physician_manichean_merchant days = 3650 } }
					}
				}
				modifier = {
					factor = 0
					NOT = {
						capital_scope = {
							port = yes
						}
					}
				}
				modifier = {
					factor = 0
					religion = starry_wisdom
				}
				modifier = {
					factor = 0
					trait = wildling
					capital_scope = { 
						OR = {
							region = world_beyond_the_wall 
							region = world_the_wall
						}	
					}
				}
				random_list = {
					10 = {
						create_random_steward = {
							culture = lysene
							religion = starry_wisdom
							dynasty = none
							random_traits = yes
							female = no
							health = 6
							flag = is_court_physician
							flag = physician_manichean_merchant
							flag = ai_flag_refuse_conversion
						}
					}
					10 = {
						create_random_steward = {
							culture = qartheen
							religion = starry_wisdom
							dynasty = none
							random_traits = yes
							female = no
							health = 6
							flag = is_court_physician
							flag = physician_manichean_merchant
							flag = ai_flag_refuse_conversion
						}
					}
					10 = {
						create_random_steward = {
							culture = yi_ti
							religion = starry_wisdom
							dynasty = none
							random_traits = yes
							female = no
							health = 6
							flag = is_court_physician
							flag = physician_manichean_merchant
							flag = ai_flag_refuse_conversion
						}
					}
					10 = {
						create_random_steward = {
							culture = braavosi
							religion = starry_wisdom
							dynasty = none
							random_traits = yes
							female = no
							health = 6
							flag = is_court_physician
							flag = physician_manichean_merchant
							flag = ai_flag_refuse_conversion
						}
					}
					10 = {
						create_random_steward = {
							culture = ghiscari
							religion = starry_wisdom
							dynasty = none
							random_traits = yes
							female = no
							health = 6
							flag = is_court_physician
							flag = physician_manichean_merchant
							flag = ai_flag_refuse_conversion
						}
					}
				}	
				new_character = {
					change_learning = 5
					random_list = { # Is the Physician a Quack?
						90 = {
						}
						10 = {
							set_character_flag = physician_is_quack
						}
					}
					save_event_target_as = recruited_physician_target
					character_event = { id = RIP.11052 }
				}
			}
			2 = { # Greenseer
				modifier = {
					factor = 0
					AND = {
						has_character_flag = got_physician_greenseer
						NOT = { had_character_flag = { flag = got_physician_greenseer days = 3650 } }
					}
				}
				modifier = {
					factor = 0
					NOT = {
						capital_scope = {
							OR = {
								region = world_beyond_the_wall
								region = world_north
							}
							is_old_gods_religion_trigger = yes
						}
					}
				}
				capital_scope = {
					save_event_target_as = physician_greenseer_target
					ROOT = {
						create_character = {
							religion = PREV
							culture = PREV
							dynasty = none
							random_traits = yes
							female = no
							attributes = {
								martial = 1
							}
							health = 6
							trait = greensight
							trait = quick
							flag = is_court_physician
							flag = physician_greenseer
							flag = ai_flag_refuse_conversion
						}
						new_character = {
							change_learning = 9
							remove_lifestyle_trait_effect = yes
							random_list = {
								10 = { add_trait = crow }
								10 = { add_trait = wolf }
								10 = { add_trait = eagle }
								10 = { add_trait = shadowcat }
								10 = { add_trait = direwolf }
							}
							remove_trait = slow
							remove_trait = imbecile
							remove_trait = dull
							random_list = { # Is the Physician a Quack?
								90 = {
								}
								10 = {
									set_character_flag = physician_is_quack
								}
							}
							save_event_target_as = recruited_physician_target
							character_event = { id = RIP.11052 }
						}
					}
				}			
			}
			5 = { # Westerosi Maester
				modifier = {
					factor = 0
					AND = {
						has_character_flag = got_physician_maester
						NOT = { had_character_flag = { flag = got_physician_maester days = 3650 } }
					}
				}
				modifier = {
					factor = 0
					maester_culture_trigger = yes
				}
				modifier = {
					factor = 0
					trait = wildling
					capital_scope = { 
						OR = {
							region = world_beyond_the_wall 
							region = world_the_wall
						}	
					}
				}
				modifier = {
					factor = 2
					capital_scope = { region = world_westeros }
				}
				random_province = {
					limit = { maester_culture_trigger = yes }
					ROOT = {
						create_random_priest = {
							culture = PREV
							religion = PREV
							dynasty = none
							random_traits = yes
							female = no
							health = 6
							trait = maester
							flag = is_court_physician
							flag = physician_maester_doctor
							flag = ai_flag_refuse_conversion
						}
						new_character = {
							change_learning = 3
							remove_lifestyle_trait_effect = yes
							join_society = hermetics
							while = {
								limit = { NOT = { society_rank == 3 } }
								society_rank_up = 1
							}	
							if = {
								limit = { trait = mastermind_theologian }
								if = {
									limit = { NOT = { has_character_flag = choosing_hermetic_art } }
									add_random_maester_specialisation_effect = yes					
								}	
								while = {
									limit = { NOT = { has_links_level_4_trigger = yes } }
									add_random_maester_link_effect = yes
								}
							}
							else_if = {
								limit = { trait = scholarly_theologian }
								if = {
									limit = { NOT = { has_character_flag = choosing_hermetic_art } }
									add_random_maester_specialisation_effect = yes					
								}	
								while = {
									limit = { NOT = { has_links_level_3_trigger = yes } }
									add_random_maester_link_effect = yes
								}
							}
							else_if = {
								limit = { trait = martial_cleric }	
								while = {
									limit = { NOT = { has_links_level_2_trigger = yes } }
									add_random_maester_link_effect = yes
								}
							}
							else = {
								while = {
									limit = { NOT = { has_links_for_maester_rank_trigger = yes } }
									add_random_maester_link_effect = yes
								}
							}
							set_special_character_title = title_maester
							set_character_flag = no_court_invites
							random_list = { # Is the Physician a Quack?
								90 = {
								}
								10 = {
									set_character_flag = physician_is_quack
								}
							}
							save_event_target_as = recruited_physician_target
							character_event = { id = RIP.11052 }
						}
					}	
				}	
			}
			5 = { # Local hospital
				modifier = {
					factor = 0
					AND = {
						has_character_flag = got_physician_hospital_doctor
						NOT = { had_character_flag = { flag = got_physician_hospital_doctor days = 3650 } }
					}
				}
				modifier = {
					factor = 0
					NOT = { capital_scope = { hospital_level = 1 } }
				}
				capital_scope = {
					ROOT = {
						create_random_priest = {
							culture = PREV
							religion = PREV
							dynasty = none
							random_traits = yes
							female = no
							health = 6
							flag = is_court_physician
							flag = physician_hospital_doctor
							flag = ai_flag_refuse_conversion
						}
						new_character = {
							change_learning = 3
							remove_lifestyle_trait_effect = yes
							if = {
								limit = { maester_culture_trigger = yes }
								add_trait = maester
								join_society = hermetics
								while = {
									limit = { NOT = { society_rank == 3 } }
									society_rank_up = 1
								}	
								if = {
									limit = { trait = mastermind_theologian }
									if = {
										limit = { NOT = { has_character_flag = choosing_hermetic_art } }
										add_random_maester_specialisation_effect = yes					
									}	
									while = {
										limit = { NOT = { has_links_level_4_trigger = yes } }
										add_random_maester_link_effect = yes
									}
								}
								else_if = {
									limit = { trait = scholarly_theologian }
									if = {
										limit = { NOT = { has_character_flag = choosing_hermetic_art } }
										add_random_maester_specialisation_effect = yes					
									}	
									while = {
										limit = { NOT = { has_links_level_3_trigger = yes } }
										add_random_maester_link_effect = yes
									}
								}
								else_if = {
									limit = { trait = martial_cleric }	
									while = {
										limit = { NOT = { has_links_level_2_trigger = yes } }
										add_random_maester_link_effect = yes
									}
								}
								else = {
									while = {
										limit = { NOT = { has_links_for_maester_rank_trigger = yes } }
										add_random_maester_link_effect = yes
									}
								}
								set_special_character_title = title_maester
								set_character_flag = no_court_invites
							}	
							else = {
								random_list = {
									80 = { add_trait = physician }
									20 = { add_trait = herbologist }
								}	
							}
							random_list = { # Is the Physician a Quack?
								90 = {
								}
								10 = {
									set_character_flag = physician_is_quack
								}
							}
							save_event_target_as = recruited_physician_target
							character_event = { id = RIP.11052 }
						}
					}	
				}	
			}
			1 = { # Alchemist
				modifier = {
					factor = 0
					AND = {
						has_character_flag = got_physician_alchemist
						NOT = { had_character_flag = { flag = got_physician_alchemist days = 3650 } }
					}
				}
				modifier = {
					factor = 6
					capital_scope = { has_province_modifier = alchemist_guild }
				}
				modifier = {
					factor = 0
					trait = wildling
					capital_scope = { 
						OR = {
							region = world_beyond_the_wall 
							region = world_the_wall
						}	
					}
				}
				capital_scope = {
					ROOT = {
						create_random_intriguer = {
							culture = PREV
							religion = PREV
							dynasty = none
							random_traits = yes
							female = no
							health = 6
							trait = mystic
							trait = fire_obsessed
							flag = is_court_physician
							flag = physician_alchemist_doctor
							flag = ai_flag_refuse_conversion
						}
						new_character = {
							change_learning = 8
							add_character_modifier = { 
								name = pyromancer
								duration = -1
							}
							random_list = { # Is the Physician a Quack?
								90 = {
								}
								10 = {
									set_character_flag = physician_is_quack
								}
							}
							save_event_target_as = recruited_physician_target
							character_event = { id = RIP.11052 }
						}
					}	
				}	
			}
			5 = { # Escaped Slave
				trigger = {
					NOT = { has_game_rule = { name = slavery value = off } }
				}
				modifier = {
					factor = 0
					AND = {
						has_character_flag = got_physician_slave
						NOT = { had_character_flag = { flag = got_physician_slave days = 3650 } }
					}
				}
				modifier = {
					factor = 0
					OR = {
						can_buy_courtier_slaves_trigger = yes
						crownlaw_title = { has_law = slavery_3 }
					}	
				}
				capital_scope = {
					ROOT = {
						random_list = {
							50 = {
								create_random_priest = {
									culture = PREV
									religion = PREV
									dynasty = none
									random_traits = yes
									female = no
									health = 6
									trait = physician
									trait = former_slave
									flag = is_court_physician
									flag = physician_slave_doctor
									flag = ai_flag_refuse_conversion
								}
							}
							50 = {
								create_random_priest = {
									culture = PREV
									religion = PREV
									dynasty = none
									random_traits = yes
									female = yes
									health = 6
									trait = physician
									trait = former_slave
									flag = is_court_physician
									flag = physician_slave_doctor
									flag = ai_flag_refuse_conversion
								}
							}
							50 = {
								create_random_priest = {
									culture = random
									religion = PREV
									dynasty = none
									random_traits = yes
									female = no
									health = 6
									trait = physician
									trait = former_slave
									flag = is_court_physician
									flag = physician_slave_doctor
									flag = ai_flag_refuse_conversion
								}
							}
							50 = {
								create_random_priest = {
									culture = random
									religion = PREV
									dynasty = none
									random_traits = yes
									female = yes
									health = 6
									trait = physician
									trait = former_slave
									flag = is_court_physician
									flag = physician_slave_doctor
									flag = ai_flag_refuse_conversion
								}
							}
						}	
						new_character = {
							check_for_defunct_culture_effect = yes
							change_learning = 3
							random_list = { # Is the Physician a Quack?
								90 = {
								}
								10 = {
									set_character_flag = physician_is_quack
								}
							}
							save_event_target_as = recruited_physician_target
							character_event = { id = RIP.11052 }
						}
					}	
				}	
			}
		}
	}
}

# Court Physician ping
character_event = {
	id = RIP.11052

	hide_window = yes
	hide_new = yes
	is_triggered_only = yes

	immediate = {
		remove_trait = imbecile
		remove_trait = slow
		FROM = { character_event = { id = RIP.11053 } }
	}
}

# Notify player of Court Physician
character_event = {
	id = RIP.11053
	picture = GFX_evt_bishop
	border = GFX_event_normal_frame_religion

	hide_new = yes
	
	portrait = event_target:recruited_physician_target

	is_triggered_only = yes
	

	desc = {
		text = EVTDESC_RIP_11053_VILLAGE_DRUNKARD
		picture = GFX_evt_drunk
		trigger = {
			event_target:recruited_physician_target = { has_character_flag = physician_village_drunkard }
		}
	}
	
	desc = {
		text = EVTDESC_RIP_11053_SHIPS_PHYSICIAN
		picture = GFX_evt_busy_trading_dock_republic
		trigger = {
			event_target:recruited_physician_target = { has_character_flag = physician_ships_physician }
		}
	}
	
	desc = {
		text = EVTDESC_RIP_11053_WISE_DWARF
		picture = GFX_evt_performing_experiments
		trigger = {
			event_target:recruited_physician_target = { has_character_flag = physician_wise_dwarf }
		}
	}
	
	desc = {
		text = EVTDESC_RIP_11053_CONDEMNED_SORCERER
		picture = GFX_evt_heretic
		trigger = {
			event_target:recruited_physician_target = { has_character_flag = physician_condemned_sorcerer }
		}
	}
	
	desc = {
		text = EVTDESC_RIP_11053_CYNICAL_CLERGYMAN
		picture = GFX_evt_monk
		trigger = {
			event_target:recruited_physician_target = { has_character_flag = physician_cynical_clergyman }
		}
	}
	
	desc = {
		text = EVTDESC_RIP_11053_CHINESE_DOCTOR
		picture = GFX_evt_chinese_emissary
		trigger = {
			event_target:recruited_physician_target = { has_character_flag = physician_chinese_doctor }
		}
	}
	
	desc = {
		text = EVTDESC_RIP_11053_ARAB_SCHOLAR
		picture = GFX_evt_council_speaker
		trigger = {
			event_target:recruited_physician_target = { has_character_flag = physician_arab_scholar }
		}
	}
	
	desc = {
		text = EVTDESC_RIP_11053_BELOVED_WISE_MAN
		picture = GFX_evt_scientist
		trigger = {
			event_target:recruited_physician_target = { has_character_flag = physician_beloved_wise_man }
		}
	}
	
	desc = {
		text = EVTDESC_RIP_11053_WANDERING_GENIUS
		picture = GFX_evt_desert
		trigger = {
			event_target:recruited_physician_target = { has_character_flag = physician_wandering_genius }
		}
	}
	
	desc = {
		text = EVTDESC_RIP_11053_ERUDITE_HERBALIST
		picture = GFX_evt_wise_woman
		trigger = {
			event_target:recruited_physician_target = { has_character_flag = physician_erudite_herbalist }
		}
	}
	
	desc = {
		text = EVTDESC_RIP_11053_PAGAN_MYSTIC
		picture = GFX_evt_shaman
		trigger = {
			event_target:recruited_physician_target = { has_character_flag = physician_pagan_mystic }
		}
	}
	
	desc = {
		text = EVTDESC_RIP_11053_INSANE_ZEALOT
		picture = GFX_evt_experiments_failed
		trigger = {
			event_target:recruited_physician_target = { has_character_flag = physician_insane_zealot }
		}
	}
	
	desc = {
		text = EVTDESC_RIP_11053_WELL_TRAVELLED_PILGRIM
		picture = GFX_evt_pilgrims_epic_journey
		trigger = {
			event_target:recruited_physician_target = { has_character_flag = physician_well_traveled_pilgrim }
		}
	}
	
	desc = {
		text = EVTDESC_RIP_11053_STUDENT_OF_MEDICINE
		picture = GFX_evt_doctor_crazy_treatment
		trigger = {
			event_target:recruited_physician_target = { has_character_flag = physician_student_of_medicine }
		}
	}
	
	desc = {
		text = EVTDESC_RIP_11053_BLIND_MIRACLE_WORKER
		picture = GFX_evt_religious_exultation
		trigger = {
			event_target:recruited_physician_target = { has_character_flag = physician_blind_miracle_worker }
		}
	}
	
	desc = {
		text = EVTDESC_RIP_11053_FIELD_SURGEON
		picture = GFX_evt_bloody_tools
		trigger = {
			event_target:recruited_physician_target = { has_character_flag = physician_field_surgeon }
		}
	}
	
	desc = {
		text = EVTDESC_RIP_11053_SCHOOLED_EUNUCH
		picture = GFX_evt_feast
		trigger = {
			event_target:recruited_physician_target = { has_character_flag = physician_schooled_eunuch }
		}
	}
	
	desc = {
		text = EVTDESC_RIP_11053_PUS_SUCKING_NUN
		picture = GFX_evt_monastery_nuns
		trigger = {
			event_target:recruited_physician_target = { has_character_flag = physician_pus_sucking_nun }
		}
	}
	
	desc = {
		text = EVTDESC_RIP_11053_WITCH
		picture = GFX_evt_wise_woman
		trigger = {
			event_target:recruited_physician_target = { has_character_flag = physician_witch }
		}
	}
	
	desc = {
		text = EVTDESC_RIP_11053_HORSE_MD
		picture = GFX_evt_horse_friend
		trigger = {
			event_target:recruited_physician_target = { has_character_flag = physician_horse_md }
		}
	}
	
	desc = {
		text = EVTDESC_RIP_11053_TRAVELLING_NESTORIAN
		picture = GFX_evt_monk_muslim
		trigger = {
			event_target:recruited_physician_target = { has_character_flag = physician_travelling_nestorian }
		}
	}
	
	desc = {
		text = EVTDESC_RIP_11053_MAZDAN_DOCTOR
		picture = GFX_evt_council_arabic
		trigger = {
			event_target:recruited_physician_target = { has_character_flag = physician_mazdan_doctor }
		}
	}
	
	desc = {
		text = EVTDESC_RIP_11053_MANICHEAN_MERCHANT
		picture = GFX_evt_market
		trigger = {
			event_target:recruited_physician_target = { has_character_flag = physician_manichean_merchant }
		}
	}
	
	desc = {
		text = EVTDESC_RIP_11053_GREENSEER
		picture = GFX_skinchanger
		trigger = {
			event_target:recruited_physician_target = { has_character_flag = physician_greenseer }
		}
	}
	desc = {
		text = EVTDESC_RIP_11053_MAESTER
		picture = GFX_evt_library
		trigger = {
			event_target:recruited_physician_target = { has_character_flag = physician_maester }
		}
	}
	desc = {
		text = EVTDESC_RIP_11053_HOSPITAL
		picture = GFX_evt_court_physician
		trigger = {
			event_target:recruited_physician_target = { has_character_flag = physician_hospital_doctor }
		}
	}
	desc = {
		text = EVTDESC_RIP_11053_ALCHEMIST
		picture = GFX_evt_council_speaker
		trigger = {
			event_target:recruited_physician_target = { has_character_flag = physician_alchemist }
		}
	}
	desc = {
		text = EVTDESC_RIP_11053_SLAVE
		picture = GFX_evt_desert
		trigger = {
			event_target:recruited_physician_target = { has_character_flag = physician_slave }
		}
	}
	
	option = {
		name = EVTOPTB_RIP_11053
		trigger = {
			event_target:recruited_physician_target = { has_character_flag = physician_village_drunkard }
		}
		hidden_tooltip = {
			set_character_flag = got_physician_village_drunkard
			if = { 
				limit = {
					job_physician = {
						always = yes
					}
				}
				job_physician = {
					remove_title = job_physician
				}
			}
		}
		transfer_scaled_wealth = {
			to = event_target:recruited_physician_target
			min = 10
			value = 0.1
			max = 75
		}
		event_target:recruited_physician_target = {
			opinion = {
				modifier = opinion_glad
				who = ROOT
				years = 5
			}
			give_job_title = job_physician
		}
	}
	
	option = {
		name = EVTOPTC_RIP_11053
		trigger = {
			event_target:recruited_physician_target = { has_character_flag = physician_ships_physician }
		}
		hidden_tooltip = {
			set_character_flag = got_physician_ships_physician
			if = { 
				limit = {
					job_physician = {
						always = yes
					}
				}
				job_physician = {
					remove_title = job_physician
				}
			}
		}
		transfer_scaled_wealth = {
			to = event_target:recruited_physician_target
			min = 10
			value = 0.3
			max = 100
		}
		event_target:recruited_physician_target = {
			opinion = {
				modifier = opinion_glad
				who = ROOT
				years = 5
			}
			give_job_title = job_physician
		}
	}
	
	option = {
		name = EVTOPTD_RIP_11053
		trigger = {
			event_target:recruited_physician_target = { has_character_flag = physician_wise_dwarf }
		}
		hidden_tooltip = {
			set_character_flag = got_physician_wise_dwarf
			if = { 
				limit = {
					job_physician = {
						always = yes
					}
				}
				job_physician = {
					remove_title = job_physician
				}
			}
		}
		piety = -25
		transfer_scaled_wealth = {
			to = event_target:recruited_physician_target
			min = 10
			value = 0.05
			max = 75
		}
		event_target:recruited_physician_target = {
			opinion = {
				modifier = opinion_glad
				who = ROOT
				years = 5
			}
			give_job_title = job_physician
		}
	}
	
	option = {
		name = EVTOPTF_RIP_11053
		trigger = {
			event_target:recruited_physician_target = { has_character_flag = physician_condemned_sorcerer }
		}
		hidden_tooltip = {
			set_character_flag = got_physician_condemned_sorcerer
			if = { 
				limit = {
					job_physician = {
						always = yes
					}
				}
				job_physician = {
					remove_title = job_physician
				}
			}
		}
		prestige = -25
		piety = -25
		event_target:recruited_physician_target = {
			opinion = {
				modifier = opinion_very_grateful
				who = ROOT
				years = 5
			}
			give_job_title = job_physician
		}
	}
	
	option = {
		name = EVTOPTG_RIP_11053
		trigger = {
			event_target:recruited_physician_target = { has_character_flag = physician_cynical_clergyman }
		}
		hidden_tooltip = {
			set_character_flag = got_physician_cynical_clergyman
			if = { 
				limit = {
					job_physician = {
						always = yes
					}
				}
				job_physician = {
					remove_title = job_physician
				}
			}
		}
		add_character_modifier = {
			name = annoyed_religious
			years = 1
		}
		event_target:recruited_physician_target = {
			opinion = {
				modifier = opinion_glad
				who = ROOT
				years = 5
			}
			give_job_title = job_physician
		}
	}
	
	option = {
		name = EVTOPTH_RIP_11053
		trigger = {
			event_target:recruited_physician_target = { has_character_flag = physician_chinese_doctor }
		}
		hidden_tooltip = {
			set_character_flag = got_physician_chinese_doctor
			if = { 
				limit = {
					job_physician = {
						always = yes
					}
				}
				job_physician = {
					remove_title = job_physician
				}
			}
		}
		transfer_scaled_wealth = {
			to = event_target:recruited_physician_target
			min = 10
			value = 0.2
			max = 75
		}
		event_target:recruited_physician_target = {
			opinion = {
				modifier = opinion_glad
				who = ROOT
				years = 5
			}
			give_job_title = job_physician
		}
	}
	
	option = {
		name = EVTOPTI_RIP_11053
		trigger = {
			event_target:recruited_physician_target = { has_character_flag = physician_arab_scholar }
		}
		hidden_tooltip = {
			set_character_flag = got_physician_arab_scholar
			if = { 
				limit = {
					job_physician = {
						always = yes
					}
				}
				job_physician = {
					remove_title = job_physician
				}
			}
		}
		transfer_scaled_wealth = {
			to = event_target:recruited_physician_target
			min = 10
			value = 0.15
			max = 75
		}
		event_target:recruited_physician_target = {
			opinion = {
				modifier = opinion_glad
				who = ROOT
				years = 5
			}
			give_job_title = job_physician
		}
	}
	
	option = {
		name = EVTOPTJ_RIP_11053
		trigger = {
			event_target:recruited_physician_target = { has_character_flag = physician_beloved_wise_man }
		}
		hidden_tooltip = {
			set_character_flag = got_physician_beloved_wise_man
			if = { 
				limit = {
					job_physician = {
						always = yes
					}
				}
				job_physician = {
					remove_title = job_physician
				}
			}
		}
		scaled_wealth = { value = -0.2 min = -10 max = -75 }
		event_target:recruited_physician_target = {
			opinion = {
				modifier = opinion_glad
				who = ROOT
				years = 5
			}
			give_job_title = job_physician
		}
	}
	
	option = {
		name = EVTOPTK_RIP_11053
		trigger = {
			event_target:recruited_physician_target = { has_character_flag = physician_wandering_genius }
		}
		hidden_tooltip = {
			set_character_flag = got_physician_wandering_genius
			if = { 
				limit = {
					job_physician = {
						always = yes
					}
				}
				job_physician = {
					remove_title = job_physician
				}
			}
		}
		transfer_scaled_wealth = {
			to = event_target:recruited_physician_target
			min = 10
			value = 0.35
			max = 100
		}
		event_target:recruited_physician_target = {
			opinion = {
				modifier = opinion_glad
				who = ROOT
				years = 5
			}
			give_job_title = job_physician
		}
	}
	
	option = {
		name = EVTOPTL_RIP_11053
		trigger = {
			event_target:recruited_physician_target = { has_character_flag = physician_erudite_herbalist }
		}
		hidden_tooltip = {
			set_character_flag = got_physician_erudite_herbalist
			if = { 
				limit = {
					job_physician = {
						always = yes
					}
				}
				job_physician = {
					remove_title = job_physician
				}
			}
		}
		transfer_scaled_wealth = {
			to = event_target:recruited_physician_target
			min = 10
			value = 0.05
			max = 75
		}
		event_target:recruited_physician_target = {
			opinion = {
				modifier = opinion_glad
				who = ROOT
				years = 5
			}
			give_job_title = job_physician
		}
	}
	
	option = {
		name = EVTOPTM_RIP_11053
		trigger = {
			event_target:recruited_physician_target = { has_character_flag = physician_pagan_mystic }
		}
		hidden_tooltip = {
			set_character_flag = got_physician_pagan_mystic
			if = {
				limit = {
					job_physician = {
						always = yes
					}
				}
				job_physician = {
					remove_title = job_physician
				}
			}
		}
		piety = -25
		transfer_scaled_wealth = {
			to = event_target:recruited_physician_target
			min = 10
			value = 0.05
			max = 75
		}
		event_target:recruited_physician_target = {
			opinion = {
				modifier = opinion_glad
				who = ROOT
				years = 5
			}
			give_job_title = job_physician
		}
	}
	
	option = {
		name = EVTOPTN_RIP_11053
		trigger = {
			event_target:recruited_physician_target = { has_character_flag = physician_insane_zealot }
		}
		hidden_tooltip = {
			set_character_flag = got_physician_insane_zealot
			if = {
				limit = {
					job_physician = {
						always = yes
					}
				}
				job_physician = {
					remove_title = job_physician
				}
			}
		}
		piety = 50
		transfer_scaled_wealth = {
			to = event_target:recruited_physician_target
			min = 10
			value = 0.05
			max = 75
		}
		event_target:recruited_physician_target = {
			opinion = {
				modifier = opinion_glad
				who = ROOT
				years = 5
			}
			give_job_title = job_physician
		}
	}
	
	option = {
		name = EVTOPTO_RIP_11053
		trigger = {
			event_target:recruited_physician_target = { has_character_flag = physician_well_traveled_pilgrim }
		}
		hidden_tooltip = {
			set_character_flag = got_physician_well_traveled_pilgrim
			if = {
				limit = {
					job_physician = {
						always = yes
					}
				}
				job_physician = {
					remove_title = job_physician
				}
			}
		}
		transfer_scaled_wealth = {
			to = event_target:recruited_physician_target
			min = 10
			value = 0.15
			max = 75
		}
		event_target:recruited_physician_target = {
			opinion = {
				modifier = opinion_glad
				who = ROOT
				years = 5
			}
			give_job_title = job_physician
		}
	}
	
	option = {
		name = EVTOPTP_RIP_11053
		trigger = {
			event_target:recruited_physician_target = { has_character_flag = physician_student_of_medicine }
		}
		hidden_tooltip = {
			set_character_flag = got_physician_student_of_medicine
			if = {
				limit = {
					job_physician = {
						always = yes
					}
				}
				job_physician = {
					remove_title = job_physician
				}
			}
		}
		transfer_scaled_wealth = {
			to = event_target:recruited_physician_target
			min = 10
			value = 0.03
			max = 50
		}
		event_target:recruited_physician_target = {
			opinion = {
				modifier = opinion_glad
				who = ROOT
				years = 5
			}
			give_job_title = job_physician
		}
	}
	
	option = {
		name = EVTOPTQ_RIP_11053
		trigger = {
			event_target:recruited_physician_target = { has_character_flag = physician_blind_miracle_worker }
		}
		hidden_tooltip = {
			set_character_flag = got_physician_blind_miracle_worker
			if = {
				limit = {
					job_physician = {
						always = yes
					}
				}
				job_physician = {
					remove_title = job_physician
				}
			}
		}
		transfer_scaled_wealth = {
			to = event_target:recruited_physician_target
			min = 10
			value = 0.2
			max = 75
		}
		event_target:recruited_physician_target = {
			opinion = {
				modifier = opinion_glad
				who = ROOT
				years = 5
			}
			give_job_title = job_physician
		}
	}
	
	option = {
		name = EVTOPTR_RIP_11053
		trigger = {
			event_target:recruited_physician_target = { has_character_flag = physician_field_surgeon }
		}
		hidden_tooltip = {
			set_character_flag = got_physician_field_surgeon
			if = {
				limit = {
					job_physician = {
						always = yes
					}
				}
				job_physician = {
					remove_title = job_physician
				}
			}
		}
		transfer_scaled_wealth = {
			to = event_target:recruited_physician_target
			min = 10
			value = 0.3
			max = 100
		}
		event_target:recruited_physician_target = {
			opinion = {
				modifier = opinion_glad
				who = ROOT
				years = 5
			}
			give_job_title = job_physician
		}
	}
	
	option = {
		name = EVTOPTS_RIP_11053
		trigger = {
			event_target:recruited_physician_target = { has_character_flag = physician_schooled_eunuch }
		}
		hidden_tooltip = {
			set_character_flag = got_physician_schooled_eunuch
			if = {
				limit = {
					job_physician = {
						always = yes
					}
				}
				job_physician = {
					remove_title = job_physician
				}
			}
		}
		transfer_scaled_wealth = {
			to = event_target:recruited_physician_target
			min = 10
			value = 0.15
			max = 75
		}
		event_target:recruited_physician_target = {
			opinion = {
				modifier = opinion_glad
				who = ROOT
				years = 5
			}
			give_job_title = job_physician
		}
	}
	
	option = {
		name = EVTOPTT_RIP_11053
		trigger = {
			event_target:recruited_physician_target = { has_character_flag = physician_pus_sucking_nun }
		}
		hidden_tooltip = {
			set_character_flag = got_physician_pus_sucking_nun
			if = {
				limit = {
					job_physician = {
						always = yes
					}
				}
				job_physician = {
					remove_title = job_physician
				}
			}
		}
		scaled_wealth = { value = -0.3 min = -10 max = -75 }
		event_target:recruited_physician_target = {
			opinion = {
				modifier = opinion_glad
				who = ROOT
				years = 5
			}
			give_job_title = job_physician
		}
	}
	
	option = {
		name = EVTOPTU_RIP_11053
		trigger = {
			event_target:recruited_physician_target = { has_character_flag = physician_witch }
		}
		hidden_tooltip = {
			set_character_flag = got_physician_witch
			if = {
				limit = {
					job_physician = {
						always = yes
					}
				}
				job_physician = {
					remove_title = job_physician
				}
			}
		}
		piety = -25
		random_list = {
			90 = {
			}
			10 = {
				add_trait = infection
				hidden_tooltip = {
					character_event = { id = RIP.11001 days = 365 random = 1095 }
				}
			}
		}
		event_target:recruited_physician_target = {
			opinion = {
				modifier = opinion_glad
				who = ROOT
				years = 5
			}
			give_job_title = job_physician
		}
	}
	
	option = {
		name = EVTOPTV_RIP_11053
		tooltip_info = lunatic
		trigger = {
			event_target:recruited_physician_target = { has_character_flag = physician_horse_md }
		}
		hidden_tooltip = {
			set_character_flag = got_physician_horse_md
			if = {
				limit = {
					job_physician = {
						always = yes
					}
				}
				job_physician = {
					remove_title = job_physician
				}
			}
		}
		prestige = -50
		event_target:recruited_physician_target = {
			hidden_tooltip = {
				opinion = {
					modifier = opinion_my_master
					who = ROOT
					years = 100
				}
				reverse_opinion = {
					modifier = opinion_my_horse
					who = ROOT
					years = 100
				}
			}
			give_job_title = job_physician
		}
	}
	
	option = {
		name = EVTOPTW_RIP_11053
		trigger = {
			event_target:recruited_physician_target = { has_character_flag = physician_travelling_nestorian }
		}
		hidden_tooltip = {
			set_character_flag = got_physician_travelling_nestorian
			if = {
				limit = {
					job_physician = {
						always = yes
					}
				}
				job_physician = {
					remove_title = job_physician
				}
			}
		}
		transfer_scaled_wealth = {
			to = event_target:recruited_physician_target
			min = 10
			value = 0.2
			max = 75
		}
		event_target:recruited_physician_target = {
			opinion = {
				modifier = opinion_glad
				who = ROOT
				years = 5
			}
			give_job_title = job_physician
		}
	}
	
	option = {
		name = EVTOPTX_RIP_11053
		trigger = {
			event_target:recruited_physician_target = { has_character_flag = physician_mazdan_doctor }
		}
		hidden_tooltip = {
			set_character_flag = got_physician_mazdan_doctor
			if = {
				limit = {
					job_physician = {
						always = yes
					}
				}
				job_physician = {
					remove_title = job_physician
				}
			}
		}
		transfer_scaled_wealth = {
			to = event_target:recruited_physician_target
			min = 10
			value = 0.25
			max = 75
		}
		event_target:recruited_physician_target = {
			opinion = {
				modifier = opinion_glad
				who = ROOT
				years = 5
			}
			give_job_title = job_physician
		}
	}
	
	option = {
		name = EVTOPTY_RIP_11053
		trigger = {
			event_target:recruited_physician_target = { has_character_flag = physician_manichean_merchant }
		}
		hidden_tooltip = {
			set_character_flag = got_physician_manichean_merchant
			if = {
				limit = {
					job_physician = {
						always = yes
					}
				}
				job_physician = {
					remove_title = job_physician
				}
			}
		}
		prestige = -25
		piety = -25
		event_target:recruited_physician_target = {
			opinion = {
				modifier = opinion_very_grateful
				who = ROOT
				years = 5
			}
			give_job_title = job_physician
		}
	}
	
	option = {
		name = EVTOPTZ_RIP_11053
		trigger = {
			event_target:recruited_physician_target = { has_character_flag = physician_greenseer }
		}
		hidden_tooltip = {
			set_character_flag = got_physician_greenseer
			if = {
				limit = {
					job_physician = {
						always = yes
					}
				}
				job_physician = {
					remove_title = job_physician
				}
			}
		}
		transfer_scaled_wealth = {
			to = event_target:recruited_physician_target
			min = 10
			value = 0.25
			max = 75
		}
		piety = -25
		event_target:recruited_physician_target = {
			opinion = {
				modifier = opinion_very_grateful
				who = ROOT
				years = 5
			}
			give_job_title = job_physician
		}
	}
	option = {
		name = EVTOPT_RIP_11053_MAESTER
		trigger = {
			event_target:recruited_physician_target = { has_character_flag = physician_maester }
		}
		hidden_tooltip = {
			set_character_flag = got_physician_maester
			if = {
				limit = {
					job_physician = {
						always = yes
					}
				}
				job_physician = {
					remove_title = job_physician
				}
			}
		}
		transfer_scaled_wealth = {
			to = event_target:recruited_physician_target
			min = 10
			value = 0.25
			max = 75
		}
		event_target:recruited_physician_target = {
			opinion = {
				modifier = opinion_very_grateful
				who = ROOT
				years = 5
			}
			give_job_title = job_physician
		}
	}
	option = {
		name = EVTOPT_RIP_11053_HOSPITAL
		trigger = {
			event_target:recruited_physician_target = { has_character_flag = physician_hospital_doctor }
		}
		hidden_tooltip = {
			set_character_flag = got_physician_hospital_doctor
			if = {
				limit = {
					job_physician = {
						always = yes
					}
				}
				job_physician = {
					remove_title = job_physician
				}
			}
		}
		scaled_wealth = { value = -0.25 min = -10 max = -75 }
		event_target:recruited_physician_target = {
			opinion = {
				modifier = opinion_very_grateful
				who = ROOT
				years = 5
			}
			give_job_title = job_physician
		}
	}
	option = {
		name = EVTOPT_RIP_11053_ALCHEMIST
		trigger = {
			event_target:recruited_physician_target = { has_character_flag = physician_alchemist }
		}
		hidden_tooltip = {
			set_character_flag = got_physician_alchemist
			if = {
				limit = {
					job_physician = {
						always = yes
					}
				}
				job_physician = {
					remove_title = job_physician
				}
			}
		}
		transfer_scaled_wealth = {
			to = event_target:recruited_physician_target
			min = 10
			value = 0.25
			max = 75
		}
		event_target:recruited_physician_target = {
			opinion = {
				modifier = opinion_very_grateful
				who = ROOT
				years = 5
			}
			give_job_title = job_physician
		}
	}
	option = {
		name = EVTOPT_RIP_11053_SLAVE
		trigger = {
			event_target:recruited_physician_target = { has_character_flag = physician_slave }
		}
		hidden_tooltip = {
			set_character_flag = got_physician_slave
			if = {
				limit = {
					job_physician = {
						always = yes
					}
				}
				job_physician = {
					remove_title = job_physician
				}
			}
		}
		event_target:recruited_physician_target = {
			opinion = {
				modifier = opinion_very_grateful
				who = ROOT
				years = 5
			}
			give_job_title = job_physician
		}
	}
	option = {
		name = EVTOPTA_RIP_11053
		
		ai_chance = {
			factor = 0
		}
		
		hidden_tooltip = {
			event_target:recruited_physician_target = { 
				death = {
					death_reason = death_missing
				}
			}
		}
	}
}