# Supported types:
# character, spouse, rivals, friends, liege_titles, vassal_titles, realm_titles, realm_characters, realm_characters_plus, independent_rulers

###############
# NEW AMBITIONS
###############

# Council ambition


# Gain land for son


# Gain land for daughter


obj_build_a_war_chest = {
	type = character
	
	potential = {		
		has_dlc = "Zeus"
		is_ruler = yes	
		is_nomadic = no
		NOT = { tier = BARON }
		NOT = { has_character_modifier = war_chest_timer }
		NOT_mythical_creature_trigger = yes
		NOT = { trait = nightswatch }
		NOT = { trait = kingsguard }
		NOT = { trait = archmaester }
		NOT = { government = wildling_feudal_government }
		is_tribal = no
	}
	
	allow = {
		is_adult = yes
		demesne_size = 1
		war = no
		OR = {
			AND = {
				tier = count
				NOT = { wealth = 300 }
			}
			AND = {
				tier = duke
				NOT = { wealth = 500 }
			}
			AND = {
				tier = king
				NOT = { wealth = 700 }
			}
			AND = {
				tier = emperor
				NOT = { wealth = 1000 }
			}
		}
		NOR = { 
			trait = incapable
			trait = in_hiding
			trait = honorable
			trait = just
		}
	}
	chance = {
		factor = 50
		
		modifier = {
			factor = 10
			NOT = { wealth = 0 }
		}
		modifier = {
			factor = 2
			trait = ruthless
		}
		modifier = {
			factor = 2
			trait = greedy
		}
		modifier = {
			factor = 2
			trait = diligent
		}
		modifier = {
			factor = 2
			martial = 10
		}
		modifier = {
			factor = 0.5
			NOT = { martial = 10 }
		}
		modifier = {
			factor = 0.5
			independent = no
		}
		modifier = {
			factor = 0.2
			trait = honest
		}
		modifier = {
			factor = 0.2
			trait = kind
		}
		modifier = {
			factor = 0.2
			trait = charitable
		}
		modifier = {
			factor = 0
			trait = content
		}
		modifier = {
			factor = 0.5
			trait = slothful
		}
		modifier = {
			factor = 0.5
			tier = count
			wealth = 200
		}	
		modifier = {
			factor = 0.5
			tier = duke
			wealth = 350
		}
		modifier = {
			factor = 0.5
			tier = king
			wealth = 550
		}
		modifier = {
			factor = 0.5
			tier = emperor
			wealth = 850
		}
		modifier = {
			factor = 0.5
			government = theocracy_government
		}
		modifier = {
			factor = 0.5
			tier = count
			independent = no
		}
		modifier = {
			factor = 0.5
			tier = duke
			independent = no
		}
	}
	success = {
		custom_tooltip = {
			text = obj_build_a_war_chest_success_custom_tooltip
			hidden_tooltip = {
				OR = {
					AND = {
						tier = count
						wealth = 300
					}
					AND = {
						tier = duke
						wealth = 500
					}
					AND = {
						tier = king
						wealth = 700
					}
					AND = {
						tier = emperor
						wealth = 1000
					}
				}
			}
		}
	}
	abort = {
		OR = {
			is_ruler = no
			trait = incapable
			trait = nightswatch
			trait = kingsguard
			trait = archmaester
			has_character_flag = abort_obj
		}	
	}
	abort_effect = {
		clr_character_flag = abort_obj
	}
	effect = {
		add_character_modifier = {
			modifier = war_taxes
			months = 60
		}
		add_character_modifier = {
		   modifier = war_chest_timer
		   years = 25
		   hidden = yes
		}
	}
}


obj_groom_an_heir = {
	type = character
	
	fertility = 0.20
	
	potential = {
		has_dlc = "Conclave"
		ai = no
		higher_tier_than = BARON
		holy_order = no
		mercenary = no
	}
	
	allow = {
		is_adult = yes
		is_ruler = yes
		OR = {
			NOT = { trait = eunuch }
			any_child = {
				is_alive = yes
			}
		}
		NOR = {
			trait = incapable
			trait = in_hiding
			AND = {
				age = 45
				is_female = yes
			}
			age = 75
		}
		current_heir = {
			is_adult = no
			is_child_of = ROOT
			age = 10
			NOT = {
				custom_tooltip = {
					text = bastard_eunuch_celibate_or_incapable_tt
					OR = {
						trait = bastard
						trait = eunuch
						trait = celibate
						trait = incapable
					}
				}
			}
			OR = {
				custom_tooltip = { #it's a boy, and you have Agnatic
					text = boy_agnatic_tt
					is_female = no
					ROOT = { primary_title = { has_law = agnatic_succession } }
				}
				custom_tooltip = { #it's a girl and you have Enatic
					text = girl_enatic_tt
					is_female = yes	
					ROOT = { primary_title = { has_law = enatic_succession } }
				}
				custom_tooltip = {
					text = not_enatic_or_agnatic_tt
					NOR = {
						ROOT = { primary_title = { has_law = enatic_succession } }	
						ROOT = { primary_title = { has_law = agnatic_succession } }
					}
				}
			}
		}	
	}
	chance = {
		factor = 100
		
		modifier = {
			factor = 0
			is_theocracy = yes
		}
		modifier = {
			factor = 0
			trait = celibate
		}
		modifier = {
			factor = 10
			has_focus = focus_family
		}
		modifier = {
			factor = 5
			trait = bastard
		}
		modifier = {
			factor = 5
			age = 30
		}
		modifier = {
			factor = 5
			age = 45
		}
		modifier = {
			factor = 5
			government = nomadic_government
		}
		modifier = {
			factor = 2
			trait = genius
		}
		modifier = {
			factor = 2
			trait = quick
		}
		modifier = {
			factor = 0.5
			trait = shy
		}
		modifier = {
			factor = 0.5
			trait = chaste
		}
	}
	success = {
		current_heir = {
			is_adult = yes
			is_child_of = ROOT
			NOT = {
				custom_tooltip = {
					text = bastard_eunuch_celibate_or_incapable_tt
					OR = {
						trait = bastard
						trait = eunuch
						trait = celibate
						trait = incapable
					}
				}
			}
			OR = {
				custom_tooltip = { #it's a boy, and you have Agnatic
					text = boy_agnatic_tt
					is_female = no
					ROOT = { primary_title = { has_law = agnatic_succession } }
				}
				custom_tooltip = { #it's a girl and you have Enatic
					text = girl_enatic_tt
					is_female = yes	
					ROOT = { primary_title = { has_law = enatic_succession } }
				}
				custom_tooltip = {
					text = not_enatic_or_agnatic_tt
					NOR = {
						ROOT = { primary_title = { has_law = enatic_succession } }	
						ROOT = { primary_title = { has_law = agnatic_succession } }
					}
				}
			}
		}
	}
	abort = {
		trait = incapable
	}
	abort_effect = {
	}
	effect = {
		any_child = {
			limit = {
				is_alive = yes
			}
			opinion = {
				who = ROOT
				modifier = opinion_family_love
				months = 240
			}
		}
		# custom_tooltip = {
			# text = opinion_boost_child
			# hidden_tooltip = {
				
			# }
		# }
	}
}
# See the realm prosper
obj_see_the_realm_prosper = {
	type = character
	
	creation_effect = {
		add_character_modifier = {
			name = prosperity_5_year
			years = 5
		}
	}
	
	aggression = 0.25
	
	global_revolt_risk = -0.01
	
	potential = {
		has_dlc = "Reapers"
		is_playable = yes
		is_landed = yes
		higher_tier_than = BARON
		is_nomadic = no
		liege = { is_nomadic = no }
		NOT_mythical_creature_trigger = yes
		NOT = { has_character_modifier = prosper_ambition_timer }
	}
	
	allow = {
		any_realm_province = {
			any_province_holding = {
				OR = {
					holding_type = city
					holding_type = castle
					holding_type = tribal
				}
			}
			NOR = {
				has_province_modifier = depopulated_1
				has_province_modifier = depopulated_2
				has_province_modifier = depopulated_3
			}
		}
		war = no
		independent = yes
		is_adult = yes
		NOR = { 
			trait = incapable
			is_inaccessible_trigger = yes
		}
	}
	
	chance = {
		factor = 100
		
		modifier = {
			factor = 0.05
			OR = {
				trait = wroth
				trait = cruel
				trait = impaler
				trait = arbitrary
				trait = slothful
				trait = ruthless
			}
		}
		modifier = {
			factor = 0.2
			NOR = {
				trait = architect
				trait = administrator
				trait = gardener
				trait = charitable
				trait = diligent
				trait = patient
				trait = honorable
				trait = content
				trait = just
				has_focus = focus_rulership
			}
		}
		modifier = {
			factor = 1.5
			trait = charitable
		}
		modifier = {
			factor = 3.0
			has_focus = focus_rulership
		}
		modifier = {
			factor = 1.5
			OR = {
				trait = indulgent_wastrel
				trait = thrifty_clerk
				trait = fortune_builder
				trait = midas_touched
			}
		}
	}
	
	success = {
		custom_tooltip = {
			text = tooltip_obj_see_the_realm_prosper
			hidden_tooltip = {
				NOT = {
					has_character_modifier = prosperity_5_year
				}
			}
		}
	}
	
	abort = {
		OR = {
			trait = incapable
			is_playable = no
			is_landed = no
			any_war = {
				NOR = {
					using_cb = peasant_revolt
					using_cb = heretic_revolt
					using_cb = religious_revolt
					using_cb = liberation_revolt
				}
			}
		}
	}
	
	abort_effect = {
		remove_character_modifier = prosperity_5_year
		add_character_modifier = {
		   modifier = prosper_ambition_timer
		   years = 5
		   hidden = yes
		}
	}
	
	effect = {
		change_stewardship = 1
		custom_tooltip = {
			text = realm_prospers_custom_tooltip
			hidden_tooltip = {
				any_realm_province = {
					limit = {
						any_province_holding = {
							OR = {
								holding_type = city
								holding_type = castle
								holding_type = tribal
							}
						}
						NOR = {
							has_province_modifier = depopulated_1
							has_province_modifier = depopulated_2
							has_province_modifier = depopulated_3
						}
					}
					change_variable = { which = prosperity_value value = 35 }
				}
				if = {
					limit = {
						has_nickname = no
						is_adult = yes
						is_incapable = no
					}
					random_list = {
						5 = {
							give_nickname = nick_the_gentle
						}
						5 = {
							give_nickname = nick_the_affable
						}
						5 = {
							give_nickname = nick_the_shrewd
						}
						5 = {
							give_nickname = nick_the_gracious
						}
						100 = {}
					}
				}
			}
		}
		add_character_modifier = {
		   modifier = prosper_ambition_timer
		   years = 25
		   hidden = yes
		}
	}
}