900.1.1={
	liege="c_lordsport"
	law=succ_primogeniture law=cognatic_succession
}
7855.1.1 = { holder=343064 } # Eerl (nc)
7863.1.1 = { holder=342064 } # Boremund (nc)
7889.1.1 = { holder=341064 } # Gynir (nc)
7912.1.1 = { holder=340064 } # Qarl (nc)

7951.1.1 = { holder=300864 } # Harlon (nc)
7980.1.1 = { holder=300464 } # Victarion (nc)
8007.1.1 = { holder=300164 } # Balon (nc)
8021.1.1 = { holder=300064 } # Yohn (nc)
8030.1.1 = { holder=300264 } # Harren (nc)
8065.1.1 = { holder=300664 } # Ambrode (nc)
8073.1.1 = { holder=300764 } # Sigfry (nc)
8096.1.1 = { holder=300964 } # Adrack (nc)
8134.5.1 = { holder=301364 } # Urrigon (nc)
8145.1.1 = { holder=301664 } # Germund (nc)
8183.1.1 = { holder=301864 } # Urek (nc)
8195.1.1 = { holder=302364 } # Alyn (nc)
8205.1.1 = { holder=302664 } # Cadwyl (nc)
8256.1.1 = { holder=9064 }
8281.1.1 = {	
	holder=64
}
8299.10.3={
	holder=67
	liege="d_pyke"
}