900.1.1={ 
	liege="d_tourmaline"
	holding_dynasty = 350016 # Barthos
}
7864.1.1 = { holder=345350016 } # Sallor (nc)
7874.1.1 = { holder=344350016 } # Qallos (nc)
7893.1.1 = { holder=343350016 } # Ochos (nc)
7921.1.1 = { holder=342350016 } # Kenbello (nc)
7940.1.1 = { holder=341350016 } # Lathos (nc)
7949.1.1 = { holder=340350016 } # Periso (nc)

7995.1.1 = { holder=150350016 } # Wendello (nc)
8027.1.1 = { holder=100350016 } # Luceo (nc)
8057.1.1 = { holder=101350016 } # Regon (nc)
8080.1.1 = { holder=104350016 } # Sybassion (nc)
8110.1.1 = { holder=106350016 } # Sybassion (nc)
8122.1.1 = { holder=107350016 } # Nyessos (nc)
8129.1.1 = { holder=110350016 } # Urrathon (nc)
8148.1.1 = { holder=113350016 } # Mundello (nc)
8200.1.1 = { holder=116350016 } # Methyso (nc)
8223.1.1 = { holder=121350016 } # Nyessos (nc)
8247.1.1 = { holder=123350016 } # Egon (nc)
8281.1.1 = { holder=126350016 } # Egon (nc)


