#House Faez
900.1.1={ 
	liege="c_yunkai"
}
7855.1.1 = { holder=358360018 } # Grazdan (nc)
7882.1.1 = { holder=357360018 } # Gorzhak (nc)
7914.1.1 = { holder=356360018 } # Miklaz (nc)
7925.1.1 = { holder=355360018 } # Grazdhar (nc)
7939.1.1 = { holder=354360018 } # Hizdhar (nc)
7964.1.1 = { holder=353360018 } # Azzak (nc)
7999.1.1 = { holder=352360018 } # Oznak (nc)
8009.1.1 = { holder=351360018 } # Paezhar (nc)
8023.1.1 = { holder=350360018 } # Zhezzan (nc)
8049.1.1 = { holder=349360018 } # Morghaz (nc)
8094.1.1 = { holder=348360018 } # Razdal (nc)
8105.1.1 = { holder=347360018 } # Reznak (nc)
8123.1.1 = { holder=346360018 } # Liznuq (nc)
8141.1.1 = { holder=345360018 } # Yurkhaz (nc)
8177.1.1 = { holder=344360018 } # Skahaz (nc)
8205.1.1 = { holder=343360018 } # Ozzan (nc)
8220.1.1 = { holder=342360018 } # Grazdan (nc)
8236.1.1 = { holder=341360018 } # Haghdon (nc)
8266.1.1 = { holder=340360018 } # Shizhar (nc)
8275.1.1 = { 
	holder = 360018 # Faezhar (C)
}