6000.1.1={
	liege="c_pinesend"
	law = succ_primogeniture
}
7840.1.1={holder=21096}
7890.1.1={holder=20096}
7915.1.1={holder=19096}
7940.1.1={holder=18096}
7965.1.1={holder=17096}
7990.1.1={holder=16096}
8015.1.1={
	holder=14096
}
8026.1.1={
	holder=13096
}
8062.1.1={
	holder=12096
}
8088.1.1={
	holder=11096
}
8136.1.1={
	holder=10096
}
8152.1.1={
	holder=15096
}
8174.1.1={
	holder=8096
}
8213.1.1={
	holder=6096
}
8241.1.1={
	holder=2096
}
8262.1.1={
	holder=96
}
