900.1.1={ law=succ_primogeniture law=cognatic_succession
	liege="c_harrowaystown"
}
8136.1.1 = {
	holder=178450 #Long Jon Heddle (C)
}
8166.1.1 = {
	holder=10178450 #Jon's son, abused by Lord Darry
}
8201.1.1 = { holder=11178450 } #Alyn (nc)
8214.1.1 = { holder=12178450 } #Garse (nc)
8226.1.1 = { holder=13178450 } #Masha Heddle grandfather
8270.1.1 = {
	holder=19178450 #Masha Heddle (C)
}
8298.10.24 = {
	holder=16178450 #Masha's nephew
}
8299.6.1 = { 
	holder=17178450 #Long Jeyne Heddle (C)
}


