900.1.1={ law=succ_primogeniture law=cognatic_succession
	liege="c_starpike"
}
#House Pommingham
7845.1.1={holder=100274}
7895.1.1={holder=101274}
7920.1.1={holder=102274}
7945.1.1={holder=103274}
7970.1.1={holder=104274}
7995.1.1={holder=105274}
8020.1.1={holder=106274}
8045.1.1={holder=107274}
8070.1.1={holder=108274}
8095.1.1={holder=109274}
8120.1.1={holder=110274}
8145.1.1={holder=111274}
8170.1.1={holder=112274}
8195.1.1={holder=113274}
8220.1.1={holder=114274}
8245.1.1={holder=115274}
8270.1.1={
	holder=88223
}







