#House Zhak
900.1.1 = {
	liege = c_meereenesehills
}
7860.1.1 = { holder=354360016 } # Draqaz (nc)
7885.1.1 = { holder=353360016 } # Hazrak (nc)
7911.1.1 = { holder=352360016 } # Mazdhan (nc)
7948.1.1 = { holder=351360016 } # Kharkaz (nc)
7969.1.1 = { holder=350360016 } # Marghaz (nc)
7999.1.1 = { holder=349360016 } # Draqaz (nc)
8002.1.1 = { holder=348360016 } # Bhakaz (nc)
8040.1.1 = { holder=347360016 } # Yarkhaz (nc)
8088.1.1 = { holder=346360016 } # Zharaq (nc)
8101.1.1 = { holder=345360016 } # Chezdhar (nc)
8120.1.1 = { holder=344360016 } # Azzak (nc)
8142.1.1 = { holder=343360016 } # Ozzak (nc)
8183.1.1 = { holder=342360016 } # Haezhar (nc)
8216.1.1 = { holder=341360016 } # Shizhar (nc)
8220.1.1 = { holder=340360016 } # Yarkhaz (nc)
8244.1.1 = { holder=101360016 } # Hizdahr (nc)
8252.1.1 = { holder=102360016 } # Prendahl (nc)
8300.1.1 = { holder=109360016 } # Haznak (nc)