7000.1.1={
	liege = d_gogossos
	holding_dynasty = 723350
}
7880.1.1 = { holder=10003350 } # Benerro (nc)
7914.1.1 = { holder=10013350 } # Qoherys (nc)
7939.1.1 = { holder=10053350 } # Aenar (nc)

7950.1.1 = { holder=0 } # Red Death
