6000.1.1={
	liege="c_rushmoor"
}
7860.1.1 = { holder=34469113 } # Olyvar (nc)
7886.1.1 = { holder=34369113 } # Gareth (nc)
7909.1.1 = { holder=34269113 } # Perwyn (nc)
7927.1.1 = { holder=34169113 } # Baldric (nc)
7962.1.1 = { holder=34069113 } # Harys (nc)
7989.1.1 = { holder=1669113 } # Willis (nc)
8001.1.1 = { holder=1569113 } # Arlan (nc)
8031.1.1 = { holder=1469113 } # Mathis (nc)
8057.1.1 = { holder=1369113 } # Arwyn (nc)
8081.1.1 = { holder=1269113 } # Raymond (nc)
8106.1.1 = { holder=1169113 } # Jammos (nc)
8141.1.1 = { holder=969113 } # Hendry (nc)
8147.1.1 = { holder=869113 } # Brynden (nc)
8171.1.1 = { holder=769113 } # Maynard (nc)
8194.1.1 = { holder=669113 } # Donnel (nc)
8213.1.1 = { holder=569113 } # Addam (nc)
8222.1.1 = { holder=469113 } # Alesander (nc)
8271.1.1 = { holder=69113 } # 