900.1.1={ law=succ_primogeniture law=cognatic_succession
	liege="c_volmark"
}
5286.1.1 = { holder = 150115 } #Harren (nc)
5330.1.1 = { holder = 0 }

7846.1.1 = { holder=6027115 } # Euron (nc)
7880.1.1 = { holder=6028115 } # Cotter (nc)
7928.1.1 = { holder=6031115 } # Fralegg (nc)
7934.1.1 = { holder=6033115 } # Dykk (nc)
7951.1.1 = { holder=6026115 } # Rodrik (nc)
7976.1.1 = { holder=6025115 } # Torgon (nc)
7995.1.1 = { holder=6000115 } # Sylas (nc)
8016.1.1 = { holder=6001115 } # Wex (nc)
8043.1.1 = { holder=6004115 } # Dagmer (nc)
8050.1.1 = { holder=6007115 } # Ygon (nc)
8102.1.1 = { holder=6010115 } # Lenwood (nc)
8121.1.1 = { holder=6013115 } # Harrag (nc)
8146.1.1 = { holder=6014115 } # Urragon (nc)
8186.1.1 = { holder=6017115 } # Lorren (nc)
8202.1.1 = { holder=6019115 } # Hagen (nc)
8230.1.1 = { holder=6020115 } # Romny (nc)

8249.1.1 = {	
	holder=3000115
}
8287.1.1 = {	
	holder=3002115
}





