#House Rogare
900.1.1={ 
	liege="c_silkhead"
}
7845.1.1 = { holder=34455999 } # Lyronys (nc)
7877.1.1 = { holder=34355999 } # Lysodos (nc)
7903.1.1 = { holder=34255999 } # Cregar (nc)
7927.1.1 = { holder=34155999 } # Daaro (nc)
7954.1.1 = { holder=34055999 } # Silvario (nc)

7970.1.1 = { holder=150300539 } # Nyessos (nc)
8029.1.1 = { holder=100300539 } # Doniphos (nc)
8075.1.1 = { holder=104300539 } # Orbelo (nc)
8077.1.1 = { holder=106300539 } # Oro (nc)
8115.1.1 = { holder=107300539 } # Gyleno (nc)
8125.1.1 = { holder=108300539 } # Lysandro (C)
8135.12.2 = { holder=110300539 } # Lysaro Rogare(C)
8136.1.1 = { holder=112300539 } # Moredo (C)
8165.1.1 = { holder=114300539 } # Orbelo (nc)
8209.1.1 = { holder=119300539 } # Moreo (nc)
8233.1.1 = { holder=120300539 } # Gyleno (nc)
8252.1.1 = { holder=123300539 } # Orbelo (nc)
8259.1.1={ holder = 0 } #Ninepenny king
8259.12.31 = { holder = 123300539 } 
8260.1.1 = { holder=125300539 } # Byan (nc)

