1000.1.1 = {
	name = b_sandford
}
7300.1.1={
	liege="c_sunspear"
	law = true_cognatic_succession
}
8187.6.1 = { #Built by maron to celebrate wedding
	holder=11001 #Maron (C)
	reset_name = yes
}
8220.1.1={
	holder=99002
}
8230.1.1={
	holder=24001
}
8251.1.1={
	holder=2001
}
8280.1.1={
	holder=1
}