#Westford
900.1.1={ 
	liege="c_wyndhall"
}
7857.1.1 = { holder=3452158 } # Walderan (nc)
7878.1.1 = { holder=3442158 } # Nestor (nc)
7902.1.1 = { holder=3432158 } # Philip (nc)
7933.1.1 = { holder=3422158 } # Rafford (nc)
7960.1.1 = { holder=3412158 } # Orbert (nc)
7977.1.1 = { holder=3402158 } # Kennet (nc)

7993.1.1 = { holder=2002158 } # Amory (c)
8019.1.1 = { holder=3212158 } # Mors (nc)
8039.1.1 = { holder=3192158 } # Tregar (nc)
8045.1.1 = { holder=3182158 } # Merlon (nc)
8046.1.1 = { holder=3222158 } # Elyn (nc)
8089.1.1 = { holder=3122158 } # Daven (nc)
8110.1.1 = { holder=3082158 } # Tion (nc)
8130.1.1 = { holder=3072158 } # Morwyn (nc)
8177.1.1 = { holder=3062158 } # Mors (nc)
8178.1.1 = { holder=3042158 } # Amory (nc)
8196.1.1 = { holder=3242158 } # Amarei (nc)
8211.1.1 = { holder=3032158 } # Amory (nc)
8232.1.1 = {holder=2158} # Daven (c)
8280.1.1 = {holder=12158} # Mors (c)
8284.1.1 = {holder=45000156} #  Graymarch
