#House Nestoris
7600.1.1={
	liege="k_braavos"
}
7850.1.1 = { holder=345300001 } # Morio (nc)
7866.1.1 = { holder=344300001 } # Terro (nc)
7899.1.1 = { holder=343300001 } # Yorko (nc)
7921.1.1 = { holder=342300001 } # Bessaro (nc)
7933.1.1 = { holder=341300001 } # Florio (nc)
7955.1.1 = { holder=340300001 } # Bobono (nc)

7993.1.1 = { holder=100300001 } # Denyo (nc)
8036.1.1 = { holder=101300001 } # Gyloro (nc)
8045.1.1 = { holder=103300001 } # Terro (nc)
8052.1.1 = { holder=106300001 } # Qarro (nc)
8089.1.1 = { holder=108300001 } # Tagganaro (nc)
8104.1.1 = { holder=113300001 } # Pynto (nc)
8141.1.1 = { holder=114300001 } # Mero (nc)
8154.1.1 = { holder=119300001 } # Idario (C)
8179.1.1 = { holder=121300001 } # Denyo (nc)
8207.1.1 = { holder=123300001 } # Terro (nc)
8260.1.1 = { holder=127300001 } # Ordello (nc)
8282.1.1 = { holder=128300001 } # Beqqo (nc)
