#House Kalzarria
600.1.1={
	liege="d_asabhad"
}
7860.1.1 = { holder=34569165 } # Kalevoon (nc)
7874.1.1 = { holder=34469165 } # Hannu (nc)
7912.1.1 = { holder=34369165 } # Ai (nc)
7924.1.1 = { holder=34269165 } # Orvo (nc)
7946.1.1 = { holder=34169165 } # Raimo (nc)
7977.1.1 = { holder=34069165 } # Nyilo (nc)

7995.1.1 = { holder=100069165 } # Abdullah (nc)
8032.1.1 = { holder=100169165 } # Ghalib (nc)
8041.1.1 = { holder=100269165 } # Fadl (nc)
8053.1.1 = { holder=100869165 } # Is'mail (nc)
8112.1.1 = { holder=100969165 } # Youkhanna (nc)
8130.1.1 = { holder=101269165 } # Khaireddin (nc)
8145.1.1 = { holder=101369165 } # Muslihiddin (nc)
8175.1.1 = { holder=101669165 } # Jibril (nc)
8193.1.1 = { holder=101769165 } # Gafur (nc)
8251.1.1 = { holder=101869165 } # Yahya (nc)
8272.1.1 = { holder=102069165 } # Muzaffaraddin (nc)
8291.1.1 = { holder=102469165 } # Yusuf (nc)

