

1000.1.1={
	liege="d_the_giants_lance"
	law = succ_appointment
	effect = {
		set_title_flag = military_command
		holder_scope = {
			if = {
				limit = { primary_title = { title = PREVPREV } }
				set_government_type = military_command_government 
				PREV = { succession = appointment }
				recalc_succession = yes
			}
		}
	}	
}


6539.1.1 = { holder=900178 }	#Artys I Arryn
6563.1.1 = { holder=5060178 }	#Osric I
6575.1.1 = { holder=5560178 }	#Alester I
6586.1.1 = { holder=5061178 }	#Roland I
6612.1.1 = { holder=550178 }	#Mathos I
6626.1.1 = { holder=551178 }	#Osric II
6644.1.1 = { holder=552178 }	#Roland II
6649.1.1 = { holder=553178 }	#Robin
6662.1.1 = { holder=557178 }	#Hugh
6683.1.1 = { holder=559178 }	#Hugo
6710.1.1 = { holder=560178 }	#Alester II
6735.1.1 = { holder=561178 }	#Mathos II
6761.1.1 = { holder=5161178 }	#Osric III

6789.1.1 = { holder=0 }

7132.1.1 = { holder=555178 }	#Osric IV
7146.1.1 = { holder=556178 }	#Osric V
7167.1.1 = { holder=562178 }	#Osgood
7220.1.1 = { holder=563178 }	#Oswin
7229.1.1 = { holder=564178 }	#Oswell I

7247.1.1 = { holder=0 }

7813.1.1 = {holder=225178}	#Artys II
7868.1.1 = {holder=224178}	#Rodrik
7880.1.1 = {holder=223178}	#Jon
7908.1.1 = {holder=222178}	#Ronnel I
7931.1.1={ holder=214178 }	#Artys III
7965.1.1={ holder=213178 }	#Oswell II
7990.1.1={ holder=211178 }	#Joffrey
7995.1.1={ holder=210178 }  #Ronnel Arryn - The Arryn that bent the knee. Last person to wear the Falcon Crown.
8037.9.9={ holder=251178} # Jonos Arryn (brother usurper)
8039.1.1={ holder=5085178}	#Hubert Arryn
8050.1.1={holder=208178}	#Elbert Arryn
8054.1.1={ holder=207178 }	#Rodrik Arryn
8090.1.1={holder=206178}
8097.1.1={holder=5052178}	#Jeyne Arryn
8124.1.1={holder=5050178}	#Joffrey Arryn
8136.2.1={holder=5058178}  	#Josten Arryn
8148.1.1={holder=3008189} 	#Elias Waxley
8154.1.1={holder=218178}  	#Conrad Arryn
8162.1.1={holder=5059178} 	#Ober Arryn
8200.1.1={holder=200178}	#Othor Arryn
8220.1.1={holder=94001}		#Jasper Arryn
8248.1.1={holder=94002}   	#Jon Arryn
8284.1.1={holder=3159}      	#Brynden Tully
8299.1.1={holder=94023}     	#Donnel Waynwood







