#House Swyft
900.1.1={
	liege="d_cornfield"
}
7866.1.1 = { holder=344228 } # Tanton (nc)
7879.1.1 = { holder=343228 } # Sebaston (nc)
7903.1.1 = { holder=342228 } # Wilbert (nc)
7921.1.1 = { holder=341228 } # Harrold (nc)
7956.1.1 = { holder=340228 } # Philip (nc)

7990.1.1 = { holder=311228 } # Simon (nc)
7998.6.6 = { holder=310228 } # Humfrey (nc)
8039.5.8 = { holder=309228 } # Jon (nc) 
8077.1.1 = { holder=308228 } # Lambert (nc)
8106.1.1 = { holder=307228 } # Harys (nc)
8130.1.1 = { holder=306228 } # Tommard (nc)
8145.1.1 = { holder=305228 } # Ingram (sc)
8174.1.1 = { holder=304228 } # Lymond (sc)
8194.1.1 = { holder=303228 } # Loren (nc)
#Swyfts lose lordship after blackfyre rebellion (assumption)
8196.1.1={
	liege="k_westerlands"
}
8216.1.1 = { holder=205228 } # Harrold (C)
8232.1.1 = { holder=302228 } # Willem (nc)
8260.1.1 = {	
	holder=228 # Harys Swyft (C)
}
8300.2.9 = {
	liege="e_iron_throne"
}