#House Pahl
600.1.1={
	liege="k_meereen"
}
7850.1.1 = { holder=345360007 } # Skahaz (nc)
7874.1.1 = { holder=344360007 } # Oznak (nc)
7908.1.1 = { holder=343360007 } # Azzak (nc)
7911.1.1 = { holder=342360007 } # Morghaz (nc)
7940.1.1 = { holder=341360007 } # Ozzan (nc)
7959.1.1 = { holder=340360007 } # Marghaz (nc)

7995.1.1 = { holder=150360007 } # Gorzhak (nc)
8017.1.1 = { holder=100360007 } # Marghaz (nc)
8046.1.1 = { holder=101360007 } # Maezon (nc)
8079.1.1 = { holder=104360007 } # Hizdhar (nc)
8112.1.1 = { holder=107360007 } # Grazdan (nc)
8142.1.1 = { holder=110360007 } # Grazdan (nc)
8186.1.1 = { holder=116360007 } # Haznak (nc)
8223.1.1 = { holder=119360007 } # Mazdhan (nc)
8238.1.1 = { holder=121360007 } # Ghazdor (nc)
8267.1.1 = { holder=122360007 } # Skahaz (nc)
8298.1.1 = { holder=125360007 } # Miklaz (nc)
8300.1.1={
	liege="d_meereen"
	holder=135360007
}