#House Lumitits
600.1.1={
	liege="k_pentos"
}
7860.1.1 = { holder=34469126 } # Nyessonar (nc)
7881.1.1 = { holder=34369126 } # Draqoros (nc)
7913.1.1 = { holder=34269126 } # Rollo (nc)
7939.1.1 = { holder=34169126 } # Garrido (nc)
7962.1.1 = { holder=34069126 } # Dynerro (nc)

7991.1.1 = { holder=100069126 } # Denyo (nc)
8032.1.1 = { holder=100169126 } # Orbelo (nc)
8037.1.1 = { holder=100369126 } # Ezzelyno (nc)
8043.1.1 = { holder=100869126 } # Moreo (nc)
8061.1.1 = { holder=100969126 } # Beqqo (nc)
8080.1.1 = { holder=101069126 } # Gyloro (nc)
8104.1.1 = { holder=101469126 } # Terro (nc)
8144.1.1 = { holder=101669126 } # Roggo (nc)
8173.1.1 = { holder=101969126 } # Moredo (nc)
8174.1.1 = { holder=102069126 } # Joss (nc)
8235.1.1 = { holder=102169126 } # Terro (nc)
8240.1.1 = { holder=102569126 } # Tagganaro (nc)
8266.1.1 = { holder=102669126 } # Allaquo (nc)
8290.1.1 = { holder=102769126 } # Daario (nc)
