#House Flaerys
6700.1.1={
	law = succ_primogeniture
	liege = k_pentos
}
7855.1.1 = { holder=345300900 } # Bysiros (nc)
7882.1.1 = { holder=344300900 } # Nereo (nc)
7900.1.1 = { holder=343300900 } # Ryos (nc)
7929.1.1 = { holder=342300900 } # Nakorno (nc)
7952.1.1 = { holder=341300900 } # Cyrio (nc)
7971.1.1 = { holder=340300900 } # Stalleno (nc)

7985.1.1 = { holder=100300900 } # Cyrio (nc)
8023.1.1 = { holder=101300900 } # Garrido (nc)
8065.1.1 = { holder=105300900 } # Belapho (nc)
8076.1.1 = { holder=107300900 } # Syran (nc)
8097.1.1 = { holder=108300900 } # Aeradhor (nc)
8101.1.1 = { holder=109300900 } # Lyrio (nc)
8118.1.1 = { holder=110300900 } # Allo (nc)
8126.1.1 = { holder=111300900 } # Vargio (nc)
8172.1.1 = { holder=119300900 } # Vyrano (nc)
8194.1.1 = { holder=120300900 } # Larazys (nc)
8217.1.1 = { holder=123300900 } # Conos (nc)
8241.1.1 = { holder=124300900 } # Zoro (nc)
8289.1.1 = { holder=131300900 } # Nyessapho (nc)
