#NOTE: The holder of this title has the House Cafferen dynasty tracker set in roberts_rebellion_events
#House Cafferen
7000.1.1={ liege="d_summerhall" }
7869.1.1 = { holder = 343310 } # Clifford (nc)
7880.1.1 = { holder = 342310 } # Benther (nc)
7906.1.1 = { holder = 341310 } # Cendrick (nc)
7933.1.1 = { holder = 340310 } # Casper (nc)

7960.1.1 = { holder = 60100310} # Cameron (nc)
7997.1.1 = { holder = 300310 } # Steffon (nc)
8004.2.15 = { holder = 301310 } # Eldon (nc)
8012.8.1 = { holder = 303310 } # Gowen (nc)
8061.1.1 = { holder = 304310 } # Bryen (nc)
8128.1.1 = { holder = 306310 } # Robert (nc)
8129.1.1 = { holder = 307310 } # Harben (nc)
8160.1.1 = { holder = 308310 } # Steffon (nc)
8170.1.1 = { holder = 309310 } # Aemon (nc)
8178.6.1 = {liege="k_stormlands"}
8200.1.1 = { holder = 310310 } # Lester (nc)
8208.1.1 = { holder = 311310 } # Steffen (nc)
8236.1.1 = { holder = 312310 } # Harben (nc)
8274.1.1 = { holder = 310 } # Bryen Cafferen (C)
8283.1.1={ 
	holder = 100310  # Barth (nc)
}
8299.7.1 = { liege = 0 }