6000.1.1={
	liege="d_barrowlands"
	law = succ_primogeniture
}
#House Waterman
7863.1.1 = { holder=344090 } # Jonos (nc)
7872.1.1 = { holder=343090 } # Wyman (nc)
7898.1.1 = { holder=342090 } # Howland (nc)
7928.1.1 = { holder=341090 } # Wylis (nc)
7949.1.1 = { holder=340090 } # Larence (nc)

7970.1.1 = { holder=16090 } # Ethan (nc)
8016.1.1 = { holder=15090 } # Tomard (nc)
8021.1.1 = { holder=14090 } # Wyman (nc)
8040.1.1 = { holder=13090 } # Benfred (nc)
8060.1.1 = { holder=12090 } # Walder (nc)
8072.1.1 = { holder=11090 } # Willam (nc)
8115.1.1 = { holder=10090 } # Jeor (nc)
8164.1.1 = { holder=8090 } # Qhorin (nc)
8171.1.1 = { holder=7090 } # Ronnel (nc)
8202.1.1 = { holder=6090 } # Jorah (nc)
8221.1.1 = { holder=5090 } # Gariss (nc)
8267.1.1 = { holder=2090 } 
8281.1.1={
	holder=90
}