7848.1.1 = { holder=340559165 } # Brogg (nc)
7871.1.1 = { holder=342559165 } # Harmond (nc)
7922.1.1 = { holder=344559165 } # Halleck (nc)
7944.1.1 = { holder=345559165 } # Toregg (nc)
7946.1.1 = { holder=346559165 } # Myrtle (nc)
7992.1.1 = { holder=10559165 } # Henk (nc)
8021.1.1 = { holder=12559165 } # Hareth (nc)
8024.1.1 = { holder=13559165 } # Walton (nc)
8053.1.1 = { holder=14559165 } # Arson (nc)
8089.1.1 = { holder=15559165 } # Doss (nc)
8118.1.1 = { holder=16559165 } # Mance (nc)
8134.1.1 = { holder=22559165 } # Vayon (nc)
8166.1.1 = { holder=24559165 } # Sigorn (nc)
8191.1.1 = { holder=26559165 } # Ondrew (nc)
8196.1.1 = { holder=25559165 } # Lenyl (nc)
8213.1.1 = { holder=28559165 } # Mance (nc)
8213.1.1={
	liege="k_beyond_wall"
}
8226.9.9={
	liege="0"
}
8243.1.1 = { holder=157017 } # Ygon Oldfather (C)

# 8243.1.1 = { holder=30559165 } # Quort (nc)
# 8273.1.1 = { holder=32559165 } # Del (nc)
# 8290.1.1 = { holder=33559165 } # Vayon (nc)
8298.1.1={
	liege="k_beyond_wall"
}
8300.2.10={
	holder=999000666
}