6000.1.1={
	liege="d_thecrossing"
}
7830.1.1={
	holder=22132
}
7890.1.1={
	holder=21132
}
7912.1.1={
	holder=20132
}
7942.1.1={
	holder=19132
}
7968.1.1={
	holder=18132
}
8000.1.1={
	holder=16132
}
8019.1.1={
	holder=15132
}
8033.1.1={
	holder=14132
}
8044.1.1={
	holder=13132
}
8094.1.1={
	holder=11132
}
8132.1.1={
	holder=9132
}
8155.1.1={
	holder=8132
}
8186.1.1={
	holder=6132
}
8205.1.1={
	holder=5132
}
8221.1.1={
	holder=4132
}
8264.1.1={
	holder=132
}