#House Tazraaq
7000.1.1 = {
	liege = k_hazdahn
}
7860.1.1 = { holder=35469200 } # Liznuq (nc)
7884.1.1 = { holder=35369200 } # Fendahl (nc)
7911.1.1 = { holder=35269200 } # Hazrak (nc)
7949.1.1 = { holder=35169200 } # Miznahl (nc)
7961.1.1 = { holder=35069200 } # Zazhan (nc)

7995.1.1 = { holder=10069200 } # Grazdhan (nc)
8010.1.1 = { holder=10169200 } # Barkhaz (nc)
8015.1.1 = {
	liege = d_rhaesh_jim
	holder=102600202 # Jhaquo (nc)
}
8055.1.1 = { holder=104600202 } # Qotho (nc)
8073.1.1 = { holder=107600202 } # Mago (nc)
8102.1.1 = { holder=111600202 } # Bharbo (nc)
8104.1.1 = { holder=114600202 } # Bharbo (nc)
8140.1.1 = { holder=117600202 } # Fogo (nc)
8144.1.1 = { holder=118600202 } # Qotho (nc)
8180.1.1 = { holder=119600202 } # Aggo (nc)
8193.1.1 = { holder=120600202 } # Bharbo (nc)
8202.1.1 = { holder=122600202 } # Temmo (nc)
8243.1.1 = { holder=127600202 } # Drogo (nc)
8260.1.1 = { holder=130600202 } # Zollo (nc)
8287.1.1 = { 
	holder=3300102 #Jhaqo
} 

