#House Chester
900.1.1={ law=succ_primogeniture law=cognatic_succession
	liege="e_reach"
}
7866.1.1 = { holder=6025277 } # Leo (nc)
7878.1.1 = { holder=6024277 } # Quentyn (nc)
7928.1.1 = { holder=6023277 } # Moribald (nc)
7962.1.1 = { holder=6022277 } # Bayard (nc)

7970.1.1 = { holder=6000277 } # Olymer (nc)
7998.6.6={
	liege="k_reach"
}
8020.1.1 = { holder=6001277 } # Edwyn (nc)
8025.1.1 = { holder=6002277 } # Desmond (nc)
8045.1.1 = { holder=6003277 } # Dareon (nc)
8053.1.1 = { holder=6005277 } # Alester (nc)
8066.1.1 = { holder=6007277 } # Victor (nc)
8115.1.1 = { holder=6010277 } # Byren (nc)
8140.1.1 = { holder=6011277 } # Mervyn (nc)
8160.1.1 = { holder=6013277 } # Thorald (nc)
8180.1.1 = { holder=6018277 } # Myria (nc)
8215.1.1 = { holder=6014277 } # Wendell (nc)
8247.1.1 = { holder=6015277 } # Aemon (nc)
8256.1.1 = { holder=6020277 } # Runceford (nc)
8265.1.1={
	holder=277
}
8300.2.1={ holder=1277 }



