#House Hayford
7600.1.1={
	liege="d_hayford"
	law = succ_primogeniture
}
7858.1.1 = { holder=344032 } # Loreth (nc)
7877.1.1 = { holder=343032 } # Clement (nc)
7900.1.1 = { holder=342032 } # Morgan (nc)
7931.1.1 = { holder=341032 } # Rupert (nc)
7966.1.1 = { holder=340032 } # Hobert (nc)

7984.1.1 = { holder=6000032 } # Balman (nc)
8023.1.1 = { holder=6000132 } # Danos (nc)
8048.3.1 = { holder=6000332 }
8052.1.1 = { holder=6000532 } # Allard (nc)
8114.1.1 = { holder=6000632 } # Alyn (nc)
8129.8.1 = { holder=6000832 } # Herman (nc)
8175.1.1 = { holder=6000932 } # Rance (C)
8196.6.1 = { holder=6001032 } # Robyn (SC)
8209.6.1 = { holder=6001432 } # Robert (nc)
8221.1.1 = { holder=6001732 } # Jon (nc)
8242.1.1 = { holder=6002432 } # Perkin (nc)

8291.1.1={
	holder = 32 	#Loghain Hayford
}
8299.1.1={
	holder = 932 	#Ermesande Hayford
}