6000.1.1={
	liege="d_wayfarersrest"
}
7830.1.1={
	holder=30155
}
7880.1.1={
	holder=29155
}
7900.1.1={
	holder=28155
}
7930.1.1={
	holder=27155
}
7950.1.1={
	holder=26155
}
7980.1.1={
	holder=24155
}
8004.1.1={
	holder=23155
}
8009.1.1={
	holder=22155
}
8027.1.1={
	holder=21155
}
8075.1.1={
	holder=25155
}
8111.1.1={
	holder=19155
}
8117.1.1={
	holder=18155
}
8137.1.1={
	holder=17155
}
8151.1.1={
	holder=16155
}
8197.1.1={
	holder=15155
}
8203.1.1={
	holder=14155
}
8210.1.1={
	holder=13155
}
8222.1.1={
	holder=12155
}
8266.1.1={
	holder=155
}
