#House Inchfield
900.1.1={ 
	law=succ_primogeniture 
	law=cognatic_succession
	liege="d_west_marches"
}
7865.1.1 = { holder=6004249 } # Lymond (nc)
7880.1.1 = { holder=6003249 } # Lucas (nc)
7927.1.1 = { holder=6002249 } # Wendell (nc)
7952.1.1 = { holder=6001249 } # Garse (nc)

7980.1.1 = { holder=6000249 } # Kyle (nc)
8007.1.1 = { holder=60100249 } # Leyton (nc)
8038.1.1 = { holder=60202249 } # Lucas (nc)
8061.1.1 = { holder=60204249 } # Tommen (nc)
8080.1.1 = { holder=60206249 } # Samwell (nc)
8089.1.1 = { holder=60209249 } # Owen (nc)
8136.1.1 = { holder=60212249 } # Bertram (nc)
8137.1.1 = { holder=60214249 } # Hosman (nc)
8184.1.1 = { holder=60216249 } # Owain (nc)
8199.1.1 = { holder=60224249 } # Lorent (nc)
8220.1.1 = { holder=88274 } # Leo (nc)
8276.1.1 = { holder=249 } # Leyton (nc)




