#House Xhoan
7800.1.1 = {
	liege=d_moluu
	law = succ_seniority
	law = cognatic_succession
}
7841.1.1 = { holder=340304004 } # Lusaxharo (nc)
7865.1.1 = { holder=341304004 } # Xataya (nc)
7886.1.1 = { holder=342304004 } # Udo (nc)
7902.1.1 = { holder=343304004 } # Qubya (nc)
7956.1.1 = { holder=344304004 } # Olujondo (nc)
7982.1.1 = { holder=345304004 } # Quhura (nc)
7998.1.1 = { holder=100304004 } # Qaro (nc)
8018.1.1 = { holder=102304004 } # Adeyemu (nc)
8043.1.1 = { holder=106304004 } # Chibundo (nc)
8071.1.1 = { holder=108304004 } # Kwasdo (nc)
8103.1.1 = { holder=113304004 } # Xaro (nc)
8127.1.1 = { holder=116304004 } # Bapato (nc)
8151.1.1 = { holder=121304004 } # Xhal (nc)
8182.1.1 = { holder=126304004 } # Arkamun (nc)
8223.1.1 = { holder=128304004 } # Jiradhar (nc)
8231.1.1 = { holder=130304004 } # Jiradhar (nc)
8286.1.1 = { holder=133304004 } # Xhakan (nc)
8290.1.1 = { holder=135304004 } # Qaro (nc)

