#House Bole
6000.1.1={
	liege="d_wolfswood"
	law = succ_primogeniture
}
7866.1.1 = { holder=3441446 } # Brennet (nc)
7875.1.1 = { holder=3431446 } # Rylen (nc)
7901.1.1 = { holder=3421446 } # Balian (nc)
7931.1.1 = { holder=3411446 } # Osric (nc)
7944.1.1 = { holder=3401446 } # Wallen (nc)

7967.1.1 = { holder=11446 } # Garth (nc)
7993.1.1 = { holder=21446 } # Ramsay (nc)
8025.1.1 = { holder=31446 } # Roose (nc)
8039.1.1 = { holder=41446 } # Mikken (nc)
8054.1.1 = { holder=61446 } # Meliana (nc)
8100.1.1 = { holder=121446 } # Bernarr (nc)
8107.1.1 = { holder=141446 } # Benjen (nc)
8143.1.1 = { holder=161446 } # Barbrey (nc)
8158.1.1 = { holder=171446 } # Donnis (nc)
8205.1.1 = { holder=191446 } # Bass (nc)
8228.1.1 = { holder=211446 } # Torren (nc)
8251.1.1 = { holder=221446 } # Hugo (nc)
8284.1.1 = { holder=241446 } # Porther (nc)
8296.1.1 = { holder=291446 } # Yoren (nc)
