#House Magnar
7000.1.1 = {
	liege="e_north"
	law = succ_primogeniture
}
7869.1.1 = { holder=343104 } # Ryk (nc)
7883.1.1 = { holder=342104 } # Gorne (nc)
7904.1.1 = { holder=341104 } # Arnolf (nc)
7940.1.1 = { holder=340104 } # Luton (nc)

7961.1.1 = { holder=13104 } # Alfyn (nc)
7999.1.1 = {
	liege="k_north"
}
8006.1.1 = { holder=12104 } # Cayn (nc)
8015.1.1 = { holder=11104 } # Bodger (nc)
8025.1.1 = { holder=10104 } # Hareth (nc)
8059.1.1 = { holder=9104 } # Hallis (nc)
8102.1.1 = { holder=8104 } # Soren (nc)
8111.1.1 = { holder=7104 } # Wallen (nc)
8161.1.1 = { holder=6104 } # Del (nc)
8194.1.1 = { holder=5104 } # Arthor (nc)
8195.1.1 = {
	liege = d_skagos
}
8196.1.1 = {
	liege = 0
}
8197.1.1 = {
	liege="k_north"
}
8205.1.1 = { holder=4104 } # Owen (nc)
8239.1.1 = { holder=3104 } # Gorne (nc)
8282.1.1 = { holder=104 }
