#House Uxo
7800.1.1 = {
	liege=d_the_three_exiles
	law = succ_seniority
	law = cognatic_succession
}
7865.1.1 = { holder=340304010 } # Udo (nc)
7881.1.1 = { holder=341304010 } # Quanda (nc)
7899.1.1 = { holder=342304010 } # Doshuru (nc)
7933.1.1 = { holder=343304010 } # Jalabhar (nc)
7955.1.1 = { holder=344304010 } # Jarada (nc)
8000.1.1 = { holder=100304010 } # Koroxhar (nc)
8023.1.1 = { holder=104304010 } # Isodo (nc)
8052.1.1 = { holder=106304010 } # Tal (nc)
8075.1.1 = { holder=109304010 } # Manahuru (nc)
8114.1.1 = { holder=112304010 } # Eskender (nc)
8137.1.1 = { holder=118304010 } # Xhakan (nc)
8145.1.1 = { holder=122304010 } # Bapato (nc)
8209.1.1 = { holder=128304010 } # Xhakan (nc)
8238.1.1 = { holder=131304010 } # Rudo (nc)
8265.1.1 = { holder=137304010 } # Dubaku (nc)
8285.1.1 = { holder=141304010 } # Jarado (nc)



