900.1.1={
	liege="d_blackwood"
	law = succ_primogeniture
}

#House Bigglestone
7827.1.1 = { holder=140178452 }
7879.1.1 = { holder=139178452 }
7906.1.1 = { holder=138178452 }
7931.1.1 = { holder=137178452 }
7960.1.1 = { holder=136178452 }
7986.1.1 = { holder=135178452 }
7990.1.1 = { holder=100178452 }
8015.1.1 = { holder=101178452 }
8057.1.1 = { holder=103178452 } # Hendry (nc)
8112.1.1 = { holder=109178452 } # Sandor (nc)
8130.1.1 = { holder=112178452 } # Andrey (nc)
8138.1.1 = { holder=117178452 } # Meribald (nc)
8186.1.1 = { holder=119178452 } # Dickon (nc)
8196.1.1 = { holder=122178452 } # Raymund (nc)
8235.1.1 = { holder=128178452 } # Ebrose (nc)
8275.1.1 = { holder=129178452 } # Osmund (nc)
8289.1.1 = { holder=131178452 } # Brynden (nc)



