6000.1.1={
	liege="d_southstone"
}
7845.1.1={
	holder=27147
}
7900.1.1={
	holder=26147
}
7930.1.1={
	holder=25147
}
7950.1.1={
	holder=24147
}
7970.1.1={
	holder=23147
}
8000.1.1={
	holder=22147
}
8016.1.1={
	holder=21147
}
8063.1.1={
	holder=19147
}
8098.1.1={
	holder=18147
}
8122.1.1={
	holder=17147
}
8141.1.1={
	holder=16147
}
8190.1.1={
	holder=13147
}
8205.1.1={
	holder=12147
}
8276.1.1={
	holder=147
}
