#House Caron
202.1.1 = { liege="e_stormlands"}
7860.1.1 = { holder = 344301 } # Bryce (nc)
7872.1.1 = { holder = 343301 } # Olrys (nc)
7900.1.1 = { holder = 342301 } # Reynard (nc)
7928.1.1 = { holder = 341301 } # Bryen (nc)
7951.1.1 = { holder = 340301 } # Rolland (nc)

7976.1.1 = { holder = 300301 } # Steffon (nc)
7998.2.27 = {
	liege = k_stormlands
}
8003.1.1 = { holder = 60200301 } # Robert (nc)
8024.1.1 = { holder = 301301 } # Ellyn Caron (C)
8041.1.1 = { holder = 302301 } # Morton Caron (C)
8053.1.1 = { holder = 303301 } # Byron (nc)
8084.1.1 = { holder = 304301 } # Royce Caron (C)
8140.1.1 = { holder = 305301 } # Balon (nc)
8172.1.1 = { holder = 307301 } # Barrystan (nc)
8187.1.1 = { holder = 308301 } # Pearse Caron (C)
8195.3.7 = {
	liege = 0
}
8196.6.1 = {
	liege = "k_stormlands"
}
8226.1.1 = { holder = 309301 } # Balon (nc)
8246.1.1 = { holder = 310301 } # Casper (nc)
8262.1.1 = { holder = 320301 } # Rolland (nc)
8276.1.1 = { holder = 301 } # Bryen Caron (C)
8289.1.1 = { holder = 1301 } # Bryce Caron (C)

#House Foote
8299.7.1 = { holder = 251204 } # Philip (C)