6000.1.1={
	liege = "e_north"
	law = succ_primogeniture
}
7816.1.1={
	holder=25088
}
7868.1.1={
	holder=24088
}
7875.1.1={
	holder=23088
}
7912.1.1={
	holder=22088
}
7925.1.1={
	holder=21088
}
7946.1.1={
	holder=17088
}
7972.1.1={
	holder=16088
}
7999.1.1={
	liege="k_north"
}
8013.1.1={
	holder=15088
}
8031.1.1={
	holder=14088
}
8037.1.1={
	holder=13088
}
8068.1.1={
	holder=12088
}
8108.1.1={
	holder=10088
}
8151.1.1={
	holder=9088
}
8166.1.1={
	holder=8088
}
8174.1.1={
	holder=7088
}
8204.1.1={
	holder=6088
}
8240.1.1={
	holder=5088
}
8262.1.1={
	holder=88
}
