#House Dhogarys
600.1.1={
	liege="k_volantis"
}
7867.1.1 = { holder=34469145 } # Pyrio (nc)
7879.1.1 = { holder=34369145 } # Stallaquo (nc)
7901.1.1 = { holder=34269145 } # Nereo (nc)
7929.1.1 = { holder=34169145 } # Noroquo (nc)
7966.1.1 = { holder=34069145 } # Tregys (nc)

7995.1.1 = { holder=100069145 } # Nyessos (nc)
8030.1.1 = { holder=100269145 } # Rolloquo (nc)
8053.1.1 = { holder=100569145 } # Malaquo (nc)
8075.1.1 = { holder=100869145 } # Navaphos (nc)
8088.1.1 = { holder=100969145 } # Horonno (nc)
8156.1.1 = { holder=101069145 } # Yorko (nc)
8179.1.1 = { holder=101369145 } # Bolquello (nc)
8197.1.1 = { holder=101469145 } # Orbelo (nc)
8229.1.1 = { holder=101769145 } # Moqorro (nc)
8264.1.1 = { holder=102169145 } # Navaphos (nc)
8270.1.1 = { holder=102369145 } # Doniphos (nc)
