#House Peckledon
900.1.1={
	liege="d_goldroad"
}
7868.1.1 = { holder=344219 } # Josmyn (nc)
7884.1.1 = { holder=343219 } # Landyll (nc)
7925.1.1 = { holder=342219 } # Selmond (nc)
7932.1.1 = { holder=341219 } # Uthor (nc)
7959.1.1 = { holder=340219 } # Lewys (nc)

7978.6.1 = { holder=316219 } # Petyr (nc)
7998.6.6 = { holder=318219 } # Podrick (nc)
8043.1.1 = { holder=200219 } # Myrielle (nc)
8058.1.1 = { holder=315219 } # Ormond (nc)
8078.1.1 = { holder=313219 } # Hendry (nc)
8109.1.1 = { holder=312219 } # Josmyn (nc)
8130.3.17 = { holder=311219 } # Roderick (nc)
8143.1.1 = { holder=309219} # Maynard (nc)
8165.1.1 = { holder=305219 } # Ormond (nc)
8204.1.1 = { holder=304219 } # Hendrick (nc)
8227.1.1 = { holder=303219 } # Josmyn (nc)
8248.1.1 = { holder=301219 } # Podrick (nc)
8259.3.8 = { holder=300219 } # Lymond (nc)
8259.3.9 = {	
	holder=219
}