#House Piper
6000.1.1={
	liege="d_acornsridge"
	law = succ_primogeniture
}
7836.1.1 = { holder=344157 } # Marq (nc)
7901.1.1 = { holder=343157 } # Benedict (nc)
7916.1.1 = { holder=342157 } # Wilbert (nc)
7921.1.1 = { holder=341157 } # Humfrey (nc)
7955.1.1 = { holder=340157 } # Manfryd (nc)

7976.1.1={
	holder=14157
}
8008.1.1={
	holder=13157
}
8037.1.1={
	holder=12157
}
8040.1.1={
	holder=11157
}
8043.1.2={
	holder=10099157
}
8079.1.1={
	holder=9157
}
8130.1.1={
	holder=25157
}
8130.5.8={
	holder=8157 # Willem (SC)
}
8170.1.1={
	holder=7157
}
8178.1.1={
	holder=6157
}
8191.1.1={
	holder=5157
}
8214.1.1={
	holder=4157
}
8237.1.1={
	holder=3157
}
8266.1.1={
	holder=2157
}
8282.1.1={
	holder=157
}