#House Marlaq
600.1.1={
	liege="k_new_ghis"
}
7859.1.1 = { holder=34569155 } # Razlahr (nc)
7869.1.1 = { holder=34469155 } # Grazdan (nc)
7895.1.1 = { holder=34369155 } # Barkhaz (nc)
7920.1.1 = { holder=34269155 } # Kraznys (nc)
7945.1.1 = { holder=34169155 } # Paezhar (nc)
7963.1.1 = { holder=34069155 } # Razlar (nc)

7993.1.1 = { holder=100069155 } # Azzak (nc)
8035.1.1 = { holder=100369155 } # Maezon (nc)
8051.1.1 = { holder=100569155 } # Reznak (nc)
8071.1.1 = { holder=100969155 } # Grazdan (nc)
8119.1.1 = { holder=101469155 } # Grazdan (nc)
8123.1.1 = { holder=101769155 } # Yezzan (nc)
8147.1.1 = { holder=101969155 } # Fendahl (nc)
8209.1.1 = { holder=102169155 } # Gorzhak (nc)
8238.1.1 = { holder=102369155 } # Haznak (nc)
8269.1.1 = { holder=102969155 } # Reznak (nc)
8281.1.1 = { holder=103269155 } # Skahaz (nc)

