7800.1.1={
	law = succ_turkish_succession
	law = agnatic_succession
}
7872.1.1 = { holder=345174344 } # Gorne (nc)
7892.1.1 = { holder=344174344 } # Toregg (nc)
7916.1.1 = { holder=343174344 } # Sigorn (nc)
7927.1.1 = { holder=342174344 } # Cregan (nc)
7955.1.1 = { holder=341174344 } # Gendel (nc)
7979.1.1 = { holder=340174344 } # Gavin (nc)
7999.1.1 = { holder=100344 } # Sygertt (nc)
8009.1.1 = { holder=102344 } # Halgor (nc)
8037.1.1 = { holder=103344 } # Gendel (nc)
8052.1.1 = { holder=104344 } # Tormund (nc)
8086.1.1 = { holder=105344 } # Stygett (nc)
8107.1.1 = { holder=106344 } # Stiv (nc)
8141.1.1 = { holder=107344 } # Halys (nc)
8162.1.1 = { holder=108344 } # Harlon (nc)
8168.1.1 = { holder=109344 } # Wayn (nc)
8208.1.1 = { holder=110344 } # Dryn (nc)
8213.1.1={
	liege="k_beyond_wall"
}
8226.9.9={
	liege="0"
}
8228.1.1 = { holder=111344 } # Errok (nc)
8255.1.1 = { holder=112344 } # Halleck (nc)
8276.1.1 = { holder=174344 } # Styr (C)
8298.1.1={
	liege="k_beyond_wall"
}
8299.11.11 = { holder=274344 } # Sigorn (C)
8300.2.10={
	holder=999000666
}