#House Jho
7800.1.1 = {
	liege=d_the_three_exiles
	law = succ_seniority
	law = cognatic_succession
}
7850.1.1 = { holder=340304041 } # Isodo (nc)
7869.1.1 = { holder=341304041 } # Adeyemu (nc)
7897.1.1 = { holder=342304041 } # Quanda (nc)
7927.1.1 = { holder=343304041 } # Doshuru (nc)
7932.1.1 = { holder=344304041 } # Dubaya (nc)
7956.1.1 = { holder=345304041 } # Doshuru (nc)
8006.1.1 = { holder=346304041 } # Orengo (nc)
8010.1.1 = { holder=100304041 } # Abrafo (nc)
8037.1.1 = { holder=102304041 } # Chakoro (nc)
8052.1.1 = { holder=104304041 } # Arkamun (nc)
8072.1.1 = { holder=106304041 } # Xhakan (nc)
8078.1.1 = { holder=107304041 } # Jalabhar (nc)
8097.1.1 = { holder=111304041 } # Qubhar (nc)
8112.1.1 = { holder=112304041 } # Anyim (nc)
8122.1.1 = { holder=114304041 } # Koroxhar (nc)
8134.1.1 = { holder=116304041 } # Doshuru (nc)
8200.1.1 = { holder=119304041 } # Gatubhar (nc)
8238.1.1 = { holder=121304041 } # Chakoro (nc)
8250.1.1 = { holder=123304041 } # Orengo (nc)
8273.1.1 = { holder=127304041 } # Makhan (nc)


