#House Pahryris
6780.1.1 = { liege = k_essaria }
7878.1.1 = { holder=340662900 } # Matarys (nc)
7885.1.1 = { holder=10002900 } # Belicho (nc)
7926.1.1 = { holder=10012900 } # Methyso (nc)
7953.1.1 = { holder=10032900 } # Colloquo (nc)
7969.1.1 = { holder=10062900 } # Belicho (nc)

#Dothraki
7980.1.1 = { holder=0 liege = 0 }
7985.1.1 = { 
	historical_nomad = yes
	holder = 100600210  #Khal temmo (C)
}
7999.1.1 = { holder = 0 liege = 0 }
8290.1.1 = { holder=101600206 } #Zekko (C)