#House Zobridar
2000.1.1 = {
	law = succ_primogeniture
	law = agnatic_succession
}
7849.1.1 = { holder=344570136 } # Vaegor (nc)
7879.1.1 = { holder=343570136 } # Tyraevar (nc)
7900.1.1 = { holder=342570136 } # Laenarr (nc)
7919.1.1 = { holder=341570136 } # Aedor (nc)
7945.1.1 = { holder=340570136 } # Aelix (nc)
	
7954.1.1 = { holder=100570136 } # Vaekar (nc)
8012.1.1 = { holder=102570136 } # Malaquo (nc)
8038.1.1 = { holder=103570136 } # Belicho (nc)
8040.1.1 = { holder=108570136 } # Vaermon (nc)
8059.1.1 = { holder=110570136 } # Parquello (nc)
8090.1.1 = { holder=115570136 } # Alios (nc)
8096.1.1 = { holder=117570136 } # Orys (nc)
8120.1.1 = { holder=118570136 } # Colloquo (nc)
8158.1.1 = { holder=119570136 } # Moqorro (nc)
8162.1.1 = { holder=121570136 } # Aenar (nc)
8190.1.1 = { holder=122570136 } # Qavo (nc)
8214.1.1 = { holder=128570136 } # Alios (nc)
8256.1.1 = { holder=130570136 } # Qoherys (nc)
8278.1.1 = { holder=136570136 } # Methyso (nc)
8285.1.1 = { holder=140570136 } # Doniphos (nc)