600.1.1={
	liege="k_piqui"
}
7862.1.1 = { holder=34469193 } # Pong (nc)
7882.1.1 = { holder=34369193 } # Quan (nc)
7909.1.1 = { holder=34269193 } # Duq (nc)
7952.1.1 = { holder=34169193 } # Lar (nc)
7975.1.1 = { holder=34069193 } # Vai (nc)

7987.1.1 = { holder=10069193 } # Phong (nc)
8028.1.1 = { holder=10269193 } # Aghlab (nc)
8029.1.1 = { holder=10369193 } # Mansur (nc)
8065.1.1 = { holder=10669193 } # Mubarak (nc)
8110.1.1 = { holder=11069193 } # Qawurd (nc)
8116.1.1 = { holder=11569193 } # Talib (nc)
8142.1.1 = { holder=11669193 } # Shaiban (nc)
8177.1.1 = { holder=11769193 } # Aghlab (nc)
8198.1.1 = { holder=11969193 } # Jalil (nc)
8225.1.1 = { holder=12169193 } # Halil (nc)
8244.1.1 = { holder=12469193 } # Abdullah (nc)
8264.1.1 = { holder=12869193 } # Aghlab (nc)



