600.1.1={
	liege="e_yi_ti"
	law = succ_appointment
	law = agnatic_succession
	effect = {
		set_title_flag = military_command
		holder_scope = { 
			if = {
				limit = { primary_title = { title = PREVPREV } }
				set_government_type = military_command_government 
				PREV = { succession = appointment }
				recalc_succession = yes
			}	
		}	
	}	
}
7845.1.1 = { holder=34455954 } # Doq (nc)
7876.1.1 = { holder=34355954 } # Zan (nc)
7898.1.1 = { holder=34255954 } # Shu (nc)
7937.1.1 = { holder=34155954 } # Phar (nc)
7964.1.1 = { holder=34055954 } # Noq (nc)
7996.1.1 = { holder=10055954 } # Xun (nc)
8027.1.1 = { holder=10155954 } # Huynh (nc)
8056.1.1 = { holder=10655954 } # Zuang (nc)
8079.1.1 = { holder=10755954 } # Binh (nc)
8081.1.1 = { holder=11155954 } # Danh (nc)
8123.1.1 = { holder=11455954 } # Dai (nc)
8156.1.1 = { holder=11755954 } # An (nc)
8165.1.1 = { holder=11955954 } # Bao (nc)
8197.1.1 = { holder=12155954 } # Shen (nc)
8221.1.1 = { holder=12355954 } # Bao (nc)
8252.1.1 = { holder=13055954 } # Gai (C)


