1.1.2 = { 
	holder=750066  # The Grey King
	law = succ_kingsmoot_elective
	law = agnatic_succession
	law = centralization_1
	law = slavery_3
	law = first_night_1
} 
1001.1.1 = { holder = 0 }

2917.1.1 = { holder = 5001508 } #Urras  Greyiron
2942.1.1 = { holder = 5011508 } #Erich I Greyiron
2943.1.1 = { holder = 5011121 } #Regnar  Drumm
2956.1.1 = { holder = 5021508 } #Theon I Greyiron (nc)
2993.1.1 = { holder = 354066 } #Sylas  
3009.1.1 = { holder = 5031508 } #Balon I Greyiron (nc)
3034.1.1 = { holder = 0 }

3487.1.1 = { holder = 355066 } #Harrag  Hoare
3519.1.1 = { holder = 357066 } #Erich II Hoare
3545.1.1 = { holder = 5041508 } #Urrathon I Greyiron (nc)
3556.1.1 = { holder = 5051508 } #Urrathon II Greyiron (nc)
3578.1.1 = { holder = 500107 } #Loron  Greyjoy
3632.1.1 = { holder = 501107 } #Theon II Greyjoy (nc)
3638.1.1 = { holder = 5061508 } #Urragon I Greyiron (nc)
3658.1.1 = { holder = 502107 } #Balon II Greyjoy (nc)
3670.1.1 = { holder = 358066 } #Qhored  Hoare
3745.1.1 = { holder = 0 }

4159.1.1 = { holder = 5071508 } #Balon III Greyiron (nc)
4177.1.1 = { holder = 5081508 } #Erich III Greyiron (nc)
4216.1.1 = { holder = 5091508 } #Rognar I Greyiron (nc)
4230.1.1 = { holder = 503107 } #Theon III Greyjoy
4238.1.1 = { holder = 5101508 } #Erich IV Greyiron (nc)
4278.1.1 = { holder = 5111508 } #Urrathon III Greyiron (nc)
4287.1.1 = { holder = 504107 } #Balon IV Greyjoy (nc)
4303.1.1 = { holder = 505107 } #Balon V Greyjoy
4337.1.1 = { holder = 500122 } #Erich V Harlaw
4376.1.1 = { holder = 501122 } #Harron  Harlaw
4393.1.1 = {
	holder = 500118 # Joron Blacktyde
}
4449.1.1 = {
	holder = 0
}
4978.1.1 = { holder = 506107 } #Balon VI Greyjoy (nc)
5014.1.1 = { holder = 5241508 } #Urragon II Greyiron (nc)
5043.1.1 = { holder = 5121508 } #Urragon III Greyiron
5087.1.1 = { holder = 550112 } #Urrathon IV Goodbrother
5089.1.1 = { holder = 5131508 } #Torgon  Greyiron
5129.1.1 = { holder = 5171508 } #Urragon IV Greyiron

5181.1.1 = { 
	holder = 5201508  #Urron  Greyiron
	law = succ_primogeniture
} 
5203.1.1 = { holder = 0 }

6490.1.1 = { holder = 5251508 } #Joron II Greyiron (nc)
6521.1.1 = { holder = 5211508 } #Euron I Greyiron (nc)
6540.1.1 = { holder = 5221508 } #Balon VII Greyiron (nc)
6563.1.1 = { holder = 5231508 } #Rognar II Greyiron

6584.1.1 = { holder = 359066 } #Harras  Hoare
6605.1.1 = { holder = 360066 } #Wulfgar  Hoare
6639.1.1 = { holder = 361066 } #Harrag Hoare (nc)
6648.1.1 = { holder = 362066 } #Euron II Hoare (nc)
6671.1.1 = { holder = 363066 } #Horgan  Hoare
6692.1.1 = { holder = 3163066 } #Balon VIII Hoare (nc)

6734.1.1 = { holder = 0 }

7458.1.1 = { holder = 364066 } #Fergon  Hoare
7470.1.1 = { holder = 365066 } #Othgar I Hoare
7518.1.1 = { holder = 366066 } #Othgar II Hoare
7539.1.1 = { holder = 367066 } #Craghorn  Hoare
7547.1.1 = { holder = 368066 } #Harmund I Hoare
7598.1.1 = { holder = 369066 } #Harmund II Hoare
7612.1.1 = { holder = 370066 } #Harmund III Hoare
7615.1.1 = { holder = 371066 } #Hagon  Hoare
7622.1.1 = { holder = 150227 } #Aubrey Crakehall
7622.6.1 = { holder = 0 }

7784.1.1 = { holder=193066 } # Harrald Half-Drowned
7815.1.1 = { holder=191066 } # Harrald II
7880.1.1 = { holder=11066 } # Qhorwyn
7923.1.1 = { holder=11366 } # Harwyn
7956.1.1 = { holder=11466 } # Harrock
7960.1.1 = { 
	holder=11566 # Harren (C)
} 
7998.2.1={
	holder=0
}
8060.1.1={ law = first_night_0 } #First Night abolished
8289.1.1={
	holder = 1107 #Balon
	effect = {
		holder_scope = { 
			any_realm_lord = {
				any_demesne_title = {
					limit = { 
						NOT = { holder_scope = { culture = ruin } } 
						NOT = { tier = BARON }
						NOT = { tier = EMPEROR }
					}
					set_variable = { which = "de_facto_empire" value = 1 }
				}
			}	
		} 
	}
}
8289.6.1={
	holder=0
}
8299.3.4 = {
	holder = 1107 #Balon
	law = centralization_2
	effect = {
		holder_scope = { 
			any_realm_lord = {
				any_demesne_title = {
					limit = { 
						NOT = { holder_scope = { culture = ruin } } 
						NOT = { tier = BARON }
						NOT = { tier = EMPEROR }
					}
					set_variable = { which = "de_facto_empire" value = 3 }
				}
			}	
		} 
	}
}
8299.10.3 = {
	#law = succ_feudal_elective #kingsmoot
	holder=2107 #Euron
	law = centralization_2
}