7000.1.1 = {
	law = succ_primogeniture
	law = cognatic_succession
	law = centralization_2
	law = slavery_2
	law = privilege_vassal_king
	effect = {
		add_law = privilege_vassal_king
	}
}
7898.1.1 = { holder=34369190 } # Miklaz (nc)
7909.1.1 = { holder=34269190 } # Ghazdor (nc)
7936.1.1 = { holder=34169190 } # Hizdahr (nc)
7957.1.1 = { holder=34069190 } # Hazrak (nc)

7975.1.1 = { holder=10069190 } # Maezon (nc)
8010.1.1 = { holder=10269190 } # Skahaz (nc)
8015.1.1 = {
	holder = 0
	law = succ_feudal_elective
	law = agnatic_succession	
}


