600.1.1={
	liege="e_yi_ti"
	law = succ_ultimogeniture
	law = slavery_2
	law = privilege_vassal_king
	effect = {
		add_law = privilege_vassal_king
	}
}
7871.1.1 = { holder=34369191 } # Quen (nc)
7885.1.1 = { holder=34269191 } # Yuen (nc)
7944.1.1 = { holder=34169191 } # Wan (nc)
7956.1.1 = { holder=34069191 } # San (nc)

7999.1.1 = { holder=10069191 } # Bo (nc)
8031.1.1 = { holder=10569191 } # Idris (nc)
8059.1.1 = { holder=10769191 } # Husam (nc)
8065.1.1 = { holder=11069191 } # Wahab (nc)
8122.1.1 = { holder=11869191 } # Qawurd (nc)
8134.1.1 = { holder=11969191 } # Is'mail (nc)
8167.1.1 = { holder=12369191 } # Aarif (nc)
8201.1.1 = { holder=12569191 } # Burhanaddin (nc)
8213.1.1 = { holder=13169191 } # Sadiq (nc)
8254.1.1 = { holder=13369191 } # Jibril (nc)
8259.1.1 = { holder=13769191 } # Shujah (nc)
8289.1.1 = { holder=13969191 } # Alim (nc)


