1.1.1={
	law = succ_primogeniture
	law = cognatic_succession
	effect = {
		holder_scope = {
			set_special_character_title = bronzeking_male
		}	
	}
}
6334.1.1 = { holder=550187 } # Yorwyck (nc)
6358.1.1 = { holder=551187 } # Yorwyck (nc)
6383.1.1 = { holder=552187 } # Yorwyck (nc)
6413.1.1 = { holder=553187 } # Yorwyck (nc)
6445.1.1 = { holder=554187 } # Yorwyck (nc)

6475.1.1 = { holder=555187 } # Yorwyck (c)
6500.1.1 = { holder=556187 } # Robar (nc)
6531.1.1 = { holder=557187 } # Robar (c)
6538.6.6 = { holder = 0 }
