1.1.1={
	law = succ_primogeniture
	law = cognatic_succession
	effect = {
		holder_scope = {
			set_special_character_title = marshking_male
		}	
	}
}
6468.1.1 = { 
	holder = 1050126 #Last Marsh king
}
6506.1.1 = {
	holder = 0
}