##Astapor

##House Nakloz

150360001 = {
	name="Gazdhor"	# a lord
	dynasty=360001

	religion="harpy"
	culture="ghiscari"

	7556.1.1 = {birth="7556.1.1"}
	7577.1.1 = {add_spouse=250360001}
	7606.1.1 = {death="7606.1.1"}
}
250360001 = {
	name="Ezzara"
	female=yes

	religion="harpy"
	culture="ghiscari"

	7562.1.1 = {birth="7562.1.1"}
	7610.1.1 = {death="7610.1.1"}
}
100360001 = {
	name="Gorzhak"	# a lord
	dynasty=360001

	religion="harpy"
	culture="ghiscari"

	father=150360001
	mother=250360001

	7579.1.1 = {birth="7579.1.1"}
	7595.1.1 = {add_trait=poor_warrior}
	7606.1.1 = {}
	7607.1.1 = {add_spouse=200360001}
	7635.1.1 = {death="7635.1.1"}
}
200360001 = {
	name="Qezza"
	female=yes

	religion="harpy"
	culture="ghiscari"

	7580.1.1 = {birth="7580.1.1"}
	7635.1.1 = {death="7635.1.1"}
}
101360001 = {
	name="Grazdan"	# a lord
	dynasty=360001

	religion="harpy"
	culture="ghiscari"

	father=100360001
	mother=200360001

	7615.1.1 = {birth="7615.1.1"}
	7635.1.1 = {}
	7637.1.1 = {add_trait=poor_warrior}
	7639.1.1 = {add_spouse=201360001}
	7671.1.1 = {death="7671.1.1"}
}
201360001 = {
	name="Barezza"
	female=yes

	religion="harpy"
	culture="ghiscari"

	7621.1.1 = {birth="7621.1.1"}
	7671.1.1 = {death="7671.1.1"}
}
102360001 = {
	name="Hazzea"	# not a lord
	female=yes
	dynasty=360001

	religion="harpy"
	culture="ghiscari"

	father=100360001
	mother=200360001

	7622.1.1 = {birth="7622.1.1"}
	7651.1.1 = {death="7651.1.1"}
}
103360001 = {
	name="Paezdhar"	# not a lord
	dynasty=360001

	religion="harpy"
	culture="ghiscari"

	father=100360001
	mother=200360001

	7625.1.1 = {birth="7625.1.1"}
	7641.1.1 = {add_trait=poor_warrior}
	7643.1.1 = {add_spouse=203360001}
	7704.1.1 = {death="7704.1.1"}
}
203360001 = {
	name="Mezzara"
	female=yes

	religion="harpy"
	culture="ghiscari"

	7625.1.1 = {birth="7625.1.1"}
	7704.1.1 = {death="7704.1.1"}
}
104360001 = {
	name="Kraznys"	# not a lord
	dynasty=360001

	religion="harpy"
	culture="ghiscari"

	father=100360001
	mother=200360001

	7628.1.1 = {birth="7628.1.1"}
	7644.1.1 = {add_trait=poor_warrior}
	7646.1.1 = {add_spouse=204360001}
	7676.1.1 = {death="7676.1.1"}
}
204360001 = {
	name="Qezza"
	female=yes

	religion="harpy"
	culture="ghiscari"

	7628.1.1 = {birth="7628.1.1"}
	7676.1.1 = {death="7676.1.1"}
}
105360001 = {
	name="Skahaz"	# not a lord
	dynasty=360001

	religion="harpy"
	culture="ghiscari"

	father=100360001
	mother=200360001

	7629.1.1 = {birth="7629.1.1"}
	7645.1.1 = {add_trait=trained_warrior}
	7697.1.1 = {death="7697.1.1"}
}
106360001 = {
	name="Grazdhan"	# a lord
	dynasty=360001

	religion="harpy"
	culture="ghiscari"

	father=101360001
	mother=201360001

	7640.1.1 = {birth="7640.1.1"}
	7656.1.1 = {add_trait=poor_warrior}
	7658.1.1 = {add_spouse=206360001}
	7671.1.1 = {}
	7705.1.1 = {death="7705.1.1"}
}
206360001 = {
	name="Sezka"
	female=yes

	religion="harpy"
	culture="ghiscari"

	7640.1.1 = {birth="7640.1.1"}
	7705.1.1 = {death="7705.1.1"}
}
107360001 = {
	name="Gazdhor"	# not a lord
	dynasty=360001

	religion="harpy"
	culture="ghiscari"

	father=101360001
	mother=201360001

	7643.1.1 = {birth="7643.1.1"}
	7659.1.1 = {add_trait=skilled_warrior}
	7692.1.1 = {death="7692.1.1"}
}
108360001 = {
	name="Reznak"	# not a lord
	dynasty=360001

	religion="harpy"
	culture="ghiscari"

	father=101360001
	mother=201360001

	7644.1.1 = {birth="7644.1.1"}
	7660.1.1 = {add_trait=poor_warrior}
	7699.1.1 = {death="7699.1.1"}
}
109360001 = {
	name="Azzea"	# not a lord
	female=yes
	dynasty=360001

	religion="harpy"
	culture="ghiscari"

	father=106360001
	mother=206360001

	7668.1.1 = {birth="7668.1.1"}
	7745.1.1 = {death="7745.1.1"}
}
110360001 = {
	name="Yezzan"	# a lord
	dynasty=360001

	religion="harpy"
	culture="ghiscari"

	father=106360001
	mother=206360001

	7671.1.1 = {birth="7671.1.1"}
	7687.1.1 = {add_trait=poor_warrior}
	7689.1.1 = {add_spouse=210360001}
	7705.1.1 = {}
	7746.1.1 = {death="7746.1.1"}
}
210360001 = {
	name="Ezzara"
	female=yes

	religion="harpy"
	culture="ghiscari"

	7671.1.1 = {birth="7671.1.1"}
	7746.1.1 = {death="7746.1.1"}
}
111360001 = {
	name="Melezzara"	# not a lord
	female=yes
	dynasty=360001

	religion="harpy"
	culture="ghiscari"

	father=106360001
	mother=206360001

	7673.1.1 = {birth="7673.1.1"}
	7727.1.1 = {death="7727.1.1"}
}
112360001 = {
	name="Azzaq"	# not a lord
	dynasty=360001

	religion="harpy"
	culture="ghiscari"

	father=106360001
	mother=206360001

	7676.1.1 = {birth="7676.1.1"}
	7692.1.1 = {add_trait=trained_warrior}
	7721.1.1 = {death = {death_reason = death_murder}}
}
113360001 = {
	name="Telezza"	# not a lord
	female=yes
	dynasty=360001

	religion="harpy"
	culture="ghiscari"

	father=110360001
	mother=210360001

	7690.1.1 = {birth="7690.1.1"}
	7763.1.1 = {death="7763.1.1"}
}
114360001 = {
	name="Yezzara"	# not a lord
	female=yes
	dynasty=360001

	religion="harpy"
	culture="ghiscari"

	father=110360001
	mother=210360001

	7691.1.1 = {birth="7691.1.1"}
	7754.1.1 = {death="7754.1.1"}
}
115360001 = {
	name="Grazdan"	# a lord
	dynasty=360001

	religion="harpy"
	culture="ghiscari"

	father=110360001
	mother=210360001

	7692.1.1 = {birth="7692.1.1"}
	7708.1.1 = {add_trait=poor_warrior}
	7710.1.1 = {add_spouse=215360001}
	7746.1.1 = {}
	7752.1.1 = {death="7752.1.1"}
}
215360001 = {
	name="Dhazzar"
	female=yes

	religion="harpy"
	culture="ghiscari"

	7692.1.1 = {birth="7692.1.1"}
	7752.1.1 = {death="7752.1.1"}
}
116360001 = {
	name="Marghaz"	# a lord
	dynasty=360001

	religion="harpy"
	culture="ghiscari"

	father=115360001
	mother=215360001

	7721.1.1 = {birth="7721.1.1"}
	7737.1.1 = {add_trait=trained_warrior}
	7739.1.1 = {add_spouse=216360001}
	7752.1.1 = {}
	7770.1.1 = {death="7770.1.1"}
}
216360001 = {
	name="Dezzara"
	female=yes

	religion="harpy"
	culture="ghiscari"

	7721.1.1 = {birth="7721.1.1"}
	7770.1.1 = {death="7770.1.1"}
}
117360001 = {
	name="Orghaz"	# not a lord
	dynasty=360001

	religion="harpy"
	culture="ghiscari"

	father=115360001
	mother=215360001

	7722.1.1 = {birth="7722.1.1"}
	7738.1.1 = {add_trait=trained_warrior}
	7740.1.1 = {add_spouse=217360001}
	7774.1.1 = {death="7774.1.1"}
}
217360001 = {
	name="Gezza"
	female=yes

	religion="harpy"
	culture="ghiscari"

	7722.1.1 = {birth="7722.1.1"}
	7774.1.1 = {death="7774.1.1"}
}
118360001 = {
	name="Hizdhar"	# not a lord
	dynasty=360001

	religion="harpy"
	culture="ghiscari"

	father=115360001
	mother=215360001

	7723.1.1 = {birth="7723.1.1"}
	7739.1.1 = {add_trait=poor_warrior}
	7803.1.1 = {death="7803.1.1"}
}
119360001 = {
	name="Galazza"	# not a lord
	female=yes
	dynasty=360001

	religion="harpy"
	culture="ghiscari"

	father=115360001
	mother=215360001

	7725.1.1 = {birth="7725.1.1"}
	7729.1.1 = {death="7729.1.1"}
}
120360001 = {
	name="Sharkhaz"	# not a lord
	dynasty=360001

	religion="harpy"
	culture="ghiscari"

	father=115360001
	mother=215360001

	7727.1.1 = {birth="7727.1.1"}
	7743.1.1 = {add_trait=poor_warrior}
	7795.1.1 = {death="7795.1.1"}
}
121360001 = {
	name="Maezon"	# a lord
	dynasty=360001

	religion="harpy"
	culture="ghiscari"

	father=116360001
	mother=216360001

	7742.1.1 = {birth="7742.1.1"}
	7770.1.1 = {}
	7771.1.1 = {add_trait=trained_warrior}
	7773.1.1 = {add_spouse=221360001}
	7823.1.1 = {death="7823.1.1"}
}
221360001 = {
	name="Pezzara"
	female=yes

	religion="harpy"
	culture="ghiscari"

	7755.1.1 = {birth="7755.1.1"}
	7823.1.1 = {death="7823.1.1"}
}
122360001 = {
	name="Prendahl"	# not a lord
	dynasty=360001

	religion="harpy"
	culture="ghiscari"

	father=116360001
	mother=216360001

	7757.1.1 = {birth="7757.1.1"}
	7773.1.1 = {add_trait=skilled_warrior}
	7801.1.1 = {death="7801.1.1"}
}
123360001 = {
	name="Qezza"	# not a lord
	female=yes
	dynasty=360001

	religion="harpy"
	culture="ghiscari"

	father=116360001
	mother=216360001

	7758.1.1 = {birth="7758.1.1"}
	7826.1.1 = {death="7826.1.1"}
}
124360001 = {
	name="Dhazzea"	# not a lord
	female=yes
	dynasty=360001

	religion="harpy"
	culture="ghiscari"

	father=116360001
	mother=216360001

	7759.1.1 = {birth="7759.1.1"}
	7783.1.1 = {death="7783.1.1"}
}
125360001 = {
	name="Hazzeama"	# not a lord
	female=yes
	dynasty=360001

	religion="harpy"
	culture="ghiscari"

	father=121360001
	mother=221360001

	7773.1.1 = {birth="7773.1.1"}
	7808.1.1 = {death="7808.1.1"}
}
126360001 = {
	name="Delezza"	# not a lord
	female=yes
	dynasty=360001

	religion="harpy"
	culture="ghiscari"

	father=121360001
	mother=221360001

	7775.1.1 = {birth="7775.1.1"}
	7831.1.1 = {death="7831.1.1"}
}
127360001 = {
	name="Grazdhan"	# a lord
	dynasty=360001

	religion="harpy"
	culture="ghiscari"

	father=121360001
	mother=221360001

	7778.1.1 = {birth="7778.1.1"}
	7794.1.1 = {add_trait=skilled_warrior}
	7796.1.1 = {add_spouse=227360001}
	7823.1.1 = {}
	7838.1.1 = {death="7838.1.1"}
}
227360001 = {
	name="Azzara"
	female=yes

	religion="harpy"
	culture="ghiscari"

	7778.1.1 = {birth="7778.1.1"}
	7838.1.1 = {death="7838.1.1"}
}
128360001 = {
	name="Galazza"	# not a lord
	female=yes
	dynasty=360001

	religion="harpy"
	culture="ghiscari"

	father=121360001
	mother=221360001

	7779.1.1 = {birth="7779.1.1"}
	7826.1.1 = {death="7826.1.1"}
}
129360001 = {
	name="Hizdhar"	# not a lord
	dynasty=360001

	religion="harpy"
	culture="ghiscari"

	father=121360001
	mother=221360001

	7781.1.1 = {birth="7781.1.1"}
	7797.1.1 = {add_trait=master_warrior}
	7854.1.1 = {death="7854.1.1"}
}
130360001 = {
	name="Skahaz"	# a lord
	dynasty=360001

	religion="harpy"
	culture="ghiscari"

	father=127360001
	mother=227360001

	7804.1.1 = {birth="7804.1.1"}
	7820.1.1 = {add_trait=poor_warrior}
	7822.1.1 = {add_spouse=230360001}
	7838.1.1 = {}
	7846.1.1 = {death="7846.1.1"}
}
230360001 = {
	name="Qezza"
	female=yes

	religion="harpy"
	culture="ghiscari"

	7804.1.1 = {birth="7804.1.1"}
	7846.1.1 = {death="7846.1.1"}
}
131360001 = {
	name="Hazzea"	# not a lord
	female=yes
	dynasty=360001

	religion="harpy"
	culture="ghiscari"

	father=127360001
	mother=227360001

	7806.1.1 = {birth="7806.1.1"}
	7840.1.1 = {death="7840.1.1"}
}
132360001 = {
	name="Mezzara"	# not a lord
	female=yes
	dynasty=360001

	religion="harpy"
	culture="ghiscari"

	father=130360001
	mother=230360001

	7824.1.1 = {birth="7824.1.1"}
	7882.1.1 = {death="7882.1.1"}
}
134360001 = {
	name="Yurkhaz"	# a lord
	dynasty=360001

	religion="harpy"
	culture="ghiscari"

	father=130360001
	mother=230360001

	7827.1.1 = {birth="7827.1.1"}
	7843.1.1 = {add_trait=skilled_warrior}
	7845.1.1 = {add_spouse=234360001}
	7846.1.1 = {}
	7885.1.1 = {death="7885.1.1"}
}
234360001 = {
	name="Qezzala"
	female=yes

	religion="harpy"
	culture="ghiscari"

	7827.1.1 = {birth="7827.1.1"}
	7885.1.1 = {death="7885.1.1"}
}

6571000 = {
	name="Kraznys"  # Canon, gets his eyeballs melted by Drogon
	dynasty = 360001 

	martial = 8
	culture = ghiscari
	religion = harpy  

	father=134360001
	mother=234360001		
	
	add_trait="cruel"
	add_trait="proud"
	add_trait="rude"
	add_trait="greedy"
	add_trait="authoritative"
	
	7856.1.1 = {
		birth="7856.1.1"
	}
	7872.1.1 = {
		add_spouse=20436001
	}
	7885.1.1 = {}
	7899.12.12 = {
		death = {
			death_reason = death_execution
			killer = 77041 # Daenerys
		}
	}
}
20436001 = {
	name="Azzara"
	female=yes

	religion="harpy"
	culture="ghiscari"

	7856.1.1 = {
		birth="7856.1.1"
	}
	7899.12.12 = {
		death = {
			death_reason = death_execution
			killer = 77041 # Daenerys
		}
	}
}
10036001 = {
	name="Ghazdor"
	dynasty=360001 
	
	religion="harpy"
	culture="ghiscari"
	
	father=6571000
	mother=20436001

	7882.1.1 = {
		birth="7882.1.1"
	}
}
10136001 = {
	name="Prendahl"
	dynasty=360001 
	
	religion="harpy"
	culture="ghiscari"
	
	father=6571000
	mother=20436001

	7884.1.1 = {
		birth="7884.1.1"
	}
}
10236001 = {
	name="Qazella"
	dynasty=360001 
	female=yes
	
	religion="harpy"
	culture="ghiscari"
	
	father=6571000
	mother=20436001

	7885.1.1 = {
		birth="7885.1.1"
	}
}
10336001 = {
	name="Faezdhar"
	dynasty=360001
	
	religion="harpy"
	culture="ghiscari"
	
	father=6571000
	mother=20436001

	7886.1.1 = {
		birth="7886.1.1"
	}
}
##House Ullhor


150360000 = {
	name="Marghaz"	# a lord
	dynasty=360000

	religion="harpy"
	culture="ghiscari"

	7555.1.1 = {birth="7555.1.1"}
	7573.1.1 = {add_spouse=250360000}
	7615.1.1 = {death="7615.1.1"}
}
250360000 = {
	name="Qezza"
	female=yes

	religion="harpy"
	culture="ghiscari"

	7559.1.1 = {birth="7559.1.1"}
	7611.1.1 = {death="7611.1.1"}
}
100360000 = {
	name="Barghaz"	# a lord
	dynasty=360000

	religion="harpy"
	culture="ghiscari"

	father=150360000
	mother=250360000

	7585.1.1 = {birth="7585.1.1"}
	7615.1.1 = {}
	7616.1.1 = {add_trait=poor_warrior}	
	7618.1.1 = {add_spouse=200360000}
	7642.1.1 = {death="7642.1.1"}
}
200360000 = {
	name="Qezza"
	female=yes

	religion="harpy"
	culture="ghiscari"

	7591.1.1 = {birth="7591.1.1"}
	7642.1.1 = {death="7642.1.1"}
}
101360000 = {
	name="Grazdan"	# a lord
	dynasty=360000

	religion="harpy"
	culture="ghiscari"

	father=100360000
	mother=200360000

	7622.1.1 = {birth="7622.1.1"}
	7641.1.1 = {add_trait=skilled_warrior}
	7642.1.1 = {}
	7643.1.1 = {add_spouse=201360000}
	7662.1.1 = {death="7662.1.1"}
}
201360000 = {
	name="Mezzara"
	female=yes

	religion="harpy"
	culture="ghiscari"

	7626.1.1 = {birth="7626.1.1"}
	7662.1.1 = {death="7662.1.1"}
}
102360000 = {
	name="Uzzara"	# not a lord
	female=yes
	dynasty=360000

	religion="harpy"
	culture="ghiscari"

	father=100360000
	mother=200360000

	7628.1.1 = {birth="7628.1.1"}
	7669.1.1 = {death="7669.1.1"}
}
103360000 = {
	name="Yezza"	# not a lord
	female=yes
	dynasty=360000

	religion="harpy"
	culture="ghiscari"

	father=100360000
	mother=200360000

	7629.1.1 = {birth="7629.1.1"}
	7673.1.1 = {death="7673.1.1"}
}
104360000 = {
	name="Marghaz"	# a lord
	dynasty=360000

	religion="harpy"
	culture="ghiscari"

	father=101360000
	mother=201360000

	7644.1.1 = {birth="7644.1.1"}
	7662.1.1 = {}
	7668.1.1 = {add_trait=skilled_warrior}
	7670.1.1 = {add_spouse=204360000}
	7700.1.1 = {death="7700.1.1"}
}
204360000 = {
	name="Delezzara"
	female=yes

	religion="harpy"
	culture="ghiscari"

	7652.1.1 = {birth="7652.1.1"}
	7700.1.1 = {death="7700.1.1"}
}
105360000 = {
	name="Grazdan"	# not a lord
	dynasty=360000

	religion="harpy"
	culture="ghiscari"

	father=101360000
	mother=201360000

	7653.1.1 = {birth="7653.1.1"}
	7669.1.1 = {add_trait=trained_warrior}
	7686.1.1 = {death="7686.1.1"}
}
106360000 = {
	name="Skahaz"	# not a lord
	dynasty=360000

	religion="harpy"
	culture="ghiscari"

	father=101360000
	mother=201360000

	7656.1.1 = {birth="7656.1.1"}
	7672.1.1 = {add_trait=skilled_warrior}
	7698.1.1 = {death="7698.1.1"}
}
107360000 = {
	name="Yurkhaz"	# not a lord
	dynasty=360000

	religion="harpy"
	culture="ghiscari"

	father=101360000
	mother=201360000

	7658.1.1 = {birth="7658.1.1"}
	7674.1.1 = {add_trait=trained_warrior}
	7738.1.1 = {death="7738.1.1"}
}
108360000 = {
	name="Nella"	# not a lord
	female=yes
	dynasty=360000

	religion="harpy"
	culture="ghiscari"

	father=104360000
	mother=204360000

	7679.1.1 = {birth="7679.1.1"}
	7712.1.1 = {death="7712.1.1"}
}
109360000 = {
	name="Zarraq"	# a lord
	dynasty=360000

	religion="harpy"
	culture="ghiscari"

	father=104360000
	mother=204360000

	7682.1.1 = {birth="7682.1.1"}
	7698.1.1 = {add_trait=trained_warrior}
	7699.1.1 = {add_spouse=209360000}
	7700.1.1 = {}
	7735.1.1 = {death="7735.1.1"}
}
209360000 = {
	name="Mellezza"
	female=yes

	religion="harpy"
	culture="ghiscari"

	7682.1.1 = {birth="7682.1.1"}
	7735.1.1 = {death="7735.1.1"}
}
110360000 = {
	name="Hazzea"	# not a lord
	female=yes
	dynasty=360000

	religion="harpy"
	culture="ghiscari"

	father=109360000
	mother=209360000

	7707.1.1 = {birth="7707.1.1"}
	7750.1.1 = {death="7750.1.1"}
}
111360000 = {
	name="Gazdhor"	# a lord
	dynasty=360000

	religion="harpy"
	culture="ghiscari"

	father=109360000
	mother=209360000

	7709.1.1 = {birth="7709.1.1"}
	7725.1.1 = {add_trait=trained_warrior}
	7727.1.1 = {add_spouse=211360000}
	7735.1.1 = {}
	7770.1.1 = {death="7770.1.1"}
}
211360000 = {
	name="Galazza"
	female=yes

	religion="harpy"
	culture="ghiscari"

	7709.1.1 = {birth="7709.1.1"}
	7770.1.1 = {death="7770.1.1"}
}
112360000 = {
	name="Qezza"	# not a lord
	female=yes
	dynasty=360000

	religion="harpy"
	culture="ghiscari"

	father=109360000
	mother=209360000

	7712.1.1 = {birth="7712.1.1"}
	7789.1.1 = {death="7789.1.1"}
}
113360000 = {
	name="Azzea"	# not a lord
	female=yes
	dynasty=360000

	religion="harpy"
	culture="ghiscari"

	father=109360000
	mother=209360000

	7714.1.1 = {birth="7714.1.1"}
	7748.1.1 = {death="7748.1.1"}
}
114360000 = {
	name="Ezzara"	# not a lord
	female=yes
	dynasty=360000

	religion="harpy"
	culture="ghiscari"

	father=111360000
	mother=211360000

	7734.1.1 = {birth="7734.1.1"}
	7782.1.1 = {death="7782.1.1"}
}
115360000 = {
	name="Grazdan"	# a lord
	dynasty=360000

	religion="harpy"
	culture="ghiscari"

	father=111360000
	mother=211360000

	7736.1.1 = {birth="7736.1.1"}
	7752.1.1 = {add_trait=trained_warrior}
	7754.1.1 = {add_spouse=215360000}
	7770.1.1 = {}
	7796.1.1 = {death="7796.1.1"}
}
215360000 = {
	name="Azzara"
	female=yes

	religion="harpy"
	culture="ghiscari"

	7736.1.1 = {birth="7736.1.1"}
	7796.1.1 = {death="7796.1.1"}
}
116360000 = {
	name="Prendahl"	# a lord
	dynasty=360000

	religion="harpy"
	culture="ghiscari"

	father=115360000
	mother=215360000

	7757.1.1 = {birth="7757.1.1"}
	7773.1.1 = {add_trait=trained_warrior}
	7775.1.1 = {add_spouse=216360000}
	7796.1.1 = {}
	7827.1.1 = {death="7827.1.1"}
}
216360000 = {
	name="Ezzara"
	female=yes

	religion="harpy"
	culture="ghiscari"

	7757.1.1 = {birth="7757.1.1"}
	7827.1.1 = {death="7827.1.1"}
}
117360000 = {
	name="Azzea"	# not a lord
	female=yes
	dynasty=360000

	religion="harpy"
	culture="ghiscari"

	father=115360000
	mother=215360000

	7760.1.1 = {birth="7760.1.1"}
	7806.1.1 = {death="7806.1.1"}
}
118360000 = {
	name="Paezdhar"	# not a lord
	dynasty=360000

	religion="harpy"
	culture="ghiscari"

	father=115360000
	mother=215360000

	7763.1.1 = {birth="7763.1.1"}
	7779.1.1 = {add_trait=skilled_warrior}
	7812.1.1 = {death="7812.1.1"}
}
119360000 = {
	name="Hizdhar"	# not a lord
	dynasty=360000

	religion="harpy"
	culture="ghiscari"

	father=115360000
	mother=215360000

	7766.1.1 = {birth="7766.1.1"}
	7782.1.1 = {add_trait=poor_warrior}
	7794.1.1 = {death="7794.1.1"}
}
120360000 = {
	name="Sezza"	# not a lord
	female=yes
	dynasty=360000

	religion="harpy"
	culture="ghiscari"

	father=115360000
	mother=215360000

	7768.1.1 = {birth="7768.1.1"}
	7828.1.1 = {death="7828.1.1"}
}
121360000 = {
	name="Mezzara"	# not a lord
	female=yes
	dynasty=360000

	religion="harpy"
	culture="ghiscari"

	father=116360000
	mother=216360000

	7778.1.1 = {birth="7778.1.1"}
	7836.1.1 = {death="7836.1.1"}
}
122360000 = {
	name="Hazzea"	# not a lord
	female=yes
	dynasty=360000

	religion="harpy"
	culture="ghiscari"

	father=116360000
	mother=216360000

	7780.1.1 = {birth="7780.1.1"}
	7839.1.1 = {death="7839.1.1"}
}
123360000 = {
	name="Grazdhan"	# a lord
	dynasty=360000

	religion="harpy"
	culture="ghiscari"

	father=116360000
	mother=216360000

	7781.1.1 = {birth="7781.1.1"}
	7797.1.1 = {add_trait=skilled_warrior}
	7799.1.1 = {add_spouse=223360000}
	7827.1.1 = {}
	7837.1.1 = {death="7837.1.1"}
}
223360000 = {
	name="Galazza"
	female=yes

	religion="harpy"
	culture="ghiscari"

	7781.1.1 = {birth="7781.1.1"}
	7837.1.1 = {death="7837.1.1"}
}
124360000 = {
	name="Telezza"	# not a lord
	female=yes
	dynasty=360000

	religion="harpy"
	culture="ghiscari"

	father=116360000
	mother=216360000

	7783.1.1 = {birth="7783.1.1"}
	7817.1.1 = {death="7817.1.1"}
}
125360000 = {
	name="Qezza"	# not a lord
	female=yes
	dynasty=360000

	religion="harpy"
	culture="ghiscari"

	father=123360000
	mother=223360000

	7804.1.1 = {birth="7804.1.1"}
	7844.1.1 = {death="7844.1.1"}
}
126360000 = {
	name="Yezzan"	# a lord
	dynasty=360000

	religion="harpy"
	culture="ghiscari"

	father=123360000
	mother=223360000

	7807.1.1 = {birth="7807.1.1"}
	7823.1.1 = {add_trait=trained_warrior}
	7825.1.1 = {add_spouse=226360000}
	7837.1.1 = {}
	7853.1.1 = {death="7853.1.1"}
}
226360000 = {
	name="Dhazzar"
	female=yes

	religion="harpy"
	culture="ghiscari"

	7807.1.1 = {birth="7807.1.1"}
	7853.1.1 = {death="7853.1.1"}
}
127360000 = {
	name="Grazdan"	# not a lord
	dynasty=360000

	religion="harpy"
	culture="ghiscari"

	father=123360000
	mother=223360000

	7809.1.1 = {birth="7809.1.1"}
	7825.1.1 = {add_trait=poor_warrior}
	7847.1.1 = {death="7847.1.1"}
}
128360000 = {
	name="Reznak"	# not a lord
	dynasty=360000

	religion="harpy"
	culture="ghiscari"

	father=126360000
	mother=226360000

	7832.1.1 = {birth="7832.1.1"}
	7848.1.1 = {add_trait=poor_warrior}
	7851.1.1 = {death="7851.1.1"}
}
129360000 = {
	name="Marghaz"	# a lord
	dynasty=360000

	religion="harpy"
	culture="ghiscari"

	father=126360000
	mother=226360000

	7835.1.1 = {birth="7835.1.1"}
	7851.1.1 = {add_trait=master_warrior}
	7852.1.1 = {add_spouse=475360000}
	7853.1.1 = {}
	7889.1.1 = {death="7889.1.1"}
}
475360000 = {
	name="Qazzara"
	female=yes

	religion="harpy"
	culture="ghiscari"

	7835.1.1 = {birth="7835.1.1"}
	7889.1.1 = {death="7889.1.1"}
}
130360000 = {
	name="Sezza"	# not a lord
	female=yes
	dynasty=360000

	religion="harpy"
	culture="ghiscari"

	father=126360000
	mother=226360000

	7836.1.1 = {birth="7836.1.1"}
	7865.1.1 = {death="7865.1.1"}
}
131360000 = {
	name="Mezzea"	# not a lord
	female=yes
	dynasty=360000

	religion="harpy"
	culture="ghiscari"

	father=126360000
	mother=226360000

	7838.1.1 = {birth="7838.1.1"}
	7864.1.1 = {death="7864.1.1"}
}

6571001 = {
	name="Grazdan"  ## Canon
	dynasty = 360000

	martial = 8
	culture = ghiscari
	religion = harpy  

	father=129360000
	mother=475360000		
	
	add_trait="cruel"
	add_trait="proud"
	add_trait="deceitful"
	
	7859.1.1 = {
		birth="7859.1.1"
	}
	7875.1.1 = {
		add_spouse=476360000
	}
	7875.1.1 = {add_trait=poor_warrior}
	7889.1.1 = {}
	7899.12.12 = {
		death = {
			death_reason = death_execution
			killer = 77041 # Daenerys
		}
	}
}
476360000 = {
	name="Sezqa"	# not a lord
	female=yes

	religion="harpy"
	culture="ghiscari"

	7859.1.1 = {
		birth="7859.1.1"
	}
	7899.12.12 = {
		death = {
			death_reason = death_execution
			killer = 77041 # Daenerys
		}
	}
}
177360000 = {
	name="Mezzara"	# not a lord
	female=yes
	dynasty=360000

	religion="harpy"
	culture="ghiscari"

	father=129360000
	mother=475360000

	7862.1.1 = {birth="7862.1.1"}
}
178360000 = {
	name="Harghaz"	# not a lord
	dynasty=360000

	religion="harpy"
	culture="ghiscari"

	father=129360000
	mother=475360000

	7865.1.1 = {birth="7865.1.1"}
	7881.1.1 = {add_trait=poor_warrior}
}

179360000 = {
	name="Ellezzara"	# not a lord
	female=yes
	dynasty=360000

	religion="harpy"
	culture="ghiscari"

	father=6571001
	mother=476360000

	7879.1.1 = {birth="7879.1.1"}
}
180360000 = {
	name="Reznak"	# not a lord
	dynasty=360000

	religion="harpy"
	culture="ghiscari"

	father=6571001
	mother=476360000

	7880.1.1 = {birth="7880.1.1"}
	7896.1.1 = {add_trait=skilled_warrior}
	7898.1.1 = {add_spouse=480360000}
}
480360000 = {
	name="Mezzara"
	female=yes

	religion="harpy"
	culture="ghiscari"

	7880.1.1 = {birth="7880.1.1"}
}
181360000 = {
	name="Tezza"	# not a lord
	female=yes
	dynasty=360000

	religion="harpy"
	culture="ghiscari"

	father=6571001
	mother=476360000

	7881.1.1 = {birth="7881.1.1"}
}
182360000 = {
	name="Yezzan"	# not a lord
	dynasty=360000

	religion="harpy"
	culture="ghiscari"

	father=6571001
	mother=476360000

	7884.1.1 = {birth="7884.1.1"}
	7900.1.1 = {add_trait=skilled_warrior}
}
183360000 = {
	name="Yurkhaz"	# not a lord
	dynasty=360000

	religion="harpy"
	culture="ghiscari"

	father=6571001
	mother=480360000

	7898.1.1 = {birth="7898.1.1"}
	7914.1.1 = {add_trait=skilled_warrior}
}

##House Grazdhan

150360002 = {
	name="Grazdan"	# a lord
	dynasty=360002

	religion="harpy"
	culture="ghiscari"

	7550.1.1 = {birth="7550.1.1"}
	7572.1.1 = {add_spouse=250360002}
	7623.1.1 = {death="7623.1.1"}
}
250360002 = {
	name="Pezzara"
	female=yes

	religion="harpy"
	culture="ghiscari"

	7557.1.1 = {birth="7557.1.1"}
	7627.1.1 = {death="7627.1.1"}
}
100360002 = {
	name="Grazdhan"	# a lord
	dynasty=360002

	religion="harpy"
	culture="ghiscari"

	father=150360002
	mother=250360002

	7586.1.1 = {birth="7586.1.1"}
	7604.1.1 = {add_trait=poor_warrior}
	7610.1.1 = {add_spouse=200360002}
	7623.1.1 = {}
	7646.1.1 = {death="7646.1.1"}
}
200360002 = {
	name="Pezzara"
	female=yes

	religion="harpy"
	culture="ghiscari"

	7584.1.1 = {birth="7584.1.1"}
	7646.1.1 = {death="7646.1.1"}
}
101360002 = {
	name="Grazdhor"	# a lord
	dynasty=360002

	religion="harpy"
	culture="ghiscari"

	father=100360002
	mother=200360002

	7613.1.1 = {birth="7613.1.1"}
	7629.1.1 = {add_trait=trained_warrior}
	7646.1.1 = {}
	7649.1.1 = {add_spouse=201360002}
	7699.1.1 = {death="7699.1.1"}
}
201360002 = {
	name="Mezzara"
	female=yes

	religion="harpy"
	culture="ghiscari"

	7631.1.1 = {birth="7631.1.1"}
	7699.1.1 = {death="7699.1.1"}
}
102360002 = {
	name="Grazdan"	# not a lord
	dynasty=360002

	religion="harpy"
	culture="ghiscari"

	father=100360002
	mother=200360002

	7632.1.1 = {birth="7632.1.1"}
	7648.1.1 = {add_trait=trained_warrior}
	7692.1.1 = {death="7692.1.1"}
}
103360002 = {
	name="Qezza"	# not a lord
	female=yes
	dynasty=360002

	religion="harpy"
	culture="ghiscari"

	father=101360002
	mother=201360002

	7659.1.1 = {birth="7659.1.1"}
	7692.1.1 = {death="7692.1.1"}
}
104360002 = {
	name="Ezzara"	# not a lord
	female=yes
	dynasty=360002

	religion="harpy"
	culture="ghiscari"

	father=101360002
	mother=201360002

	7660.1.1 = {birth="7660.1.1"}
	7716.1.1 = {death="7716.1.1"}
}
105360002 = {
	name="Skahaz"	# a lord
	dynasty=360002

	religion="harpy"
	culture="ghiscari"

	father=101360002
	mother=201360002

	7661.1.1 = {birth="7661.1.1"}
	7677.1.1 = {add_trait=trained_warrior}
	7679.1.1 = {add_spouse=205360002}
	7699.1.1 = {}
	7713.1.1 = {death="7713.1.1"}
}
205360002 = {
	name="Tezza"
	female=yes

	religion="harpy"
	culture="ghiscari"

	7661.1.1 = {birth="7661.1.1"}
	7713.1.1 = {death="7713.1.1"}
}
106360002 = {
	name="Hazzea"	# not a lord
	female=yes
	dynasty=360002

	religion="harpy"
	culture="ghiscari"

	father=105360002
	mother=205360002

	7687.1.1 = {birth="7687.1.1"}
	7757.1.1 = {death="7757.1.1"}
}
107360002 = {
	name="Gorkhaz"	# a lord
	dynasty=360002

	religion="harpy"
	culture="ghiscari"

	father=105360002
	mother=205360002

	7680.1.1 = {birth="7680.1.1"}
	7699.1.1 = {add_spouse=207360002}
	7704.1.1 = {add_trait=poor_warrior}	
	7713.1.1 = {}
	7718.1.1 = {death="7718.1.1"}
}
207360002 = {
	name="Qezza"
	female=yes

	religion="harpy"
	culture="ghiscari"

	7680.1.1 = {birth="7680.1.1"}
	7718.1.1 = {death="7718.1.1"}
}
108360002 = {
	name="Azzara"	# not a lord
	female=yes
	dynasty=360002

	religion="harpy"
	culture="ghiscari"

	father=107360002
	mother=207360002

	7710.1.1 = {birth="7710.1.1"}
	7764.1.1 = {death="7764.1.1"}
}
109360002 = {
	name="Barkhaz"	# a lord
	dynasty=360002

	religion="harpy"
	culture="ghiscari"

	father=107360002
	mother=207360002

	7700.1.1 = {birth="7700.1.1"}
	7718.1.1 = {}
	7729.1.1 = {add_trait=trained_warrior}
	7730.1.1 = {add_spouse=209360002}
	7754.1.1 = {death="7754.1.1"}
}
209360002 = {
	name="Sezqa"
	female=yes

	religion="harpy"
	culture="ghiscari"

	7713.1.1 = {birth="7713.1.1"}
	7754.1.1 = {death="7754.1.1"}
}
110360002 = {
	name="Hazzea"	# not a lord
	female=yes
	dynasty=360002

	religion="harpy"
	culture="ghiscari"

	father=109360002
	mother=209360002

	7730.1.1 = {birth="7730.1.1"}
	7775.1.1 = {death="7775.1.1"}
}
111360002 = {
	name="Mezzara"	# not a lord
	female=yes
	dynasty=360002

	religion="harpy"
	culture="ghiscari"

	father=109360002
	mother=209360002

	7731.1.1 = {birth="7731.1.1"}
	7794.1.1 = {death="7794.1.1"}
}
112360002 = {
	name="Grazdan"	# a lord
	dynasty=360002

	religion="harpy"
	culture="ghiscari"

	father=109360002
	mother=209360002

	7732.1.1 = {birth="7732.1.1"}
	7754.1.1 = {}
	7764.1.1 = {add_trait=trained_warrior}
	7766.1.1 = {add_spouse=212360002}
	7805.1.1 = {death="7805.1.1"}
}
212360002 = {
	name="Tellezara"
	female=yes

	religion="harpy"
	culture="ghiscari"

	7748.1.1 = {birth="7748.1.1"}
	7805.1.1 = {death="7805.1.1"}
}
113360002 = {
	name="Hizdhar"	# not a lord
	dynasty=360002

	religion="harpy"
	culture="ghiscari"

	father=112360002
	mother=212360002

	7770.1.1 = {birth="7770.1.1"}
	7786.1.1 = {add_trait=trained_warrior}
	7804.1.1 = {death="7804.1.1"}
}
114360002 = {
	name="Kraznys"	# a lord
	dynasty=360002

	religion="harpy"
	culture="ghiscari"

	father=112360002
	mother=212360002

	7771.1.1 = {birth="7771.1.1"}
	7787.1.1 = {add_trait=trained_warrior}
	7789.1.1 = {add_spouse=214360002}
	7805.1.1 = {}
	7835.1.1 = {death="7835.1.1"}
}
214360002 = {
	name="Ezzara"
	female=yes

	religion="harpy"
	culture="ghiscari"

	7771.1.1 = {birth="7771.1.1"}
	7835.1.1 = {death="7835.1.1"}
}
115360002 = {
	name="Grazdhan"	# not a lord
	dynasty=360002

	religion="harpy"
	culture="ghiscari"

	father=112360002
	mother=212360002

	7772.1.1 = {birth="7772.1.1"}
	7788.1.1 = {add_trait=poor_warrior}
	7831.1.1 = {death="7831.1.1"}
}
116360002 = {
	name="Grazdan"	# a lord
	dynasty=360002

	religion="harpy"
	culture="ghiscari"

	father=114360002
	mother=214360002

	7800.1.1 = {birth="7800.1.1"}
	7816.1.1 = {add_trait=trained_warrior}
	7818.1.1 = {add_spouse=216360002}
	7835.1.1 = {}
	7860.1.1 = {death="7860.1.1"}
}
216360002 = {
	name="Tellezara"
	female=yes

	religion="harpy"
	culture="ghiscari"

	7800.1.1 = {birth="7800.1.1"}
	7860.1.1 = {death="7860.1.1"}
}
117360002 = {
	name="Dezza"	# not a lord
	female=yes
	dynasty=360002

	religion="harpy"
	culture="ghiscari"

	father=114360002
	mother=214360002

	7802.1.1 = {birth="7802.1.1"}
	7860.1.1 = {death="7860.1.1"}
}
118360002 = {
	name="Jezhane"	# not a lord
	female=yes
	dynasty=360002

	religion="harpy"
	culture="ghiscari"

	father=116360002
	mother=216360002

	7819.1.1 = {birth="7819.1.1"}
	7877.1.1 = {death="7877.1.1"}
}
119360002 = {
	name="Marghaz"	# a lord
	dynasty=360002

	religion="harpy"
	culture="ghiscari"

	father=116360002
	mother=216360002

	7821.1.1 = {birth="7821.1.1"}
	7837.1.1 = {add_trait=poor_warrior}
	7839.1.1 = {add_spouse=219360002}
	7860.1.1 = {}
	7872.1.1 = {death="7872.1.1"}
}
219360002 = {
	name="Qezza"
	female=yes

	religion="harpy"
	culture="ghiscari"

	7821.1.1 = {birth="7821.1.1"}
	7872.1.1 = {death="7872.1.1"}
}

6571002 = {
	name="Grazdan"  ## Canon
	dynasty = 360002 

	martial = 8
	culture = ghiscari
	religion = harpy 

	father=119360002
	mother=219360002		
	
	add_trait="cruel"
	add_trait="proud"
	add_trait="gluttonous"
	
	7851.1.1 = {
		birth="7851.1.1"
	}
	7867.1.1 = {add_trait=poor_warrior}
	7882.1.1 = {add_spouse=475360002}
	7899.12.12 = {
		death = {
			death_reason = death_execution
			killer = 77041 # Daenerys
		}
	}
}
475360002 = {
	name="Tellezzara"
	female=yes

	religion="harpy"
	culture="ghiscari"
	

	7851.1.1 = {birth="7851.1.1"}
}
180360002 = {
	name="Zaraq" 
	dynasty = 360002 
	
	father=119360002
	mother=219360002		
	
	religion="harpy"
	culture="ghiscari"
	
	7855.1.1 = {
		birth="7855.1.1"
	}
	7870.1.1 = {add_trait=poor_warrior}
}
181360002 = {
	name="Galazza" 
	female = yes
	dynasty = 360002 
	
	father=119360002
	mother=219360002	

	religion="harpy"
	culture="ghiscari"	
	
	7865.1.1 = {
		birth="7865.1.1"
	}
}

175360002 = {
	name="Grazdan"	# not a lord
	dynasty=360002

	religion="harpy"
	culture="ghiscari"

	father=6571002
	mother=475360002

	7882.1.1 = {birth="7882.1.1"}
	7898.1.1 = {add_trait=skilled_warrior}
}
176360002 = {
	name="Hazzaara"	# not a lord
	female=yes
	dynasty=360002

	religion="harpy"
	culture="ghiscari"

	father=6571002
	mother=475360002

	7884.1.1 = {birth="7884.1.1"}
}
177360002 = {
	name="Grazdhar"	# not a lord
	dynasty=360002

	religion="harpy"
	culture="ghiscari"

	father=6571002
	mother=475360002

	7888.1.1 = {birth="7888.1.1"}
	7904.1.1 = {add_trait=poor_warrior}
}
178360002 = {
	name="Mazdhan"	# not a lord
	dynasty=360002

	religion="harpy"
	culture="ghiscari"

	father=6571002
	mother=475360002

	7890.1.1 = {birth="7890.1.1"}
	7906.1.1 = {add_trait=poor_warrior}
}
179360002 = {
	name="Paezhar"	# not a lord
	dynasty=360002

	religion="harpy"
	culture="ghiscari"

	father=6571002
	mother=475360002

	7892.1.1 = {birth="7892.1.1"}
	7908.1.1 = {add_trait=trained_warrior}
}


####  House Grazlar

150360026 = {
	name="Mizlaq"	# a lord
	dynasty=360026

	religion="harpy"
	culture="ghiscari"

	7558.1.1 = {birth="7558.1.1"}
	7583.1.1 = {add_spouse=250360026}
	7621.1.1 = {death="7621.1.1"}
}
250360026 = {
	name="Ezzara"
	female=yes

	religion="harpy"
	culture="ghiscari"

	7564.1.1 = {birth="7564.1.1"}
	7632.1.1 = {death="7632.1.1"}
}
100360026 = {
	name="Faezdhar"	# a lord
	dynasty=360026

	religion="harpy"
	culture="ghiscari"

	father=150360026
	mother=250360026

	7592.1.1 = {birth="7592.1.1"}
	7616.1.1 = {add_trait=poor_warrior}
	7618.1.1 = {add_spouse=200360026}
	7621.1.1 = {}
	7649.1.1 = {death="7649.1.1"}
}
200360026 = {
	name="Mezzara"
	female=yes

	religion="harpy"
	culture="ghiscari"

	7593.1.1 = {birth="7593.1.1"}
	7649.1.1 = {death="7649.1.1"}
}
101360026 = {
	name="Grazdan"	# a lord
	dynasty=360026

	religion="harpy"
	culture="ghiscari"

	father=100360026
	mother=200360026

	7621.1.1 = {birth="7621.1.1"}
	7637.1.1 = {add_trait=master_warrior}
	7639.1.1 = {add_spouse=201360026}
	7649.1.1 = {}
	7670.1.1 = {death="7670.1.1"}
}
201360026 = {
	name="Qezza"
	female=yes

	religion="harpy"
	culture="ghiscari"

	7621.1.1 = {birth="7621.1.1"}
	7670.1.1 = {death="7670.1.1"}
}
102360026 = {
	name="Vaezdhar"	# not a lord
	dynasty=360026

	religion="harpy"
	culture="ghiscari"

	father=100360026
	mother=200360026

	7622.1.1 = {birth="7622.1.1"}
	7638.1.1 = {add_trait=poor_warrior}
	7640.1.1 = {add_spouse=202360026}
	7654.1.1 = {death="7654.1.1"}
}
202360026 = {
	name="Jezhane"
	female=yes

	religion="harpy"
	culture="ghiscari"

	7622.1.1 = {birth="7622.1.1"}
	7654.1.1 = {death="7654.1.1"}
}
103360026 = {
	name="Telezza"	# not a lord
	female=yes
	dynasty=360026

	religion="harpy"
	culture="ghiscari"

	father=101360026
	mother=201360026

	7639.1.1 = {birth="7639.1.1"}
	7684.1.1 = {death="7684.1.1"}
}
104360026 = {
	name="Hizdhar"	# a lord
	dynasty=360026

	religion="harpy"
	culture="ghiscari"

	father=101360026
	mother=201360026

	7642.1.1 = {birth="7642.1.1"}
	7658.1.1 = {add_trait=poor_warrior}
	7660.1.1 = {add_spouse=204360026}
	7670.1.1 = {}
	7696.1.1 = {death="7696.1.1"}
}
204360026 = {
	name="Azzara"
	female=yes

	religion="harpy"
	culture="ghiscari"

	7642.1.1 = {birth="7642.1.1"}
	7696.1.1 = {death="7696.1.1"}
}
105360026 = {
	name="Galazza"	# not a lord
	female=yes
	dynasty=360026

	religion="harpy"
	culture="ghiscari"

	father=101360026
	mother=201360026

	7643.1.1 = {birth="7643.1.1"}
	7700.1.1 = {death="7700.1.1"}
}
106360026 = {
	name="Sezza"	# not a lord
	female=yes
	dynasty=360026

	religion="harpy"
	culture="ghiscari"

	father=104360026
	mother=204360026

	7669.1.1 = {birth="7669.1.1"}
	7747.1.1 = {death="7747.1.1"}
}
107360026 = {
	name="Gazdhor"	# a lord
	dynasty=360026

	religion="harpy"
	culture="ghiscari"

	father=104360026
	mother=204360026

	7671.1.1 = {birth="7671.1.1"}
	7687.1.1 = {add_trait=trained_warrior}
	7689.1.1 = {add_spouse=207360026}
	7696.1.1 = {}
	7729.1.1 = {death="7729.1.1"}
}
207360026 = {
	name="Ezzara"
	female=yes

	religion="harpy"
	culture="ghiscari"

	7671.1.1 = {birth="7671.1.1"}
	7729.1.1 = {death="7729.1.1"}
}
108360026 = {
	name="Hazzea"	# not a lord
	female=yes
	dynasty=360026

	religion="harpy"
	culture="ghiscari"

	father=104360026
	mother=204360026

	7673.1.1 = {birth="7673.1.1"}
	7719.1.1 = {death="7719.1.1"}
}
109360026 = {
	name="Sharkhaz"	# not a lord
	dynasty=360026

	religion="harpy"
	culture="ghiscari"

	father=104360026
	mother=204360026

	7675.1.1 = {birth="7675.1.1"}
	7691.1.1 = {add_trait=poor_warrior}
	7743.1.1 = {death="7743.1.1"}
}
110360026 = {
	name="Mizlaq"	# a lord
	dynasty=360026

	religion="harpy"
	culture="ghiscari"

	father=107360026
	mother=207360026

	7692.1.1 = {birth="7692.1.1"}
	7708.1.1 = {add_trait=master_warrior}
	7710.1.1 = {add_spouse=210360026}
	7729.1.1 = {}
	7751.1.1 = {death="7751.1.1"}
}
210360026 = {
	name="Mezzara"
	female=yes

	religion="harpy"
	culture="ghiscari"

	7692.1.1 = {birth="7692.1.1"}
	7751.1.1 = {death="7751.1.1"}
}
111360026 = {
	name="Qezza"	# not a lord
	female=yes
	dynasty=360026

	religion="harpy"
	culture="ghiscari"

	father=107360026
	mother=207360026

	7695.1.1 = {birth="7695.1.1"}
	7755.1.1 = {death="7755.1.1"}
}
112360026 = {
	name="Zaraq"	# not a lord
	dynasty=360026

	religion="harpy"
	culture="ghiscari"

	father=107360026
	mother=207360026

	7696.1.1 = {birth="7696.1.1"}
	7710.1.1 = {death="7710.1.1"}
}
113360026 = {
	name="Skahazro"	# not a lord
	dynasty=360026

	religion="harpy"
	culture="ghiscari"

	father=107360026
	mother=207360026

	7697.1.1 = {birth="7697.1.1"}
	7713.1.1 = {add_trait=poor_warrior}
	7739.1.1 = {death="7739.1.1"}
}
114360026 = {
	name="Kraznys"	# a lord
	dynasty=360026

	religion="harpy"
	culture="ghiscari"

	father=110360026
	mother=210360026

	7711.1.1 = {birth="7711.1.1"}
	7727.1.1 = {add_trait=skilled_warrior}
	7729.1.1 = {add_spouse=214360026}
	7751.1.1 = {}
	7772.1.1 = {death="7772.1.1"}
}
214360026 = {
	name="Bezzella"
	female=yes

	religion="harpy"
	culture="ghiscari"

	7711.1.1 = {birth="7711.1.1"}
	7772.1.1 = {death="7772.1.1"}
}
115360026 = {
	name="Qezza"	# not a lord
	female=yes
	dynasty=360026

	religion="harpy"
	culture="ghiscari"

	father=114360026
	mother=214360026

	7729.1.1 = {birth="7729.1.1"}
	7795.1.1 = {death="7795.1.1"}
}
116360026 = {
	name="Grazdan"	# not a lord
	dynasty=360026

	religion="harpy"
	culture="ghiscari"

	father=114360026
	mother=214360026

	7732.1.1 = {birth="7732.1.1"}
	7748.1.1 = {add_trait=trained_warrior}
	7750.1.1 = {add_spouse=216360026}
	7751.1.1 = {death = {death_reason = death_battle}}
}
216360026 = {
	name="Ezzara"
	female=yes

	religion="harpy"
	culture="ghiscari"

	7732.1.1 = {birth="7732.1.1"}
	7751.1.1 = {death="7751.1.1"}
}
117360026 = {
	name="Yurkhaz"	# a lord
	dynasty=360026

	religion="harpy"
	culture="ghiscari"

	father=114360026
	mother=214360026

	7734.1.1 = {birth="7734.1.1"}
	7750.1.1 = {add_trait=skilled_warrior}
	7752.1.1 = {add_spouse=217360026}
	7772.1.1 = {}
	7802.1.1 = {death="7802.1.1"}
}
217360026 = {
	name="Hazzea"
	female=yes

	religion="harpy"
	culture="ghiscari"

	7734.1.1 = {birth="7734.1.1"}
	7802.1.1 = {death="7802.1.1"}
}
118360026 = {
	name="Telezzara"	# not a lord
	female=yes
	dynasty=360026

	religion="harpy"
	culture="ghiscari"

	father=114360026
	mother=214360026

	7737.1.1 = {birth="7737.1.1"}
	7769.1.1 = {death="7769.1.1"}
}
119360026 = {
	name="Reznak"	# a lord
	dynasty=360026

	religion="harpy"
	culture="ghiscari"

	father=117360026
	mother=217360026

	7762.1.1 = {birth="7762.1.1"}
	7778.1.1 = {add_trait=poor_warrior}
	7779.1.1 = {add_spouse=219360026}
	7802.1.1 = {}
	7808.1.1 = {death="7808.1.1"}
}
219360026 = {
	name="Dezzala"
	female=yes

	religion="harpy"
	culture="ghiscari"

	7762.1.1 = {birth="7762.1.1"}
	7808.1.1 = {death="7808.1.1"}
}
120360026 = {
	name="Yezzan"	# not a lord
	dynasty=360026

	religion="harpy"
	culture="ghiscari"

	father=117360026
	mother=217360026

	7763.1.1 = {birth="7763.1.1"}
	7779.1.1 = {add_trait=trained_warrior}
	7819.1.1 = {death="7819.1.1"}
}
121360026 = {
	name="Prendahl"	# a lord
	dynasty=360026

	religion="harpy"
	culture="ghiscari"

	father=119360026
	mother=219360026

	7781.1.1 = {birth="7781.1.1"}
	7808.1.1 = {}
	7812.1.1 = {add_trait=trained_warrior}
	7814.1.1 = {add_spouse=221360026}
	7849.1.1 = {death="7849.1.1"}
}
221360026 = {
	name="Galazzama"
	female=yes

	religion="harpy"
	culture="ghiscari"

	7796.1.1 = {birth="7796.1.1"}
	7849.1.1 = {death="7849.1.1"}
}
122360026 = {
	name="Maezon"	# not a lord
	dynasty=360026

	religion="harpy"
	culture="ghiscari"

	father=119360026
	mother=219360026

	7798.1.1 = {birth="7798.1.1"}
	7814.1.1 = {add_trait=skilled_warrior}
	7832.1.1 = {death="7832.1.1"}
}
123360026 = {
	name="Grazdan"	# not a lord
	dynasty=360026

	religion="harpy"
	culture="ghiscari"

	father=119360026
	mother=219360026

	7801.1.1 = {birth="7801.1.1"}
	7817.1.1 = {add_trait=trained_warrior}
	7863.1.1 = {death="7863.1.1"}
}
124360026 = {
	name="Grazdan"	# not a lord
	dynasty=360026

	religion="harpy"
	culture="ghiscari"

	father=119360026
	mother=219360026

	7802.1.1 = {birth="7802.1.1"}
	7818.1.1 = {add_trait=poor_warrior}
	7839.1.1 = {death="7839.1.1"}
}
125360026 = {
	name="Yezza"	# not a lord
	female=yes
	dynasty=360026

	religion="harpy"
	culture="ghiscari"

	father=121360026
	mother=221360026

	7817.1.1 = {birth="7817.1.1"}
	7877.1.1 = {death="7877.1.1"}
}
126360026 = {
	name="Marghaz"	# a lord
	dynasty=360026

	religion="harpy"
	culture="ghiscari"

	father=121360026
	mother=221360026

	7819.1.1 = {birth="7819.1.1"}
	7835.1.1 = {add_trait=trained_warrior}
	7837.1.1 = {add_spouse=226360026}
	7849.1.1 = {}
	7855.1.1 = {death = {death_reason = death_battle}}
}
226360026 = {
	name="Mezzara"
	female=yes

	religion="harpy"
	culture="ghiscari"

	7819.1.1 = {birth="7819.1.1"}
	7855.1.1 = {death="7855.1.1"}
}
127360026 = {
	name="Azzlaq"	# a lord
	dynasty=360026

	religion="harpy"
	culture="ghiscari"

	father=126360026
	mother=226360026

	7837.1.1 = {birth="7837.1.1"}
	7853.1.1 = {add_trait=poor_warrior}
	7854.1.1 = {add_spouse=227360026}
	7855.1.1 = {}
	7887.1.1 = {death="7887.1.1"}
}
227360026 = {
	name="Hazzea"
	female=yes

	religion="harpy"
	culture="ghiscari"

	7837.1.1 = {birth="7837.1.1"}
	7887.1.1 = {death="7887.1.1"}
}
128360026 = {
	name="Barkhaz"	# not a lord
	dynasty=360026

	religion="harpy"
	culture="ghiscari"

	father=126360026
	mother=226360026

	7840.1.1 = {birth="7840.1.1"}
	7856.1.1 = {add_trait=trained_warrior}
	7858.1.1 = {add_spouse=228360026}
	7869.1.1 = {death="7869.1.1"}
}
228360026 = {
	name="Leqqa"
	female=yes

	religion="harpy"
	culture="ghiscari"

	7840.1.1 = {birth="7840.1.1"}
	7869.1.1 = {death="7869.1.1"}
}
129360026 = {
	name="Grazdan"	# not a lord
	dynasty=360026

	religion="harpy"
	culture="ghiscari"

	father=126360026
	mother=226360026

	7842.1.1 = {birth="7842.1.1"}
	7858.1.1 = {add_trait=trained_warrior}
	7883.1.1 = {death="7883.1.1"}
}
130360026 = {
	name="Tezza"	# not a lord
	female=yes
	dynasty=360026

	religion="harpy"
	culture="ghiscari"

	father=127360026
	mother=227360026

	7855.1.1 = {birth="7855.1.1"}
}
132360026 = {
	name="Hizdhar"	# a lord
	dynasty=360026

	religion="harpy"
	culture="ghiscari"

	father=127360026
	mother=227360026

	7859.1.1 = {birth="7859.1.1"}
	7875.1.1 = {add_trait=trained_warrior}
	7886.1.1 = {add_spouse=475360026}	
	7899.12.12 = {
		death = {
			death_reason = death_execution
			killer = 77041 # Daenerys
		}
	}
}
475360026 = {
	name="Yezza"
	female=yes

	religion="harpy"
	culture="ghiscari"

	7859.1.1 = {birth="7859.1.1"}
}
131360026 = {
	name="Grazdan"	# not a lord
	dynasty=360026

	religion="harpy"
	culture="ghiscari"

	father=127360026
	mother=227360026

	7862.1.1 = {birth="7862.1.1"}
}
176360026 = {
	name="Azzak"	# not a lord
	dynasty=360026

	religion="harpy"
	culture="ghiscari"

	father=132360026
	mother=475360026

	7886.1.1 = {birth="7886.1.1"}
	7902.1.1 = {add_trait=poor_warrior}
}
177360026 = {
	name="Galazza"	# not a lord
	female=yes
	dynasty=360026

	religion="harpy"
	culture="ghiscari"

	father=132360026
	mother=475360026

	7887.1.1 = {birth="7887.1.1"}
}
178360026 = {
	name="Grazdan"	# not a lord
	dynasty=360026

	religion="harpy"
	culture="ghiscari"

	father=132360026
	mother=475360026

	7890.1.1 = {birth="7890.1.1"}
	7906.1.1 = {add_trait=poor_warrior}
}
179360026 = {
	name="Jezhane"	# not a lord
	female=yes
	dynasty=360026

	religion="harpy"
	culture="ghiscari"

	father=132360026
	mother=475360026

	7891.1.1 = {birth="7891.1.1"}
}
180360026 = {
	name="Kraznys"	# not a lord
	dynasty=360026

	religion="harpy"
	culture="ghiscari"

	father=132360026
	mother=475360026

	7894.1.1 = {birth="7894.1.1"}
	7910.1.1 = {add_trait=poor_warrior}
}

#####  House Mazlaq

150360027 = {
	name="Grazdan"	# a lord
	dynasty=360027

	religion="harpy"
	culture="ghiscari"

	7557.1.1 = {birth="7557.1.1"}
	7584.1.1 = {add_spouse=250360027}
	7621.1.1 = {death="7621.1.1"}
}
250360027 = {
	name="Hazzea"
	female=yes

	religion="harpy"
	culture="ghiscari"

	7563.1.1 = {birth="7563.1.1"}
	7635.1.1 = {death="7635.1.1"}
}
100360027 = {
	name="Barghaz"	# a lord
	dynasty=360027

	religion="harpy"
	culture="ghiscari"

	father=150360027
	mother=250360027

	7589.1.1 = {birth="7589.1.1"}
	7616.1.1 = {add_trait=poor_warrior}
	7618.1.1 = {add_spouse=200360027}
	7621.1.1 = {}
	7646.1.1 = {death="7646.1.1"}
}
200360027 = {
	name="Mezzela"
	female=yes

	religion="harpy"
	culture="ghiscari"

	7592.1.1 = {birth="7592.1.1"}
	7646.1.1 = {death="7646.1.1"}
}
101360027 = {
	name="Qezza"	# not a lord
	female=yes
	dynasty=360027

	religion="harpy"
	culture="ghiscari"

	father=100360027
	mother=200360027

	7621.1.1 = {birth="7621.1.1"}
	7652.1.1 = {death = {death_reason = death_execution}}
}
102360027 = {
	name="Ezzara"	# not a lord
	female=yes
	dynasty=360027

	religion="harpy"
	culture="ghiscari"

	father=100360027
	mother=200360027

	7622.1.1 = {birth="7622.1.1"}
	7651.1.1 = {death="7651.1.1"}
}
103360027 = {
	name="Hizdhar"	# a lord
	dynasty=360027

	religion="harpy"
	culture="ghiscari"

	father=100360027
	mother=200360027

	7625.1.1 = {birth="7625.1.1"}
	7641.1.1 = {add_trait=poor_warrior}
	7646.1.1 = {}
	7653.1.1 = {add_spouse=203360027}
	7685.1.1 = {death="7685.1.1"}
}
203360027 = {
	name="Sezqa"
	female=yes

	religion="harpy"
	culture="ghiscari"

	7635.1.1 = {birth="7635.1.1"}
	7685.1.1 = {death="7685.1.1"}
}
104360027 = {
	name="Jezhane"	# not a lord
	female=yes
	dynasty=360027

	religion="harpy"
	culture="ghiscari"

	father=103360027
	mother=203360027

	7653.1.1 = {birth="7653.1.1"}
	7673.1.1 = {death="7673.1.1"}
}
105360027 = {
	name="Grazdan"	# a lord
	dynasty=360027

	religion="harpy"
	culture="ghiscari"

	father=103360027
	mother=203360027

	7656.1.1 = {birth="7656.1.1"}
	7672.1.1 = {add_trait=trained_warrior}
	7674.1.1 = {add_spouse=205360027}
	7685.1.1 = {}
	7733.1.1 = {death="7733.1.1"}
}
205360027 = {
	name="Mezzara"
	female=yes

	religion="harpy"
	culture="ghiscari"

	7656.1.1 = {birth="7656.1.1"}
	7733.1.1 = {death="7733.1.1"}
}
106360027 = {
	name="Galazza"	# not a lord
	female=yes
	dynasty=360027

	religion="harpy"
	culture="ghiscari"

	father=103360027
	mother=203360027

	7658.1.1 = {birth="7658.1.1"}
	7712.1.1 = {death="7712.1.1"}
}
107360027 = {
	name="Skahaz"	# not a lord
	dynasty=360027

	religion="harpy"
	culture="ghiscari"

	father=103360027
	mother=203360027

	7661.1.1 = {birth="7661.1.1"}
	7677.1.1 = {add_trait=poor_warrior}
	7712.1.1 = {death="7712.1.1"}
}
108360027 = {
	name="Qezza"	# not a lord
	female=yes
	dynasty=360027

	religion="harpy"
	culture="ghiscari"

	father=103360027
	mother=203360027

	7663.1.1 = {birth="7663.1.1"}
	7719.1.1 = {death="7719.1.1"}
}
109360027 = {
	name="Fezzara"	# not a lord
	female=yes
	dynasty=360027

	religion="harpy"
	culture="ghiscari"

	father=105360027
	mother=205360027

	7674.1.1 = {birth="7674.1.1"}
	7738.1.1 = {death="7738.1.1"}
}
110360027 = {
	name="Marghaz"	# a lord
	dynasty=360027

	religion="harpy"
	culture="ghiscari"

	father=105360027
	mother=205360027

	7675.1.1 = {birth="7675.1.1"}
	7691.1.1 = {add_trait=trained_warrior}
	7693.1.1 = {add_spouse=210360027}
	7733.1.1 = {}
	7737.1.1 = {death="7737.1.1"}
}
210360027 = {
	name="Galazza"
	female=yes

	religion="harpy"
	culture="ghiscari"

	7675.1.1 = {birth="7675.1.1"}
	7737.1.1 = {death="7737.1.1"}
}
111360027 = {
	name="Telezzara"	# not a lord
	female=yes
	dynasty=360027

	religion="harpy"
	culture="ghiscari"

	father=105360027
	mother=205360027

	7677.1.1 = {birth="7677.1.1"}
	7748.1.1 = {death="7748.1.1"}
}
112360027 = {
	name="Paezdharhos"	# not a lord
	dynasty=360027

	religion="harpy"
	culture="ghiscari"

	father=105360027
	mother=205360027

	7678.1.1 = {birth="7678.1.1"}
	7694.1.1 = {add_trait=poor_warrior}
	7700.1.1 = {death = {death_reason = death_battle}}
}
113360027 = {
	name="Zarraq"	# not a lord
	dynasty=360027

	religion="harpy"
	culture="ghiscari"

	father=110360027
	mother=210360027

	7697.1.1 = {birth="7697.1.1"}
	7713.1.1 = {add_trait=poor_warrior}
	7721.1.1 = {death="7721.1.1"}
}
114360027 = {
	name="Jezhane"	# not a lord
	female=yes
	dynasty=360027

	religion="harpy"
	culture="ghiscari"

	father=110360027
	mother=210360027

	7698.1.1 = {birth="7698.1.1"}
	7742.1.1 = {death="7742.1.1"}
}
115360027 = {
	name="Grazdan"	# a lord
	dynasty=360027

	religion="harpy"
	culture="ghiscari"

	father=110360027
	mother=210360027

	7701.1.1 = {birth="7701.1.1"}
	7717.1.1 = {add_trait=poor_warrior}
	7719.1.1 = {add_spouse=215360027}
	7737.1.1 = {}
	7743.1.1 = {death="7743.1.1"}
}
215360027 = {
	name="Ezzara"
	female=yes

	religion="harpy"
	culture="ghiscari"

	7701.1.1 = {birth="7701.1.1"}
	7743.1.1 = {death="7743.1.1"}
}
116360027 = {
	name="Azzara"	# not a lord
	female=yes
	dynasty=360027

	religion="harpy"
	culture="ghiscari"

	father=110360027
	mother=210360027

	7702.1.1 = {birth="7702.1.1"}
	7724.1.1 = {death="7724.1.1"}
}
117360027 = {
	name="Qezza"	# not a lord
	female=yes
	dynasty=360027

	religion="harpy"
	culture="ghiscari"

	father=115360027
	mother=215360027

	7720.1.1 = {birth="7720.1.1"}
	7741.1.1 = {death="7741.1.1"}
}
118360027 = {
	name="Reznak"	# a lord
	dynasty=360027

	religion="harpy"
	culture="ghiscari"

	father=115360027
	mother=215360027

	7723.1.1 = {birth="7723.1.1"}
	7743.1.1 = {}
	7749.1.1 = {add_trait=skilled_warrior}
	7751.1.1 = {add_spouse=218360027}
	7790.1.1 = {death="7790.1.1"}
}
218360027 = {
	name="Mellezzara"
	female=yes

	religion="harpy"
	culture="ghiscari"

	7733.1.1 = {birth="7733.1.1"}
	7790.1.1 = {death="7790.1.1"}
}
119360027 = {
	name="Yurkhaz"	# not a lord
	dynasty=360027

	religion="harpy"
	culture="ghiscari"

	father=115360027
	mother=215360027

	7735.1.1 = {birth="7735.1.1"}
	7751.1.1 = {add_trait=poor_warrior}
	7774.1.1 = {death="7774.1.1"}
}
120360027 = {
	name="Gorlaq"	# a lord
	dynasty=360027

	religion="harpy"
	culture="ghiscari"

	father=118360027
	mother=218360027

	7767.1.1 = {birth="7767.1.1"}
	7783.1.1 = {add_trait=skilled_warrior}
	7785.1.1 = {add_spouse=220360027}
	7790.1.1 = {}
	7830.1.1 = {death="7830.1.1"}
}
220360027 = {
	name="Gazzea"
	female=yes

	religion="harpy"
	culture="ghiscari"

	7767.1.1 = {birth="7767.1.1"}
	7830.1.1 = {death="7830.1.1"}
}
121360027 = {
	name="Prendahl"	# not a lord
	dynasty=360027

	religion="harpy"
	culture="ghiscari"

	father=118360027
	mother=218360027

	7770.1.1 = {birth="7770.1.1"}
	7786.1.1 = {add_trait=trained_warrior}
	7812.1.1 = {death="7812.1.1"}
}
122360027 = {
	name="Marghaz"	# not a lord
	dynasty=360027

	religion="harpy"
	culture="ghiscari"

	father=118360027
	mother=218360027

	7771.1.1 = {birth="7771.1.1"}
	7787.1.1 = {add_trait=master_warrior}
	7840.1.1 = {death="7840.1.1"}
}
123360027 = {
	name="Skahaz"	# a lord
	dynasty=360027

	religion="harpy"
	culture="ghiscari"

	father=120360027
	mother=220360027

	7788.1.1 = {birth="7788.1.1"}
	7804.1.1 = {add_trait=poor_warrior}
	7806.1.1 = {add_spouse=223360027}
	7830.1.1 = {}
	7837.1.1 = {death="7837.1.1"}
}
223360027 = {
	name="Jezhane"
	female=yes

	religion="harpy"
	culture="ghiscari"

	7788.1.1 = {birth="7788.1.1"}
	7837.1.1 = {death="7837.1.1"}
}
124360027 = {
	name="Mizlaq"	# not a lord
	dynasty=360027

	religion="harpy"
	culture="ghiscari"

	father=120360027
	mother=220360027

	7790.1.1 = {birth="7790.1.1"}
	7791.1.1 = {death="7791.1.1"}
}
125360027 = {
	name="Telleza"	# not a lord
	female=yes
	dynasty=360027

	religion="harpy"
	culture="ghiscari"

	father=120360027
	mother=220360027

	7796.1.1 = {birth="7796.1.1"}
	7853.1.1 = {death = {death_reason = death_accident}}
}
126360027 = {
	name="Nezza"	# not a lord
	female=yes
	dynasty=360027

	religion="harpy"
	culture="ghiscari"

	father=120360027
	mother=220360027

	7798.1.1 = {birth="7798.1.1"}
	7846.1.1 = {death="7846.1.1"}
}
127360027 = {
	name="Gunzak"	# a lord
	dynasty=360027

	religion="harpy"
	culture="ghiscari"

	father=123360027
	mother=223360027

	7806.1.1 = {birth="7806.1.1"}
	7822.1.1 = {add_trait=skilled_warrior}
	7824.1.1 = {add_spouse=227360027}
	7837.1.1 = {}
	7862.1.1 = {death = {death_reason = death_accident}}
}
227360027 = {
	name="Hazzea"
	female=yes

	religion="harpy"
	culture="ghiscari"

	7806.1.1 = {birth="7806.1.1"}
	7862.1.1 = {death="7862.1.1"}
}
128360027 = {
	name="Azzarah"	# not a lord
	female=yes
	dynasty=360027

	religion="harpy"
	culture="ghiscari"

	father=127360027
	mother=227360027

	7835.1.1 = {birth="7835.1.1"}
	7899.1.1 = {death="7899.1.1"}
}
129360027 = {
	name="Grazdhan"	# a lord
	dynasty=360027

	religion="harpy"
	culture="ghiscari"

	father=127360027
	mother=227360027

	7836.1.1 = {birth="7836.1.1"}
	7852.1.1 = {add_trait=poor_warrior}
	7854.1.1 = {add_spouse=229360027}
	7862.1.1 = {}
	7878.1.1 = {death="7878.1.1"}
}
229360027 = {
	name="Hazzea"
	female=yes

	religion="harpy"
	culture="ghiscari"

	7836.1.1 = {birth="7836.1.1"}
	7878.1.1 = {death="7878.1.1"}
}
130360027 = {
	name="Prendahl"	# not a lord
	dynasty=360027

	religion="harpy"
	culture="ghiscari"

	father=127360027
	mother=227360027

	7838.1.1 = {birth="7838.1.1"}
	7854.1.1 = {add_trait=skilled_warrior}
	7895.1.1 = {death="7895.1.1"}
}
131360027 = {
	name="Yezzan"	# not a lord
	dynasty=360027

	religion="harpy"
	culture="ghiscari"

	father=127360027
	mother=227360027

	7839.1.1 = {birth="7839.1.1"}
	7855.1.1 = {add_trait=trained_warrior}
	7898.1.1 = {death="7898.1.1"}
}
132360027 = {
	name="Marghaz"	# a lord
	dynasty=360027

	religion="harpy"
	culture="ghiscari"

	father=129360027
	mother=229360027

	7859.1.1 = {birth="7859.1.1"}
	7875.1.1 = {add_trait=poor_warrior}
	7888.1.1 = {add_spouse=475360027}
	7899.12.12 = {
		death = {
			death_reason = death_execution
			killer = 77041 # Daenerys
		}
	}
}
475360027 = {
	name="Hazzaara"
	female=yes

	religion="harpy"
	culture="ghiscari"

	7859.1.1 = {birth="7859.1.1"}
}
133360027 = {
	name="Sharkhaz"	# not a lord
	dynasty=360027

	religion="harpy"
	culture="ghiscari"

	father=129360027
	mother=229360027

	7861.1.1 = {birth="7861.1.1"}
	7877.1.1 = {add_trait=poor_warrior}
}
176360027 = {
	name="Haznak"	# not a lord
	dynasty=360027

	religion="harpy"
	culture="ghiscari"

	father=132360027
	mother=475360027

	7888.1.1 = {birth="7888.1.1"}
	7904.1.1 = {add_trait=poor_warrior}
}
177360027 = {
	name="Sezqa"	# not a lord
	female=yes
	dynasty=360027

	religion="harpy"
	culture="ghiscari"

	father=132360027
	mother=475360027

	7889.1.1 = {birth="7889.1.1"}
}
178360027 = {
	name="Yarkhaz"	# not a lord
	dynasty=360027

	religion="harpy"
	culture="ghiscari"

	father=132360027
	mother=475360027

	7891.1.1 = {birth="7891.1.1"}
	7907.1.1 = {add_trait=skilled_warrior}
}
179360027 = {
	name="Qezza"	# not a lord
	female=yes
	dynasty=360027

	religion="harpy"
	culture="ghiscari"

	father=132360027
	mother=475360027

	7892.1.1 = {birth="7892.1.1"}
}
180360027 = {
	name="Yezzan"	# not a lord
	dynasty=360027

	religion="harpy"
	culture="ghiscari"

	father=132360027
	mother=475360027

	7894.1.1 = {birth="7894.1.1"}
	7910.1.1 = {add_trait=poor_warrior}
}

