

###House Pahryris

10002900 = {
	name="Belicho"	# a lord
	dynasty=662900

	religion="valyrian_rel"
	culture="eastern_valyrian"

	7566.1.1 = {birth="7566.1.1"}
	7582.1.1 = {add_trait=poor_warrior}
	7584.1.1 = {add_spouse=20002900}
	7636.1.1 = {death="7636.1.1"}
}
20002900 = {
	name="Rhae"
	female=yes

	religion="valyrian_rel"
	culture="eastern_valyrian"

	7566.1.1 = {birth="7566.1.1"}
	7636.1.1 = {death="7636.1.1"}
}
10012900 = {
	name="Methyso"	# a lord
	dynasty=662900

	religion="valyrian_rel"
	culture="eastern_valyrian"

	father=10002900
	mother=20002900

	7588.1.1 = {birth="7588.1.1"}
	7604.1.1 = {add_trait=poor_warrior}
	7606.1.1 = {add_spouse=20012900}
	7663.1.1 = {death="7663.1.1"}
}
20012900 = {
	name="Saenrys"
	female=yes

	religion="valyrian_rel"
	culture="eastern_valyrian"

	7588.1.1 = {birth="7588.1.1"}
	7663.1.1 = {death="7663.1.1"}
}
10022900 = {
	name="Parquello"	# not a lord
	dynasty=662900

	religion="valyrian_rel"
	culture="eastern_valyrian"

	father=10012900
	mother=20012900

	7619.1.1 = {birth="7619.1.1"}
	7635.1.1 = {add_trait=poor_warrior}
	7654.1.1 = {death="7654.1.1"}
}
10032900 = {
	name="Colloquo"	# a lord
	dynasty=662900

	religion="valyrian_rel"
	culture="eastern_valyrian"

	father=10012900
	mother=20012900

	7621.1.1 = {birth="7621.1.1"}
	7637.1.1 = {add_trait=trained_warrior}
	7639.1.1 = {add_spouse=20032900}
	7679.1.1 = {death="7679.1.1"}
}
20032900 = {
	name="Vogarra"
	female=yes

	religion="valyrian_rel"
	culture="eastern_valyrian"

	7621.1.1 = {birth="7621.1.1"}
	7679.1.1 = {death="7679.1.1"}
}
10042900 = {
	name="Vogarra"	# not a lord
	female=yes
	dynasty=662900

	religion="valyrian_rel"
	culture="eastern_valyrian"

	father=10012900
	mother=20012900

	7624.1.1 = {birth="7624.1.1"}
	7680.1.1 = {death="7680.1.1"}
}
10052900 = {
	name="Leaysa"	# not a lord
	female=yes
	dynasty=662900

	religion="valyrian_rel"
	culture="eastern_valyrian"

	father=10012900
	mother=20012900

	7626.1.1 = {birth="7626.1.1"}
	7662.1.1 = {death="7662.1.1"}
}
10062900 = {
	name="Belicho"	# a lord
	dynasty=662900

	religion="valyrian_rel"
	culture="eastern_valyrian"

	father=10032900
	mother=20032900

	7641.1.1 = {birth="7641.1.1"}
	7657.1.1 = {add_trait=poor_warrior}
	7659.1.1 = {add_spouse=20062900}
	7716.1.1 = {death="7716.1.1"}
}
20062900 = {
	name="Naerys"
	female=yes

	religion="valyrian_rel"
	culture="eastern_valyrian"

	7641.1.1 = {birth="7641.1.1"}
	7716.1.1 = {death="7716.1.1"}
}
10072900 = {
	name="Rhaelinor"	# not a lord
	female=yes
	dynasty=662900

	religion="valyrian_rel"
	culture="eastern_valyrian"

	father=10032900
	mother=20032900

	7644.1.1 = {birth="7644.1.1"}
	7680.1.1 = {death = {death_reason = death_execution}}
}
10082900 = {
	name="Saenrys"	# not a lord
	female=yes
	dynasty=662900

	religion="valyrian_rel"
	culture="eastern_valyrian"

	father=10032900
	mother=20032900

	7646.1.1 = {birth="7646.1.1"}
	7692.1.1 = {death="7692.1.1"}
}
10092900 = {
	name="Donipha"	# not a lord
	female=yes
	dynasty=662900

	religion="valyrian_rel"
	culture="eastern_valyrian"

	father=10062900
	mother=20062900

	7666.1.1 = {birth="7666.1.1"}
	7709.1.1 = {death="7709.1.1"}
}
10102900 = {
	name="Parquella"	# not a lord
	female=yes
	dynasty=662900

	religion="valyrian_rel"
	culture="eastern_valyrian"

	father=10062900
	mother=20062900

	7667.1.1 = {birth="7667.1.1"}
	7711.1.1 = {death="7711.1.1"}
}
10112900 = {
	name="Talisa"	# not a lord
	female=yes
	dynasty=662900

	religion="valyrian_rel"
	culture="eastern_valyrian"

	father=10062900
	mother=20062900

	7668.1.1 = {birth="7668.1.1"}
	7732.1.1 = {death="7732.1.1"}
}
10122900 = {
	name="Vaekar"	# a lord
	dynasty=662900

	religion="valyrian_rel"
	culture="eastern_valyrian"

	father=10062900
	mother=20062900

	7670.1.1 = {birth="7670.1.1"}
	7686.1.1 = {add_trait=poor_warrior}
	7688.1.1 = {add_spouse=20122900}
	7729.1.1 = {death="7729.1.1"}
}
20122900 = {
	name="Syaella"
	female=yes

	religion="valyrian_rel"
	culture="eastern_valyrian"

	7670.1.1 = {birth="7670.1.1"}
	7729.1.1 = {death="7729.1.1"}
}
10132900 = {
	name="Vaekar"	# a lord
	dynasty=662900

	religion="valyrian_rel"
	culture="eastern_valyrian"

	father=10122900
	mother=20122900

	7698.1.1 = {birth="7698.1.1"}
	7714.1.1 = {add_trait=poor_warrior}
	7716.1.1 = {add_spouse=20132900}
	7760.1.1 = {death="7760.1.1"}
}
20132900 = {
	name="Vogarra"
	female=yes

	religion="valyrian_rel"
	culture="eastern_valyrian"

	7698.1.1 = {birth="7698.1.1"}
	7760.1.1 = {death="7760.1.1"}
}
10142900 = {
	name="Syaella"	# not a lord
	female=yes
	dynasty=662900

	religion="valyrian_rel"
	culture="eastern_valyrian"

	father=10122900
	mother=20122900

	7700.1.1 = {birth="7700.1.1"}
	7731.1.1 = {death="7731.1.1"}
}
10152900 = {
	name="Parquella"	# not a lord
	female=yes
	dynasty=662900

	religion="valyrian_rel"
	culture="eastern_valyrian"

	father=10132900
	mother=20132900

	7724.1.1 = {birth="7724.1.1"}
	7759.1.1 = {death="7759.1.1"}
}
10162900 = {
	name="Daegar"	# a lord
	dynasty=662900

	religion="valyrian_rel"
	culture="eastern_valyrian"

	father=10132900
	mother=20132900

	7726.1.1 = {birth="7726.1.1"}
	7742.1.1 = {add_trait=trained_warrior}
	7744.1.1 = {add_spouse=20162900}
	7797.1.1 = {death="7797.1.1"}
}
20162900 = {
	name="Donipha"
	female=yes

	religion="valyrian_rel"
	culture="eastern_valyrian"

	7726.1.1 = {birth="7726.1.1"}
	7797.1.1 = {death="7797.1.1"}
}
10172900 = {
	name="Saenrys"	# not a lord
	female=yes
	dynasty=662900

	religion="valyrian_rel"
	culture="eastern_valyrian"

	father=10132900
	mother=20132900

	7729.1.1 = {birth="7729.1.1"}
	7780.1.1 = {death="7780.1.1"}
}
10182900 = {
	name="Aelix"	# not a lord
	dynasty=662900

	religion="valyrian_rel"
	culture="eastern_valyrian"

	father=10132900
	mother=20132900

	7730.1.1 = {birth="7730.1.1"}
	7746.1.1 = {add_trait=skilled_warrior}
	7805.1.1 = {death="7805.1.1"}
}
10192900 = {
	name="Matarys"	# a lord
	dynasty=662900

	religion="valyrian_rel"
	culture="eastern_valyrian"

	father=10162900
	mother=20162900

	7753.1.1 = {birth="7753.1.1"}
	7769.1.1 = {add_trait=skilled_warrior}
	7771.1.1 = {add_spouse=20192900}
	7805.1.1 = {death="7805.1.1"}
}
20192900 = {
	name="Rhaelinor"
	female=yes

	religion="valyrian_rel"
	culture="eastern_valyrian"

	7753.1.1 = {birth="7753.1.1"}
	7805.1.1 = {death="7805.1.1"}
}
10202900 = {
	name="Daegar"	# not a lord
	dynasty=662900

	religion="valyrian_rel"
	culture="eastern_valyrian"

	father=10162900
	mother=20162900

	7755.1.1 = {birth="7755.1.1"}
	7771.1.1 = {add_trait=poor_warrior}
	7799.1.1 = {death="7799.1.1"}
}
10212900 = {
	name="Alearys"	# not a lord
	female=yes
	dynasty=662900

	religion="valyrian_rel"
	culture="eastern_valyrian"

	father=10162900
	mother=20162900

	7757.1.1 = {birth="7757.1.1"}
	7809.1.1 = {death="7809.1.1"}
}
10222900 = {
	name="Haerys"	# not a lord
	dynasty=662900

	religion="valyrian_rel"
	culture="eastern_valyrian"

	father=10162900
	mother=20162900

	7759.1.1 = {birth="7759.1.1"}
	7775.1.1 = {add_trait=trained_warrior}
	7802.1.1 = {death="7802.1.1"}
}
10232900 = {
	name="Orys"	# a lord
	dynasty=662900

	religion="valyrian_rel"
	culture="eastern_valyrian"

	father=10192900
	mother=20192900

	7775.1.1 = {birth="7775.1.1"}
	7791.1.1 = {add_trait=poor_warrior}
	7793.1.1 = {add_spouse=20232900}
	7833.1.1 = {death="7833.1.1"}
}
20232900 = {
	name="Rhaeys"
	female=yes

	religion="valyrian_rel"
	culture="eastern_valyrian"

	7775.1.1 = {birth="7775.1.1"}
	7833.1.1 = {death="7833.1.1"}
}
10242900 = {
	name="Benerro"	# not a lord
	dynasty=662900

	religion="valyrian_rel"
	culture="eastern_valyrian"

	father=10192900
	mother=20192900

	7778.1.1 = {birth="7778.1.1"}
	7794.1.1 = {add_trait=poor_warrior}
	7831.1.1 = {death="7831.1.1"}
}
10252900 = {
	name="Elaena"	# not a lord
	female=yes
	dynasty=662900

	religion="valyrian_rel"
	culture="eastern_valyrian"

	father=10232900
	mother=20232900

	7796.1.1 = {birth="7796.1.1"}
	7847.1.1 = {death="7847.1.1"}
}
10262900 = {
	name="Vaermon"	# a lord
	dynasty=662900

	religion="valyrian_rel"
	culture="eastern_valyrian"

	father=10232900
	mother=20232900

	7798.1.1 = {birth="7798.1.1"}
	7814.1.1 = {add_trait=skilled_warrior}
	7816.1.1 = {add_spouse=20262900}
	7857.1.1 = {death="7857.1.1"}
}
20262900 = {
	name="Benerra"
	female=yes

	religion="valyrian_rel"
	culture="eastern_valyrian"

	7798.1.1 = {birth="7798.1.1"}
	7857.1.1 = {death="7857.1.1"}
}
10272900 = {
	name="Matarys"	# not a lord
	dynasty=662900

	religion="valyrian_rel"
	culture="eastern_valyrian"

	father=10232900
	mother=20232900

	7801.1.1 = {birth="7801.1.1"}
	7817.1.1 = {add_trait=trained_warrior}
	7866.1.1 = {death="7866.1.1"}
}
10282900 = {
	name="Cymella"	# not a lord
	female=yes
	dynasty=662900

	religion="valyrian_rel"
	culture="eastern_valyrian"

	father=10262900
	mother=20262900

	7823.1.1 = {birth="7823.1.1"}
	7866.1.1 = {death="7866.1.1"}
}
10292900 = {
	name="Methyso"	# a lord
	dynasty=662900

	religion="valyrian_rel"
	culture="eastern_valyrian"

	father=10262900
	mother=20262900

	7825.1.1 = {birth="7825.1.1"}
	7841.1.1 = {add_trait=poor_warrior}
	7843.1.1 = {add_spouse=20292900}
	7894.1.1 = {death="7894.1.1"}
}
20292900 = {
	name="Donipha"
	female=yes

	religion="valyrian_rel"
	culture="eastern_valyrian"

	7825.1.1 = {birth="7825.1.1"}
	7894.1.1 = {death="7894.1.1"}
}
10302900 = {
	name="Elaena"	# not a lord
	female=yes
	dynasty=662900

	religion="valyrian_rel"
	culture="eastern_valyrian"

	father=10262900
	mother=20262900

	7828.1.1 = {birth="7828.1.1"}
	7891.1.1 = {death="7891.1.1"}
}
10312900 = {
	name="Daella"	# not a lord
	female=yes
	dynasty=662900

	religion="valyrian_rel"
	culture="eastern_valyrian"

	father=10262900
	mother=20262900

	7830.1.1 = {birth="7830.1.1"}
	7851.1.1 = {death="7851.1.1"}
}
10322900 = {
	name="Cymella"	# not a lord
	female=yes
	dynasty=662900

	religion="valyrian_rel"
	culture="eastern_valyrian"

	father=10262900
	mother=20262900

	7831.1.1 = {birth="7831.1.1"}
	7907.1.1 = {death="7907.1.1"}
}
10332900 = {
	name="Moqorro"	# a lord
	dynasty=662900

	religion="valyrian_rel"
	culture="eastern_valyrian"

	father=10292900
	mother=20292900

	7859.1.1 = {birth="7859.1.1"}
	7875.1.1 = {add_trait=trained_warrior}
	7877.1.1 = {add_spouse=20332900}
	7900.1.1 = {death="7900.1.1"}
}
20332900 = {
	name="Horonna"
	female=yes

	religion="valyrian_rel"
	culture="eastern_valyrian"

	7859.1.1 = {birth="7859.1.1"}
	7900.1.1 = {death="7900.1.1"}
}
10342900 = {
	name="Methyso"	# a lord
	dynasty=662900

	religion="valyrian_rel"
	culture="eastern_valyrian"

	father=10332900
	mother=20332900

	7878.1.1 = {birth="7878.1.1"}
	7894.1.1 = {add_trait=poor_warrior}
	7945.1.1 = {death="7945.1.1"}
}
10352900 = {
	name="Allyria"	# not a lord
	female=yes
	dynasty=662900

	religion="valyrian_rel"
	culture="eastern_valyrian"

	father=10332900
	mother=20332900

	7879.1.1 = {birth="7879.1.1"}
	7943.1.1 = {death = {death_reason = death_accident}}
}


###House Naeyor

100062901 = {
	name="Colloquo"	# a lord
	dynasty=662901

	religion="valyrian_rel"
	culture="eastern_valyrian"

	7564.1.1 = {birth="7564.1.1"}
	7580.1.1 = {add_trait=poor_warrior}
	7582.1.1 = {add_spouse=200062901}
	7632.1.1 = {death="7632.1.1"}
}
200062901 = {
	name="Vogarra"
	female=yes

	religion="valyrian_rel"
	culture="eastern_valyrian"

	7564.1.1 = {birth="7564.1.1"}
	7632.1.1 = {death="7632.1.1"}
}
100162901 = {
	name="Benerro"	# not a lord
	dynasty=662901

	religion="valyrian_rel"
	culture="eastern_valyrian"

	father=100062901
	mother=200062901

	7597.1.1 = {birth="7597.1.1"}
	7613.1.1 = {add_trait=poor_warrior}
	7630.1.1 = {death="7630.1.1"}
}
100262901 = {
	name="Aelix"	# a lord
	dynasty=662901

	religion="valyrian_rel"
	culture="eastern_valyrian"

	father=100062901
	mother=200062901

	7599.1.1 = {birth="7599.1.1"}
	7615.1.1 = {add_trait=poor_warrior}
	7617.1.1 = {add_spouse=200262901}
	7635.1.1 = {death="7635.1.1"}
}
200262901 = {
	name="Alia"
	female=yes

	religion="valyrian_rel"
	culture="eastern_valyrian"

	7599.1.1 = {birth="7599.1.1"}
	7635.1.1 = {death="7635.1.1"}
}
100362901 = {
	name="Rhaeys"	# not a lord
	female=yes
	dynasty=662901

	religion="valyrian_rel"
	culture="eastern_valyrian"

	father=100062901
	mother=200062901

	7602.1.1 = {birth="7602.1.1"}
	7641.1.1 = {death="7641.1.1"}
}
100462901 = {
	name="Moqorro"	# a lord
	dynasty=662901

	religion="valyrian_rel"
	culture="eastern_valyrian"

	father=100262901
	mother=200262901

	7627.1.1 = {birth="7627.1.1"}
	7643.1.1 = {add_trait=trained_warrior}
	7645.1.1 = {add_spouse=200462901}
	7694.1.1 = {death="7694.1.1"}
}
200462901 = {
	name="Leaysa"
	female=yes

	religion="valyrian_rel"
	culture="eastern_valyrian"

	7627.1.1 = {birth="7627.1.1"}
	7694.1.1 = {death="7694.1.1"}
}
100562901 = {
	name="Methyso"	# not a lord
	dynasty=662901

	religion="valyrian_rel"
	culture="eastern_valyrian"

	father=100262901
	mother=200262901

	7630.1.1 = {birth="7630.1.1"}
	7646.1.1 = {add_trait=trained_warrior}
	7673.1.1 = {death="7673.1.1"}
}
100662901 = {
	name="Colloquo"	# not a lord
	dynasty=662901

	religion="valyrian_rel"
	culture="eastern_valyrian"

	father=100262901
	mother=200262901

	7632.1.1 = {birth="7632.1.1"}
	7648.1.1 = {add_trait=poor_warrior}
	7706.1.1 = {death="7706.1.1"}
}
100762901 = {
	name="Vogarra"	# not a lord
	female=yes
	dynasty=662901

	religion="valyrian_rel"
	culture="eastern_valyrian"

	father=100262901
	mother=200262901

	7633.1.1 = {birth="7633.1.1"}
	7695.1.1 = {death = {death_reason = death_accident}}
}
100862901 = {
	name="Cymella"	# not a lord
	female=yes
	dynasty=662901

	religion="valyrian_rel"
	culture="eastern_valyrian"

	father=100262901
	mother=200262901

	7634.1.1 = {birth="7634.1.1"}
	7690.1.1 = {death = {death_reason = death_murder}}
}
100962901 = {
	name="Vaekar"	# a lord
	dynasty=662901

	religion="valyrian_rel"
	culture="eastern_valyrian"

	father=100462901
	mother=200462901

	7652.1.1 = {birth="7652.1.1"}
	7668.1.1 = {add_trait=master_warrior}
	7670.1.1 = {add_spouse=200962901}
	7711.1.1 = {death="7711.1.1"}
}
200962901 = {
	name="Naerys"
	female=yes

	religion="valyrian_rel"
	culture="eastern_valyrian"

	7652.1.1 = {birth="7652.1.1"}
	7711.1.1 = {death="7711.1.1"}
}
101062901 = {
	name="Syaella"	# not a lord
	female=yes
	dynasty=662901

	religion="valyrian_rel"
	culture="eastern_valyrian"

	father=100462901
	mother=200462901

	7654.1.1 = {birth="7654.1.1"}
	7689.1.1 = {death="7689.1.1"}
}
101162901 = {
	name="Allyria"	# not a lord
	female=yes
	dynasty=662901

	religion="valyrian_rel"
	culture="eastern_valyrian"

	father=100462901
	mother=200462901

	7655.1.1 = {birth="7655.1.1"}
	7711.1.1 = {death="7711.1.1"}
}
101262901 = {
	name="Syaella"	# not a lord
	female=yes
	dynasty=662901

	religion="valyrian_rel"
	culture="eastern_valyrian"

	father=100462901
	mother=200462901

	7656.1.1 = {birth="7656.1.1"}
	7711.1.1 = {death="7711.1.1"}
}
101362901 = {
	name="Jaekar"	# a lord
	dynasty=662901

	religion="valyrian_rel"
	culture="eastern_valyrian"

	father=100962901
	mother=200962901

	7672.1.1 = {birth="7672.1.1"}
	7688.1.1 = {add_trait=poor_warrior}
	7690.1.1 = {add_spouse=201362901}
	7732.1.1 = {death="7732.1.1"}
}
201362901 = {
	name="Qava"
	female=yes

	religion="valyrian_rel"
	culture="eastern_valyrian"

	7672.1.1 = {birth="7672.1.1"}
	7732.1.1 = {death="7732.1.1"}
}
101462901 = {
	name="Syaella"	# not a lord
	female=yes
	dynasty=662901

	religion="valyrian_rel"
	culture="eastern_valyrian"

	father=101362901
	mother=201362901

	7698.1.1 = {birth="7698.1.1"}
	7768.1.1 = {death="7768.1.1"}
}
101562901 = {
	name="Alios"	# a lord
	dynasty=662901

	religion="valyrian_rel"
	culture="eastern_valyrian"

	father=101362901
	mother=201362901

	7700.1.1 = {birth="7700.1.1"}
	7716.1.1 = {add_trait=poor_warrior}
	7718.1.1 = {add_spouse=201562901}
	7756.1.1 = {death="7756.1.1"}
}
201562901 = {
	name="Rhaelle"
	female=yes

	religion="valyrian_rel"
	culture="eastern_valyrian"

	7700.1.1 = {birth="7700.1.1"}
	7756.1.1 = {death="7756.1.1"}
}
101662901 = {
	name="Malaquo"	# not a lord
	dynasty=662901

	religion="valyrian_rel"
	culture="eastern_valyrian"

	father=101362901
	mother=201362901

	7702.1.1 = {birth="7702.1.1"}
	7718.1.1 = {add_trait=trained_warrior}
	7758.1.1 = {death="7758.1.1"}
}
101762901 = {
	name="Alearys"	# not a lord
	female=yes
	dynasty=662901

	religion="valyrian_rel"
	culture="eastern_valyrian"

	father=101362901
	mother=201362901

	7703.1.1 = {birth="7703.1.1"}
	7774.1.1 = {death="7774.1.1"}
}
101862901 = {
	name="Saenrys"	# not a lord
	female=yes
	dynasty=662901

	religion="valyrian_rel"
	culture="eastern_valyrian"

	father=101362901
	mother=201362901

	7705.1.1 = {birth="7705.1.1"}
	7750.1.1 = {death="7750.1.1"}
}
101962901 = {
	name="Nyessos"	# a lord
	dynasty=662901

	religion="valyrian_rel"
	culture="eastern_valyrian"

	father=101562901
	mother=201562901

	7720.1.1 = {birth="7720.1.1"}
	7736.1.1 = {add_trait=trained_warrior}
	7738.1.1 = {add_spouse=201962901}
	7775.1.1 = {death="7775.1.1"}
}
201962901 = {
	name="Rhaelinor"
	female=yes

	religion="valyrian_rel"
	culture="eastern_valyrian"

	7720.1.1 = {birth="7720.1.1"}
	7775.1.1 = {death="7775.1.1"}
}
102062901 = {
	name="Methyso"	# a lord
	dynasty=662901

	religion="valyrian_rel"
	culture="eastern_valyrian"

	father=101962901
	mother=201962901

	7754.1.1 = {birth="7754.1.1"}
	7770.1.1 = {add_trait=skilled_warrior}
	7772.1.1 = {add_spouse=202062901}
	7776.1.1 = {death="7776.1.1"}
}
202062901 = {
	name="Donipha"
	female=yes

	religion="valyrian_rel"
	culture="eastern_valyrian"

	7754.1.1 = {birth="7754.1.1"}
	7776.1.1 = {death="7776.1.1"}
}
102162901 = {
	name="Benerra"	# not a lord
	female=yes
	dynasty=662901

	religion="valyrian_rel"
	culture="eastern_valyrian"

	father=101962901
	mother=201962901

	7757.1.1 = {birth="7757.1.1"}
	7801.1.1 = {death="7801.1.1"}
}
102262901 = {
	name="Jaekar"	# a lord
	dynasty=662901

	religion="valyrian_rel"
	culture="eastern_valyrian"

	father=102062901
	mother=202062901

	7776.1.1 = {birth="7776.1.1"}
	7792.1.1 = {add_trait=poor_warrior}
	7803.1.1 = {add_spouse=202262901}
	7844.1.1 = {death="7844.1.1"}
}
202262901 = {
	name="Saenrys"
	female=yes

	religion="valyrian_rel"
	culture="eastern_valyrian"

	7785.1.1 = {birth="7785.1.1"}
	7844.1.1 = {death="7844.1.1"}
}
102362901 = {
	name="Belicho"	# a lord
	dynasty=662901

	religion="valyrian_rel"
	culture="eastern_valyrian"

	father=102262901
	mother=202262901

	7809.1.1 = {birth="7809.1.1"}
	7825.1.1 = {add_trait=poor_warrior}
	7827.1.1 = {add_spouse=202362901}
	7852.1.1 = {death="7852.1.1"}
}
202362901 = {
	name="Cyeana"
	female=yes

	religion="valyrian_rel"
	culture="eastern_valyrian"

	7809.1.1 = {birth="7809.1.1"}
	7852.1.1 = {death="7852.1.1"}
}
102462901 = {
	name="Jaekar"	# not a lord
	dynasty=662901

	religion="valyrian_rel"
	culture="eastern_valyrian"

	father=102262901
	mother=202262901

	7810.1.1 = {birth="7810.1.1"}
	7826.1.1 = {add_trait=poor_warrior}
	7869.1.1 = {death="7869.1.1"}
}
102562901 = {
	name="Vaeron"	# not a lord
	dynasty=662901

	religion="valyrian_rel"
	culture="eastern_valyrian"

	father=102262901
	mother=202262901

	7813.1.1 = {birth="7813.1.1"}
	7829.1.1 = {add_trait=poor_warrior}
	7861.1.1 = {death="7861.1.1"}
}
102662901 = {
	name="Nyessos"	# a lord
	dynasty=662901

	religion="valyrian_rel"
	culture="eastern_valyrian"

	father=102362901
	mother=202362901

	7829.1.1 = {birth="7829.1.1"}
	7845.1.1 = {add_trait=skilled_warrior}
	7847.1.1 = {add_spouse=202662901}
	7875.1.1 = {death="7875.1.1"}
}
202662901 = {
	name="Rhaelinor"
	female=yes

	religion="valyrian_rel"
	culture="eastern_valyrian"

	7829.1.1 = {birth="7829.1.1"}
	7875.1.1 = {death="7875.1.1"}
}
102762901 = {
	name="Alios"	# not a lord
	dynasty=662901

	religion="valyrian_rel"
	culture="eastern_valyrian"

	father=102362901
	mother=202362901

	7830.1.1 = {birth="7830.1.1"}
	7846.1.1 = {add_trait=skilled_warrior}
	7867.1.1 = {death = {death_reason = death_battle}}
}
102862901 = {
	name="Saenrys"	# not a lord
	female=yes
	dynasty=662901

	religion="valyrian_rel"
	culture="eastern_valyrian"

	father=102662901
	mother=202662901

	7848.1.1 = {birth="7848.1.1"}
	7893.1.1 = {death="7893.1.1"}
}
102962901 = {
	name="Vaekar"	# a lord
	dynasty=662901

	religion="valyrian_rel"
	culture="eastern_valyrian"

	father=102662901
	mother=202662901

	7851.1.1 = {birth="7851.1.1"}
	7867.1.1 = {add_trait=poor_warrior}
	7920.1.1 = {death="7920.1.1"}
}
103062901 = {
	name="Methyso"	# not a lord
	dynasty=662901

	religion="valyrian_rel"
	culture="eastern_valyrian"

	father=102662901
	mother=202662901

	7852.1.1 = {birth="7852.1.1"}
	7868.1.1 = {add_trait=poor_warrior}
	7897.1.1 = {death="7897.1.1"}
}
103162901 = {
	name="Haerys"	# not a lord
	dynasty=662901

	religion="valyrian_rel"
	culture="eastern_valyrian"

	father=102662901
	mother=202662901

	7854.1.1 = {birth="7854.1.1"}
	7870.1.1 = {add_trait=poor_warrior}
	7902.1.1 = {death="7902.1.1"}
}
103262901 = {
	name="Benerro"	# not a lord
	dynasty=662901

	religion="valyrian_rel"
	culture="eastern_valyrian"

	father=102662901
	mother=202662901

	7856.1.1 = {birth="7856.1.1"}
	7872.1.1 = {add_trait=knight add_trait=skilled_warrior}
	7895.1.1 = {death = {death_reason = death_battle}}
}



###House Iranoran

10002902 = {
	name="Vaermon"	# a lord
	dynasty=662902

	religion="valyrian_rel"
	culture="eastern_valyrian"

	7576.1.1 = {birth="7576.1.1"}
	7592.1.1 = {add_trait=poor_warrior}
	7594.1.1 = {add_spouse=20002902}
	7639.1.1 = {death="7639.1.1"}
}
20002902 = {
	name="Elaena"
	female=yes

	religion="valyrian_rel"
	culture="eastern_valyrian"

	7576.1.1 = {birth="7576.1.1"}
	7639.1.1 = {death="7639.1.1"}
}
10012902 = {
	name="Qavo"	# a lord
	dynasty=662902

	religion="valyrian_rel"
	culture="eastern_valyrian"

	father=10002902
	mother=20002902

	7610.1.1 = {birth="7610.1.1"}
	7626.1.1 = {add_trait=trained_warrior}
	7628.1.1 = {add_spouse=20012902}
	7665.1.1 = {death="7665.1.1"}
}
20012902 = {
	name="Benerra"
	female=yes

	religion="valyrian_rel"
	culture="eastern_valyrian"

	7610.1.1 = {birth="7610.1.1"}
	7665.1.1 = {death="7665.1.1"}
}
10022902 = {
	name="Parquello"	# a lord
	dynasty=662902

	religion="valyrian_rel"
	culture="eastern_valyrian"

	father=10012902
	mother=20012902

	7639.1.1 = {birth="7639.1.1"}
	7655.1.1 = {add_trait=knight add_trait=skilled_warrior}
	7657.1.1 = {add_spouse=20022902}
	7713.1.1 = {death="7713.1.1"}
}
20022902 = {
	name="Rhaeys"
	female=yes

	religion="valyrian_rel"
	culture="eastern_valyrian"

	7639.1.1 = {birth="7639.1.1"}
	7713.1.1 = {death="7713.1.1"}
}
10032902 = {
	name="Daella"	# not a lord
	female=yes
	dynasty=662902

	religion="valyrian_rel"
	culture="eastern_valyrian"

	father=10022902
	mother=20022902

	7665.1.1 = {birth="7665.1.1"}
	7705.1.1 = {death="7705.1.1"}
}
10042902 = {
	name="Malaquo"	# a lord
	dynasty=662902

	religion="valyrian_rel"
	culture="eastern_valyrian"

	father=10022902
	mother=20022902

	7668.1.1 = {birth="7668.1.1"}
	7684.1.1 = {add_trait=trained_warrior}
	7686.1.1 = {add_spouse=20042902}
	7716.1.1 = {death="7716.1.1"}
}
20042902 = {
	name="Nyessa"
	female=yes

	religion="valyrian_rel"
	culture="eastern_valyrian"

	7668.1.1 = {birth="7668.1.1"}
	7716.1.1 = {death="7716.1.1"}
}
10052902 = {
	name="Rhaelinor"	# not a lord
	female=yes
	dynasty=662902

	religion="valyrian_rel"
	culture="eastern_valyrian"

	father=10022902
	mother=20022902

	7670.1.1 = {birth="7670.1.1"}
	7705.1.1 = {death="7705.1.1"}
}
10062902 = {
	name="Aelix"	# not a lord
	dynasty=662902

	religion="valyrian_rel"
	culture="eastern_valyrian"

	father=10022902
	mother=20022902

	7671.1.1 = {birth="7671.1.1"}
	7687.1.1 = {add_trait=poor_warrior}
	7698.1.1 = {death="7698.1.1"}
}
10072902 = {
	name="Vaeron"	# not a lord
	dynasty=662902

	religion="valyrian_rel"
	culture="eastern_valyrian"

	father=10022902
	mother=20022902

	7673.1.1 = {birth="7673.1.1"}
	7689.1.1 = {add_trait=poor_warrior}
	7727.1.1 = {death="7727.1.1"}
}
10082902 = {
	name="Methyso"	# a lord
	dynasty=662902

	religion="valyrian_rel"
	culture="eastern_valyrian"

	father=10042902
	mother=20042902

	7688.1.1 = {birth="7688.1.1"}
	7704.1.1 = {add_trait=poor_warrior}
	7706.1.1 = {add_spouse=20082902}
	7742.1.1 = {death="7742.1.1"}
}
20082902 = {
	name="Cymella"
	female=yes

	religion="valyrian_rel"
	culture="eastern_valyrian"

	7688.1.1 = {birth="7688.1.1"}
	7742.1.1 = {death="7742.1.1"}
}
10092902 = {
	name="Cyeana"	# not a lord
	female=yes
	dynasty=662902

	religion="valyrian_rel"
	culture="eastern_valyrian"

	father=10042902
	mother=20042902

	7690.1.1 = {birth="7690.1.1"}
	7750.1.1 = {death="7750.1.1"}
}
10102902 = {
	name="Cyeana"	# not a lord
	female=yes
	dynasty=662902

	religion="valyrian_rel"
	culture="eastern_valyrian"

	father=10042902
	mother=20042902

	7693.1.1 = {birth="7693.1.1"}
	7746.1.1 = {death="7746.1.1"}
}
10112902 = {
	name="Vaermon"	# a lord
	dynasty=662902

	religion="valyrian_rel"
	culture="eastern_valyrian"

	father=10082902
	mother=20082902

	7709.1.1 = {birth="7709.1.1"}
	7725.1.1 = {add_trait=skilled_warrior}
	7727.1.1 = {add_spouse=20112902}
	7757.1.1 = {death="7757.1.1"}
}
20112902 = {
	name="Donipha"
	female=yes

	religion="valyrian_rel"
	culture="eastern_valyrian"

	7709.1.1 = {birth="7709.1.1"}
	7757.1.1 = {death="7757.1.1"}
}
10122902 = {
	name="Horonna"	# not a lord
	female=yes
	dynasty=662902

	religion="valyrian_rel"
	culture="eastern_valyrian"

	father=10082902
	mother=20082902

	7712.1.1 = {birth="7712.1.1"}
	7766.1.1 = {death="7766.1.1"}
}
10132902 = {
	name="Parquello"	# not a lord
	dynasty=662902

	religion="valyrian_rel"
	culture="eastern_valyrian"

	father=10082902
	mother=20082902

	7714.1.1 = {birth="7714.1.1"}
	7730.1.1 = {add_trait=skilled_warrior}
	7759.1.1 = {death="7759.1.1"}
}
10142902 = {
	name="Nyessa"	# not a lord
	female=yes
	dynasty=662902

	religion="valyrian_rel"
	culture="eastern_valyrian"

	father=10112902
	mother=20112902

	7737.1.1 = {birth="7737.1.1"}
	7763.1.1 = {death="7763.1.1"}
}
10152902 = {
	name="Trianna"	# not a lord
	female=yes
	dynasty=662902

	religion="valyrian_rel"
	culture="eastern_valyrian"

	father=10112902
	mother=20112902

	7740.1.1 = {birth="7740.1.1"}
	7792.1.1 = {death="7792.1.1"}
}
10162902 = {
	name="Malaquo"	# a lord
	dynasty=662902

	religion="valyrian_rel"
	culture="eastern_valyrian"

	father=10112902
	mother=20112902

	7741.1.1 = {birth="7741.1.1"}
	7757.1.1 = {add_trait=trained_warrior}
	7759.1.1 = {add_spouse=20162902}
	7785.1.1 = {death="7785.1.1"}
}
20162902 = {
	name="Elaena"
	female=yes

	religion="valyrian_rel"
	culture="eastern_valyrian"

	7741.1.1 = {birth="7741.1.1"}
	7785.1.1 = {death="7785.1.1"}
}
10172902 = {
	name="Vaekar"	# a lord
	dynasty=662902

	religion="valyrian_rel"
	culture="eastern_valyrian"

	father=10162902
	mother=20162902

	7763.1.1 = {birth="7763.1.1"}
	7779.1.1 = {add_trait=poor_warrior}
	7781.1.1 = {add_spouse=20172902}
	7831.1.1 = {death="7831.1.1"}
}
20172902 = {
	name="Moqorra"
	female=yes

	religion="valyrian_rel"
	culture="eastern_valyrian"

	7763.1.1 = {birth="7763.1.1"}
	7831.1.1 = {death="7831.1.1"}
}
10182902 = {
	name="Nyessa"	# not a lord
	female=yes
	dynasty=662902

	religion="valyrian_rel"
	culture="eastern_valyrian"

	father=10162902
	mother=20162902

	7766.1.1 = {birth="7766.1.1"}
	7824.1.1 = {death="7824.1.1"}
}
10192902 = {
	name="Qava"	# not a lord
	female=yes
	dynasty=662902

	religion="valyrian_rel"
	culture="eastern_valyrian"

	father=10162902
	mother=20162902

	7769.1.1 = {birth="7769.1.1"}
	7815.1.1 = {death="7815.1.1"}
}
10202902 = {
	name="Qoherys"	# not a lord
	dynasty=662902

	religion="valyrian_rel"
	culture="eastern_valyrian"

	father=10162902
	mother=20162902

	7772.1.1 = {birth="7772.1.1"}
	7788.1.1 = {add_trait=trained_warrior}
	7833.1.1 = {death="7833.1.1"}
}
10212902 = {
	name="Elaena"	# not a lord
	female=yes
	dynasty=662902

	religion="valyrian_rel"
	culture="eastern_valyrian"

	father=10172902
	mother=20172902

	7794.1.1 = {birth="7794.1.1"}
	7850.1.1 = {death="7850.1.1"}
}
10222902 = {
	name="Vogarro"	# a lord
	dynasty=662902

	religion="valyrian_rel"
	culture="eastern_valyrian"

	father=10172902
	mother=20172902

	7795.1.1 = {birth="7795.1.1"}
	7811.1.1 = {add_trait=trained_warrior}
	7813.1.1 = {add_spouse=20222902}
	7838.1.1 = {death="7838.1.1"}
}
20222902 = {
	name="Belicha"
	female=yes

	religion="valyrian_rel"
	culture="eastern_valyrian"

	7795.1.1 = {birth="7795.1.1"}
	7838.1.1 = {death="7838.1.1"}
}
10232902 = {
	name="Cyeana"	# not a lord
	female=yes
	dynasty=662902

	religion="valyrian_rel"
	culture="eastern_valyrian"

	father=10172902
	mother=20172902

	7796.1.1 = {birth="7796.1.1"}
	7847.1.1 = {death="7847.1.1"}
}
10242902 = {
	name="Qoherys"	# a lord
	dynasty=662902

	religion="valyrian_rel"
	culture="eastern_valyrian"

	father=10222902
	mother=20222902

	7829.1.1 = {birth="7829.1.1"}
	7845.1.1 = {add_trait=trained_warrior}
	7847.1.1 = {add_spouse=20242902}
	7907.1.1 = {death="7907.1.1"}
}
20242902 = {
	name="Moqorra"
	female=yes

	religion="valyrian_rel"
	culture="eastern_valyrian"

	7829.1.1 = {birth="7829.1.1"}
	7907.1.1 = {death="7907.1.1"}
}
10252902 = {
	name="Jaekar"	# not a lord
	dynasty=662902

	religion="valyrian_rel"
	culture="eastern_valyrian"

	father=10222902
	mother=20222902

	7831.1.1 = {birth="7831.1.1"}
	7847.1.1 = {add_trait=trained_warrior}
	7895.1.1 = {death="7895.1.1"}
}
10262902 = {
	name="Aenar"	# not a lord
	dynasty=662902

	religion="valyrian_rel"
	culture="eastern_valyrian"

	father=10242902
	mother=20242902

	7850.1.1 = {birth="7850.1.1"}
	7866.1.1 = {add_trait=skilled_warrior}
	7897.1.1 = {death="7897.1.1"}
}
10272902 = {
	name="Methyso"	# not a lord
	dynasty=662902

	religion="valyrian_rel"
	culture="eastern_valyrian"

	father=10242902
	mother=20242902

	7851.1.1 = {birth="7851.1.1"}
	7867.1.1 = {add_trait=poor_warrior}
	7907.1.1 = {death="7907.1.1"}
}
10282902 = {
	name="Alios"	# not a lord
	dynasty=662902

	religion="valyrian_rel"
	culture="eastern_valyrian"

	father=10242902
	mother=20242902

	7854.1.1 = {birth="7854.1.1"}
	7870.1.1 = {add_trait=poor_warrior}
	7904.1.1 = {death="7904.1.1"}
}


###House Hestyrion

10002903 = {
	name="Aenar"	# a lord
	dynasty=662903

	religion="valyrian_rel"
	culture="eastern_valyrian"

	7570.1.1 = {birth="7570.1.1"}
	7586.1.1 = {add_trait=poor_warrior}
	7588.1.1 = {add_spouse=20002903}
	7627.1.1 = {death="7627.1.1"}
}
20002903 = {
	name="Benerra"
	female=yes

	religion="valyrian_rel"
	culture="eastern_valyrian"

	7570.1.1 = {birth="7570.1.1"}
	7627.1.1 = {death="7627.1.1"}
}
10012903 = {
	name="Horonna"	# not a lord
	female=yes
	dynasty=662903

	religion="valyrian_rel"
	culture="eastern_valyrian"

	father=10002903
	mother=20002903

	7595.1.1 = {birth="7595.1.1"}
	7636.1.1 = {death="7636.1.1"}
}
10022903 = {
	name="Alia"	# not a lord
	female=yes
	dynasty=662903

	religion="valyrian_rel"
	culture="eastern_valyrian"

	father=10002903
	mother=20002903

	7598.1.1 = {birth="7598.1.1"}
	7644.1.1 = {death="7644.1.1"}
}
10032903 = {
	name="Malaquo"	# a lord
	dynasty=662903

	religion="valyrian_rel"
	culture="eastern_valyrian"

	father=10002903
	mother=20002903

	7599.1.1 = {birth="7599.1.1"}
	7615.1.1 = {add_trait=knight add_trait=poor_warrior}
	7617.1.1 = {add_spouse=20032903}
	7634.1.1 = {death="7634.1.1"}
}
20032903 = {
	name="Horonna"
	female=yes

	religion="valyrian_rel"
	culture="eastern_valyrian"

	7599.1.1 = {birth="7599.1.1"}
	7634.1.1 = {death="7634.1.1"}
}
10042903 = {
	name="Benerra"	# not a lord
	female=yes
	dynasty=662903

	religion="valyrian_rel"
	culture="eastern_valyrian"

	father=10002903
	mother=20002903

	7602.1.1 = {birth="7602.1.1"}
	7656.1.1 = {death = {death_reason = death_accident}}
}
10052903 = {
	name="Vaeron"	# a lord
	dynasty=662903

	religion="valyrian_rel"
	culture="eastern_valyrian"

	father=10032903
	mother=20032903

	7626.1.1 = {birth="7626.1.1"}
	7642.1.1 = {add_trait=trained_warrior}
	7644.1.1 = {add_spouse=20052903}
	7656.1.1 = {death="7656.1.1"}
}
20052903 = {
	name="Naerys"
	female=yes

	religion="valyrian_rel"
	culture="eastern_valyrian"

	7626.1.1 = {birth="7626.1.1"}
	7656.1.1 = {death="7656.1.1"}
}
10062903 = {
	name="Jaekar"	# not a lord
	dynasty=662903

	religion="valyrian_rel"
	culture="eastern_valyrian"

	father=10032903
	mother=20032903

	7628.1.1 = {birth="7628.1.1"}
	7644.1.1 = {add_trait=trained_warrior}
	7675.1.1 = {death="7675.1.1"}
}
10072903 = {
	name="Vaekar"	# a lord
	dynasty=662903

	religion="valyrian_rel"
	culture="eastern_valyrian"

	father=10052903
	mother=20052903

	7651.1.1 = {birth="7651.1.1"}
	7667.1.1 = {add_trait=poor_warrior}
	7669.1.1 = {add_spouse=20072903}
	7702.1.1 = {death="7702.1.1"}
}
20072903 = {
	name="Moqorra"
	female=yes

	religion="valyrian_rel"
	culture="eastern_valyrian"

	7651.1.1 = {birth="7651.1.1"}
	7702.1.1 = {death="7702.1.1"}
}
10082903 = {
	name="Benerra"	# not a lord
	female=yes
	dynasty=662903

	religion="valyrian_rel"
	culture="eastern_valyrian"

	father=10052903
	mother=20052903

	7652.1.1 = {birth="7652.1.1"}
	7719.1.1 = {death="7719.1.1"}
}
10092903 = {
	name="Jaekar"	# a lord
	dynasty=662903

	religion="valyrian_rel"
	culture="eastern_valyrian"

	father=10072903
	mother=20072903

	7673.1.1 = {birth="7673.1.1"}
	7689.1.1 = {add_trait=poor_warrior}
	7691.1.1 = {add_spouse=20092903}
	7732.1.1 = {death="7732.1.1"}
}
20092903 = {
	name="Alia"
	female=yes

	religion="valyrian_rel"
	culture="eastern_valyrian"

	7673.1.1 = {birth="7673.1.1"}
	7732.1.1 = {death="7732.1.1"}
}
10102903 = {
	name="Moqorro"	# not a lord
	dynasty=662903

	religion="valyrian_rel"
	culture="eastern_valyrian"

	father=10072903
	mother=20072903

	7674.1.1 = {birth="7674.1.1"}
	7690.1.1 = {add_trait=trained_warrior}
	7709.1.1 = {death = {death_reason = death_battle}}
}
10112903 = {
	name="Parquella"	# not a lord
	female=yes
	dynasty=662903

	religion="valyrian_rel"
	culture="eastern_valyrian"

	father=10072903
	mother=20072903

	7677.1.1 = {birth="7677.1.1"}
	7728.1.1 = {death="7728.1.1"}
}
10122903 = {
	name="Leaysa"	# not a lord
	female=yes
	dynasty=662903

	religion="valyrian_rel"
	culture="eastern_valyrian"

	father=10072903
	mother=20072903

	7678.1.1 = {birth="7678.1.1"}
	7747.1.1 = {death = {death_reason = death_accident}}
}
10132903 = {
	name="Orys"	# a lord
	dynasty=662903

	religion="valyrian_rel"
	culture="eastern_valyrian"

	father=10092903
	mother=20092903

	7694.1.1 = {birth="7694.1.1"}
	7710.1.1 = {add_trait=poor_warrior}
	7712.1.1 = {add_spouse=20132903}
	7746.1.1 = {death="7746.1.1"}
}
20132903 = {
	name="Daeoril"
	female=yes

	religion="valyrian_rel"
	culture="eastern_valyrian"

	7694.1.1 = {birth="7694.1.1"}
	7746.1.1 = {death="7746.1.1"}
}
10142903 = {
	name="Benerro"	# not a lord
	dynasty=662903

	religion="valyrian_rel"
	culture="eastern_valyrian"

	father=10092903
	mother=20092903

	7695.1.1 = {birth="7695.1.1"}
	7711.1.1 = {add_trait=poor_warrior}
	7754.1.1 = {death="7754.1.1"}
}
10152903 = {
	name="Qava"	# not a lord
	female=yes
	dynasty=662903

	religion="valyrian_rel"
	culture="eastern_valyrian"

	father=10132903
	mother=20132903

	7723.1.1 = {birth="7723.1.1"}
	7775.1.1 = {death="7775.1.1"}
}
10162903 = {
	name="Nyessos"	# a lord
	dynasty=662903

	religion="valyrian_rel"
	culture="eastern_valyrian"

	father=10132903
	mother=20132903

	7725.1.1 = {birth="7725.1.1"}
	7741.1.1 = {add_trait=poor_warrior}
	7743.1.1 = {add_spouse=20162903}
	7765.1.1 = {death = {death_reason = death_accident}}
}
20162903 = {
	name="Moqorra"
	female=yes

	religion="valyrian_rel"
	culture="eastern_valyrian"

	7725.1.1 = {birth="7725.1.1"}
	7765.1.1 = {death="7765.1.1"}
}
10172903 = {
	name="Methyso"	# not a lord
	dynasty=662903

	religion="valyrian_rel"
	culture="eastern_valyrian"

	father=10132903
	mother=20132903

	7728.1.1 = {birth="7728.1.1"}
	7744.1.1 = {add_trait=poor_warrior}
	7782.1.1 = {death="7782.1.1"}
}
10182903 = {
	name="Vaekar"	# not a lord
	dynasty=662903

	religion="valyrian_rel"
	culture="eastern_valyrian"

	father=10132903
	mother=20132903

	7729.1.1 = {birth="7729.1.1"}
	7745.1.1 = {add_trait=trained_warrior}
	7781.1.1 = {death="7781.1.1"}
}
10192903 = {
	name="Alia"	# not a lord
	female=yes
	dynasty=662903

	religion="valyrian_rel"
	culture="eastern_valyrian"

	father=10162903
	mother=20162903

	7756.1.1 = {birth="7756.1.1"}
	7809.1.1 = {death="7809.1.1"}
}
10202903 = {
	name="Alearys"	# not a lord
	female=yes
	dynasty=662903

	religion="valyrian_rel"
	culture="eastern_valyrian"

	father=10162903
	mother=20162903

	7757.1.1 = {birth="7757.1.1"}
	7803.1.1 = {death="7803.1.1"}
}
10212903 = {
	name="Moqorro"	# a lord
	dynasty=662903

	religion="valyrian_rel"
	culture="eastern_valyrian"

	father=10162903
	mother=20162903

	7758.1.1 = {birth="7758.1.1"}
	7774.1.1 = {add_trait=master_warrior}
	7776.1.1 = {add_spouse=20212903}
	7809.1.1 = {death="7809.1.1"}
}
20212903 = {
	name="Belicha"
	female=yes

	religion="valyrian_rel"
	culture="eastern_valyrian"

	7758.1.1 = {birth="7758.1.1"}
	7809.1.1 = {death="7809.1.1"}
}
10222903 = {
	name="Donipha"	# not a lord
	female=yes
	dynasty=662903

	religion="valyrian_rel"
	culture="eastern_valyrian"

	father=10162903
	mother=20162903

	7760.1.1 = {birth="7760.1.1"}
	7829.1.1 = {death="7829.1.1"}
}
10232903 = {
	name="Aelix"	# not a lord
	dynasty=662903

	religion="valyrian_rel"
	culture="eastern_valyrian"

	father=10162903
	mother=20162903

	7763.1.1 = {birth="7763.1.1"}
	7779.1.1 = {add_trait=poor_warrior}
	7814.1.1 = {death="7814.1.1"}
}
10242903 = {
	name="Qoherys"	# a lord
	dynasty=662903

	religion="valyrian_rel"
	culture="eastern_valyrian"

	father=10212903
	mother=20212903

	7777.1.1 = {birth="7777.1.1"}
	7793.1.1 = {add_trait=master_warrior}
	7795.1.1 = {add_spouse=20242903}
	7841.1.1 = {death="7841.1.1"}
}
20242903 = {
	name="Alearys"
	female=yes

	religion="valyrian_rel"
	culture="eastern_valyrian"

	7777.1.1 = {birth="7777.1.1"}
	7841.1.1 = {death="7841.1.1"}
}
10252903 = {
	name="Nyessos"	# not a lord
	dynasty=662903

	religion="valyrian_rel"
	culture="eastern_valyrian"

	father=10212903
	mother=20212903

	7780.1.1 = {birth="7780.1.1"}
	7796.1.1 = {add_trait=trained_warrior}
	7851.1.1 = {death="7851.1.1"}
}
10262903 = {
	name="Horonna"	# not a lord
	female=yes
	dynasty=662903

	religion="valyrian_rel"
	culture="eastern_valyrian"

	father=10212903
	mother=20212903

	7781.1.1 = {birth="7781.1.1"}
	7815.1.1 = {death="7815.1.1"}
}
10272903 = {
	name="Naerys"	# not a lord
	female=yes
	dynasty=662903

	religion="valyrian_rel"
	culture="eastern_valyrian"

	father=10212903
	mother=20212903

	7784.1.1 = {birth="7784.1.1"}
	7858.1.1 = {death="7858.1.1"}
}
10282903 = {
	name="Benerro"	# a lord
	dynasty=662903

	religion="valyrian_rel"
	culture="eastern_valyrian"

	father=10242903
	mother=20242903

	7805.1.1 = {birth="7805.1.1"}
	7821.1.1 = {add_trait=trained_warrior}
	7823.1.1 = {add_spouse=20282903}
	7847.1.1 = {death="7847.1.1"}
}
20282903 = {
	name="Rhaelle"
	female=yes

	religion="valyrian_rel"
	culture="eastern_valyrian"

	7805.1.1 = {birth="7805.1.1"}
	7847.1.1 = {death="7847.1.1"}
}
10292903 = {
	name="Gorys"	# a lord
	dynasty=662903

	religion="valyrian_rel"
	culture="eastern_valyrian"

	father=10282903
	mother=20282903

	7840.1.1 = {birth="7840.1.1"}
	7856.1.1 = {add_trait=skilled_warrior}
	7858.1.1 = {add_spouse=20292903}
	7899.1.1 = {death="7899.1.1"}
}
20292903 = {
	name="Qava"
	female=yes

	religion="valyrian_rel"
	culture="eastern_valyrian"

	7840.1.1 = {birth="7840.1.1"}
	7899.1.1 = {death="7899.1.1"}
}
10302903 = {
	name="Horonno"	# not a lord
	dynasty=662903

	religion="valyrian_rel"
	culture="eastern_valyrian"

	father=10282903
	mother=20282903

	7841.1.1 = {birth="7841.1.1"}
	7857.1.1 = {add_trait=poor_warrior}
	7916.1.1 = {death="7916.1.1"}
}
10312903 = {
	name="Daegar"	# a lord
	dynasty=662903

	religion="valyrian_rel"
	culture="eastern_valyrian"

	father=10292903
	mother=20292903

	7873.1.1 = {birth="7873.1.1"}
	7889.1.1 = {add_trait=poor_warrior}
	7891.1.1 = {add_spouse=20312903}
	7925.1.1 = {death="7925.1.1"}
}
20312903 = {
	name="Daella"
	female=yes

	religion="valyrian_rel"
	culture="eastern_valyrian"

	7873.1.1 = {birth="7873.1.1"}
	7925.1.1 = {death="7925.1.1"}
}
10322903 = {
	name="Rhaelle"	# not a lord
	female=yes
	dynasty=662903

	religion="valyrian_rel"
	culture="eastern_valyrian"

	father=10292903
	mother=20292903

	7874.1.1 = {birth="7874.1.1"}
	7919.1.1 = {death="7919.1.1"}
}
10332903 = {
	name="Malaquo"	# a lord
	dynasty=662903

	religion="valyrian_rel"
	culture="eastern_valyrian"

	father=10312903
	mother=20312903

	7898.1.1 = {birth="7898.1.1"}
	7914.1.1 = {add_trait=poor_warrior}
	7960.1.1 = {death="7960.1.1"}
}


###House Sorrerion

10002906 = {
	name="Matarys"	# a lord
	dynasty=662906

	religion="valyrian_rel"
	culture="eastern_valyrian"

	7566.1.1 = {birth="7566.1.1"}
	7582.1.1 = {add_trait=poor_warrior}
	7584.1.1 = {add_spouse=20002906}
	7628.1.1 = {death="7628.1.1"}
}
20002906 = {
	name="Naerys"
	female=yes

	religion="valyrian_rel"
	culture="eastern_valyrian"

	7566.1.1 = {birth="7566.1.1"}
	7628.1.1 = {death="7628.1.1"}
}
10012906 = {
	name="Cyeana"	# not a lord
	female=yes
	dynasty=662906

	religion="valyrian_rel"
	culture="eastern_valyrian"

	father=10002906
	mother=20002906

	7588.1.1 = {birth="7588.1.1"}
	7635.1.1 = {death="7635.1.1"}
}
10022906 = {
	name="Cymella"	# not a lord
	female=yes
	dynasty=662906

	religion="valyrian_rel"
	culture="eastern_valyrian"

	father=10002906
	mother=20002906

	7590.1.1 = {birth="7590.1.1"}
	7649.1.1 = {death="7649.1.1"}
}
10032906 = {
	name="Doniphos"	# a lord
	dynasty=662906

	religion="valyrian_rel"
	culture="eastern_valyrian"

	father=10002906
	mother=20002906

	7592.1.1 = {birth="7592.1.1"}
	7608.1.1 = {add_trait=master_warrior}
	7610.1.1 = {add_spouse=20032906}
	7645.1.1 = {death="7645.1.1"}
}
20032906 = {
	name="Leaysa"
	female=yes

	religion="valyrian_rel"
	culture="eastern_valyrian"

	7592.1.1 = {birth="7592.1.1"}
	7645.1.1 = {death="7645.1.1"}
}
10042906 = {
	name="Qava"	# not a lord
	female=yes
	dynasty=662906

	religion="valyrian_rel"
	culture="eastern_valyrian"

	father=10032906
	mother=20032906

	7612.1.1 = {birth="7612.1.1"}
	7665.1.1 = {death="7665.1.1"}
}
10052906 = {
	name="Alearys"	# not a lord
	female=yes
	dynasty=662906

	religion="valyrian_rel"
	culture="eastern_valyrian"

	father=10032906
	mother=20032906

	7614.1.1 = {birth="7614.1.1"}
	7655.1.1 = {death="7655.1.1"}
}
10062906 = {
	name="Qoherys"	# a lord
	dynasty=662906

	religion="valyrian_rel"
	culture="eastern_valyrian"

	father=10032906
	mother=20032906

	7617.1.1 = {birth="7617.1.1"}
	7633.1.1 = {add_trait=trained_warrior}
	7635.1.1 = {add_spouse=20062906}
	7688.1.1 = {death="7688.1.1"}
}
20062906 = {
	name="Qava"
	female=yes

	religion="valyrian_rel"
	culture="eastern_valyrian"

	7617.1.1 = {birth="7617.1.1"}
	7688.1.1 = {death="7688.1.1"}
}
10072906 = {
	name="Saenrys"	# not a lord
	female=yes
	dynasty=662906

	religion="valyrian_rel"
	culture="eastern_valyrian"

	father=10062906
	mother=20062906

	7640.1.1 = {birth="7640.1.1"}
	7694.1.1 = {death="7694.1.1"}
}
10082906 = {
	name="Benerra"	# not a lord
	female=yes
	dynasty=662906

	religion="valyrian_rel"
	culture="eastern_valyrian"

	father=10062906
	mother=20062906

	7643.1.1 = {birth="7643.1.1"}
	7687.1.1 = {death="7687.1.1"}
}
10092906 = {
	name="Saenrys"	# not a lord
	female=yes
	dynasty=662906

	religion="valyrian_rel"
	culture="eastern_valyrian"

	father=10062906
	mother=20062906

	7645.1.1 = {birth="7645.1.1"}
	7684.1.1 = {death="7684.1.1"}
}
10102906 = {
	name="Alios"	# a lord
	dynasty=662906

	religion="valyrian_rel"
	culture="eastern_valyrian"

	father=10062906
	mother=20062906

	7646.1.1 = {birth="7646.1.1"}
	7662.1.1 = {add_trait=poor_warrior}
	7664.1.1 = {add_spouse=20102906}
	7706.1.1 = {death="7706.1.1"}
}
20102906 = {
	name="Saenrys"
	female=yes

	religion="valyrian_rel"
	culture="eastern_valyrian"

	7646.1.1 = {birth="7646.1.1"}
	7706.1.1 = {death="7706.1.1"}
}
10112906 = {
	name="Leaysa"	# not a lord
	female=yes
	dynasty=662906

	religion="valyrian_rel"
	culture="eastern_valyrian"

	father=10062906
	mother=20062906

	7647.1.1 = {birth="7647.1.1"}
	7699.1.1 = {death="7699.1.1"}
}
10122906 = {
	name="Alia"	# not a lord
	female=yes
	dynasty=662906

	religion="valyrian_rel"
	culture="eastern_valyrian"

	father=10102906
	mother=20102906

	7679.1.1 = {birth="7679.1.1"}
	7712.1.1 = {death="7712.1.1"}
}
10132906 = {
	name="Gorys"	# a lord
	dynasty=662906

	religion="valyrian_rel"
	culture="eastern_valyrian"

	father=10102906
	mother=20102906

	7680.1.1 = {birth="7680.1.1"}
	7696.1.1 = {add_trait=skilled_warrior}
	7698.1.1 = {add_spouse=20132906}
	7733.1.1 = {death="7733.1.1"}
}
20132906 = {
	name="Rhaeys"
	female=yes

	religion="valyrian_rel"
	culture="eastern_valyrian"

	7680.1.1 = {birth="7680.1.1"}
	7733.1.1 = {death="7733.1.1"}
}
10142906 = {
	name="Doniphos"	# not a lord
	dynasty=662906

	religion="valyrian_rel"
	culture="eastern_valyrian"

	father=10102906
	mother=20102906

	7681.1.1 = {birth="7681.1.1"}
	7697.1.1 = {add_trait=poor_warrior}
	7718.1.1 = {death="7718.1.1"}
}
10152906 = {
	name="Nyessos"	# a lord
	dynasty=662906

	religion="valyrian_rel"
	culture="eastern_valyrian"

	father=10132906
	mother=20132906

	7699.1.1 = {birth="7699.1.1"}
	7715.1.1 = {add_trait=poor_warrior}
	7717.1.1 = {add_spouse=20152906}
	7764.1.1 = {death="7764.1.1"}
}
20152906 = {
	name="Belicha"
	female=yes

	religion="valyrian_rel"
	culture="eastern_valyrian"

	7699.1.1 = {birth="7699.1.1"}
	7764.1.1 = {death="7764.1.1"}
}
10162906 = {
	name="Benerra"	# not a lord
	female=yes
	dynasty=662906

	religion="valyrian_rel"
	culture="eastern_valyrian"

	father=10132906
	mother=20132906

	7702.1.1 = {birth="7702.1.1"}
	7738.1.1 = {death="7738.1.1"}
}
10172906 = {
	name="Colloquo"	# not a lord
	dynasty=662906

	religion="valyrian_rel"
	culture="eastern_valyrian"

	father=10132906
	mother=20132906

	7703.1.1 = {birth="7703.1.1"}
	7719.1.1 = {add_trait=poor_warrior}
	7728.1.1 = {death="7728.1.1"}
}
10182906 = {
	name="Daeoril"	# not a lord
	female=yes
	dynasty=662906

	religion="valyrian_rel"
	culture="eastern_valyrian"

	father=10152906
	mother=20152906

	7726.1.1 = {birth="7726.1.1"}
	7768.1.1 = {death="7768.1.1"}
}
10192906 = {
	name="Cyeana"	# not a lord
	female=yes
	dynasty=662906

	religion="valyrian_rel"
	culture="eastern_valyrian"

	father=10152906
	mother=20152906

	7728.1.1 = {birth="7728.1.1"}
	7786.1.1 = {death="7786.1.1"}
}
10202906 = {
	name="Malaquo"	# a lord
	dynasty=662906

	religion="valyrian_rel"
	culture="eastern_valyrian"

	father=10152906
	mother=20152906

	7729.1.1 = {birth="7729.1.1"}
	7745.1.1 = {add_trait=poor_warrior}
	7747.1.1 = {add_spouse=20202906}
	7789.1.1 = {death="7789.1.1"}
}
20202906 = {
	name="Talisa"
	female=yes

	religion="valyrian_rel"
	culture="eastern_valyrian"

	7729.1.1 = {birth="7729.1.1"}
	7789.1.1 = {death="7789.1.1"}
}
10212906 = {
	name="Aelix"	# not a lord
	dynasty=662906

	religion="valyrian_rel"
	culture="eastern_valyrian"

	father=10152906
	mother=20152906

	7730.1.1 = {birth="7730.1.1"}
	7746.1.1 = {add_trait=skilled_warrior}
	7784.1.1 = {death="7784.1.1"}
}
10222906 = {
	name="Daegar"	# a lord
	dynasty=662906

	religion="valyrian_rel"
	culture="eastern_valyrian"

	father=10202906
	mother=20202906

	7757.1.1 = {birth="7757.1.1"}
	7773.1.1 = {add_trait=trained_warrior}
	7775.1.1 = {add_spouse=20222906}
	7824.1.1 = {death="7824.1.1"}
}
20222906 = {
	name="Qava"
	female=yes

	religion="valyrian_rel"
	culture="eastern_valyrian"

	7757.1.1 = {birth="7757.1.1"}
	7824.1.1 = {death="7824.1.1"}
}
10232906 = {
	name="Qoherys"	# not a lord
	dynasty=662906

	religion="valyrian_rel"
	culture="eastern_valyrian"

	father=10202906
	mother=20202906

	7758.1.1 = {birth="7758.1.1"}
	7774.1.1 = {add_trait=skilled_warrior}
	7805.1.1 = {death="7805.1.1"}
}
10242906 = {
	name="Leaysa"	# not a lord
	female=yes
	dynasty=662906

	religion="valyrian_rel"
	culture="eastern_valyrian"

	father=10202906
	mother=20202906

	7761.1.1 = {birth="7761.1.1"}
	7794.1.1 = {death="7794.1.1"}
}
10252906 = {
	name="Orys"	# not a lord
	dynasty=662906

	religion="valyrian_rel"
	culture="eastern_valyrian"

	father=10202906
	mother=20202906

	7764.1.1 = {birth="7764.1.1"}
	7780.1.1 = {add_trait=poor_warrior}
	7822.1.1 = {death="7822.1.1"}
}
10262906 = {
	name="Qoherys"	# a lord
	dynasty=662906

	religion="valyrian_rel"
	culture="eastern_valyrian"

	father=10222906
	mother=20222906

	7786.1.1 = {birth="7786.1.1"}
	7802.1.1 = {add_trait=poor_warrior}
	7804.1.1 = {add_spouse=20262906}
	7829.1.1 = {death="7829.1.1"}
}
20262906 = {
	name="Horonna"
	female=yes

	religion="valyrian_rel"
	culture="eastern_valyrian"

	7786.1.1 = {birth="7786.1.1"}
	7829.1.1 = {death="7829.1.1"}
}
10272906 = {
	name="Vogarro"	# not a lord
	dynasty=662906

	religion="valyrian_rel"
	culture="eastern_valyrian"

	father=10222906
	mother=20222906

	7787.1.1 = {birth="7787.1.1"}
	7803.1.1 = {add_trait=trained_warrior}
	7830.1.1 = {death="7830.1.1"}
}
10282906 = {
	name="Rhae"	# not a lord
	female=yes
	dynasty=662906

	religion="valyrian_rel"
	culture="eastern_valyrian"

	father=10262906
	mother=20262906

	7809.1.1 = {birth="7809.1.1"}
	7873.1.1 = {death="7873.1.1"}
}
10292906 = {
	name="Orys"	# a lord
	dynasty=662906

	religion="valyrian_rel"
	culture="eastern_valyrian"

	father=10262906
	mother=20262906

	7811.1.1 = {birth="7811.1.1"}
	7827.1.1 = {add_trait=poor_warrior}
	7829.1.1 = {add_spouse=20292906}
	7890.1.1 = {death="7890.1.1"}
}
20292906 = {
	name="Trianna"
	female=yes

	religion="valyrian_rel"
	culture="eastern_valyrian"

	7811.1.1 = {birth="7811.1.1"}
	7890.1.1 = {death="7890.1.1"}
}
10302906 = {
	name="Moqorra"	# not a lord
	female=yes
	dynasty=662906

	religion="valyrian_rel"
	culture="eastern_valyrian"

	father=10262906
	mother=20262906

	7813.1.1 = {birth="7813.1.1"}
	7879.1.1 = {death="7879.1.1"}
}
10312906 = {
	name="Saenrys"	# not a lord
	female=yes
	dynasty=662906

	religion="valyrian_rel"
	culture="eastern_valyrian"

	father=10262906
	mother=20262906

	7815.1.1 = {birth="7815.1.1"}
	7869.1.1 = {death="7869.1.1"}
}
10322906 = {
	name="Orys"	# not a lord
	dynasty=662906

	religion="valyrian_rel"
	culture="eastern_valyrian"

	father=10262906
	mother=20262906

	7818.1.1 = {birth="7818.1.1"}
	7834.1.1 = {add_trait=poor_warrior}
	7843.1.1 = {death="7843.1.1"}
}
10332906 = {
	name="Moqorra"	# not a lord
	female=yes
	dynasty=662906

	religion="valyrian_rel"
	culture="eastern_valyrian"

	father=10292906
	mother=20292906

	7835.1.1 = {birth="7835.1.1"}
	7872.1.1 = {death = {death_reason = death_murder}}
}
10342906 = {
	name="Haerys"	# not a lord
	dynasty=662906

	religion="valyrian_rel"
	culture="eastern_valyrian"

	father=10292906
	mother=20292906

	7837.1.1 = {birth="7837.1.1"}
	7853.1.1 = {add_trait=poor_warrior}
	7874.1.1 = {death="7874.1.1"}
}
10352906 = {
	name="Methyso"	# a lord
	dynasty=662906

	religion="valyrian_rel"
	culture="eastern_valyrian"

	father=10292906
	mother=20292906

	7839.1.1 = {birth="7839.1.1"}
	7855.1.1 = {add_trait=trained_warrior}
	7857.1.1 = {add_spouse=20352906}
	7898.1.1 = {death="7898.1.1"}
}
20352906 = {
	name="Daella"
	female=yes

	religion="valyrian_rel"
	culture="eastern_valyrian"

	7839.1.1 = {birth="7839.1.1"}
	7898.1.1 = {death="7898.1.1"}
}
10362906 = {
	name="Colloquo"	# a lord
	dynasty=662906

	religion="valyrian_rel"
	culture="eastern_valyrian"

	father=10352906
	mother=20352906

	7873.1.1 = {birth="7873.1.1"}
	7889.1.1 = {add_trait=poor_warrior}
	7930.1.1 = {death="7930.1.1"}
}

