#First King of the Andals
900174999 = {
	name="Hugor"
	dynasty = 174999 #of the Hill
	
	religion="the_seven"
	culture="old_andal"
	
	martial=10
	diplomacy=7
	intrigue=5
	stewardship=10
	
	add_trait="knight"
	add_trait="quick"
	add_trait="master_warrior"
	add_trait="diligent"
	add_trait="zealous"
	add_trait="brave"
	add_trait="authoritative"

	1.1.1={birth="1.1.1"}
	1.1.1={death="1.1.1"}
}
#King of Lorath
901174999 = {
	name="Qarlon"
	dynasty = 174917
	
	religion="the_seven"
	culture="old_andal"
	
	martial=7
	diplomacy=6
	intrigue=5
	stewardship=5
	
	add_trait="quick"
	add_trait="ambitious"
	add_trait="brilliant_strategist"
	add_trait="ruthless"
	add_trait="brave"
	add_trait="wroth"
	add_trait="zealous"
	
	6025.1.1={birth="6025.1.1"}
	6031.1.1={
		add_trait="skilled_warrior"
		add_trait="knight"
	}
	6059.1.1={
		give_nickname=nick_the_great
	}
	6079.1.1={
		death={
			death_reason=death_battle
		}
	}
}
###House Hill
100174900 = {
	name="Marwyn"	# a lord
	dynasty=174900

	religion="the_seven"
	culture="old_andal"

	7565.1.1 = {birth="7565.1.1"}
	7581.1.1 = {add_trait=knight add_trait=trained_warrior}
	7583.1.1 = {add_spouse=400174900}
	7623.1.1 = {death="7623.1.1"}
}
400174900 = {
	name="Carolei"
	female=yes

	religion="the_seven"
	culture="old_andal"

	7565.1.1 = {birth="7565.1.1"}
	7623.1.1 = {death="7623.1.1"}
}
101174900 = {
	name="Uthor"	# a lord
	dynasty=174900

	religion="the_seven"
	culture="old_andal"

	father=100174900
	mother=400174900

	7593.1.1 = {birth="7593.1.1"}
	7609.1.1 = {add_trait=knight add_trait=skilled_warrior}
	7611.1.1 = {add_spouse=401174900}
	7665.1.1 = {death="7665.1.1"}
}
401174900 = {
	name="Pia"
	female=yes

	religion="the_seven"
	culture="old_andal"

	7593.1.1 = {birth="7593.1.1"}
	7665.1.1 = {death="7665.1.1"}
}
102174900 = {
	name="Othor"	# not a lord
	dynasty=174900

	religion="the_seven"
	culture="old_andal"

	father=100174900
	mother=400174900

	7594.1.1 = {birth="7594.1.1"}
	7610.1.1 = {add_trait=knight add_trait=poor_warrior}
	7612.1.1 = {add_spouse=402174900}
	7650.1.1 = {death="7650.1.1"}
}
402174900 = {
	name="Janyce"
	female=yes

	religion="the_seven"
	culture="old_andal"

	7594.1.1 = {birth="7594.1.1"}
	7650.1.1 = {death="7650.1.1"}
}
103174900 = {
	name="Becca"	# not a lord
	female=yes
	dynasty=174900

	religion="the_seven"
	culture="old_andal"

	father=101174900
	mother=401174900

	7621.1.1 = {birth="7621.1.1"}
	7679.1.1 = {death="7679.1.1"}
}
104174900 = {
	name="Amerei"	# not a lord
	female=yes
	dynasty=174900

	religion="the_seven"
	culture="old_andal"

	father=102174900
	mother=402174900

	7613.1.1 = {birth="7613.1.1"}
	7671.1.1 = {death="7671.1.1"}
}
105174900 = {
	name="Pate"	# a lord
	dynasty=174900

	religion="the_seven"
	culture="old_andal"

	father=102174900
	mother=402174900

	7615.1.1 = {birth="7615.1.1"}
	7631.1.1 = {add_trait=knight add_trait=poor_warrior}
	7633.1.1 = {add_spouse=405174900}
	7676.1.1 = {death="7676.1.1"}
}
405174900 = {
	name="Amabel"
	female=yes

	religion="the_seven"
	culture="old_andal"

	7615.1.1 = {birth="7615.1.1"}
	7676.1.1 = {death="7676.1.1"}
}
106174900 = {
	name="Morgarth"	# not a lord
	dynasty=174900

	religion="the_seven"
	culture="old_andal"

	father=102174900
	mother=402174900

	7618.1.1 = {birth="7618.1.1"}
	7634.1.1 = {add_trait=poor_warrior}
	7669.1.1 = {death="7669.1.1"}
}
107174900 = {
	name="Symond"	# a lord
	dynasty=174900

	religion="the_seven"
	culture="old_andal"

	father=105174900
	mother=405174900

	7644.1.1 = {birth="7644.1.1"}
	7660.1.1 = {add_trait=poor_warrior}
	7662.1.1 = {add_spouse=407174900}
	7697.1.1 = {death="7697.1.1"}
}
407174900 = {
	name="Myranda"
	female=yes

	religion="the_seven"
	culture="old_andal"

	7644.1.1 = {birth="7644.1.1"}
	7697.1.1 = {death="7697.1.1"}
}
108174900 = {
	name="Osgood"	# a lord
	dynasty=174900

	religion="the_seven"
	culture="old_andal"

	father=107174900
	mother=407174900

	7667.1.1 = {birth="7667.1.1"}
	7683.1.1 = {add_trait=poor_warrior}
	7701.1.1 = {death = {death_reason = death_murder}}
}
109174900 = {
	name="Robar"	# a lord
	dynasty=174900

	religion="the_seven"
	culture="old_andal"

	father=107174900
	mother=407174900

	7670.1.1 = {birth="7670.1.1"}
	7686.1.1 = {add_trait=knight add_trait=trained_warrior}
	7688.1.1 = {add_spouse=409174900}
	7718.1.1 = {death="7718.1.1"}
}
409174900 = {
	name="Gretchel"
	female=yes

	religion="the_seven"
	culture="old_andal"

	7670.1.1 = {birth="7670.1.1"}
	7718.1.1 = {death="7718.1.1"}
}
110174900 = {
	name="Denys"	# a lord
	dynasty=174900

	religion="the_seven"
	culture="old_andal"

	father=109174900
	mother=409174900

	7703.1.1 = {birth="7703.1.1"}
	7719.1.1 = {add_trait=knight add_trait=trained_warrior}
	7726.1.1 = {death="7726.1.1"}
}
111174900 = {
	name="Benedar"	# a lord
	dynasty=174900

	religion="the_seven"
	culture="old_andal"

	father=109174900
	mother=409174900

	7706.1.1 = {birth="7706.1.1"}
	7722.1.1 = {add_trait=knight add_trait=trained_warrior}
	7724.1.1 = {add_spouse=411174900}
	7772.1.1 = {death="7772.1.1"}
}
411174900 = {
	name="Myranda"
	female=yes

	religion="the_seven"
	culture="old_andal"

	7706.1.1 = {birth="7706.1.1"}
	7772.1.1 = {death="7772.1.1"}
}
112174900 = {
	name="Mela"	# not a lord
	female=yes
	dynasty=174900

	religion="the_seven"
	culture="old_andal"

	father=109174900
	mother=409174900

	7709.1.1 = {birth="7709.1.1"}
	7750.1.1 = {death = {death_reason = death_accident}}
}
113174900 = {
	name="Barbara"	# not a lord
	female=yes
	dynasty=174900

	religion="the_seven"
	culture="old_andal"

	father=109174900
	mother=409174900

	7710.1.1 = {birth="7710.1.1"}
	7748.1.1 = {death="7748.1.1"}
}
114174900 = {
	name="Eustace"	# not a lord
	dynasty=174900

	religion="the_seven"
	culture="old_andal"

	father=109174900
	mother=409174900

	7711.1.1 = {birth="7711.1.1"}
	7727.1.1 = {add_trait=poor_warrior}
	7766.1.1 = {death="7766.1.1"}
}
115174900 = {
	name="Jorelle"	# not a lord
	female=yes
	dynasty=174900

	religion="the_seven"
	culture="old_andal"

	father=111174900
	mother=411174900

	7735.1.1 = {birth="7735.1.1"}
	7758.1.1 = {death="7758.1.1"}
}
116174900 = {
	name="Annara"	# not a lord
	female=yes
	dynasty=174900

	religion="the_seven"
	culture="old_andal"

	father=111174900
	mother=411174900

	7737.1.1 = {birth="7737.1.1"}
	7791.1.1 = {death="7791.1.1"}
}
117174900 = {
	name="Gyles"	# not a lord
	dynasty=174900

	religion="the_seven"
	culture="old_andal"

	father=111174900
	mother=411174900

	7738.1.1 = {birth="7738.1.1"}
	7754.1.1 = {add_trait=knight add_trait=poor_warrior}
	7768.1.1 = {death="7768.1.1"}
}
118174900 = {
	name="Deana"	# not a lord
	female=yes
	dynasty=174900

	religion="the_seven"
	culture="old_andal"

	father=111174900
	mother=411174900

	7740.1.1 = {birth="7740.1.1"}
	7781.1.1 = {death = {death_reason = death_accident}}
}
119174900 = {
	name="Robar"	# a lord
	dynasty=174900

	religion="the_seven"
	culture="old_andal"

	father=111174900
	mother=411174900

	7742.1.1 = {birth="7742.1.1"}
	7758.1.1 = {add_trait=knight add_trait=trained_warrior}
	7760.1.1 = {add_spouse=419174900}
	7794.1.1 = {death="7794.1.1"}
}
419174900 = {
	name="Alayne"
	female=yes

	religion="the_seven"
	culture="old_andal"

	7742.1.1 = {birth="7742.1.1"}
	7794.1.1 = {death="7794.1.1"}
}
120174900 = {
	name="Lothor"	# a lord
	dynasty=174900

	religion="the_seven"
	culture="old_andal"

	father=119174900
	mother=419174900

	7763.1.1 = {birth="7763.1.1"}
	7779.1.1 = {add_trait=poor_warrior}
	7781.1.1 = {add_spouse=420174900}
	7817.1.1 = {death="7817.1.1"}
}
420174900 = {
	name="Janyce"
	female=yes

	religion="the_seven"
	culture="old_andal"

	7763.1.1 = {birth="7763.1.1"}
	7817.1.1 = {death="7817.1.1"}
}
121174900 = {
	name="Rhialta"	# not a lord
	female=yes
	dynasty=174900

	religion="the_seven"
	culture="old_andal"

	father=119174900
	mother=419174900

	7766.1.1 = {birth="7766.1.1"}
	7803.1.1 = {death="7803.1.1"}
}
122174900 = {
	name="Pia"	# not a lord
	female=yes
	dynasty=174900

	religion="the_seven"
	culture="old_andal"

	father=120174900
	mother=420174900

	7787.1.1 = {birth="7787.1.1"}
	7852.1.1 = {death="7852.1.1"}
}
123174900 = {
	name="Elys"	# a lord
	dynasty=174900

	religion="the_seven"
	culture="old_andal"

	father=120174900
	mother=420174900

	7789.1.1 = {birth="7789.1.1"}
	7805.1.1 = {add_trait=poor_warrior}
	7807.1.1 = {add_spouse=423174900}
	7841.1.1 = {death="7841.1.1"}
}
423174900 = {
	name="Annara"
	female=yes

	religion="the_seven"
	culture="old_andal"

	7789.1.1 = {birth="7789.1.1"}
	7841.1.1 = {death="7841.1.1"}
}
124174900 = {
	name="Jasper"	# a lord
	dynasty=174900

	religion="the_seven"
	culture="old_andal"

	father=123174900
	mother=423174900

	7809.1.1 = {birth="7809.1.1"}
	7825.1.1 = {add_trait=knight add_trait=trained_warrior}
	7827.1.1 = {add_spouse=424174900}
	7889.1.1 = {death="7889.1.1"}
}
424174900 = {
	name="Ravella"
	female=yes

	religion="the_seven"
	culture="old_andal"

	7809.1.1 = {birth="7809.1.1"}
	7889.1.1 = {death="7889.1.1"}
}
125174900 = {
	name="Florian"	# not a lord
	dynasty=174900

	religion="the_seven"
	culture="old_andal"

	father=123174900
	mother=423174900

	7811.1.1 = {birth="7811.1.1"}
	7827.1.1 = {add_trait=knight add_trait=poor_warrior}
	7868.1.1 = {death="7868.1.1"}
}
126174900 = {
	name="Serra"	# not a lord
	female=yes
	dynasty=174900

	religion="the_seven"
	culture="old_andal"

	father=124174900
	mother=424174900

	7832.1.1 = {birth="7832.1.1"}
	7870.1.1 = {death="7870.1.1"}
}
127174900 = {
	name="Florian"	# not a lord
	dynasty=174900

	religion="the_seven"
	culture="old_andal"

	father=124174900
	mother=424174900

	7833.1.1 = {birth="7833.1.1"}
	7849.1.1 = {add_trait=knight add_trait=master_warrior}
	7851.1.1 = {add_spouse=427174900}
	7889.1.1 = {death="7889.1.1"}
}
427174900 = {
	name="Arwyn"
	female=yes

	religion="the_seven"
	culture="old_andal"

	7833.1.1 = {birth="7833.1.1"}
	7889.1.1 = {death="7889.1.1"}
}
128174900 = {
	name="Alys"	# not a lord
	female=yes
	dynasty=174900

	religion="the_seven"
	culture="old_andal"

	father=124174900
	mother=424174900

	7836.1.1 = {birth="7836.1.1"}
	7883.1.1 = {death="7883.1.1"}
}
129174900 = {
	name="Alesandor"	# not a lord
	dynasty=174900

	religion="the_seven"
	culture="old_andal"

	father=124174900
	mother=424174900

	7838.1.1 = {birth="7838.1.1"}
	7854.1.1 = {add_trait=poor_warrior}
	7892.1.1 = {death="7892.1.1"}
}
130174900 = {
	name="Morya"	# not a lord
	female=yes
	dynasty=174900

	religion="the_seven"
	culture="old_andal"

	father=127174900
	mother=427174900

	7858.1.1 = {birth="7858.1.1"}
}
131174900 = {
	name="Ballabar"	# a lord
	dynasty=174900

	religion="the_seven"
	culture="old_andal"

	father=127174900
	mother=427174900

	7861.1.1 = {birth="7861.1.1"}
	7877.1.1 = {add_trait=poor_warrior}
	7879.1.1 = {add_spouse=431174900}
}
431174900 = {
	name="Mylessa"
	female=yes

	religion="the_seven"
	culture="old_andal"

	7861.1.1 = {birth="7861.1.1"}
}
132174900 = {
	name="Raymar"	# not a lord
	dynasty=174900

	religion="the_seven"
	culture="old_andal"

	father=127174900
	mother=427174900

	7864.1.1 = {birth="7864.1.1"}
	7880.1.1 = {add_trait=poor_warrior}
}
133174900 = {
	name="Ballabar"	# not a lord
	dynasty=174900

	religion="the_seven"
	culture="old_andal"

	father=127174900
	mother=427174900

	7865.1.1 = {birth="7865.1.1"}
	7881.1.1 = {add_trait=trained_warrior}
}
134174900 = {
	name="Edmund"	# not a lord
	dynasty=174900

	religion="the_seven"
	culture="old_andal"

	father=131174900
	mother=431174900

	7879.1.1 = {birth="7879.1.1"}
	7895.1.1 = {add_trait=knight add_trait=trained_warrior}
}
135174900 = {
	name="Mela"	# not a lord
	female=yes
	dynasty=174900

	religion="the_seven"
	culture="old_andal"

	father=131174900
	mother=431174900

	7880.1.1 = {birth="7880.1.1"}
}
136174900 = {
	name="Artys"	# not a lord
	dynasty=174900

	religion="the_seven"
	culture="old_andal"

	father=131174900
	mother=431174900

	7881.1.1 = {birth="7881.1.1"}
	7897.1.1 = {add_trait=knight add_trait=poor_warrior}
}
###House Willow
100174901 = {
	name="Morton"	# a lord
	dynasty=174901

	religion="the_seven"
	culture="old_andal"

	7544.1.1 = {birth="7544.1.1"}
	7560.1.1 = {add_trait=poor_warrior}
	7562.1.1 = {add_spouse=400174901}
	7609.1.1 = {death="7609.1.1"}
}
400174901 = {
	name="Aglantine"
	female=yes

	religion="the_seven"
	culture="old_andal"

	7544.1.1 = {birth="7544.1.1"}
	7609.1.1 = {death="7609.1.1"}
}
101174901 = {
	name="Nestor"	# not a lord
	dynasty=174901

	religion="the_seven"
	culture="old_andal"

	father=100174901
	mother=400174901

	7566.1.1 = {birth="7566.1.1"}
	7582.1.1 = {add_trait=knight add_trait=trained_warrior}
	7584.1.1 = {add_spouse=401174901}
	7601.1.1 = {death="7601.1.1"}
}
401174901 = {
	name="Bellena"
	female=yes

	religion="the_seven"
	culture="old_andal"

	7566.1.1 = {birth="7566.1.1"}
	7601.1.1 = {death="7601.1.1"}
}
102174901 = {
	name="Triston"	# not a lord
	dynasty=174901

	religion="the_seven"
	culture="old_andal"

	father=100174901
	mother=400174901

	7569.1.1 = {birth="7569.1.1"}
	7585.1.1 = {add_trait=knight add_trait=poor_warrior}
	7621.1.1 = {death="7621.1.1"}
}
103174901 = {
	name="Perra"	# not a lord
	female=yes
	dynasty=174901

	religion="the_seven"
	culture="old_andal"

	father=100174901
	mother=400174901

	7570.1.1 = {birth="7570.1.1"}
	7629.1.1 = {death="7629.1.1"}
}
104174901 = {
	name="Mylessa"	# not a lord
	female=yes
	dynasty=174901

	religion="the_seven"
	culture="old_andal"

	father=100174901
	mother=400174901

	7573.1.1 = {birth="7573.1.1"}
	7625.1.1 = {death="7625.1.1"}
}
105174901 = {
	name="Mela"	# not a lord
	female=yes
	dynasty=174901

	religion="the_seven"
	culture="old_andal"

	father=101174901
	mother=401174901

	7595.1.1 = {birth="7595.1.1"}
	7628.1.1 = {death="7628.1.1"}
}
106174901 = {
	name="Royce"	# a lord
	dynasty=174901

	religion="the_seven"
	culture="old_andal"

	father=101174901
	mother=401174901

	7598.1.1 = {birth="7598.1.1"}
	7614.1.1 = {add_trait=knight add_trait=master_warrior}
	7616.1.1 = {add_spouse=406174901}
	7654.1.1 = {death="7654.1.1"}
}
406174901 = {
	name="Sarya"
	female=yes

	religion="the_seven"
	culture="old_andal"

	7598.1.1 = {birth="7598.1.1"}
	7654.1.1 = {death="7654.1.1"}
}
107174901 = {
	name="Gilwood"	# a lord
	dynasty=174901

	religion="the_seven"
	culture="old_andal"

	father=106174901
	mother=406174901

	7626.1.1 = {birth="7626.1.1"}
	7642.1.1 = {add_trait=knight add_trait=poor_warrior}
	7644.1.1 = {add_spouse=407174901}
	7696.1.1 = {death="7696.1.1"}
}
407174901 = {
	name="Mela"
	female=yes

	religion="the_seven"
	culture="old_andal"

	7626.1.1 = {birth="7626.1.1"}
	7696.1.1 = {death="7696.1.1"}
}
108174901 = {
	name="Mya"	# not a lord
	female=yes
	dynasty=174901

	religion="the_seven"
	culture="old_andal"

	father=106174901
	mother=406174901

	7629.1.1 = {birth="7629.1.1"}
	7690.1.1 = {death="7690.1.1"}
}
109174901 = {
	name="Creighton"	# not a lord
	dynasty=174901

	religion="the_seven"
	culture="old_andal"

	father=107174901
	mother=407174901

	7644.1.1 = {birth="7644.1.1"}
	7660.1.1 = {add_trait=knight add_trait=poor_warrior}
	7662.1.1 = {add_spouse=409174901}
	7684.1.1 = {death="7684.1.1"}
}
409174901 = {
	name="Ravella"
	female=yes

	religion="the_seven"
	culture="old_andal"

	7644.1.1 = {birth="7644.1.1"}
	7684.1.1 = {death="7684.1.1"}
}
110174901 = {
	name="Amabel"	# not a lord
	female=yes
	dynasty=174901

	religion="the_seven"
	culture="old_andal"

	father=107174901
	mother=407174901

	7646.1.1 = {birth="7646.1.1"}
	7712.1.1 = {death="7712.1.1"}
}
111174901 = {
	name="Nestor"	# not a lord
	dynasty=174901

	religion="the_seven"
	culture="old_andal"

	father=107174901
	mother=407174901

	7647.1.1 = {birth="7647.1.1"}
	7663.1.1 = {add_trait=poor_warrior}
	7701.1.1 = {death="7701.1.1"}
}
112174901 = {
	name="Horton"	# a lord
	dynasty=174901

	religion="the_seven"
	culture="old_andal"

	father=109174901
	mother=409174901

	7672.1.1 = {birth="7672.1.1"}
	7688.1.1 = {add_trait=knight add_trait=poor_warrior}
	7690.1.1 = {add_spouse=412174901}
	7730.1.1 = {death="7730.1.1"}
}
412174901 = {
	name="Ysilla"
	female=yes

	religion="the_seven"
	culture="old_andal"

	7672.1.1 = {birth="7672.1.1"}
	7730.1.1 = {death="7730.1.1"}
}
113174901 = {
	name="Byron"	# not a lord
	dynasty=174901

	religion="the_seven"
	culture="old_andal"

	father=109174901
	mother=409174901

	7674.1.1 = {birth="7674.1.1"}
	7690.1.1 = {add_trait=knight add_trait=poor_warrior}
	7747.1.1 = {death="7747.1.1"}
}
114174901 = {
	name="Umfred"	# not a lord
	dynasty=174901

	religion="the_seven"
	culture="old_andal"

	father=109174901
	mother=409174901

	7677.1.1 = {birth="7677.1.1"}
	7693.1.1 = {add_trait=knight add_trait=skilled_warrior}
	7754.1.1 = {death="7754.1.1"}
}
115174901 = {
	name="Albar"	# a lord
	dynasty=174901

	religion="the_seven"
	culture="old_andal"

	father=112174901
	mother=412174901

	7697.1.1 = {birth="7697.1.1"}
	7713.1.1 = {add_trait=knight add_trait=trained_warrior}
	7715.1.1 = {add_spouse=415174901}
	7740.1.1 = {death="7740.1.1"}
}
415174901 = {
	name="Alyssa"
	female=yes

	religion="the_seven"
	culture="old_andal"

	7697.1.1 = {birth="7697.1.1"}
	7740.1.1 = {death="7740.1.1"}
}
116174901 = {
	name="Jon"	# not a lord
	dynasty=174901

	religion="the_seven"
	culture="old_andal"

	father=112174901
	mother=412174901

	7699.1.1 = {birth="7699.1.1"}
	7715.1.1 = {add_trait=knight add_trait=trained_warrior}
	7742.1.1 = {death="7742.1.1"}
}
117174901 = {
	name="Harlan"	# a lord
	dynasty=174901

	religion="the_seven"
	culture="old_andal"

	father=115174901
	mother=415174901

	7722.1.1 = {birth="7722.1.1"}
	7738.1.1 = {add_trait=knight add_trait=skilled_warrior}
	7740.1.1 = {add_spouse=417174901}
	7765.1.1 = {death="7765.1.1"}
}
417174901 = {
	name="Janyce"
	female=yes

	religion="the_seven"
	culture="old_andal"

	7722.1.1 = {birth="7722.1.1"}
	7765.1.1 = {death="7765.1.1"}
}
118174901 = {
	name="Creighton"	# not a lord
	dynasty=174901

	religion="the_seven"
	culture="old_andal"

	father=115174901
	mother=415174901

	7725.1.1 = {birth="7725.1.1"}
	7741.1.1 = {add_trait=knight add_trait=trained_warrior}
	7758.1.1 = {death="7758.1.1"}
}
119174901 = {
	name="Royce"	# not a lord
	dynasty=174901

	religion="the_seven"
	culture="old_andal"

	father=115174901
	mother=415174901

	7727.1.1 = {birth="7727.1.1"}
	7743.1.1 = {add_trait=trained_warrior}
	7786.1.1 = {death="7786.1.1"}
}
120174901 = {
	name="Donella"	# not a lord
	female=yes
	dynasty=174901

	religion="the_seven"
	culture="old_andal"

	father=115174901
	mother=415174901

	7730.1.1 = {birth="7730.1.1"}
	7798.1.1 = {death="7798.1.1"}
}
121174901 = {
	name="Randyll"	# a lord
	dynasty=174901

	religion="the_seven"
	culture="old_andal"

	father=117174901
	mother=417174901

	7744.1.1 = {birth="7744.1.1"}
	7760.1.1 = {add_trait=poor_warrior}
	7795.1.1 = {death="7795.1.1"}
}
122174901 = {
	name="Wallace"	# a lord
	dynasty=174901

	religion="the_seven"
	culture="old_andal"

	father=117174901
	mother=417174901

	7747.1.1 = {birth="7747.1.1"}
	7763.1.1 = {add_trait=trained_warrior}
	7765.1.1 = {add_spouse=422174901}
	7816.1.1 = {death="7816.1.1"}
}
422174901 = {
	name="Mya"
	female=yes

	religion="the_seven"
	culture="old_andal"

	7747.1.1 = {birth="7747.1.1"}
	7816.1.1 = {death="7816.1.1"}
}
123174901 = {
	name="Zhoe"	# not a lord
	female=yes
	dynasty=174901

	religion="the_seven"
	culture="old_andal"

	father=117174901
	mother=417174901

	7750.1.1 = {birth="7750.1.1"}
	7806.1.1 = {death="7806.1.1"}
}
124174901 = {
	name="Osney"	# not a lord
	dynasty=174901

	religion="the_seven"
	culture="old_andal"

	father=117174901
	mother=417174901

	7752.1.1 = {birth="7752.1.1"}
	7768.1.1 = {add_trait=knight add_trait=trained_warrior}
	7772.1.1 = {death="7772.1.1"}
}
125174901 = {
	name="Lyra"	# not a lord
	female=yes
	dynasty=174901

	religion="the_seven"
	culture="old_andal"

	father=122174901
	mother=422174901

	7765.1.1 = {birth="7765.1.1"}
	7804.1.1 = {death="7804.1.1"}
}
126174901 = {
	name="Gerold"	# a lord
	dynasty=174901

	religion="the_seven"
	culture="old_andal"

	father=122174901
	mother=422174901

	7767.1.1 = {birth="7767.1.1"}
	7783.1.1 = {add_trait=knight add_trait=poor_warrior}
	7785.1.1 = {add_spouse=426174901}
	7837.1.1 = {death="7837.1.1"}
}
426174901 = {
	name="Lythene"
	female=yes

	religion="the_seven"
	culture="old_andal"

	7767.1.1 = {birth="7767.1.1"}
	7837.1.1 = {death="7837.1.1"}
}
127174901 = {
	name="Harrold"	# not a lord
	dynasty=174901

	religion="the_seven"
	culture="old_andal"

	father=122174901
	mother=422174901

	7770.1.1 = {birth="7770.1.1"}
	7786.1.1 = {add_trait=knight add_trait=poor_warrior}
	7788.1.1 = {add_spouse=427174901}
	7834.1.1 = {death="7834.1.1"}
}
427174901 = {
	name="Jonquil"
	female=yes

	religion="the_seven"
	culture="old_andal"

	7770.1.1 = {birth="7770.1.1"}
	7834.1.1 = {death="7834.1.1"}
}
128174901 = {
	name="Osmund"	# not a lord
	dynasty=174901

	religion="the_seven"
	culture="old_andal"

	father=122174901
	mother=422174901

	7773.1.1 = {birth="7773.1.1"}
	7789.1.1 = {add_trait=poor_warrior}
	7815.1.1 = {death = {death_reason = death_murder}}
}
129174901 = {
	name="Ronnel"	# a lord
	dynasty=174901

	religion="the_seven"
	culture="old_andal"

	father=126174901
	mother=426174901

	7790.1.1 = {birth="7790.1.1"}
	7806.1.1 = {add_trait=poor_warrior}
	7853.1.1 = {death="7853.1.1"}
}
130174901 = {
	name="Umfred"	# a lord
	dynasty=174901

	religion="the_seven"
	culture="old_andal"

	father=127174901
	mother=427174901

	7803.1.1 = {birth="7803.1.1"}
	7819.1.1 = {add_trait=knight add_trait=poor_warrior}
	7821.1.1 = {add_spouse=430174901}
	7879.1.1 = {death="7879.1.1"}
}
430174901 = {
	name="Randa"
	female=yes

	religion="the_seven"
	culture="old_andal"

	7803.1.1 = {birth="7803.1.1"}
	7879.1.1 = {death="7879.1.1"}
}
131174901 = {
	name="Robar"	# not a lord
	dynasty=174901

	religion="the_seven"
	culture="old_andal"

	father=130174901
	mother=430174901

	7830.1.1 = {birth="7830.1.1"}
	7846.1.1 = {add_trait=knight add_trait=poor_warrior}
	7848.1.1 = {add_spouse=431174901}
	7867.1.1 = {death="7867.1.1"}
}
431174901 = {
	name="Aglantine"
	female=yes

	religion="the_seven"
	culture="old_andal"

	7830.1.1 = {birth="7830.1.1"}
	7867.1.1 = {death="7867.1.1"}
}
132174901 = {
	name="Sybelle"	# not a lord
	female=yes
	dynasty=174901

	religion="the_seven"
	culture="old_andal"

	father=130174901
	mother=430174901

	7831.1.1 = {birth="7831.1.1"}
	7880.1.1 = {death = {death_reason = death_accident}}
}
133174901 = {
	name="Yohn"	# a lord
	dynasty=174901

	religion="the_seven"
	culture="old_andal"

	father=131174901
	mother=431174901

	7857.1.1 = {birth="7857.1.1"}
	7873.1.1 = {add_trait=knight add_trait=poor_warrior}
	7875.1.1 = {add_spouse=433174901}
}
433174901 = {
	name="Kella"
	female=yes

	religion="the_seven"
	culture="old_andal"

	7857.1.1 = {birth="7857.1.1"}
}
134174901 = {
	name="Andar"	# not a lord
	dynasty=174901

	religion="the_seven"
	culture="old_andal"

	father=131174901
	mother=431174901

	7858.1.1 = {birth="7858.1.1"}
	7874.1.1 = {add_trait=poor_warrior}
	7876.1.1 = {add_spouse=434174901}
}
434174901 = {
	name="Carellen"
	female=yes

	religion="the_seven"
	culture="old_andal"

	7858.1.1 = {birth="7858.1.1"}
}
135174901 = {
	name="Becca"	# not a lord
	female=yes
	dynasty=174901

	religion="the_seven"
	culture="old_andal"

	father=131174901
	mother=431174901

	7861.1.1 = {birth="7861.1.1"}
}
136174901 = {
	name="Bethany"	# not a lord
	female=yes
	dynasty=174901

	religion="the_seven"
	culture="old_andal"

	father=133174901
	mother=433174901

	7886.1.1 = {birth="7886.1.1"}
}
137174901 = {
	name="Donnel"	# not a lord
	dynasty=174901

	religion="the_seven"
	culture="old_andal"

	father=133174901
	mother=433174901

	7887.1.1 = {birth="7887.1.1"}
	7903.1.1 = {add_trait=trained_warrior}
}
138174901 = {
	name="Jeyne"	# not a lord
	female=yes
	dynasty=174901

	religion="the_seven"
	culture="old_andal"

	father=133174901
	mother=433174901

	7888.1.1 = {birth="7888.1.1"}
}
139174901 = {
	name="Harlan"	# not a lord
	dynasty=174901

	religion="the_seven"
	culture="old_andal"

	father=133174901
	mother=433174901

	7890.1.1 = {birth="7890.1.1"}
	7906.1.1 = {add_trait=poor_warrior}
}
140174901 = {
	name="Vardis"	# not a lord
	dynasty=174901

	religion="the_seven"
	culture="old_andal"

	father=134174901
	mother=434174901

	7887.1.1 = {birth="7887.1.1"}
	7903.1.1 = {add_trait=poor_warrior}
}
#House Ninewater
100174915 = {
	name="Osmund"	# a lord
	dynasty=174915

	religion="the_seven"
	culture="old_andal"

	7560.1.1 = {birth="7560.1.1"}
	7576.1.1 = {add_trait=knight add_trait=trained_warrior}
	7578.1.1 = {add_spouse=400174915}
	7621.1.1 = {death="7621.1.1"}
}
400174915 = {
	name="Carellen"
	female=yes

	religion="the_seven"
	culture="old_andal"

	7560.1.1 = {birth="7560.1.1"}
	7621.1.1 = {death="7621.1.1"}
}
101174915 = {
	name="Barbara"	# not a lord
	female=yes
	dynasty=174915

	religion="the_seven"
	culture="old_andal"

	father=100174915
	mother=400174915

	7591.1.1 = {birth="7591.1.1"}
	7636.1.1 = {death="7636.1.1"}
}
102174915 = {
	name="Symond"	# a lord
	dynasty=174915

	religion="the_seven"
	culture="old_andal"

	father=100174915
	mother=400174915

	7593.1.1 = {birth="7593.1.1"}
	7609.1.1 = {add_trait=poor_warrior}
	7638.1.1 = {death="7638.1.1"}
}
103174915 = {
	name="Carellen"	# not a lord
	female=yes
	dynasty=174915

	religion="the_seven"
	culture="old_andal"

	father=100174915
	mother=400174915

	7595.1.1 = {birth="7595.1.1"}
	7640.1.1 = {death="7640.1.1"}
}
104174915 = {
	name="Horton"	# a lord
	dynasty=174915

	religion="the_seven"
	culture="old_andal"

	father=100174915
	mother=400174915

	7596.1.1 = {birth="7596.1.1"}
	7613.1.1 = {add_trait=knight add_trait=skilled_warrior}
	7615.1.1 = {add_spouse=404174915}
	7669.1.1 = {death="7669.1.1"}
}
404174915 = {
	name="Morya"
	female=yes

	religion="the_seven"
	culture="old_andal"

	7596.1.1 = {birth="7596.1.1"}
	7669.1.1 = {death="7669.1.1"}
}
105174915 = {
	name="Ravella"	# not a lord
	female=yes
	dynasty=174915

	religion="the_seven"
	culture="old_andal"

	father=104174915
	mother=404174915

	7620.1.1 = {birth="7620.1.1"}
	7689.1.1 = {death="7689.1.1"}
}
106174915 = {
	name="Royce"	# a lord
	dynasty=174915

	religion="the_seven"
	culture="old_andal"

	father=104174915
	mother=404174915

	7622.1.1 = {birth="7622.1.1"}
	7638.1.1 = {add_trait=knight add_trait=trained_warrior}
	7640.1.1 = {add_spouse=406174915}
	7677.1.1 = {death="7677.1.1"}
}
406174915 = {
	name="Anya"
	female=yes

	religion="the_seven"
	culture="old_andal"

	7622.1.1 = {birth="7622.1.1"}
	7677.1.1 = {death="7677.1.1"}
}
107174915 = {
	name="Rolley"	# a lord
	dynasty=174915

	religion="the_seven"
	culture="old_andal"

	father=104174915
	mother=404174915

	7623.1.1 = {birth="7623.1.1"}
	7639.1.1 = {add_trait=knight add_trait=skilled_warrior}
	7641.1.1 = {add_spouse=407174915}
	7693.1.1 = {death="7693.1.1"}
}
407174915 = {
	name="Jeyne"
	female=yes

	religion="the_seven"
	culture="old_andal"

	7623.1.1 = {birth="7623.1.1"}
	7693.1.1 = {death="7693.1.1"}
}
108174915 = {
	name="Jonella"	# not a lord
	female=yes
	dynasty=174915

	religion="the_seven"
	culture="old_andal"

	father=104174915
	mother=404174915

	7626.1.1 = {birth="7626.1.1"}
	7651.1.1 = {death="7651.1.1"}
}
109174915 = {
	name="Alyssa"	# not a lord
	female=yes
	dynasty=174915

	religion="the_seven"
	culture="old_andal"

	father=106174915
	mother=406174915

	7641.1.1 = {birth="7641.1.1"}
	7689.1.1 = {death="7689.1.1"}
}
110174915 = {
	name="Arya"	# not a lord
	female=yes
	dynasty=174915

	religion="the_seven"
	culture="old_andal"

	father=106174915
	mother=406174915

	7644.1.1 = {birth="7644.1.1"}
	7687.1.1 = {death="7687.1.1"}
}
111174915 = {
	name="Myranda"	# not a lord
	female=yes
	dynasty=174915

	religion="the_seven"
	culture="old_andal"

	father=107174915
	mother=407174915

	7649.1.1 = {birth="7649.1.1"}
	7653.1.1 = {death="7653.1.1"}
}
112174915 = {
	name="Robar"	# a lord
	dynasty=174915

	religion="the_seven"
	culture="old_andal"

	father=107174915
	mother=407174915

	7651.1.1 = {birth="7651.1.1"}
	7667.1.1 = {add_trait=knight add_trait=trained_warrior}
	7669.1.1 = {add_spouse=412174915}
	7715.1.1 = {death="7715.1.1"}
}
412174915 = {
	name="Zhoe"
	female=yes

	religion="the_seven"
	culture="old_andal"

	7651.1.1 = {birth="7651.1.1"}
	7715.1.1 = {death="7715.1.1"}
}
113174915 = {
	name="Pate"	# not a lord
	dynasty=174915

	religion="the_seven"
	culture="old_andal"

	father=107174915
	mother=407174915

	7654.1.1 = {birth="7654.1.1"}
	7670.1.1 = {add_trait=knight add_trait=trained_warrior}
	7695.1.1 = {death="7695.1.1"}
}
114174915 = {
	name="Morton"	# a lord
	dynasty=174915

	religion="the_seven"
	culture="old_andal"

	father=112174915
	mother=412174915

	7677.1.1 = {birth="7677.1.1"}
	7693.1.1 = {add_trait=knight add_trait=trained_warrior}
	7695.1.1 = {add_spouse=414174915}
	7728.1.1 = {death="7728.1.1"}
}
414174915 = {
	name="Becca"
	female=yes

	religion="the_seven"
	culture="old_andal"

	7677.1.1 = {birth="7677.1.1"}
	7728.1.1 = {death="7728.1.1"}
}
115174915 = {
	name="Mya"	# not a lord
	female=yes
	dynasty=174915

	religion="the_seven"
	culture="old_andal"

	father=112174915
	mother=412174915

	7678.1.1 = {birth="7678.1.1"}
	7730.1.1 = {death="7730.1.1"}
}
116174915 = {
	name="Pate"	# a lord
	dynasty=174915

	religion="the_seven"
	culture="old_andal"

	father=114174915
	mother=414174915

	7697.1.1 = {birth="7697.1.1"}
	7713.1.1 = {add_trait=knight add_trait=poor_warrior}
	7715.1.1 = {add_spouse=416174915}
	7730.1.1 = {death = {death_reason = death_murder}}
}
416174915 = {
	name="Jonnela"
	female=yes

	religion="the_seven"
	culture="old_andal"

	7697.1.1 = {birth="7697.1.1"}
	7730.1.1 = {death="7730.1.1"}
}
117174915 = {
	name="Godric"	# not a lord
	dynasty=174915

	religion="the_seven"
	culture="old_andal"

	father=114174915
	mother=414174915

	7699.1.1 = {birth="7699.1.1"}
	7715.1.1 = {add_trait=knight add_trait=skilled_warrior}
	7748.1.1 = {death="7748.1.1"}
}
118174915 = {
	name="Marsella"	# not a lord
	female=yes
	dynasty=174915

	religion="the_seven"
	culture="old_andal"

	father=114174915
	mother=414174915

	7701.1.1 = {birth="7701.1.1"}
	7754.1.1 = {death="7754.1.1"}
}
119174915 = {
	name="Osfryd"	# a lord
	dynasty=174915

	religion="the_seven"
	culture="old_andal"

	father=116174915
	mother=416174915

	7729.1.1 = {birth="7729.1.1"}
	7745.1.1 = {add_trait=knight add_trait=poor_warrior}
	7750.1.1 = {add_spouse=419174915}
	7787.1.1 = {death="7787.1.1"}
}
419174915 = {
	name="Alysanne"
	female=yes

	religion="the_seven"
	culture="old_andal"

	7732.1.1 = {birth="7732.1.1"}
	7787.1.1 = {death="7787.1.1"}
}
120174915 = {
	name="Lothor"	# not a lord
	dynasty=174915

	religion="the_seven"
	culture="old_andal"

	father=119174915
	mother=419174915

	7752.1.1 = {birth="7752.1.1"}
	7768.1.1 = {add_trait=knight add_trait=trained_warrior}
	7770.1.1 = {add_spouse=420174915}
	7785.1.1 = {death = {death_reason = death_murder}}
}
420174915 = {
	name="Alayne"
	female=yes

	religion="the_seven"
	culture="old_andal"

	7752.1.1 = {birth="7752.1.1"}
	7785.1.1 = {death="7785.1.1"}
}
121174915 = {
	name="Carolei"	# not a lord
	female=yes
	dynasty=174915

	religion="the_seven"
	culture="old_andal"

	father=119174915
	mother=419174915

	7755.1.1 = {birth="7755.1.1"}
	7833.1.1 = {death="7833.1.1"}
}
122174915 = {
	name="Mychel"	# not a lord
	dynasty=174915

	religion="the_seven"
	culture="old_andal"

	father=119174915
	mother=419174915

	7756.1.1 = {birth="7756.1.1"}
	7772.1.1 = {add_trait=knight add_trait=poor_warrior}
	7803.1.1 = {death="7803.1.1"}
}
123174915 = {
	name="Edmund"	# a lord
	dynasty=174915

	religion="the_seven"
	culture="old_andal"

	father=120174915
	mother=420174915

	7781.1.1 = {birth="7781.1.1"}
	7797.1.1 = {add_trait=knight add_trait=poor_warrior}
	7799.1.1 = {add_spouse=423174915}
	7845.1.1 = {death="7845.1.1"}
}
423174915 = {
	name="Carolei"
	female=yes

	religion="the_seven"
	culture="old_andal"

	7781.1.1 = {birth="7781.1.1"}
	7845.1.1 = {death="7845.1.1"}
}
124174915 = {
	name="Robar"	# not a lord
	dynasty=174915

	religion="the_seven"
	culture="old_andal"

	father=120174915
	mother=420174915

	7784.1.1 = {birth="7784.1.1"}
	7800.1.1 = {add_trait=knight add_trait=poor_warrior}
	7844.1.1 = {death="7844.1.1"}
}
125174915 = {
	name="Ravella"	# not a lord
	female=yes
	dynasty=174915

	religion="the_seven"
	culture="old_andal"

	father=123174915
	mother=423174915

	7807.1.1 = {birth="7807.1.1"}
	7849.1.1 = {death="7849.1.1"}
}
126174915 = {
	name="Elys"	# a lord
	dynasty=174915

	religion="the_seven"
	culture="old_andal"

	father=123174915
	mother=423174915

	7809.1.1 = {birth="7809.1.1"}
	7825.1.1 = {add_trait=knight add_trait=trained_warrior}
	7827.1.1 = {add_spouse=426174915}
	7863.1.1 = {death="7863.1.1"}
}
426174915 = {
	name="Carellen"
	female=yes

	religion="the_seven"
	culture="old_andal"

	7809.1.1 = {birth="7809.1.1"}
	7863.1.1 = {death="7863.1.1"}
}
127174915 = {
	name="Robin"	# not a lord
	dynasty=174915

	religion="the_seven"
	culture="old_andal"

	father=123174915
	mother=423174915

	7811.1.1 = {birth="7811.1.1"}
	7827.1.1 = {add_trait=knight add_trait=trained_warrior}
	7880.1.1 = {death="7880.1.1"}
}
128174915 = {
	name="Wyl"	# a lord
	dynasty=174915

	religion="the_seven"
	culture="old_andal"

	father=126174915
	mother=426174915

	7836.1.1 = {birth="7836.1.1"}
	7852.1.1 = {add_trait=knight add_trait=skilled_warrior}
	7854.1.1 = {add_spouse=428174915}
	7889.1.1 = {death="7889.1.1"}
}
428174915 = {
	name="Carellen"
	female=yes

	religion="the_seven"
	culture="old_andal"

	7836.1.1 = {birth="7836.1.1"}
	7889.1.1 = {death="7889.1.1"}
}
129174915 = {
	name="Bryen"	# not a lord
	dynasty=174915

	religion="the_seven"
	culture="old_andal"

	father=126174915
	mother=426174915

	7837.1.1 = {birth="7837.1.1"}
	7853.1.1 = {add_trait=knight add_trait=trained_warrior}
	7865.1.1 = {death="7865.1.1"}
}
130174915 = {
	name="Creighton"	# not a lord
	dynasty=174915

	religion="the_seven"
	culture="old_andal"

	father=126174915
	mother=426174915

	7839.1.1 = {birth="7839.1.1"}
	7855.1.1 = {add_trait=knight add_trait=poor_warrior}
}
131174915 = {
	name="Eglantine"	# not a lord
	female=yes
	dynasty=174915

	religion="the_seven"
	culture="old_andal"

	father=128174915
	mother=428174915

	7861.1.1 = {birth="7861.1.1"}
}
132174915 = {
	name="Alys"	# not a lord
	female=yes
	dynasty=174915

	religion="the_seven"
	culture="old_andal"

	father=128174915
	mother=428174915

	7863.1.1 = {birth="7863.1.1"}
}
133174915 = {
	name="Eon"	# a lord
	dynasty=174915

	religion="the_seven"
	culture="old_andal"

	father=128174915
	mother=428174915

	7865.1.1 = {birth="7865.1.1"}
	7881.1.1 = {add_trait=knight add_trait=poor_warrior}
	7883.1.1 = {add_spouse=433174915}
}
433174915 = {
	name="Melicent"
	female=yes

	religion="the_seven"
	culture="old_andal"

	7865.1.1 = {birth="7865.1.1"}
}
134174915 = {
	name="Eon"	# not a lord
	dynasty=174915

	religion="the_seven"
	culture="old_andal"

	father=128174915
	mother=428174915

	7866.1.1 = {birth="7866.1.1"}
	7882.1.1 = {add_trait=knight add_trait=skilled_warrior}
}
135174915 = {
	name="Leona"	# not a lord
	female=yes
	dynasty=174915

	religion="the_seven"
	culture="old_andal"

	father=128174915
	mother=428174915

	7869.1.1 = {birth="7869.1.1"}
}
136174915 = {
	name="Morya"	# not a lord
	female=yes
	dynasty=174915

	religion="the_seven"
	culture="old_andal"

	father=133174915
	mother=433174915

	7887.1.1 = {birth="7887.1.1"}
}
137174915 = {
	name="Nestor"	# not a lord
	dynasty=174915

	religion="the_seven"
	culture="old_andal"

	father=133174915
	mother=433174915

	7888.1.1 = {birth="7888.1.1"}
	7904.1.1 = {add_trait=knight add_trait=trained_warrior}
}
###House Greatwood
100174909 = {
	name="Lothor"	# a lord
	dynasty=174909

	religion="the_seven"
	culture="old_andal"

	7557.1.1 = {birth="7557.1.1"}
	7573.1.1 = {add_trait=knight add_trait=trained_warrior}
	7575.1.1 = {add_spouse=400174909}
	7615.1.1 = {death="7615.1.1"}
}
400174909 = {
	name="Alys"
	female=yes

	religion="the_seven"
	culture="old_andal"

	7557.1.1 = {birth="7557.1.1"}
	7615.1.1 = {death="7615.1.1"}
}
101174909 = {
	name="Ballabar"	# a lord
	dynasty=174909

	religion="the_seven"
	culture="old_andal"

	father=100174909
	mother=400174909

	7579.1.1 = {birth="7579.1.1"}
	7595.1.1 = {add_trait=knight add_trait=trained_warrior}
	7596.1.1 = {add_spouse=401174909}
	7635.1.1 = {death="7635.1.1"}
}
401174909 = {
	name="Melicent"
	female=yes

	religion="the_seven"
	culture="old_andal"

	7579.1.1 = {birth="7579.1.1"}
	7635.1.1 = {death="7635.1.1"}
}
102174909 = {
	name="Osney"	# not a lord
	dynasty=174909

	religion="the_seven"
	culture="old_andal"

	father=100174909
	mother=400174909

	7581.1.1 = {birth="7581.1.1"}
	7596.1.1 = {add_trait=poor_warrior}
	7599.1.1 = {add_spouse=402174909}
	7634.1.1 = {death="7634.1.1"}
}
402174909 = {
	name="Kella"
	female=yes

	religion="the_seven"
	culture="old_andal"

	7581.1.1 = {birth="7581.1.1"}
	7634.1.1 = {death="7634.1.1"}
}
103174909 = {
	name="Osmund"	# not a lord
	dynasty=174909

	religion="the_seven"
	culture="old_andal"

	father=100174909
	mother=400174909

	7584.1.1 = {birth="7584.1.1"}
	7600.1.1 = {add_trait=knight add_trait=skilled_warrior}
	7645.1.1 = {death="7645.1.1"}
}
104174909 = {
	name="Zhoe"	# not a lord
	female=yes
	dynasty=174909

	religion="the_seven"
	culture="old_andal"

	father=100174909
	mother=400174909

	7585.1.1 = {birth="7585.1.1"}
	7631.1.1 = {death="7631.1.1"}
}
105174909 = {
	name="Vardis"	# a lord
	dynasty=174909

	religion="the_seven"
	culture="old_andal"

	father=102174909
	mother=402174909

	7608.1.1 = {birth="7608.1.1"}
	7624.1.1 = {add_trait=knight add_trait=poor_warrior}
	7626.1.1 = {add_spouse=405174909}
	7660.1.1 = {death="7660.1.1"}
}
405174909 = {
	name="Ryella"
	female=yes

	religion="the_seven"
	culture="old_andal"

	7608.1.1 = {birth="7608.1.1"}
	7660.1.1 = {death="7660.1.1"}
}
106174909 = {
	name="Mychel"	# not a lord
	dynasty=174909

	religion="the_seven"
	culture="old_andal"

	father=102174909
	mother=402174909

	7610.1.1 = {birth="7610.1.1"}
	7626.1.1 = {add_trait=knight add_trait=poor_warrior}
	7659.1.1 = {death="7659.1.1"}
}
107174909 = {
	name="Sarya"	# not a lord
	female=yes
	dynasty=174909

	religion="the_seven"
	culture="old_andal"

	father=102174909
	mother=402174909

	7611.1.1 = {birth="7611.1.1"}
	7648.1.1 = {death="7648.1.1"}
}
108174909 = {
	name="Jorelle"	# not a lord
	female=yes
	dynasty=174909

	religion="the_seven"
	culture="old_andal"

	father=102174909
	mother=402174909

	7613.1.1 = {birth="7613.1.1"}
	7657.1.1 = {death="7657.1.1"}
}
109174909 = {
	name="Elys"	# not a lord
	dynasty=174909

	religion="the_seven"
	culture="old_andal"

	father=102174909
	mother=402174909

	7614.1.1 = {birth="7614.1.1"}
	7630.1.1 = {add_trait=poor_warrior}
	7668.1.1 = {death="7668.1.1"}
}
110174909 = {
	name="Bethany"	# not a lord
	female=yes
	dynasty=174909

	religion="the_seven"
	culture="old_andal"

	father=105174909
	mother=405174909

	7637.1.1 = {birth="7637.1.1"}
	7712.1.1 = {death="7712.1.1"}
}
111174909 = {
	name="Ravella"	# not a lord
	female=yes
	dynasty=174909

	religion="the_seven"
	culture="old_andal"

	father=105174909
	mother=405174909

	7639.1.1 = {birth="7639.1.1"}
	7685.1.1 = {death="7685.1.1"}
}
112174909 = {
	name="Ballabar"	# a lord
	dynasty=174909

	religion="the_seven"
	culture="old_andal"

	father=105174909
	mother=405174909

	7641.1.1 = {birth="7641.1.1"}
	7657.1.1 = {add_trait=knight add_trait=poor_warrior}
	7659.1.1 = {add_spouse=412174909}
	7718.1.1 = {death="7718.1.1"}
}
412174909 = {
	name="Ysilla"
	female=yes

	religion="the_seven"
	culture="old_andal"

	7641.1.1 = {birth="7641.1.1"}
	7718.1.1 = {death="7718.1.1"}
}
113174909 = {
	name="Uthor"	# not a lord
	dynasty=174909

	religion="the_seven"
	culture="old_andal"

	father=105174909
	mother=405174909

	7643.1.1 = {birth="7643.1.1"}
	7659.1.1 = {add_trait=knight add_trait=poor_warrior}
	7711.1.1 = {death="7711.1.1"}
}
114174909 = {
	name="Pate"	# not a lord
	dynasty=174909

	religion="the_seven"
	culture="old_andal"

	father=105174909
	mother=405174909

	7644.1.1 = {birth="7644.1.1"}
	7660.1.1 = {add_trait=knight add_trait=skilled_warrior}
	7699.1.1 = {death="7699.1.1"}
}
115174909 = {
	name="Jonella"	# not a lord
	female=yes
	dynasty=174909

	religion="the_seven"
	culture="old_andal"

	father=112174909
	mother=412174909

	7660.1.1 = {birth="7660.1.1"}
	7702.1.1 = {death="7702.1.1"}
}
116174909 = {
	name="Rowena"	# not a lord
	female=yes
	dynasty=174909

	religion="the_seven"
	culture="old_andal"

	father=112174909
	mother=412174909

	7661.1.1 = {birth="7661.1.1"}
	7740.1.1 = {death="7740.1.1"}
}
117174909 = {
	name="Serwyn"	# a lord
	dynasty=174909

	religion="the_seven"
	culture="old_andal"

	father=112174909
	mother=412174909

	7662.1.1 = {birth="7662.1.1"}
	7678.1.1 = {add_trait=knight add_trait=skilled_warrior}
	7680.1.1 = {add_spouse=417174909}
	7727.1.1 = {death="7727.1.1"}
}
417174909 = {
	name="Melicent"
	female=yes

	religion="the_seven"
	culture="old_andal"

	7662.1.1 = {birth="7662.1.1"}
	7727.1.1 = {death="7727.1.1"}
}
118174909 = {
	name="Ryella"	# not a lord
	female=yes
	dynasty=174909

	religion="the_seven"
	culture="old_andal"

	father=112174909
	mother=412174909

	7665.1.1 = {birth="7665.1.1"}
	7706.1.1 = {death = {death_reason = death_murder}}
}
119174909 = {
	name="Rolland"	# not a lord
	dynasty=174909

	religion="the_seven"
	culture="old_andal"

	father=112174909
	mother=412174909

	7666.1.1 = {birth="7666.1.1"}
	7682.1.1 = {add_trait=knight add_trait=trained_warrior}
	7744.1.1 = {death="7744.1.1"}
}
120174909 = {
	name="Umfred"	# a lord
	dynasty=174909

	religion="the_seven"
	culture="old_andal"

	father=117174909
	mother=417174909

	7685.1.1 = {birth="7685.1.1"}
	7701.1.1 = {add_trait=knight add_trait=trained_warrior}
	7703.1.1 = {add_spouse=420174909}
	7734.1.1 = {death="7734.1.1"}
}
420174909 = {
	name="Mela"
	female=yes

	religion="the_seven"
	culture="old_andal"

	7685.1.1 = {birth="7685.1.1"}
	7734.1.1 = {death="7734.1.1"}
}
121174909 = {
	name="Lark"	# not a lord
	dynasty=174909

	religion="the_seven"
	culture="old_andal"

	father=117174909
	mother=417174909

	7686.1.1 = {birth="7686.1.1"}
	7702.1.1 = {add_trait=knight add_trait=poor_warrior}
	7742.1.1 = {death="7742.1.1"}
}
122174909 = {
	name="Gwayne"	# not a lord
	dynasty=174909

	religion="the_seven"
	culture="old_andal"

	father=117174909
	mother=417174909

	7687.1.1 = {birth="7687.1.1"}
	7703.1.1 = {add_trait=knight add_trait=trained_warrior}
	7751.1.1 = {death="7751.1.1"}
}
123174909 = {
	name="Zia"	# not a lord
	female=yes
	dynasty=174909

	religion="the_seven"
	culture="old_andal"

	father=117174909
	mother=417174909

	7690.1.1 = {birth="7690.1.1"}
	7745.1.1 = {death="7745.1.1"}
}
124174909 = {
	name="Unella"	# not a lord
	female=yes
	dynasty=174909

	religion="the_seven"
	culture="old_andal"

	father=117174909
	mother=417174909

	7691.1.1 = {birth="7691.1.1"}
	7720.1.1 = {death="7720.1.1"}
}
125174909 = {
	name="Marianne"	# not a lord
	female=yes
	dynasty=174909

	religion="the_seven"
	culture="old_andal"

	father=120174909
	mother=420174909

	7719.1.1 = {birth="7719.1.1"}
	7778.1.1 = {death="7778.1.1"}
}
126174909 = {
	name="Anya"	# not a lord
	female=yes
	dynasty=174909

	religion="the_seven"
	culture="old_andal"

	father=120174909
	mother=420174909

	7720.1.1 = {birth="7720.1.1"}
	7770.1.1 = {death="7770.1.1"}
}
127174909 = {
	name="Serwyn"	# a lord
	dynasty=174909

	religion="the_seven"
	culture="old_andal"

	father=120174909
	mother=420174909

	7721.1.1 = {birth="7721.1.1"}
	7737.1.1 = {add_trait=trained_warrior}
	7739.1.1 = {add_spouse=427174909}
	7767.1.1 = {death="7767.1.1"}
}
427174909 = {
	name="Annara"
	female=yes

	religion="the_seven"
	culture="old_andal"

	7721.1.1 = {birth="7721.1.1"}
	7767.1.1 = {death="7767.1.1"}
}
128174909 = {
	name="Royce"	# a lord
	dynasty=174909

	religion="the_seven"
	culture="old_andal"

	father=127174909
	mother=427174909

	7741.1.1 = {birth="7741.1.1"}
	7757.1.1 = {add_trait=knight add_trait=poor_warrior}
	7759.1.1 = {add_spouse=428174909}
	7799.1.1 = {death="7799.1.1"}
}
428174909 = {
	name="Janyce"
	female=yes

	religion="the_seven"
	culture="old_andal"

	7741.1.1 = {birth="7741.1.1"}
	7799.1.1 = {death="7799.1.1"}
}
129174909 = {
	name="Pate"	# not a lord
	dynasty=174909

	religion="the_seven"
	culture="old_andal"

	father=127174909
	mother=427174909

	7744.1.1 = {birth="7744.1.1"}
	7760.1.1 = {add_trait=poor_warrior}
	7798.1.1 = {death="7798.1.1"}
}
130174909 = {
	name="Bellena"	# not a lord
	female=yes
	dynasty=174909

	religion="the_seven"
	culture="old_andal"

	father=127174909
	mother=427174909

	7745.1.1 = {birth="7745.1.1"}
	7820.1.1 = {death="7820.1.1"}
}
131174909 = {
	name="Lyonel"	# not a lord
	dynasty=174909

	religion="the_seven"
	culture="old_andal"

	father=128174909
	mother=428174909

	7773.1.1 = {birth="7773.1.1"}
	7789.1.1 = {add_trait=poor_warrior}
	7791.1.1 = {add_spouse=431174909}
	7798.1.1 = {death = {death_reason = death_battle}}
}
431174909 = {
	name="Randa"
	female=yes

	religion="the_seven"
	culture="old_andal"

	7773.1.1 = {birth="7773.1.1"}
	7798.1.1 = {death="7798.1.1"}
}
132174909 = {
	name="Carellen"	# not a lord
	female=yes
	dynasty=174909

	religion="the_seven"
	culture="old_andal"

	father=128174909
	mother=428174909

	7775.1.1 = {birth="7775.1.1"}
	7821.1.1 = {death="7821.1.1"}
}
133174909 = {
	name="Tim"	# a lord
	dynasty=174909

	religion="the_seven"
	culture="old_andal"

	father=131174909
	mother=431174909

	7794.1.1 = {birth="7794.1.1"}
	7810.1.1 = {add_trait=knight add_trait=poor_warrior}
	7812.1.1 = {add_spouse=433174909}
	7868.1.1 = {death="7868.1.1"}
}
433174909 = {
	name="Jonella"
	female=yes

	religion="the_seven"
	culture="old_andal"

	7794.1.1 = {birth="7794.1.1"}
	7868.1.1 = {death="7868.1.1"}
}
134174909 = {
	name="Yohn"	# not a lord
	dynasty=174909

	religion="the_seven"
	culture="old_andal"

	father=131174909
	mother=431174909

	7796.1.1 = {birth="7796.1.1"}
	7812.1.1 = {add_trait=knight add_trait=trained_warrior}
	7855.1.1 = {death="7855.1.1"}
}
135174909 = {
	name="Anya"	# not a lord
	female=yes
	dynasty=174909

	religion="the_seven"
	culture="old_andal"

	father=131174909
	mother=431174909

	7798.1.1 = {birth="7798.1.1"}
	7870.1.1 = {death="7870.1.1"}
}
136174909 = {
	name="Donnel"	# a lord
	dynasty=174909

	religion="the_seven"
	culture="old_andal"

	father=133174909
	mother=433174909

	7820.1.1 = {birth="7820.1.1"}
	7836.1.1 = {add_trait=knight add_trait=poor_warrior}
	7838.1.1 = {add_spouse=436174909}
	7882.1.1 = {death="7882.1.1"}
}
436174909 = {
	name="Alayne"
	female=yes

	religion="the_seven"
	culture="old_andal"

	7820.1.1 = {birth="7820.1.1"}
	7882.1.1 = {death="7882.1.1"}
}
137174909 = {
	name="Yohn"	# not a lord
	dynasty=174909

	religion="the_seven"
	culture="old_andal"

	father=133174909
	mother=433174909

	7821.1.1 = {birth="7821.1.1"}
	7837.1.1 = {add_trait=knight add_trait=skilled_warrior}
	7852.1.1 = {death="7852.1.1"}
}
138174909 = {
	name="Donnel"	# a lord
	dynasty=174909

	religion="the_seven"
	culture="old_andal"

	father=136174909
	mother=436174909

	7847.1.1 = {birth="7847.1.1"}
	7863.1.1 = {add_trait=knight add_trait=skilled_warrior}
	7865.1.1 = {add_spouse=438174909}
}
438174909 = {
	name="Sybelle"
	female=yes

	religion="the_seven"
	culture="old_andal"

	7847.1.1 = {birth="7847.1.1"}
}
139174909 = {
	name="Lark"	# not a lord
	dynasty=174909

	religion="the_seven"
	culture="old_andal"

	father=136174909
	mother=436174909

	7848.1.1 = {birth="7848.1.1"}
	7864.1.1 = {add_trait=poor_warrior}
	7866.1.1 = {add_spouse=439174909}
}
439174909 = {
	name="Sarra"
	female=yes

	religion="the_seven"
	culture="old_andal"

	7848.1.1 = {birth="7848.1.1"}
}
140174909 = {
	name="Eglantine"	# not a lord
	female=yes
	dynasty=174909

	religion="the_seven"
	culture="old_andal"

	father=136174909
	mother=436174909

	7850.1.1 = {birth="7850.1.1"}
}
141174909 = {
	name="Harrold"	# not a lord
	dynasty=174909

	religion="the_seven"
	culture="old_andal"

	father=138174909
	mother=438174909

	7870.1.1 = {birth="7870.1.1"}
	7886.1.1 = {add_trait=poor_warrior}
}
142174909 = {
	name="Mya"	# not a lord
	female=yes
	dynasty=174909

	religion="the_seven"
	culture="old_andal"

	father=138174909
	mother=438174909

	7872.1.1 = {birth="7872.1.1"}
}
143174909 = {
	name="Terrance"	# not a lord
	dynasty=174909

	religion="the_seven"
	culture="old_andal"

	father=138174909
	mother=438174909

	7874.1.1 = {birth="7874.1.1"}
	7890.1.1 = {add_trait=knight add_trait=trained_warrior}
}
144174909 = {
	name="Ryella"	# not a lord
	female=yes
	dynasty=174909

	religion="the_seven"
	culture="old_andal"

	father=139174909
	mother=439174909

	7875.1.1 = {birth="7875.1.1"}
}
145174909 = {
	name="Godric"	# not a lord
	dynasty=174909

	religion="the_seven"
	culture="old_andal"

	father=139174909
	mother=439174909

	7876.1.1 = {birth="7876.1.1"}
	7892.1.1 = {add_trait=knight add_trait=poor_warrior}
}
