6600.1.1 = {
	liege = d_norvos
	holding_dynasty = 300531 #Daryth
}
7565.1.1 = { holder=100300531 } # Ezzelyno (nc)
7618.1.1 = { holder=103300531 } # Illyrio (nc)
7648.1.1 = { holder=106300531 } # Ordello (nc)
7651.1.1 = { holder=104300531 } # Moredo (nc)
7680.1.1 = { holder=113300531 } # Daario (nc)
7710.1.1 = { holder=116300531 } # Tagganaro (nc)
7729.1.1 = { holder=118300531 } # Yorko (nc)
7742.1.1 = { holder=122300531 } # Gyleno (nc)
7779.1.1 = { holder=125300531 } # Areo (nc)
7795.1.1 = { holder=126300531 } # Groleo (nc)
7796.1.1 = { holder=128300531 } # Syrio (nc)
7801.1.1 = { holder=130300531 } # Luco (nc)
7815.1.1 = { holder=131300531 } # Moredo (nc)
7828.1.1 = { holder=132300531 } # Cossomo (nc)
7874.1.1 = { holder=134300531 } # Gyloro (nc)
7897.1.1 = { holder=136300531 } # Ezzelyno (nc)
