1523.1.1={ 
	liege="k_valyria"
	holding_dynasty = 496004 # Embaryen
}

7595.1.1 = { holder=10006004 } # Rhaegar (nc)
7642.1.1 = { holder=10046004 } # Maegon (nc)
7678.1.1 = { holder=10076004 } # Maerys (nc)
7691.1.1 = { holder=10096004 } # Aemon (nc)
7721.1.1 = { holder=10126004 } # Maegor (nc)
7737.1.1 = { holder=10136004 } # Haegon (nc)
7786.1.1 = { holder=10156004 } # Matarys (nc)
7792.1.1 = { holder=10196004 } # Qoherys (nc)
7800.1.1 = { holder=10226004 } # Haegon (nc)
7859.1.1 = { holder=10236004 } # Orys (nc)
7864.1.1 = { holder=10276004 } # Qoherys (nc)
7911.1.1 = { holder=10286004 } # Orys (nc)
