500.1.1={ 
	liege="d_prince_pentos"
}
7595.1.1 = { holder=103174360 } 
7643.1.1 = { holder=105174366 }
7664.1.1 = { holder=111300012 }
7678.1.1 = { holder=171174360 }
7722.1.1 = { holder=119174356 }
7739.1.1 = { holder=124174360 }
7755.1.1 = { holder=126300526 }

#5 Princes in 1 year
7786.1.1 = { holder=129300526 }
7795.4.1 = { holder=101669123 }
7795.6.1 = { holder=105069157 }
7795.10.1 = { holder=132300526 }

7796.1.1 = { holder=131300012 } #Nevio (C)

7808.1.1 = { holder=127174356 }
7813.1.1 = { holder=137300526 }
7849.1.1 = { holder=181300526 }
7877.1.1 = { holder=132174356 }
7890.1.1 = { holder=149300012 }
