200.1.1={
	liege="c_qhoyne"
}
7584.1.1 = { holder=100300520 } # Joss (nc)
7623.1.1 = { holder=101300520 } # Beqqo (nc)
7649.1.1 = { holder=105300520 } # Luco (nc)
7678.1.1 = { holder=109300520 } # Byan (nc)
7710.1.1 = { holder=114300520 } # Areo (nc)
7723.1.1 = { holder=117300520 } # Beqqo (nc)
7753.1.1 = { holder=119300520 } # Moreo (nc)
7764.1.1 = { holder=122300520 } # Orbelo (nc)
7784.1.1 = { holder=125300520 } # Joss (nc)
7827.1.1 = { holder=128300520 } # Myrmello (nc)
7830.1.1 = { holder=130300520 } # Brusco (nc)
7841.1.1 = { holder=132300520 } # Collio (nc)
7875.1.1 = { holder=136300520 } # Mero (nc)
7886.1.1 = { holder=142300520 } # Allaquo (nc)
