500.1.1={ law=succ_primogeniture law=cognatic_succession
	liege="c_redwater"
}
7596.1.1 = { holder=6000243 } # Quentin (nc)
7619.1.1 = { holder=6001243 } # Eustace (nc)
7648.1.1 = { holder=6006243 } # Gauter (nc)
7669.1.1 = { holder=6016243 } # Theodore (nc)
7705.1.1 = { holder=6017243 } # Loras (nc)
7740.1.1 = { holder=6018243 } # Edwyn (nc)
7765.1.1 = { holder=6022243 } # Wendell (nc)
7777.1.1 = { holder=6026243 } # Mathis (nc)
7794.1.1 = { holder=6030243 } # Edgerran (nc)
7831.1.1 = { holder=6034243 } # Runceford (nc)
7865.1.1={
	holder=3243
}
7873.1.1={
	holder=243
}






