500.1.1={ 
	liege="c_silkhead"
}

7570.1.1 = { holder=150300539 } # Nyessos (nc)
7629.1.1 = { holder=100300539 } # Doniphos (nc)
7675.1.1 = { holder=104300539 } # Orbelo (nc)
7677.1.1 = { holder=106300539 } # Oro (nc)
7715.1.1 = { holder=107300539 } # Gyleno (nc)
7725.1.1 = { holder=108300539 } # Lysandro (C)
7740.1.1 = { holder=110300539 } # Lysaro (C)
7745.1.1 = { holder=112300539 } # Moredo (C)
7765.1.1 = { holder=114300539 } # Orbelo (nc)
7809.1.1 = { holder=119300539 } # Moreo (nc)
7833.1.1 = { holder=120300539 } # Gyleno (nc)
7852.1.1 = { holder=123300539 } # Orbelo (nc)
7859.1.1={ holder = 0 } #Ninepenny king
7859.12.31 = { holder = 123300539 } 
7860.1.1 = { holder=125300539 } # Byan (nc)

