6500.1.1={
	liege = k_the_most_devout
}
7590.1.1={
	holder = 1000777
}
7622.1.1={
	holder = 1001777 
}
7644.5.10={
	holder = 1002777
}
7695.1.1 = { holder=1010777 } # a (nc)
7702.1.1 = { holder=1011777 } # a (nc)
7722.1.1 = { holder=1012777 } # a (nc)
7758.1.1={
	holder = 1003777
}
7766.1.1={
	holder = 1004777
}
7769.1.1={
	holder = 1005777
}
7786.1.1 = { holder=1013777 } # a (nc)
7812.1.1 = { holder=1014777 } # a (nc)
7820.1.1 = { holder=1015777 } # a (nc)
7860.1.1={
	holder = 77113 	
}







