#House Onuxho
7580.1.1 = { 
	holder=100304028 
	liege=c_tall_trees_town
} # Koroxhar (nc)
7623.1.1 = { holder=102304028 } # Kwasdo (nc)
7628.1.1 = { holder=105304028 } # Isodo (nc)
7633.1.1 = { holder=103304028 } # Qaro (nc)
7635.1.1 = { holder=106304028 } # Koroxhar (nc)
7702.1.1 = { holder=107304028 } # Jalabhar (nc)
7732.1.1 = { holder=113304028 } # Koroxhar (nc)
7756.1.1 = { holder=114304028 } # Olujondo (nc)
7773.1.1 = { holder=117304028 } # Xhonodo (nc)
7831.1.1 = { holder=121304028 } # Koroxhar (nc)
7841.1.1 = { holder=122304028 } # Qubya (nc)
7885.1.1 = { holder=123304028 } # Gwalahuru (nc)
7889.1.1 = { holder=126304028 } # Xhondo (nc)
