500.1.1={ 
	law=succ_primogeniture 
	law=cognatic_succession
	liege="c_plankytown" #this is bugged for some reason
	effect = { 
		c_plankytown = {
			holder_scope = {
				ROOT = { holder_scope = { set_defacto_liege = PREVPREV } }
			}
		}
		holder_scope = { 
			if = {
				limit = { NOT = { dynasty = 450004 } }
				dynasty = 805968 
			}
		}
	}
}
7825.7.1={
	holder=450069
}

7858.1.2={
	holder=450004
}

7898.1.2={
	holder=450070
}




