1123.1.1={ 
	liege="c_yunkai"
}

7595.1.1 = { holder=150360023 } # Grazdhan (nc)
7612.1.1 = { holder=100360024 } # Yezzan (nc)
7628.1.1 = { holder=100360022 } # Maezon (nc)
7650.1.1 = { holder=101360020 } # Haezdhar (nc)
7672.1.1 = { holder=106360023 } # Maezon (nc)
7713.1.1 = { holder=106360024 } # Sharkaz (nc)
7735.1.1 = { holder=109360022 } # Mizlak (nc)
7742.1.1 = { holder=116360020 } # Grazdan (nc)
7770.1.1 = { holder=112360024 } # Ghazdor (nc)
7787.1.1 = { holder=116360023 } # Yurkhaz (nc)
7800.1.1 = { holder=117360022 } # Lazhak (nc)
7818.1.1 = { holder=113360024 } # Skahaz (nc)
7824.1.1 = { holder=122360020 } # Grazdhan (nc)
7839.1.1 = { holder=125360023 } # Kraznys (nc)
7864.1.1 = { holder=130360020 } # Gazdhor (nc)
7880.1.1={
	holder=6571003 # Yurkhaz
}
