1.1.1 = {liege="d_griffins_roost"}

7594.1.1 = { holder=301354 } # Robert Wagstaff (nc)
7633.1.1 = { holder=305354 } # Harlan Wagstaff (nc)
7667.1.1 = { holder=307354 } # Beric Wagstaff (nc)
7695.1.1 = { holder=310354 } # Gowen Wagstaff (nc)
7703.1.1 = { holder=313354 } # Eldon Wagstaff (nc)
7705.1.1 = { holder=315354 } # Harlan Wagstaff (nc)
7759.1.1 = { holder=321354 } # Lester Wagstaff (nc)
7767.1.1 = { holder=322354 } # Pate Wagstaff (nc)
7784.1.1 = { holder=328354 } # Beric Wagstaff (nc)
7806.1.1 = { holder=331354 } # Joffrey Wagstaff (nc)
7843.1.1 = { holder=335354 } # Myrcella Wagstaff (nc)
7890.1.1 = { holder=341354 } # Harlan Wagstaff (nc)
