200.1.1={
	liege="k_braavos"
}
7594.1.1={
	holder=1100512
}
7603.1.1={
	holder=1000512
}
7642.1.1={
	holder=900512
}
7657.1.1={
	holder=800512
}
7682.1.1={
	holder=700512
}
7699.1.1={
	holder=600512
}
7732.1.1={
	holder=500512
}
7757.1.1={
	holder=400512
}
7768.1.1={
	holder=300512
}
7805.1.1={
	holder=200512
}
7839.1.1={
	holder=100512
}
7879.1.1={
	holder=600000049 # Qarro
}
