1.1.1={ law=succ_primogeniture law=cognatic_succession
	liege="d_blueburn"
}

7450.1.1 = { holder=63000266 } # Harrison (nc)
7487.1.1 = { holder=64000266 } # Elstar (nc)
7495.1.1 = { holder=65000266 } # Ellison (nc)
7520.1.1 = { holder=68001266 } # Emmett (nc)
7543.1.1 = { holder=61100266 } # Braeburn (nc)

7557.1.1 = { holder=6000266 } # Garrett (nc)
7605.1.1 = { holder=6003266 } # Harrold (nc)
7631.1.1 = { holder=6007266 } # Runceford (nc)
7644.1.1 = { holder=6010266 } # Arryn (nc)
7662.1.1 = { holder=6013266 } # Abelar (nc)
7698.1.1 = { holder=6015266 } # Lorent (nc)
7743.1.1 = { holder=6019266 } # Elwood (nc)
7757.1.1 = { holder=6021266 } # Gerold (nc)
7781.1.1 = { holder=6023266 } # Willas (nc)
7810.1.1 = { holder=6024266 } # Hosman (nc)
7831.1.1 = { holder=6028266 } # Edgerran (nc)
7867.1.1 = { holder=6032266 } # Wendell (nc)

7874.1.1={
	holder=266
}
