200.1.1={
	liege="k_volantis"
}

7595.1.1 = { holder=100069142 } # Lotho (nc)
7632.1.1 = { holder=100369142 } # Benerro (nc)
7647.1.1 = { holder=100469142 } # Colloquo (nc)
7666.1.1 = { holder=100669142 } # Moqorro (nc)
7709.1.1 = { holder=100769142 } # Vysarro (nc)
7717.1.1 = { holder=100969142 } # Rolloquo (nc)
7734.1.1 = { holder=101469142 } # Malaquo (nc)
7768.1.1 = { holder=101769142 } # Colloquo (nc)
7790.1.1 = { holder=101869142 } # Malaquo (nc)
7846.1.1 = { holder=101969142 } # Parquello (nc)
7863.1.1 = { holder=102569142 } # Alios (nc)
7877.1.1 = { holder=102769142 } # Beqqo (nc)
7897.1.1 = { holder=102969142 } # Parquello (nc)
