5600.1.1={
	liege="e_north"
law = succ_primogeniture
}
7565.1.1={
	holder=25098
}
7604.1.1={
	holder=24098
}
7619.1.1={
	holder=23098
}
7630.1.1={
	holder=22098
}
7640.1.1={
	holder=21098
}
7645.1.1={
	holder=19098
}
7676.1.1={
	holder=18098
}
7698.1.1={
	holder=17098
}
7739.1.1={
	holder=15098
}
7761.1.1={
	holder=14098
}
7810.1.1={
	holder=12098
}
7851.1.1={
	holder=10098
}
7877.1.1={
	holder=98
}
