7200.1.1={
	liege="e_stormlands"
	law = succ_primogeniture
}
7592.1.1 = { holder=6000055 } # Jacelyn (nc)
7621.1.1 = { holder=6000155 } # Duncan (nc)
7651.1.1 = { holder=6000355 } # Duncan (nc)
7672.1.1 = { holder=6000455 } # Renfred (nc)
7691.1.1 = { holder=6001155 } # Godry (nc)
7727.1.1 = { holder=6001355 } # Malliard (nc)
7753.1.1 = { holder=6001755 } # Lothar (nc)
7764.1.1 = { holder=6001855 } # Monford (nc)
7778.1.1 = { holder=6001955 } # Balman (nc)
7805.1.1 = { holder=6002255 } # Denys (nc)
7838.1.1 = { holder=6002355 } # Monford (nc)

7859.1.1={
	holder = 55 	#Howard Pyle
}
