1123.1.1={
	liege="d_tolos"
}
7595.1.1 = { holder=10070117 } # Aenar (nc)
7630.1.1 = { holder=10170117 } # Belicho (nc)
7634.1.1 = { holder=10270117 } # Daegar (nc)
7652.1.1 = { holder=10370117 } # Benerro (nc)
7686.1.1 = { holder=10870117 } # Parquello (nc)
7721.1.1 = { holder=10970117 } # Vogarro (nc)
7733.1.1 = { holder=11270117 } # Vaekar (nc)
7768.1.1 = { holder=11370117 } # Doniphos (nc)
7806.1.1 = { holder=11570117 } # Aelix (nc)
7824.1.1 = { holder=11870117 } # Qavo (nc)
7830.1.1 = { holder=11970117 } # Aenar (nc)
7844.1.1 = { holder=12170117 } # Belicho (nc)
7893.1.1 = { holder=12370117 } # Vaeron (nc)
