#House Jaluru
7560.1.1 = { 
	holder=100304023 
	liege=d_west_jhala
	law = succ_seniority
	law = cognatic_succession
} # Xhoan (nc)
7590.1.1 = { holder=101304023 } # Udo (nc)
7621.1.1 = { holder=106304023 } # Gatubhar (nc)
7630.1.1 = { holder=109304023 } # Chibundo (nc)
7644.1.1 = { holder=111304023 } # Bapato (nc)
7680.1.1 = { holder=116304023 } # Manahuru (nc)
7691.1.1 = { holder=118304023 } # Odingaxho (nc)
7701.1.1 = { holder=119304023 } # Koroxhar (nc)
7715.1.1 = { holder=125304023 } # Konde (nc)
7737.1.1 = { holder=127304023 } # Jalabhar (nc)
7800.1.1 = { holder=133304023 } # Doshuru (nc)
7804.1.1 = { holder=138304023 } # Mermesbhar (nc)
7830.1.1 = { holder=140304023 } # Thabo (nc)
7869.1.1 = { holder=142304023 } # Kwasdo (nc)
7890.1.1 = { holder=146304023 } # Xhelimo (nc)
