500.1.1={
liege="e_iron_isles"
law=succ_primogeniture law=cognatic_succession
}
4393.1.1 = {
	holder = 500118 # Joron Blacktyde
}
4449.1.1 = {
	holder = 0
}
7478.1.1 = { holder=3100118 } # Vickon (nc)
7540.1.1 = { holder=3201118 } # Emmond (nc)
7593.1.1 = { holder=3000118 } # Cragorn (nc)

7598.2.1 = { holder=3001118 } # Skyte (nc)
7647.1.1 = { holder=3003118 } # Sigfry (nc)
7668.1.1 = { holder=3005118 } # Rymolf (nc)
7700.1.1 = { holder=3008118 } # Triston (nc)
7736.1.1 = { holder=3014118 } # Wex (nc)
7764.1.1 = { holder=3017118 } # Qalen (nc)
7789.1.1 = { holder=3018118 } # Norne (nc)
7812.1.1 = { holder=3021118 } # Cotter (nc)
7812.1.1={
#holder=111118
}
7834.1.1 = { holder=3026118 } # Maron (nc)
7880.1.1 = { holder=3028118 } # Theon (nc)



