200.1.1={
	liege="k_braavos"
}
7594.1.1={
	holder=1100547
}
7626.1.1={
	holder=1000547
}
7645.1.1 = {
	holder=900547
}
7689.1.1 = {
	holder=800547
}
7702.1.1={
	holder=700547
}
7714.1.1={
	holder=600547
}
7748.1.1={
	holder=500547
}
7783.1.1={
	holder=400547
}
7796.1.1={
	holder=300547
}
7813.1.1 = {
	holder=200547
}
7833.1.1={
	holder=100547
}
7871.1.1={
	holder=600000051 # Tormo
}



