5600.1.1={
	liege="d_riverrun"
}
#House Perryn
7562.1.1 = { holder=36178457 }
7613.1.1 = { holder=35178457 }
7625.1.1 = { holder=20178457 } #Garibald (nc)
7642.1.1 = { holder=21178457 } #Dafyn (nc)
7664.1.1 = { holder=23178457 } #Karyl (nc)
7682.1.1 = { holder=24178457 } #Eddyn (nc)
7725.1.1 = { holder=25178457 } #Bryan (nc)
7734.1.1 = { holder=26178457 } #Deremond (nc)
7760.1.1 = { holder=27178457 } #Halmon (nc)
7785.1.1 = { holder=28178457 } #Walton (nc)
7823.1.1 = { holder=29178457 } #Deremond (nc)
7826.1.1 = { holder=30178457 } #Edgar (nc)
7832.1.1 = { holder=32178457 } #Tristan (nc)
7839.1.1 = { holder=16178457 } #Garse (nc)
7862.1.1 = { holder=13178457 } #Edmyn (nc)
7884.1.1 = { holder=178457 } #Robin (nc)

