500.1.1={ law=succ_primogeniture law=cognatic_succession
	liege="d_ocean_road"
}
7578.1.1 = { holder=1001333 }
7613.1.1 = { holder=1011333 }
7638.1.1 = { holder=1021333 }
7666.1.1 = { holder=1031333 }
7685.1.1 = { holder=1041333 }
7710.1.1 = { holder=1051333 }
7733.1.1 = { holder=1061333 }
7763.1.1 = { holder=1071333 }
7774.1.1 = { holder=1081333 }
7804.1.1 = { holder=1091333 }
7846.1.1 = { holder=1101333 }
7858.1.1 = { holder=1111333 }
7898.1.1 = { holder=88206 }






