7200.1.1={
	liege="d_willowwood"
	law = succ_primogeniture
}
7596.1.1={
	holder=16140
}
7613.1.1={
	holder=15140
}
7639.1.1={
	holder=14140
}
7659.1.1={
	holder=13140
}
7668.1.1={
	holder=12140
}
7693.1.1={
	holder=11140
}
7725.1.1={
	holder=17140
}
7739.1.1={
	holder=9140
}
7766.1.1={
	holder=8140
}
7812.1.1={
	holder=6140
}
7830.1.1={
	holder=5140
}

