1.1.1 = { liege="d_griffins_roost" }

7594.1.1 = { holder=300321 } # Alarik Morrigen (nc)
7613.1.1 = { holder=301321 } # Lewys Morrigen (nc)
7643.1.1 = { holder=302321 } # Herbert Morrigen (nc)
7647.1.1 = { holder=303321 } # Donnel Morrigen (nc)
7702.1.1 = { holder=304321 } # Herbert Morrigen (nc)
7728.1.1 = { holder=305321 } # Cressen Morrigen (nc)
7761.1.1 = { holder=306321 } # Phillip Morrigen (nc)
7810.1.1 = { holder=200321 } # Grance Morrigen (C)
7822.1.1 = { holder=309321 } # Lyonel Morrigen (nc)
7878.1.1 = { holder=310321 } # Ronnet Morrigen (nc)
7883.1.1 = { holder=201321 } # Lester Morrigen (C)
