500.1.1={
	liege="d_the_bite"
}
7510.1.1={ holder=214178 }	#Artys III
7565.1.1={ holder=213178 }	#Oswell II
7590.1.1={ holder=211178 }	#Robar
7595.1.1={ holder=210178 }  #Ronnel Arryn - The Arryn that bent the knee. Last person to wear the Falcon Crown.

7638.4.1 = { holder=251178 } # Jonos Arryn (brother usurper)
7639.1.1 = { holder=5085178}	#Hubert Arryn
7650.1.1 = { holder=208178 }	#Elbert Arryn
7660.1.1={ holder=207178 }	#Rodrik Arryn
7700.1.1 = { holder=5052178 }	#Jeyne Arryn
7734.6.1 = { holder=5050178 }	#Joffrey Arryn
7751.1.1={ holder=204178 }	#Jonothor Arryn
7780.1.1={ holder=202178 }	#Donnel Arryn
7818.1.1={ holder=200178 }	#Othor Arryn
7820.1.1={ holder=94001 }	#Jesper Arryn
7858.1.1 = { holder=94002 }	#Jon Arryn
7897.1.1={
	#holder=5159 #lysa regent
	holder=94003 #robert
}


