1123.1.1={
	liege = d_dalos
}

7595.1.1 = { holder=100000111 } # Orys (nc)
7636.1.1 = { holder=100100111 } # Belicho (nc)
7641.1.1 = { holder=100200111 } # Vogarro (nc)
7678.1.1 = { holder=100400111 } # Aenar (nc)
7730.1.1 = { holder=100900111 } # Colloquo (nc)
7737.1.1 = { holder=101100111 } # Vaeron (nc)
7761.1.1 = { holder=101300111 } # Orys (nc)
7777.1.1 = { holder=101600111 } # Aelix (nc)
7837.1.1 = { holder=102100111 } # Haerys (nc)
7842.1.1 = { holder=102400111 } # Aenar (nc)
7883.1.1 = { holder=102900111 } # Vaekar (nc)
7920.1.1 = { holder=103400111 } # Aenar (nc)

