5600.1.1={
	liege="e_north"
	law = succ_primogeniture
}
6850.1.1={
	holder=1050105
}
6889.1.1 = {
	holder=1051105
}
6906.1.1 = {
	holder = 0
}
7478.1.1 = { holder=3100105 } # Cellador (nc)
7540.1.1 = { holder=3201105 } # Torghen (nc)
7576.1.1={
	holder=14105
}
7609.1.1={
	holder=13105
}
7637.1.1={
	holder=12105
}
7658.1.1={
	holder=11105
}
7666.1.1={
	holder=10105
}
7690.1.1={
	holder=9105
}
7719.1.1={
	holder=8105
}
7735.1.1={
	holder=7105
}
7780.1.1={
	holder=6105
}
7814.1.1={
	holder=5105
}
7825.1.1={
	holder=4105
}
7847.1.1={
	holder=3105
}
7862.1.5={
	holder=105
}
