1.1.1 = {liege="e_stormlands"}

7594.1.1 = { holder=3000362 } # Armond Musgood (nc)
7634.1.1 = { holder=3001362 } # Alaric Musgood (nc)
7671.1.1 = { holder=3003362 } # Arys Musgood (nc)
7678.1.1 = { holder=3006362 } # Lyana Musgood (nc)
7699.1.1 = { holder=3014362 } # Alaric Musgood (nc)
7731.1.1 = { holder=3017362 } # Awen Musgood (nc)
7744.1.1 = { holder=3018362 } # Alesander Musgood (nc)
7746.1.1 = { holder=3019362 } # Allard Musgood (nc)
7794.1.1 = { holder=3021362 } # Alaric Musgood (nc)
7802.1.1 = { holder=3025362 } # Awen Musgood (nc)
7831.1.1 = { holder=3026362 } # Alesander Musgood (nc)
7833.1.1 = { holder=3032362 } # Arrys Musgood (nc)
7870.1.1 = { holder=3035362 } # Alaric Musgood (nc)
7894.1.1 = { holder=3038362 } # Argilac Musgood (nc)
