4600.1.1={
	law = succ_primogeniture
	liege = k_pentos
}
7564.1.1 = { holder=100174901 } # Morton (nc)
7609.1.1 = { holder=106174901 } # Royce (nc)
7654.1.1 = { holder=107174901 } # Gilwood (nc)
7696.1.1 = { holder=112174901 } # Horton (nc)
7730.1.1 = { holder=115174901 } # Albar (nc)
7740.1.1 = { holder=117174901 } # Harlan (nc)
7765.1.1 = { holder=121174901 } # Randyll (nc)
7795.1.1 = { holder=122174901 } # Wallace (nc)
7816.1.1 = { holder=126174901 } # Gerold (nc)
7837.1.1 = { holder=129174901 } # Ronnel (nc)
7853.1.1 = { holder=130174901 } # Umfred (nc)
7879.1.1 = { holder=133174901 } # Yohn (nc)
