1123.1.1={
	liege="d_elyria"
}
7585.1.1 = { holder=100570110 } # Doniphos (nc)
7626.1.1 = { holder=101570110 } # Aelix (nc)
7630.1.1 = { holder=102570110 } # Alios (nc)
7662.1.1 = { holder=106570110 } # Matarys (nc)
7687.1.1 = { holder=110570110 } # Vaeron (nc)
7709.1.1 = { holder=113570110 } # Aenar (nc)
7731.1.1 = { holder=114570110 } # Daegar (nc)
7757.1.1 = { holder=116570110 } # Qoherys (nc)
7804.1.1 = { holder=120570110 } # Vaekar (nc)
7826.1.1 = { holder=126570110 } # Parquello (nc)
7860.1.1 = { holder=127570110 } # Qavo (nc)
