3600.1.1={
	liege="d_dreadfort"
	law = succ_primogeniture
}

4964.1.1 = { holder=1050087 } # Royce 
4997.1.1 = { holder=1051087 } # Royce II
5025.1.1 = { holder=0 } 
5278.1.1 = { holder=1053087 } # Royce III
5326.1.1 = { holder=1054087} # Royce IV
5357.1.1 = { holder=0 } 

6056.1.1={
	holder = 1055087  #  Rogar the Huntsman
}
6086.1.1 = { holder = 0 }

6173.1.1 = { holder = 1057087 } #Belthesar (C)
6217.1.1 = { holder = 0 }

7501.1.1 = { holder=60087 } # Ralton (nc)
7526.1.1 = { holder=60187 } # Rodrick (nc)
7538.1.1 = { holder=60287 } # Roose (nc)
7560.1.1 = { holder=60387 } # Beren (nc)
7562.1.1 = { holder=60487 } # Donnis (nc)
7569.1.1 = { holder=60587 } # Durin (nc)

7578.1.1={
	holder = 13087
}
7608.1.1={
	holder = 12087
}
7646.1.1={
	holder = 11087
}
7669.1.1={
	holder = 10087
}
7695.1.1={
	holder = 9087
}
7739.1.1={
	holder = 8087
}
7754.1.1={
	holder = 7087
}
7770.1.1={
	holder = 6087
}
7801.1.1={
	holder = 5087
}
7845.1.1={
	holder = 4087
}
7861.1.1={
	holder = 87
}

