#c_feastfires
#NOTE: The holder of this title has the House Prester dynasty tracker set in roberts_rebellion_events
1.1.1={
	liege="e_westerlands"
}
7590.1.1 = {	
	holder=312196
}
7649.1.1 = {	
	holder=311196
}
7656.1.1 = {	
	holder=310196
}
7687.1.1 = {	
	holder=309196
}
7709.1.1 = {	
	holder=308196
}
7729.4.9 = {	
	holder=307196
}
7776.1.1 = {	
	holder=306196
}
7794.1.1 = {	
	holder=305196
}
7810.1.1 = {	
	holder=304196
}
7837.1.1 = {	
	holder=303196
}

7867.1.1 = {	
	holder=300196
}

