200.1.1={
	liege="d_nefer"
}
7595.1.1 = { holder=10069206 } # Qawurd (nc)
7621.1.1 = { holder=10469206 } # Mahdi (nc)
7654.1.1 = { holder=10569206 } # Nasr (nc)
7679.1.1 = { holder=11069206 } # Is'mail (nc)
7703.1.1 = { holder=11169206 } # Nizam (nc)
7726.1.1 = { holder=11369206 } # Bakr (nc)
7752.1.1 = { holder=11669206 } # Ghalib (nc)
7793.1.1 = { holder=12069206 } # Aram (nc)
7797.1.1 = { holder=12169206 } # Aram (nc)
7835.1.1 = { holder=12469206 } # Yusuf (nc)
7859.1.1 = { holder=12769206 } # Nasr (nc)
7894.1.1 = { holder=12969206 } # Qawurd (nc)



