5078.1.1 = {
	liege = d_hazdahn
}
7595.1.1 = { holder=100069200 } # Maezon (nc)
7646.1.1 = { holder=100169200 } # Barkhaz (nc)
7659.1.1 = { holder=100569200 } # Mazdhan (nc)
7675.1.1 = { holder=100769200 } # Gorzhak (nc)
7723.1.1 = { holder=100869200 } # Barkhaz (nc)
7727.1.1 = { holder=101069200 } # Zaraq (nc)
7739.1.1 = { holder=101269200 } # Maezon (nc)
7795.1.1 = { holder=101369200 } # Yarkhaz (nc)
7819.1.1 = { holder=101569200 } # Reznak (nc)
7847.1.1 = { holder=101969200 } # Grazdhar (nc)
7899.1.1 = { holder=102369200 } # Zaraq (nc)


