#House Luxho
7572.1.1 = { 
	holder=100304007
	liege=d_the_three_exiles
	law = succ_seniority
	law = cognatic_succession
} 
7612.1.1 = { holder=102304007 } 
7632.1.1 = { holder=106304007 } 
7649.1.1 = { holder=108304007 } 
7721.1.1 = { holder=113304007 } 
7765.1.1 = { holder=119304007 } 
7772.1.1 = { holder=121304007 } 
7824.1.1 = { holder=124304007 } 
7835.1.1 = { holder=128304007 } 
7851.1.1 = { holder=129304007 } 
7854.1.1 = { holder=131304007 } 
7891.1.1 = { holder=138304007 } 

