5800.1.1={
	liege="e_dorne"
	law = succ_primogeniture
	law = true_cognatic_succession
}
7596.1.1 = { holder=60009 } # Timeon (nc)
7628.1.1 = { holder=60019 } # Archibald (nc)
7659.1.1 = { holder=60049 } # Dagos (nc)
7691.1.1 = { holder=60099 } # Obara (nc)
7714.1.1 = { holder=60119 } # Orrell (nc)
7743.1.1 = { holder=60129 } # Geleria (nc)
7771.1.1 = { holder=60139 } # Damarya (nc)

7812.1.1 = { holder=60149 } # Castos (nc)
7820.1.1 = { holder=60179 } # Daeron (nc)

