#c_goldshire
500.1.1={
	liege="d_castamere"
}
7594.1.1 = { holder=300214 } # Florian (nc)
7600.6.6 = { holder=301214 } # Shirei (nc)
7611.1.1 = { holder=302214 } # Rosamund (nc)
7641.1.1 = { holder=303214 } # Florian (nc)
7659.1.1 = { holder=307214 } # Damon (nc)
7698.1.1 = { holder=311214 } # Ossifer (nc)
7702.1.1 = { holder=315214 } # Garth (nc)
7746.1.1 = { holder=316214 } # Kevan (nc)
7780.1.1 = { holder=318214 } # Reginald (nc)
7796.1.1 = { holder=322214 } # Garford (nc)
7797.1.1 = { holder=323214 } # Damion (nc)
7808.1.1 = { holder=324214 } # Dunsen (nc)
7841.1.1 = { holder=326214 } # Leo (nc)
7877.1.1 = {holder=214}
