7583.1.1 = { holder=10559354 } # Gerrick (nc)
7619.1.1 = { holder=11559354 } # Bump (nc)
7635.1.1 = { holder=13559354 } # Beron (nc)
7666.1.1 = { holder=17559354 } # Gerrick (nc)
7701.1.1 = { holder=18559354 } # Dan (nc)
7720.1.1 = { holder=19559354 } # Stiv (nc)
7741.1.1 = { holder=20559354 } # Torghen (nc)
7774.1.1 = { holder=21559354 } # Harlon (nc)
7777.1.1 = { holder=25559354 } # Qhorin (nc)
7807.1.1 = { holder=27559354 } # Alfyn (nc)
7813.1.1={
	liege="k_beyond_wall"
}
7826.9.9={
	liege="0"
}
7831.1.1 = { holder=29559354 } # Halys (nc)
7867.1.1 = { holder=30559354 } # Dorren (nc)
7878.1.1 = { holder=32559354 } # Raymun (nc)
7898.1.1={
	liege="k_beyond_wall"
}
7900.1.1={
	holder=999000666
}
