5600.1.1={
	liege="d_theneck"
	law = succ_primogeniture
}
7587.1.1={
	holder = 13074
}
7625.1.1={
	holder = 12074
}
7631.1.1={
	holder = 11074
}
7663.1.1={
	holder = 14074
}
7710.1.1={
	holder = 8074
}
7745.1.1={
	holder = 7074
}
7762.1.1={
	holder = 6074
}
7804.1.1={
	holder = 4074
}
7829.1.1={
	holder = 3074
}
7862.1.1={
	holder = 74
}
