7200.1.1={
	liege="d_hayford"
	law = succ_primogeniture
}
7584.1.1 = { holder=6000032 } # Balman (nc)

7623.1.1 = { holder=6000132 } # Danos (nc)
7656.1.1 = { holder=6000532 } # Allard (nc)
7714.1.1 = { holder=6000632 } # Lucos (nc)
7730.1.1 = { holder=6000832 } # Danos (nc)
7757.1.1 = { holder=6000932 } # Davos (nc)
7764.1.1 = { holder=6001032 } # Clayton (C)
7796.6.1 = { holder=6001432 } # Monford (nc)
7811.1.1 = { holder=6001732 } # Perkin (nc)
7832.1.1 = { holder=6001932 } # Triston (nc)
7833.1.1 = { holder=6002032 } # Duram (nc)
7869.1.1 = { holder=6002432 } # Perkin (nc)


