1.1.1 = {liege="d_wendwater"}

7594.1.1 = { holder=300312 } # Barristan (nc)
7607.1.1 = { holder=303312 } # Balon (nc)
7616.1.1 = { holder=304312 } # Bonifer (nc)
7643.1.1 = { holder=305312 } # Brynden (nc)
7673.1.1 = { holder=306312 } # Barristan (nc)
7682.1.1 = { holder=307312 } # Benfrey (nc)
7730.1.1 = { holder=308312 } # Bowen (nc)
7760.1.1 = { holder=309312 } # Brynden (nc)
7786.1.1 = { holder=310312 } # Balon (nc)
7788.1.1 = { holder=311312 } # Brynden (nc)
7810.1.1 = { holder=312312 } # Belwyn (nc)
7840.1.1 = { holder=313312 } # Barristan (nc)
7883.1.1 = { holder=314312 } # Byron (nc)
