200.1.1={
	liege="d_hesh"
	law = succ_ultimogeniture
}
7573.1.1 = { holder=10055923 } # Pono (nc)
7610.1.1 = { holder=10355923 } # Motho (nc)
7657.1.1 = { holder=10555923 } # Jhogo (nc)
7664.1.1 = { holder=10955923 } # Malakho (nc)
7676.1.1 = { holder=10755923 } # Pono (nc)
7682.1.1 = { holder=11555923 } # Jommo (nc)
7724.1.1 = { holder=12355923 } # Drogo (nc)
7760.1.1 = { holder=12555923 } # Moro (nc)
7773.1.1 = { holder=12855923 } # Zekko (nc)
7820.1.1 = { holder=12955923 } # Jommo (nc)
7832.1.1 = { holder=13255923 } # Qotho (nc)
7870.1.1 = { holder=13555923 } # Mago (nc)

