1.1.1={ law=succ_primogeniture law=cognatic_succession
	liege="d_oldtown"
}

1.1.1 = { holder=6000282 } # Ellyn Ever-sweet

1.1.1 = { holder=0 } 

7430.1.1 = { holder=6200282 } # Mason (nc)
7478.1.1 = { holder=6300282 } # Cavan (nc)
7482.1.1 = { holder=6500282 } # Oryon (nc)
7518.1.1 = { holder=6700282 } # Jaime (nc)
7539.1.1 = { holder=6110282 } # Mern (nc)
7571.1.1 = { holder=3000282 } # Dontos (nc)
7623.1.1 = { holder=3002282 } # Normund (nc)
7634.1.1 = { holder=3004282 } # Osbert (nc)
7674.1.1 = { holder=3005282 } # Horas (nc)
7676.1.1 = { holder=3008282 } # Lyman (C)
7729.3.4 = { holder=3011282 } # Alan (C)
7730.1.4 = { holder=3017282 } # Joslon (C)
7780.1.1 = { holder=3021282 } # Arros (C)
7818.1.1 = { holder=3027282 } # Igon (nc)
7858.1.1={
	holder=282
}
7896.1.1={
	holder=1282
}



