#NOTE: The holder of this title has the House Tarly dynasty tracker set in roberts_rebellion_events
1.1.1={ law=succ_primogeniture law=cognatic_succession
	liege="d_west_marches"
}

1.1.1 = { holder=6100296 } # Herndon of the Horn
1.1.1 = { holder=0 }

7430.1.1 = { holder=6300296 } # Holter (nc)
7468.1.1 = { holder=6400296 } # Kacela (nc)
7499.1.1 = { holder=6500296 } # Chayse (nc)
7525.1.1 = { holder=6600296 } # Samwell (nc)
7544.1.1 = { holder=6800296 } # Acton (nc)
7579.1.1 = { holder=60100296 } #
7580.5.8={
	holder=32296
}
7598.6.6={
	holder=31296
}
7664.1.1={
	holder=30296
}
7695.1.1={
	holder=29296
}
7711.12.12={
	holder=27296
}
7729.6.6={
	holder=26296
}
7738.1.1={
	holder=25296
}
7759.10.10={
	holder=24296
}
7797.1.1={
	holder=23296
}
7821.1.1={
	holder=22296
}
7833.1.1={
	holder=21296
}
7860.1.1={
	holder=20296
}
7878.1.1={
	holder=296
}



