500.1.1={ law=succ_primogeniture law=cognatic_succession
	liege="d_west_marches"
}
7559.1.1 = { holder=3000263 } # Steffon (nc)
7574.1.1 = { holder=3002263 } # Alekyne (nc)

7629.1.1 = { holder=3003263 } # Normund (nc)
7635.1.1 = { holder=3005263 } # Bayard (nc)
7694.1.1 = { holder=3009263 } # Esme (nc)
7708.1.1 = { holder=3015263 } # Omer (nc)
7745.1.1 = { holder=3017263 } # Talbert (nc)
7746.1.1 = { holder=3022263 } # Mathis (nc)
7799.1.1 = { holder=3024263 } # Hobber (nc)
7826.1.1 = { holder=3026263 } # Morm (nc)
7831.1.1={
	holder=263 #Owen
}
7883.1.1={
	holder=249 # Leyton Inchfield
}





