1123.1.1={
	liege = d_jaedos
}

7595.1.1 = { holder=10000351 } # Maegon (nc)
7635.1.1 = { holder=10030351 } # Otherys (nc)
7667.1.1 = { holder=10040351 } # Baelon (nc)
7680.1.1 = { holder=10060351 } # Aelix (nc)
7698.1.1 = { holder=10070351 } # Maegor (nc)
7740.1.1 = { holder=10110351 } # Maerys (nc)
7748.1.1 = { holder=10140351 } # Jaehaerys (nc)
7772.1.1 = { holder=10190351 } # Maelys (nc)
7791.1.1 = { holder=10250351 } # Maerys (nc)
7836.1.1 = { holder=10260351 } # Vaeron (nc)
7866.1.1 = { holder=10270351 } # Maelys (nc)
7875.1.1 = { holder=10340351 } # Daeron (nc)
7930.1.1 = { holder=10360351 } # Rhae (nc)

