200.1.1={
	liege="d_kayakayanaya"
	law = succ_seniority
	law = agnatic_succession
}
7586.1.1 = { holder=10055945 } # Mykoon (nc)
7623.1.1 = { holder=10355945 } # Esko (nc)
7636.1.1 = { holder=10755945 } # Voitto (nc)
7682.1.1 = { holder=11155945 } # Myikku (nc)
7703.1.1 = { holder=11355945 } # Voitto (nc)
7706.1.1 = { holder=11655945 } # Veikko (nc)
7741.1.1 = { holder=11955945 } # Ryku (nc)
7749.1.1 = { holder=12055945 } # Sakari (nc)
7789.1.1 = { holder=12455945 } # Valto (nc)
7837.1.1 = { holder=12755945 } # Nyilo (nc)
7855.1.1 = { holder=13255945 } # Hyrno (nc)
7867.1.1 = { holder=13555945 } # Uljas (nc)
7881.1.1 = { holder=13755945 } # Hannu (nc)


