5078.1.1 = {
	liege = d_hazdahn
}
7595.1.1 = { holder=100069201 } # Fendahl (nc)
7652.1.1 = { holder=100269201 } # Zaraq (nc)
7656.1.1 = { holder=100869201 } # Barghaz (nc)
7697.1.1 = { holder=101069201 } # Paezhar (nc)
7712.1.1 = { holder=101269201 } # Mazdhan (nc)
7718.1.1 = { holder=101669201 } # Azzak (nc)
7743.1.1 = { holder=101769201 } # Reznak (nc)
7766.1.1 = { holder=101869201 } # Harghaz (nc)
7818.1.1 = { holder=102369201 } # Skahaz (nc)
7832.1.1 = { holder=102569201 } # Grazdan (nc)
7853.1.1 = { holder=102869201 } # Haznak (nc)
7870.1.1 = { holder=103069201 } # Grazdhan (nc)

