1123.1.1={
	liege="k_tyrosh"
}
7570.1.1 = { holder=150300024 } # Myrmello (nc)
7628.1.1 = { holder=100300024 } # Illyrio (nc)
7653.1.1 = { holder=102300024 } # Tycho (nc)
7665.1.1 = { holder=105300024 } # Collio (nc)
7711.1.1 = { holder=109300024 } # Ordello (nc)
7746.1.1 = { holder=113300024 } # Cossoma (nc)
7785.1.1 = { holder=122300024 } # Oro (nc)
7803.1.1 = { holder=123300024 } # Moreo (nc)
7825.1.1 = { holder=128300024 } # Tycho (nc)
7859.1.1={
	holder=600000059 # Alequo Adarys
	liege="d_tyrosh"
}
7859.12.31 = { holder=128300024 liege="k_tyrosh" } # Tycho (nc)
7870.1.1 = { holder=130300024 } # Gyloro (nc)
7878.1.1 = { holder=131300024 } # Syrio (nc)
