200.1.1={
	liege="k_leng"
}
7596.1.1 = { holder=10055960 } # Najib (nc)
7631.1.1 = { holder=10255960 } # Husam (nc)
7655.1.1 = { holder=10555960 } # Azam (nc)
7670.1.1 = { holder=10855960 } # Samir (nc)
7691.1.1 = { holder=11155960 } # Mansur (nc)
7725.1.1 = { holder=11355960 } # Muslihiddin (nc)
7731.1.1 = { holder=11855960 } # Isa (nc)
7742.1.1 = { holder=12055960 } # Hussayn (nc)
7782.1.1 = { holder=12255960 } # Muzaffaraddin (nc)
7835.1.1 = { holder=12755960 } # Mirza (nc)
7838.1.1 = { holder=12955960 } # Ali_Ali (nc)
7862.1.1 = { holder=13655960 } # Idris (nc)
7877.1.1 = { holder=13355960 } # Youkhanna (nc)
7886.1.1 = { holder=13755960 } # Burhanaddin (nc)
7913.1.1 = { holder=13955960 } # Akin (nc)


