200.1.1={
	liege="d_linqi"
}
7595.1.1 = { holder=10069192 } # Sami (nc)
7634.1.1 = { holder=10169192 } # Uways (nc)
7651.1.1 = { holder=10569192 } # Samir (nc)
7654.1.1 = { holder=10869192 } # Jalil (nc)
7728.1.1 = { holder=10969192 } # Youkhanna (nc)
7742.1.1 = { holder=11169192 } # Qadir (nc)
7758.1.1 = { holder=11369192 } # Aarif (nc)
7776.1.1 = { holder=11769192 } # Isa (nc)
7807.1.1 = { holder=12069192 } # Ramadan (nc)
7828.1.1 = { holder=12469192 } # Azam (nc)
7835.1.1 = { holder=12769192 } # Sami (nc)
7892.1.1 = { holder=13069192 } # Murad (nc)


