500.1.1={
	liege="d_pyke"
	law=succ_primogeniture law=cognatic_succession
}
7593.1.1 = { holder=300064 } # Yohn (nc)
7630.1.1 = { holder=300264 } # Harren (nc)
7665.1.1 = { holder=300664 } # Ambrode (nc)
7673.1.1 = { holder=300764 } # Sigfry (nc)
7696.1.1 = { holder=300964 } # Adrack (nc)
7732.1.1 = { holder=301364 } # Urrigon (nc)
7745.1.1 = { holder=301664 } # Germund (nc)
7783.1.1 = { holder=301864 } # Urek (nc)
7795.1.1 = { holder=302364 } # Alyn (nc)
7805.1.1 = { holder=302664 } # Cadwyl (nc)
7856.1.1 = { holder=9064 }
7881.1.1 = {	
	holder=64
}
7899.12.1={
	holder=7064 #germund
}
