5600.1.1={
	liege="d_harrenhal"
}
7594.1.1={
	holder=25135
}
7636.1.1={
	holder=24135
}
7648.1.1={
	holder=23135
}
7660.1.1={
	holder=22135
}
7706.1.1={
	holder=21135
}
7743.1.1={
	holder=19135
}
7792.1.1={
	holder=16135
}
7827.1.1={
	holder=15135
}
7837.1.1={
	holder=14135
}
7853.1.1={
	holder=13135
}
7878.1.1={
	holder=135
}

