5800.1.1={
	liege="d_the_sisters"
	law = succ_primogeniture
}
7595.1.1 = { holder=3000164 } # Raymar (nc)
7638.1.1 = { holder=3005164 } # Denys (nc)
7641.1.1 = { holder=3007164 } # Artys (nc)
7671.1.1 = { holder=3010164 } # Waymar (nc)
7690.1.1 = { holder=3012164 } # Denys (nc)
7721.1.1 = { holder=3013164 } # Pate (nc)
7758.1.1 = { holder=3014164 } # Osgood (nc)
7814.1.1 = { holder=3015164 } # Humfrey (nc)
7822.1.1 = { holder=3017164 } # Rolland (nc)
7828.1.1 = { holder=3021164 } # Gilwood (nc)
7867.1.1 = { holder=3024164 } # Horton (nc)
7880.1.1={
	holder=94034
}
