1123.1.1={
	liege="k_myr"
}

7595.1.1 = { holder=100300706 } # Noho (nc)
7632.1.1 = { holder=104300706 } # Izembaro (nc)
7659.1.1 = { holder=106300706 } # Ternesio (nc)
7665.1.1 = { holder=107300706 } # Beqqo (nc)
7701.1.1 = { holder=110300706 } # Byan (nc)
7709.1.1 = { holder=111300706 } # Luco (nc)
7738.1.1 = { holder=114300706 } # Ferrego (nc)
7746.1.1 = { holder=118300706 } # Collio (nc)
7770.1.1 = { holder=122300706 } # Moredo (nc)
7831.1.1 = { holder=125300706 } # Narbo (nc)
7836.1.1 = { holder=126300706 } # Oro (nc)
7848.1.1 = { holder=127300706 } # Narbo (nc)
