200.1.1={
	liege="d_lys"
}
7587.1.1 = { holder=150300546 } # Vaelar (nc)
7636.1.1 = { holder=100300523 } # Beqqo (nc)
7680.1.1 = { holder=102300523 } # Allaquo (nc)
7686.1.1 = { holder=107300540 } # Syrio (nc)
7698.1.1 = { holder=106300539 } # Oro (nc)
7715.1.1 = { holder=106300546 } # Cossoma (nc)
7729.1.1 = { holder=106300523 } # Sharako (canon)
7730.1.1 = { holder=108300539 } # Lysandro Rogare(C)
7740.1.1 = { holder=110300539 } # Lysaro Rogare(C)
7745.1.1 = { holder=111300523 } # Tregar (nc)
7760.1.1 = { holder=114300539 } # Orbelo (nc)
7809.1.1 = { holder=10231386 } # Collio (nc)
7821.1.1 = { holder=10271386 } # Roro (nc)
7834.1.1 = { holder=118300546 } # Izembaro (nc)
7849.1.1 = { holder=124300540 } # Brusco (nc)
7854.1.1 = { holder=121300523 } # Gyleno (nc)

7877.1.1={
	holder=88108 #Tregar Ormollen
}
