1123.1.1={
	liege="d_mantarys"
}
7554.1.1 = { holder=100570136 } # Vaekar (nc)
7612.1.1 = { holder=102570136 } # Malaquo (nc)
7638.1.1 = { holder=103570136 } # Belicho (nc)
7640.1.1 = { holder=108570136 } # Vaermon (nc)
7659.1.1 = { holder=110570136 } # Parquello (nc)
7690.1.1 = { holder=115570136 } # Alios (nc)
7696.1.1 = { holder=117570136 } # Orys (nc)
7720.1.1 = { holder=118570136 } # Colloquo (nc)
7758.1.1 = { holder=119570136 } # Moqorro (nc)
7762.1.1 = { holder=121570136 } # Aenar (nc)
7790.1.1 = { holder=122570136 } # Qavo (nc)
7814.1.1 = { holder=128570136 } # Alios (nc)
7856.1.1 = { holder=130570136 } # Qoherys (nc)
7878.1.1 = { holder=136570136 } # Methyso (nc)
7885.1.1 = { holder=140570136 } # Doniphos (nc)
