1123.1.1={
	liege="k_qohor"
}

7595.1.1 = { holder=100069129 } # Ezzelyno (nc)
7624.1.1 = { holder=100169129 } # Meralyn (nc)
7651.1.1 = { holder=100269129 } # Jaqen (nc)
7660.1.1 = { holder=100769129 } # Ternesio (nc)
7696.1.1 = { holder=100869129 } # Tobho (nc)
7726.1.1 = { holder=101169129 } # Beqqo (nc)
7729.1.1 = { holder=101269129 } # Noho (nc)
7764.1.1 = { holder=101569129 } # Vargo (nc)
7788.1.1 = { holder=101969129 } # Yorko (nc)
7813.1.1 = { holder=102269129 } # Tormo (nc)
7852.1.1 = { holder=102669129 } # Narbo (nc)
7861.1.1 = { holder=102869129 } # Lotho (nc)
7878.1.1 = { holder=103069129 } # Pynto (nc)
7898.1.1 = { holder=103469129 } # Allaquo (nc)
