1123.1.1={
	liege="d_meereen"
}
7595.1.1 = { holder=150360003 } # Hizdhar (nc)
7616.1.1 = { holder=100360003 } # Hizdhar (nc)
7647.1.1 = { holder=102360003 } # Hizdhar (nc)
7690.1.1 = { holder=105360003 } # Grazdan (nc)
7706.1.1 = { holder=111360003 } # Hizdhar (nc)
7724.1.1 = { holder=114360003 } # Hizdhar (nc)
7760.1.1 = { holder=118360003 } # Kraznys (nc)
7779.1.1 = { holder=120360003 } # Hizdhar (nc)
7812.1.1 = { holder=122360003 } # Hizdhario (nc)
7838.1.1 = { holder=124360003 } # Moredo (nc)
7850.1.1 = { holder=129360003 } # Barkhaz (nc)
7886.1.1={
	holder=16571013 # Hizdhar
}
