1.1.1 = {liege="d_cape_wrath"}

7580.1.1 = { holder=300327 } # Endrew Mertyns (nc)
7604.1.1 = { holder=301327 } # Galladon Mertyns (nc)
7657.1.1 = { holder=302327 } # Barristan Mertyns (nc)
7674.1.1 = { holder=303327 } # Jon Mertyns (nc)
7691.1.1 = { holder=304327 } # Balon Mertyns (nc)
7700.1.1 = { holder=305327 } # Arstan Mertyns (nc)
7729.1.1 = { holder=306327 } # Andrew Mertyns (nc)
7776.1.1 = { holder=307327 } # Endrew Mertyns (nc)
7819.1.1 = { holder=309327 } # Brus Mertyns (nc)
7866.1.1 = { holder=310327 } # Renly Mertyns (nc)
7883.1.1 = { holder=311327 } # Herbert Mertyns (nc)
