5600.1.1={
	liege="d_thecrossing"
}
7594.1.1={
	holder= 16125
}
7624.1.1={
	holder= 15125
}
7662.1.1={
	holder= 13125
}
7700.1.1={
	holder= 12125
}
7725.1.1={
	holder= 11125
}
7730.1.1={
	holder= 17125
}
7745.1.1={
	holder= 9125
}
7786.1.1={
	holder= 8125
}
7810.1.1={
	holder= 7125
}
7822.1.1={
	holder= 6125
}
7840.1.1={
	holder= 5125
}
7849.1.1={
	holder= 4125
}
7874.1.1={
	holder= 125
}
