#House Monye
7590.1.1 = { 
	holder=100304026 
	liege=d_moluu
	law = succ_seniority
	law = cognatic_succession
} # Nyadundo (nc)
7622.1.1 = { holder=103304026 } # Doshuru (nc)
7644.1.1 = { holder=106304026 } # Mermesbhar (nc)
7677.1.1 = { holder=111304026 } # Xhakan (nc)
7699.1.1 = { holder=116304026 } # Xhelimo (nc)
7719.1.1 = { holder=118304026 } # Jaramogo (nc)
7742.1.1 = { holder=119304026 } # Orengo (nc)
7766.1.1 = { holder=122304026 } # Tapuhuru (nc)
7825.1.1 = { holder=125304026 } # Xhelimo (nc)
7835.1.1 = { holder=130304026 } # Mermesbhar (nc)
7845.1.1 = { holder=131304026 } # Xhelimo (nc)
7871.1.1 = { holder=133304026 } # Jalabhar (nc)
7889.1.1 = { holder=137304026 } # Jarado (nc)
