6600.1.1 = {
	liege = k_norvos
}

7595.1.1 = { holder=10069116 } # Moreo (nc)
7627.1.1 = { holder=10269116 } # Myrmello (nc)
7639.1.1 = { holder=10469116 } # Moredo (nc)
7653.1.1 = { holder=10569116 } # Joss (nc)
7662.1.1 = { holder=11169116 } # Terro (nc)
7684.1.1 = { holder=11369116 } # Myrmello (nc)
7708.1.1 = { holder=11469116 } # Beqqo (nc)
7736.1.1 = { holder=11969116 } # Daario (nc)
7746.1.1 = { holder=12069116 } # Cossoma (nc)
7784.1.1 = { holder=12169116 } # Narba (nc)
7825.1.1 = { holder=12269116 } # Gyleno (nc)
7860.1.1 = { holder=12569116 } # Izembara (nc)
7879.1.1 = { holder=12869116 } # Beqqo (nc)
7894.1.1 = { holder=12969116 } # Moredea (nc)
