1123.1.1={
	liege = d_oros
}

7595.1.1 = { holder=10000343 } # Qoherys (nc)
7622.1.1 = { holder=10010343 } # Aerys (nc)
7656.1.1 = { holder=10030343 } # Daeron (nc)
7688.1.1 = { holder=10040343 } # Maerys (nc)
7705.1.1 = { holder=10090343 } # Aenar (nc)
7750.1.1 = { holder=10160343 } # Aegor (nc)
7767.1.1 = { holder=10170343 } # Matarys (nc)
7784.1.1 = { holder=10200343 } # Orys (nc)
7822.1.1 = { holder=10240343 } # Rhaegel (nc)
7838.1.1 = { holder=10250343 } # Daeron (nc)
7904.1.1 = { holder=10290343 } # Aerion (nc)

