#c_payne_hall
500.1.1={
	liege="d_goldroad"
}
7557.1.1 = { holder=300208 } # Ilyn (nc)
7600.6.6 = { holder=301208 } # Gerold (nc)
7608.1.1 = { holder=304208 } # Steffon (nc)
7637.1.1 = { holder=308208 } # Regenard (nc)
7665.1.1 = { holder=309208 } # Quenten (nc)
7684.1.1 = { holder=314208 } # Roland (nc)
7721.1.1 = { holder=318208 } # Philip (nc)
7746.1.1 = { holder=319208 } # Tya (nc)
7762.1.1 = { holder=324208 } # Tyrek (nc)
7789.1.1 = { holder=327208 } # Lorent (nc)
7800.1.1 = { holder=328208 } # Rolder (nc)	
7825.1.1 = { holder=5208 } # Pollen (nc)
7859.2.8 = { holder=208 } # Taubert (nc)
