1123.1.1={
	liege="d_qarkash"
}
 7591.1.1 = { holder=150350004 } # Xarvo (nc)
 7617.1.1 = { holder=100350004 } # Sallor (nc)
 7636.1.1 = { holder=102350004 } # Orbelo (nc)
 7682.1.1 = { holder=103350004 } # Bolquello (nc)
 7733.1.1 = { holder=107350004 } # Vogarro (nc)
 7761.1.1 = { holder=108350004 } # Orbelo (nc)
 7784.1.1 = { holder=114350004 } # Yorko (nc)
 7801.1.1 = { holder=117350004 } # Colloquo (nc)
 7821.1.1 = { holder=119350004 } # Qavo (nc)
 7868.1.1 = { holder=122350004 } # Lotho (nc)
 7880.1.1 = { holder=125350004 } # Qarro (nc)
