1612.1.1={
	liege="d_qarkash"
}
7558.1.1 = { holder=10035013 } # Mathos (nc)
7603.1.1 = { holder=10135013 } # Methyso (nc)
7630.1.1 = { holder=10335013 } # Navathos (nc)
7640.1.1 = { holder=10635013 } # Wullon (nc)
7658.1.1 = { holder=11235013 } # Surindos (nc)
7676.1.1 = { holder=11735013 } # Gathril (nc)
7705.1.1 = { holder=11835013 } # Sallor (nc)
7714.1.1 = { holder=12135013 } # Gorys (nc)
7723.1.1 = { holder=12235013 } # Belicho (nc)
7751.1.1 = { holder=12535013 } # Regon (nc)
7789.1.1 = { holder=12735013 } # Belicho (nc)
7808.1.1 = { holder=13135013 } # Surindos (nc)
7847.1.1 = { holder=13235013 } # Sybassion (nc)
7866.1.1 = { holder=13435013 } # Gathril (nc)
7889.1.1 = { holder=14435013 } # Regon (nc)
