1123.1.1={
	liege="k_qohor"
}

7595.1.1 = { holder=100069130 } # Daario (nc)
7637.1.1 = { holder=100169130 } # Allaquo (nc)
7648.1.1 = { holder=100469130 } # Vargo (nc)
7674.1.1 = { holder=100769130 } # Gyloro (nc)
7707.1.1 = { holder=100969130 } # Moreo (nc)
7708.1.1 = { holder=101069130 } # Ternesio (nc)
7769.1.1 = { holder=101469130 } # Roggo (nc)
7773.1.1 = { holder=101669130 } # Cossomo (nc)
7799.1.1 = { holder=101769130 } # Allaquo (nc)
7813.1.1 = { holder=102069130 } # Moredo (nc)
7826.1.1 = { holder=102169130 } # Ollo (nc)
7882.1.1 = { holder=102469130 } # Tagganaro (nc)
