1523.1.1={
	liege = d_drakaria
}

7564.1.1 = { holder=10006021 } # Orys (nc)
7621.1.1 = { holder=10026021 } # Matarys (nc)
7630.1.1 = { holder=10056021 } # Haegon (nc)
7699.1.1 = { holder=10096021 } # Aemon (nc)
7713.1.1 = { holder=10136021 } # Orys (nc)
7715.1.1 = { holder=10166021 } # Aemond (nc)
7756.1.1 = { holder=10196021 } # Vaekar (nc)
7783.1.1 = { holder=10206021 } # Maerys (nc)
7824.1.1 = { holder=10246021 } # Baelor (nc)
7839.1.1 = { holder=10276021 } # Haerys (nc)
7867.1.1 = { holder=10336021 } # Rhaegar (nc)
7887.1.1 = { holder=10346021 } # Aegon (nc)
7911.1.1 = { holder=10386021 } # Maekar (nc)
7934.1.1 = { holder=10436021 } # Aegon (nc)


