1023.1.1={
	liege = d_perzyria
}

7495.1.1 = { holder=10006007 } # Aenar (nc)
7516.1.1 = { holder=10016007 } # Rhaekar (nc)
7530.1.1 = { holder=10046007 } # Otherys (nc)
7575.1.1 = { holder=10076007 } # Rhaegel (nc)
7587.1.1 = { holder=10116007 } # Haerys (nc)
7652.1.1 = { holder=10136007 } # Otherys (nc)
7666.1.1 = { holder=10146007 } # Rhaekar (nc)
7679.1.1 = { holder=10156007 } # Gaemon (nc)
7726.1.1 = { holder=10186007 } # Maelys (nc)
7739.1.1 = { holder=10236007 } # Maegor (nc)
7754.1.1 = { holder=10286007 } # Daeron (nc)
7794.1.1 = { holder=10316007 } # Gaemon (nc)
7795.1.1 = { holder=10346007 } # Aelix (nc)
7845.1.1 = { holder=10366007 } # Daeron (nc)

