1.1.1 = {liege="e_stormlands"}

7560.1.1 = { holder=300329 } # Allard Wylde (nc)
7577.1.1 = { holder=301329 } # Quentyn Wylde (nc)
7620.1.1 = { holder=305329 } # Rhea Wylde (nc)
7665.1.1 = { holder=306329 } # Barra Wylde (nc)
7684.1.1 = { holder=309329 } # Bonifer Wylde (nc)
7722.1.1 = { holder=311329 } # Jasper Wylde
7730.1.26 = { holder=316329 } # Beric Wylde (nc)
7744.1.1 = { holder=318329 } # Argilac Wylde (nc)
7787.1.1 = { holder=320329 } # Casper Wylde (nc)
7804.1.1 = { holder=325329 } # Byron Wylde (nc)
7821.1.1 = { holder=109329 } # Beric Wylde (nc)
7852.1.1 = {holder=108329}	# Rickard Wylde (nc)
7880.1.1 = {holder=329} # Casper Wylde (C)

