1.1.1={ law=succ_primogeniture law=cognatic_succession
	liege="d_northmarch"
}

1.1.1 = { holder=6100234 } # Rose of Red Lake

1.1.1 = { holder=0 }

7450.1.1 = { holder=6300234 } # Starla (nc)
7470.1.1 = { holder=6400234 } # Heron (nc)
7496.1.1 = { holder=6700234 } # Lonan (nc)
7551.1.1 = { holder=6800234 } # Robert (nc)
7559.1.1 = { holder=6000234 } # Merlon (nc)
7614.1.1 = { holder=6003234 } # Quentyn (nc)
7642.1.1 = { holder=6005234 } # Hosman (nc)
7684.1.1 = { holder=6010234 } # Mern (nc)
7724.1.1 = { holder=6013234 } # Gormon (nc)
7738.1.1 = { holder=6017234 } # Ben (nc)
7780.1.1 = { holder=6021234 } # Kyle (nc)
7811.1.1 = { holder=6022234 } # Olyvar (nc)



