
6840.1.1={
	liege="d_brimstone"
	law = true_cognatic_succession
}

7588.1.1 = { holder=60015 } # Allar (nc)
7606.1.1 = { holder=60115 } # Lythene (nc)
7645.1.1 = { holder=60315 } # Leyla (nc)
7659.1.1 = { holder=60415 } # Bedwyck (nc)
7663.1.1 = { holder=60615 } # Arron (nc)
7666.1.1 = { holder=60915 } # Quentyn (nc)
7710.1.1 = { holder=61115 } # Elyana (nc)
7747.1.1 = { holder=61515 } # Perros (nc)
7757.1.1 = { holder=61815 } # Deziel (nc)
7759.1.1 = { holder=61915 } # Obara (nc)
7766.1.1 = { holder=62215 } # Cedra (nc)
7790.1.1 = { holder=62315 } # Arthur (nc)
7809.1.1 = { holder=62515 } # Harmen (nc)
7836.1.1 = { holder=62815 } # Allar (nc)
7859.2.8 = { holder=5015 } # Qymors (nc)
7859.2.9 = { holder=15 } # Quentyn (C)
