
6840.1.1={
	liege="e_dorne"
	law = true_cognatic_succession
	law = succ_primogeniture
}

7594.1.1 = { holder=35007 } # Tremos (nc)
7647.1.1 = { holder=35017 } # Quentyn (nc)
7666.1.1 = { holder=35057 } # Alyse (nc)
7669.1.1 = { holder=35067 } # Tremond (nc)
7694.1.1 = { holder=35117 } # Arthur (nc)
7737.1.1 = { holder=35127 } # Cerenna (nc)
7743.1.1 = { holder=35167 } # Allyria (nc)



7796.1.1 = { holder=35187 } # Daemon (nc)
7841.1.1 = { holder=35217 } # Cerenna (nc)
7844.1.1 = { holder=35257 } # Quentyn (nc)

