200.1.1={
	liege="d_samyriana"
	law = succ_seniority
	law = agnatic_succession
}
7545.1.1 = { holder=10055948 } # Gafur (nc)
7603.1.1 = { holder=10155948 } # Yusuf (nc)
7619.1.1 = { holder=10455948 } # Bakr (nc)
7632.1.1 = { holder=10755948 } # Abdul (nc)
7681.1.1 = { holder=10955948 } # Nizam (nc)
7682.1.1 = { holder=11355948 } # Ali_Ali (nc)
7729.1.1 = { holder=11655948 } # Ubayd (nc)
7745.1.1 = { holder=11955948 } # Sami (nc)
7747.1.1 = { holder=12355948 } # Burhanaddin (nc)
7763.1.1 = { holder=12755948 } # Halil (nc)
7787.1.1 = { holder=13055948 } # Jalil (nc)
7819.1.1 = { holder=13255948 } # Fadl (nc)
7875.1.1 = { holder=13555948 } # Abdullah (nc)
7885.1.1 = { holder=13655948 } # Mukhtar (nc)
