5600.1.1={
liege="d_lasthearth"
}
7584.1.1={
	holder=17093
}
7615.1.1={
	holder=16093
}
7628.1.1={
	holder=15093
}
7639.1.1={
	holder=14093
}
7687.1.1={
	holder=13093
}
7727.1.1={
	holder=12093
}
7759.1.1={
	holder=11093
}
7798.1.1 = {
	holder=10093
}
7820.1.1={
	holder=9093
}
7842.1.1={
	holder=5093
}
7862.1.1={
	holder=93
}
7891.1.1={
	holder=3093
}
