1123.1.1={
	liege="k_volantis"
}

7595.1.1 = { holder=100069141 } # Yorko (nc)
7634.1.1 = { holder=100269141 } # Methyso (nc)
7635.1.1 = { holder=100369141 } # Ordello (nc)
7690.1.1 = { holder=100669141 } # Meralyn (nc)
7694.1.1 = { holder=100769141 } # Nyessos (nc)
7745.1.1 = { holder=101269141 } # Meralyn (nc)
7758.1.1 = { holder=101369141 } # Ordello (nc)
7796.1.1 = { holder=101869141 } # Allaquo (nc)
7806.1.1 = { holder=101969141 } # Beqqo (nc)
7856.1.1 = { holder=102169141 } # Malaquo (nc)
7873.1.1 = { holder=102369141 } # Colloquo (nc)
7879.1.1 = { holder=102469141 } # Allaquo (nc)
7895.1.1 = { holder=102769141 } # Benerro (nc)
