5600.1.1={
	liege="e_vale"
	law = succ_primogeniture
}

7575.1.1 = { holder=3000174 } # Eon (nc)
7611.1.1 = { holder=3003174 } # Elys (nc)
7623.1.1 = { holder=3006174 } # Robar (nc)
7662.1.1 = { holder=3008174 } # Byron (nc)
7702.1.1 = { holder=3010174 } # Mandon (nc)
7732.1.1 = { holder=3011174 } # Rolland (nc)
7740.1.1 = { holder=3012174 } # Morton (nc)
7783.1.1 = { holder=3016174 } # Waymar (nc)
7816.1.1 = { holder=3019174 } # Mandon (nc)
7841.1.1 = { holder=3023174 } # Jon (nc)

7879.1.1={
	holder=94045
}
