400.1.1={
	liege="d_hayford"
	law = succ_primogeniture
}
7588.1.1 = { holder=6000031 } # Sefton (nc)
7616.1.1 = { holder=6000131 } # Ollidor (nc)
7625.1.1 = { holder=6000431 } # Bronn (nc)
7673.1.1 = { holder=6000631 } # Osfryd (nc)
7683.1.1 = { holder=6000931 } # Lothar (nc)
7708.1.1 = { holder=6001531 } # Dontos (nc)
7759.1.1 = { holder=6001631 } # Balman (nc)
7791.1.1 = { holder=6002031 } # Lucifer (nc)
7819.1.1 = { holder=6002331 } # Perkin (nc)
7862.1.1 = { holder=6002831 } # Simon (nc)
7890.1.1={
	holder = 31 	#Roger Hogg
}
