500.1.1={ law=succ_primogeniture law=cognatic_succession
	liege="e_reach"
}
7585.1.1 = { holder=3000276 } # Renly (nc)

7600.6.6 = { holder=3001276 } # Cliffyrd (nc)
7667.1.1 = { holder=3006276 } # Leyton (nc)
7680.1.1 = { holder=3008276 } # Tommen (nc)
7697.1.1 = { holder=3009276 } # Imry (nc)
7727.1.1 = { holder=3015276 } # Jeffroy (sc)
7746.1.1 = { holder=3019276 } # Justyn (sc)
7793.1.1 = { holder=3022276 } # Audrik(sc)
7807.1.1 = { holder=3023276 } # Anslem (nc)
7856.1.1 = { holder=3025276 } # Dontos (nc)
7861.1.1={
	holder=88047 #Samwell (nc)
}
7874.1.1={
	holder=276 #Osbert # (C)
}




