1.1.1 = { liege="d_cockleswhent" }

1.1.1 = { holder=4510281 } # Mervyn (nc)
1.1.1 = { holder=65400298 } # Gormon (nc)

1.1.1 = { holder=0 }

6850.1.1 = { holder=65600298 } # Lorence (nc)
6920.1.1 = { holder=65700298 } # Gareth (nc)
6935.1.1 = { holder=65800298 } # Merle (nc)
6945.1.1 = { holder=65900298 } # Lorimar (C) # Time of Manderly exile
6982.1.1 = { holder=0 }
7450.1.1 = { holder=6100298 } # Gwayne (nc)
7487.1.1 = { holder=6200298 } # Mervyn (nc)
7495.1.1 = { holder=65000298 } # Perceon (nc)
7530.1.1 = { holder=65100298 } # Galadon (nc)
7584.1.1 = { holder=65200298 } # Gareth (nc)
7588.1.1 = { holder=3000298 } # Mern (nc)
7598.6.6 = { holder=3001298 } # Tania (nc)
7617.1.1 = { holder=3004298 } # Mathis (nc)
7665.1.1 = { holder=3008298 } # Morm (nc)
7680.1.1 = { holder=3010298 } # Martyn (nc)
7724.1.1 = { holder=3011298 } # Arryn (nc)
7746.1.1 = { holder=3015298 } # Franklyn (nc)
7770.1.1 = { holder=3019298 } # Horas (nc)
7794.1.1 = { holder=3022298 } # Gormon (C)
7812.1.1 = { holder=3027298 } # Gendry (nc)
7833.6.1 = { 
	holder=3029298  # Mace (nc)
} 
7878.1.1={
	holder=3031298 # Talbert(nc)
}
7882.1.1={
	holder=6298 # Laswell 
}
7890.1.1={
	holder=298 #Mervyn (nc)
}
7896.1.1={
	holder=1298 # Titus
}


