500.1.1={ law=succ_primogeniture law=cognatic_succession
	liege="d_northmarch"
}
7540.1.1={
	holder=88295
}
7585.1.1={
	holder=88287
}
7592.1.1={
	holder=88286
}
7635.1.1={
	holder=88285
}
7644.1.1={
	holder=88284
}
7687.1.1={
	holder=88282
}
7722.1.1={
	holder=88281
}
7753.1.1={
	holder=88050
}
7772.1.1={
	holder=235
}
7815.1.1={
	holder=88053
}
7875.1.1={
	holder=88054
}




