7200.1.1={
	liege="d_stokeworth"
	law = succ_primogeniture
}
7594.1.1 = { holder=6000035 } # Osney (nc)

7626.1.1 = { holder=6000235 } # Jothos (nc)
7639.1.1 = { holder=6000535 } # Mortimer (nc)
7663.1.1 = { holder=6000735 } # Roger (nc)
7696.1.1 = { holder=6000935 } # Gwayne (nc)
7730.1.26 = { holder=6001035 } # Guncer (nc)
7765.1.1 = { holder=6001335 } # Mortimer (nc)
7783.1.1 = { holder=6001735 } # Rorge (nc)
7824.1.1 = { holder=6001835 } # Lucos (nc)

7845.1.1={
	holder = 10035 #Bennard stokeworth
}
7885.1.1={
	holder = 11035 #Mortimer stokeworth
}

