500.1.1={ law=succ_primogeniture law=cognatic_succession
	liege="d_oldtown"
}
7564.1.1 = { holder=3000289 } # Garth (nc)
7593.1.1 = { holder=3002289 } # Harrold (nc)
7643.1.1 = { holder=3007289 } # Edwyn (nc)
7649.1.1 = { holder=3008289 } # Mina (nc)
7676.1.1 = { holder=3009289 } # Hosman (nc)
7711.1.1 = { holder=3014289 } # Arthur (nc)
7739.1.1 = { holder=3019289 } # Arthur (nc)
7769.1.1 = { holder=3021289 } # Edwyn (nc)
7802.1.1 = { holder=3027289 } # Renly (nc)
7822.1.1 = { holder=3031289 } # Luthor (nc)
7868.1.1={
	holder=289 #Branston
}



