6600.1.1={
	liege="d_summerhall"
	#name = C_BLACKHEART
	effect = {
		if = {
			limit = { NOT = { year = 8198 } }
			location = { set_name = C_BLACKHEART }
		}	
	}
}
7567.1.1 = { holder=10000307 } # Symeon (nc)
7588.1.1 = { holder=20000307 } # Clarence (nc)
7617.1.1 = { holder=40000307 } # Martyn (nc)
7665.1.1 = { holder=50000307 } # Robert (nc)
7680.1.1 = { holder=60000307 } # Tristan (nc)
7736.1.1 = { holder=80000307 } # Gyles (nc)
7770.1.1 = { holder=100000307 } # Myles (nc)
7778.6.1={ holder=120000307 }
