5800.1.1={
	liege="d_the_sisters"
	law = succ_primogeniture
}
7594.1.1 = { holder=3000165 } # Wyl (nc)
7625.1.1 = { holder=3001165 } # Humfrey (nc)
7663.1.1 = { holder=3004165 } # Oswell (nc)
7676.1.1 = { holder=3006165 } # Morgarth (nc)
7729.1.1 = { holder=3008165 } # Umfred (nc)
7771.1.1 = { holder=3012165 } # Wallace (nc)
7788.1.1 = { holder=3014165 } # Kyle (nc)
7818.1.1 = { holder=3017165 } # Elbert (nc)
7846.1.1 = { holder=3019165 } # Umfred (nc)

7858.1.1={
	holder=94035
}
7890.1.1={
	holder=94036
}
