5800.1.1={
	liege="e_vale"
	law = succ_primogeniture
}

7595.1.1 = { holder=3000168 } # Royce (nc)
7653.1.1 = { holder=3002168 } # Bryen (nc)
7655.1.1 = { holder=3006168 } # Jasper (nc)
7687.1.1 = { holder=3008168 } # Royce (nc)
7721.1.1 = { holder=3009168 } # Denys (nc)
7728.1.1 = { holder=3011168 } # Byron (nc)
7753.1.1 = { holder=3013168 } # Damon (nc)
7779.1.1 = { holder=3016168 } # Royce (nc)
7810.1.1 = { holder=3019168 } # Symond (nc)
7833.1.1 = { holder=3023168 } # Robert (nc)
7846.1.1 = { holder=3025168 } # Nestor (nc)
7877.1.1={
	holder=94039
}
