500.1.1={ law=succ_primogeniture law=cognatic_succession
	liege="d_oldtown"
}
7592.1.1 = { holder=3000287 } # Ector (nc)
7610.1.1 = { holder=3001287 } # Arryn (nc)
7644.1.1 = { holder=3004287 } # Mervyn (nc)
7678.1.1 = { holder=3008287 } # Owen (C)
7730.5.8 = { holder=3009287 } # Jonel (C)
7757.12.1 = { holder=3015287 } # Arwood (C)
7776.1.1 = { holder=3016287 } # Haston (C)
7796.1.1 = { holder=3021287 } # Pelleas (nc)
7840.1.1 = { holder=3024287 } # Lucas (nc)
7881.1.1={
	holder=287 #Tommen
}



