7594.1.1 = { holder=10559357 } # Quent (nc)
7647.1.1 = { holder=11559357 } # Gerrick (nc)
7669.1.1 = { holder=16559357 } # Arson (nc)
7678.1.1 = { holder=17559357 } # Errok (nc)
7692.1.1 = { holder=19559357 } # Ondrew (nc)
7697.1.1 = { holder=20559357 } # Eyron (nc)
7728.1.1 = { holder=21559357 } # Arson (nc)
7759.1.1 = { holder=22559357 } # Henk (nc)
7778.1.1 = { holder=23559357 } # Gorne (nc)
7813.1.1={
	liege="k_beyond_wall"
}
7822.1.1 = { holder=25559357 } # Bael (nc)
7826.9.9={
	liege="0"
}
7865.1.1 = { holder=30559357 } # Toregg (nc)
#7900.1.1 = { holder=31559357 } # Arthor (nc)

7898.1.1={
	liege="k_beyond_wall"
}
7900.1.1={
	holder=999000666
}
