1123.1.1={
	liege="d_tolos"
}
7549.1.1 = { holder=100570101 } # Jaekar (nc)
7582.1.1 = { holder=102570101 } # Horonno (nc)
7604.1.1 = { holder=104570101 } # Aenar (nc)
7622.1.1 = { holder=111570101 } # Vaeron (nc)
7690.1.1 = { holder=112570101 } # Parquello (nc)
7723.1.1 = { holder=116570101 } # Belicho (nc)
7744.1.1 = { holder=119570101 } # Horonno (nc)
7790.1.1 = { holder=121570101 } # Orys (nc)
7845.1.1 = { holder=125570101 } # Colloquo (nc)
7853.1.1 = { holder=128570101 } # Orys (nc)
7870.1.1 = { holder=131570101 } # Benerro (nc)
7895.1.1 = { holder=132570101 } # Methyso (nc)
