1612.1.1={
	liege="d_toqolarth"
}
7581.1.1 = { holder=10035000 } # Ordello (nc)
7625.1.1 = { holder=10135000 } # Pyat (nc)
7632.1.1 = { holder=10435000 } # Urrathon (nc)
7647.1.1 = { holder=10535000 } # Mathos (nc)
7670.1.1 = { holder=10935000 } # Surindos (nc)
7715.1.1 = { holder=11135000 } # Wendello (nc)
7733.1.1 = { holder=11435000 } # Ordello (nc)
7761.1.1 = { holder=12035000 } # Lotho (nc)
7794.1.1 = { holder=12135000 } # Pyat (nc)
7800.1.1 = { holder=12535000 } # Methyso (nc)
7817.1.1 = { holder=12835000 } # Ognos (nc)
7846.1.1 = { holder=13335000 } # Belicho (nc)
7880.1.1 = { holder=13635000 } # Xaro Xhoan (nc)


