1123.1.1 = { 
	liege = k_volantis
}
7564.1.1 = { holder=100174373 } # Trianna (C) 
7610.1.1 = { holder=101174373 } # Haerys (nc)
7640.1.1 = { holder=102174373 } # Belicho (nc)
7668.1.1 = { holder=108174373 } # Doniphos (nc)
7673.1.1 = { holder=111174373 } # Colloquo (nc)
7714.1.1 = { holder=115174373 } # Vaeron (nc)
7738.1.1 = { holder=116174373 } # Qavo (nc)
7760.1.1 = { holder=118174373 } # Vaekar (nc)
7791.1.1 = { holder=123174373 } # Orys (nc)
7795.1.1 = { holder=126174373 } # Gorys (nc)
7835.1.1 = { holder=130174373 } # Alios (nc)
7845.1.1 = { holder=136174373 } # Aenar (nc)
7868.1.1 = { holder=138174373 } # Vaekar (nc)
7880.1.1 = { holder=140174373 } # Nyessos 

