1123.1.1={
	liege="k_myr"
}

7595.1.1 = { holder=100300705 } # Meralyn (nc)
7637.1.1 = { holder=104300705 } # Terro (nc)
7644.1.1 = { holder=107300705 } # Tycho (nc)
7661.1.1 = { holder=110300705 } # Roggo (nc)
7693.1.1 = { holder=115300705 } # Ternesio (nc)
7715.1.1 = { holder=117300705 } # Roro (nc)
7741.1.1 = { holder=119300705 } # Moredo (nc)
7772.1.1 = { holder=123300705 } # Tagganaro (nc)
7803.1.1 = { holder=126300705 } # Noho (nc)
7822.1.1 = { holder=127300705 } # Groleo (nc)
7869.1.1 = { holder=129300705 } # Byan (nc)
7897.1.1 = { holder=132300705 } # Ordello (nc)
