500.1.1={
	liege="d_wayfarersrest"
}
6248.1.1 = {
    holder=650153 #Armistead (C)
}
6275.1.1 = {
	holder = 0
}

7567.1.1={
    holder=550153
}	
7586.1.1={
	holder=9153
}
7610.1.1={
	holder=21154
}
7644.1.1={
	holder=20154
}
7655.1.1={
	holder=19154
}
7678.1.1={
	holder=18154
}
7702.1.1={
	holder=17154
}
7732.1.1={
	holder=15154
}
7755.1.1={
	holder=14154
}
7774.1.1={
	holder=13154
}
7803.1.1={
	holder=12154
}
7814.1.1={
	holder=11154
}
7866.1.1={
	holder=22154
}
7877.1.1={
	holder=154
}
7898.9.20={
   holder=1154 # Karyl Vance (C)
 }  
