7200.1.1={
	liege="d_kingswood"
	law = succ_primogeniture
}
7593.1.1 = { holder=6000044 } # Davos (nc)
7630.1.1 = { holder=6000144 } # Dontos (nc)
7635.1.1 = { holder=6000544 } # Belgrave (nc)
7671.1.1 = { holder=6000944 } # Denys (nc)
7678.1.1 = { holder=6001244 } # Roger (nc)
7713.1.1 = { holder=6001544 } # Bronn (nc)
7736.1.1 = { holder=6001944 } # Barth (nc)
7779.1.1 = { holder=6002344 } # Anguy (nc)
7803.1.1 = { holder=6002544 } # Rennifer (nc)
7820.1.1 = { holder=6002844 } # Lothar (nc)
7853.1.1 = { holder=6002944 } # Danos (nc)
7888.1.1 = { holder=6003244 } # Balman (nc)
7896.1.1={
	holder = 44 	#Piers Wendwater
}
