5600.1.1={
liege="d_wolfswood"
}
7594.1.1 = { holder=31444 } # Brandon (nc)
7624.1.1 = { holder=51444 } # Edwyn (nc)
7653.1.1 = { holder=91444 } # Berena (nc)
7662.1.1 = { holder=121444 } # Dacey (nc)
7684.1.1 = { holder=131444 } # Lyra (nc)
7724.1.1 = { holder=141444 } # Howland (nc)
7736.1.1 = { holder=161444 } # Rodrik (nc)
7763.1.1 = { holder=181444 } # Osric (nc)
7818.1.1 = { holder=261444 } # Theon (nc)
7820.1.1 = { holder=291444 } # Donnor (nc)
7855.1.1 = { holder=341444 } # Cellador (nc)
7882.1.1={
	holder=10001444 #Ned
}
