5800.1.1={
	liege="e_vale"
	law = succ_primogeniture
}
7594.1.1 = { holder=3000180 } # Kyle (nc)
7637.1.1 = { holder=3001180 } # Hugo (nc)
7658.1.1 = { holder=3004180 } # Alyx (nc)
7685.1.1 = { holder=3010180 } # Jason (nc)
7737.1.1 = { holder=3012180 } # Tommard (nc)
7743.1.1 = { holder=3015180 } # Dennett (nc)
7753.1.1 = { holder=3017180 } # Donnel (nc)
7797.1.1 = { holder=3018180 } # Hibald (nc)
7846.1.1 = { holder=3019180 } # Manfred (nc)
7864.1.1 = { holder=3024180 } # Elmar (nc)
7870.1.1={
	holder = 94081 	#Lord Jorah Wydman
}
