200.1.1={
	liege="d_xin"
}
7595.1.1 = { holder=10069194 } # Is'mail (nc)
7641.1.1 = { holder=10269194 } # Fadil (nc)
7647.1.1 = { holder=10469194 } # Khalil (nc)
7672.1.1 = { holder=10569194 } # Qawurd (nc)
7698.1.1 = { holder=10869194 } # Youkhanna (nc)
7750.1.1 = { holder=11069194 } # Ramadan (nc)
7778.1.1 = { holder=11169194 } # Jaleel (nc)
7781.1.1 = { holder=11369194 } # Jalil (nc)
7805.1.1 = { holder=11769194 } # Jabir (nc)
7847.1.1 = { holder=11869194 } # Khaireddin (nc)
7880.1.1 = { holder=12469194 } # Isa (nc)



