7200.1.1={
	liege="e_riverlands"
	law = succ_primogeniture
}
7576.1.1={
	holder=14157
}

7608.1.1={
	holder=13157
}
7637.1.1={
	holder=12157
}
7652.1.1={
	holder=11157
}
7695.1.1={
	holder=9157
}
7724.1.1={
	holder=8157
}
7730.5.8={
	holder=7157 # Willem (SC)
}
7778.1.1={
	holder=6157
}
7791.1.1={
	holder=5157
}

7814.1.1={
	holder=4157
}
7837.1.1={
	holder=3157
}
7866.1.1={
	holder=2157
}
7874.1.1={
	holder=157
}
