500.1.1 = {liege="e_stormlands"}

7594.1.1 = { holder=300330 } # Gunthor Estermont (nc)

7631.1.1 = { holder=302330 } # Alyn Estermont (nc)
7656.1.1 = { holder=303330 } # Ronald Estermont (nc)
7688.1.1 = { holder=304330 } # Gunthor Estermont (nc)
7705.1.1 = { holder=305330 } # Lomas Estermont (nc)
7761.1.1 = { holder=306330 } # Davos Estermont (nc)
7772.1.1 = { holder=307330 } # Herbert Estermont (nc)
7796.1.1 = { holder=200330 } # Gunthor Estermont (C)
7844.1.1 = { holder=330 } # Tancred Estermont (nc)
7899.7.1 = { liege = 0 }
7900.1.4 = { holder=2330 } # Eldon Estermont (C)
