#d_greenfield (Renamed Cornfield)
500.1.1={ liege = "e_westerlands" }
7590.1.1 = {	
	holder=311228
}
7598.6.6 = {	
	holder=310228
}

7639.5.8 = {	
	holder=309228
}
7677.1.1 = {	
	holder=308228
}
7706.1.1 = {	
	holder=307228
}
7730.1.1 = {	
	holder=306228
}
7745.1.1 = {	
	holder=305228
}
7754.1.1 = {	
	holder=304228
}
7794.1.1 = {	
	holder=303228
}

