5600.1.1={
	liege="e_north"
	law = succ_primogeniture
}
7595.1.1={
	holder=20077
}
7630.1.1={
	holder=19077
}
7645.1.1={
	holder=18077
}
7675.1.1={
	holder=17077
}
7693.1.1={
	holder=16077
}
7726.1.1={
	holder=15077
}
7770.1.1={
	holder=13077
}
7803.1.1={
	holder=11077
}
7839.1.1={
	holder=10077
}
7860.1.1 = {
	holder=75
}
