200.1.1={
	liege="k_yin"
}
2190.1.1 = { 
	holder=10065961
}
2278.1.1 = { holder=0 }

2337.1.1 = { 
	holder=10365961
}
2367.1.1 = { holder=0 }
6708.1.1 = {
	holder = 10065963 #Lo Han
}
6755.1.1 = {
	holder = 10165963 #Lo bu
}
6765.1.1 = {
	holder=  0
}

7595.1.1 = { holder=10069195 } # Ubayd (nc)
7636.1.1 = { holder=10169195 } # Ubayd (nc)
7648.1.1 = { holder=10369195 } # Jibril (nc)
7686.1.1 = { holder=10669195 } # Shamir (nc)
7704.1.1 = { holder=11169195 } # Nizam (nc)
7711.1.1 = { holder=11269195 } # Yahya (nc)
7743.1.1 = { holder=11869195 } # Yusuf (nc)
7777.1.1 = { holder=12169195 } # Isa (nc)
7814.1.1 = { holder=12469195 } # Abdul (nc)
7820.1.1 = { holder=12669195 } # Nizam (nc)
7854.1.1 = { holder=13169195 } # Yusuf (nc)
7879.1.1 = { holder=13469195 } # Is'mail (nc)



