7576.1.1 = { 
	holder=100600217 
	historical_nomad = yes
} # Rogo (nc)

7585.1.1 = { liege = k_essaria } #Khal temmo
7599.1.1 = { liege = 0 }

7610.1.1 = { holder=102600217 } # Ogo (nc)
7633.1.1 = { holder=107600217 } # Rhogoro (nc)
7670.1.1 = { holder=111600217 } # Mosko (nc)
7689.1.1 = { holder=112600217 } # Temmo (nc)
7693.1.1 = { holder=116600217 } # Cohollo (nc)
7721.1.1 = { holder=121600217 } # Pono (nc)
7725.1.1 = { holder=123600217 } # Zerqollo (nc)
7764.1.1 = { holder=127600217 } # Hezzo (nc)
7766.1.1 = { holder=131600217 } # Moro (nc)
7787.1.1 = { holder=135600217 } # Remekko (nc)
7837.1.1 = { holder=139600217 } # Rhogoro (nc)
7865.1.1 = { holder=142600217 } # Jasso (nc)
7890.1.1 = { liege = k_essaria } #Zekko Canon
7894.1.1 = { holder=147600217 } # Remekko (nc)

