1600.1.1={
	liege="e_riverlands"
	law = succ_primogeniture
}
#tullys
6248.1.1 = { holder=561159 } # Axel (C)
6260.1.1 = { holder=0 }

7268.1.1 = { holder=1502159 } # Elston (C)
7280.1.1 = { holder=0 }

7502.1.1 = { holder=550159 } # Tommen (C)
7540.1.1 = { holder=551159 } # Lymond (nc)
7554.1.1 = { holder=553159 } # Ben (nc)

7582.1.1 = {
	holder=17159 #Edmyn
}

7635.1.1={
	holder=16159 #melwys
}
7657.1.1={
	holder=1502159 #Elston
}
7680.1.1={
	holder=15159 #Grover
}
7730.3.5 = {
	holder=14159 # Elmo Tully
}
7730.4.14 = {
	holder=13159 # Kermit Tully
}
7770.1.1={
	holder=19159 # Edmure Tully
}
7782.1.1={
    holder=2280159 # Edmund Tully
}	
7795.12.10={
	holder=1159 # Medgar Tully
}
7810.1.1={
	holder=10159
}
7858.1.1={
	holder=175159
}
7865.1.1 = {
	holder=159
}
7899.10.15={
	holder=4159
}
7900.4.15 = {
	holder=2127 #Emmon Frey
}
