5000.1.1={
	#liege="k_sarnor"
	effect = {
		holder_scope = { 
			k_sarnor = {
				holder_scope = {
					make_tributary = { who = PREVPREV percentage = 0.1 }
				}
			}
		}	
	}
	law = succ_primogeniture
}
7595.1.1 = { holder=10056819 } # Etash (nc)
7620.1.1 = { holder=10156819 } # Balavant (nc)
7637.1.1 = { holder=10356819 } # Manish (nc)
7662.1.1 = { holder=10856819 } # Balavant (nc)
7695.1.1 = { holder=11256819 } # Nitish (nc)
7731.1.1 = { holder=11656819 } # Lakshan (nc)
7755.1.1 = { holder=12056819 } # Ranak (nc)
7781.1.1 = { holder=12256819 } # Kalpesh (nc)
7840.1.1 = { holder=12556819 } # Rathin (nc)
7873.1.1 = { holder=12756819 } # Kedaar (nc)
7886.1.1 = { holder=12956819 } # Darshan (nc)
7894.1.1 = { holder=13156819 } # Lokesh (nc)
