
2630.1.1 = {
	holder = 150054 #Edwyn Evenstar
	liege = k_tarthTK
}
2655.1.1 = {
	liege="e_stormlands" #married into Durrandons
}
2672.1.1 = {holder=0}
7544.1.1 = { holder=153054 } #Selwyn (nc)
7576.1.1 = { holder=60000054 } # Daven Tarth (nc)
7588.1.1 = { holder=300054 } # Selwyn Tarth (nc)

7639.1.1 = { holder=301054 } # Willem Tarth (nc)
7672.1.1 = { holder=310054 } # Selwyn Tarth (nc)
7714.1.1 = { holder=315054 } # Willem Tarth (nc)
7746.1.1 = { holder=316054 } # Renly Tarth (nc)
7774.1.1 = { holder=322054 } # Endrew Tarth (nc)
7810.1.1 = { holder=200054 } # Quentyn Tarth (C)
7837.1.1 = { holder=326054 } # Terrence Tarth (nc)
7855.1.1 = { holder=331054 } # Willem Tarth (nc)
7879.1.1 = { holder=201054 } # Selwyn Tarth (C)
7899.7.2 = { liege=0 }
