1023.1.1={
	liege = k_valyria
}

7495.1.1 = { holder=10006022 } # Maerys (nc)
7514.1.1 = { holder=10016022 } # Gaemon (nc)
7527.1.1 = { holder=10036022 } # Valarr (nc)
7563.1.1 = { holder=10056022 } # Aemond (nc)
7587.1.1 = { holder=10086022 } # Aemond (nc)
7604.1.1 = { holder=10106022 } # Aemond (nc)
7621.1.1 = { holder=10126022 } # Baelor (nc)
7675.1.1 = { holder=10166022 } # Aenys (nc)
7698.1.1 = { holder=10176022 } # Vaekar (nc)
7716.1.1 = { holder=10216022 } # Baelon (nc)
7743.1.1 = { holder=10226022 } # Orys (nc)
7786.1.1 = { holder=10286022 } # Aenys (nc)
7808.1.1 = { holder=10296022 } # Qoherys (nc)
7833.1.1 = { holder=10316022 } # Maelys (nc)


