200.1.1={
	liege="k_volantis"
}
7570.1.1 = { holder=100305605 } # Ordello (nc)
7611.1.1 = { holder=101305605 } # Bolquello (nc)
7625.1.1 = { holder=107305605 } # Bolquello (nc)
7662.1.1 = { holder=110305605 } # Colloquo (nc)
7709.1.1 = { holder=112305605 } # Gorys (nc)
7720.1.1 = { holder=114305605 } # Horonno (nc)
7744.1.1 = { holder=115305605 } # Allaquo (nc)
7759.1.1 = { holder=116305605 } # Lotho (nc)
7772.1.1 = { holder=117305605 } # Qarro (nc)
7775.1.1 = { holder=119305605 } # Bolquello (nc)
7810.1.1 = { holder=122305605 } # Alios (nc)
7832.1.1 = { holder=124305605 } # Gorys (nc)
7866.1.1 = { holder=127305605 } # Gorys (nc)
7882.1.1 = { holder=129305605 } # Horonno (nc)
