200.1.1={
	liege="k_volantis"
}
7035.1.1 = { holder=100367823 } # Vhalaso the Munificent
7068.1.1 = { holder=0 }

7500.1.1 = { holder=100467823 } # Belicho
7513.1.1 = { holder=100174603 } #Marqelo Tagaros
7534.1.1 = { holder=0 }

7560.1.1 = { holder=100174396 } # Horonno (c)
7596.12.16 = { holder=100174373 } # Trianna (C) 
7601.1.1 = { holder=100174372 } 
7610.1.1 = { holder=101174373 } # Haerys (nc)
7614.1.1 = { holder=100174372 } 
7625.1.1 = { holder=102174372 } 
7649.1.1 = { holder=105174372 } 
7676.1.1 = { holder=111174371 } # Belicho (nc)
7686.1.1 = { holder=115174371 } # Benerro (nc)
7709.1.1 = { holder=111174373 } # Colloquo (nc)
7714.1.1 = { holder=115174373 } # Vaeron (nc)
7738.1.1 = { holder=113174396 } # Methyso (nc)
7748.1.1 = { holder=115174396 } # Gorys (nc)
7767.1.1 = { holder=119174397 } # Methyso (nc)
7770.1.1 = { holder=125174397 } # Parquello (nc)
7803.1.1 = { holder=127174396 } # Matarys (nc)
7850.1.1 = { holder=131174396 } # Benerro (nc)
7856.1.1 = { holder=133174397 } # Qavo (nc)
7860.1.1 = { holder=139174397 } # Vogarro (C)
7866.1.1 = { holder=141174397 } # Qavo (nc)
7872.1.1 = { holder=137174372 } 
7876.1.1 = { holder=147174371 } # Malaquo
