200.1.1={
	liege="k_jinqi"
}
7595.1.1 = { holder=10069102 } # Ramadan (nc)
7622.1.1 = { holder=10169102 } # Wahab (nc)
7630.1.1 = { holder=10469102 } # Murad (nc)
7652.1.1 = { holder=10569102 } # Yahya (nc)
7699.1.1 = { holder=11369102 } # Bahir (nc)
7748.1.1 = { holder=11669102 } # Husam (nc)
7760.1.1 = { holder=11969102 } # Qadir (nc)
7774.1.1 = { holder=12369102 } # Nasr (nc)
7792.1.1 = { holder=12769102 } # Hafiz (nc)
7824.1.1 = { holder=13069102 } # Bakr (nc)
7851.1.1 = { holder=13169102 } # Najib (nc)
7875.1.1 = { holder=13769102 } # Shamir (nc)
7886.1.1 = { holder=13969102 } # Jabir (nc)



