2540.1.1={
	law = succ_primogeniture
	law = cognatic_succession
	
	holder = 150014 #Ferris
}

2573.1.1={ holder = 0 }

6852.1.1 = { holder = 152014 } #Garrison
6905.1.1 = { 
	holder = 0  # conquered by the Martell's.
}
