#k_summer_islands
6600.1.1 = {
	law = succ_seniority
	law = cognatic_succession
	law = centralization_0
}

# #House Qo Unifies the Islands
7016.1.1 = {
	holder=150304005  # Xanda
} 
7058.1.1 = { holder=151304005 } # Chatana
7090.1.1 = { holder=0 }
# #House Qo Unifies the Islands
# 7758.1.1 = { holder=114304005 } # Xanda (C)
# 7778.1.1 = { holder=118304005 } # Isingodo (nc)
# 7803.1.1 = { holder=121304005 } # Thabo (nc)
# 7821.1.1 = { holder=122304005 } # Xhelimo (nc)
# 7835.1.1 = { holder=124304005 } # Jalahuru (nc)

# #House Xho usurps the Islands
# 7858.1.1 = { holder=122304000 } # Udo (nc)
# 7887.1.1 = { holder=126304000 } # Qubhar (nc)

# 7889.6.1 = { holder=127304005 } #Usurped by House Ko
