200.1.1={
	liege="e_yi_ti"
	law = succ_primogeniture
	law = agnatic_succession
	law = privilege_vassal_king
	effect = {
		add_law = privilege_vassal_king
	}
}
7595.1.1 = { holder=10069166 } # Wahab (nc)
7631.1.1 = { holder=10169166 } # Jabir (nc)
7658.1.1 = { holder=10569166 } # Mukhtar (nc)
7680.1.1 = { holder=10769166 } # Abdullah (nc)
7731.1.1 = { holder=11069166 } # Halil (nc)
7736.1.1 = { holder=11169166 } # Khaireddin (nc)
7785.1.1 = { holder=11369166 } # Ubayd (nc)
7791.1.1 = { holder=11769166 } # Hussayn (nc)
7810.1.1 = { holder=11969166 } # Qawurd (nc)
7865.1.1 = { holder=12269166 } # Azam (nc)
7876.1.1 = { holder=12769166 } # Jalil (nc)
7879.1.1 = { holder=13069166 } # Nizam (nc)


