# Supported types: character
#
# Note: if 'chance' evaluates to 0, an AI character will also abandon the focus
#


#################
# FOCUSES		#
#################

focus_ed_diplomacy = {
	type = character
	
	modifier_name = "EDUCATION_FOCUS_DIPLOMACY"
	
	potential = {
		age = 12
		is_adult = no
		NOT_mythical_creature_trigger = yes
	}
	
	allow = {
	}
	
	# AI Pick chance
	chance = {
		factor = 100
		
		###Educator###
		###Pro###
		modifier = {
			factor = 2
			FROM = {
				OR = {
					trait = underhanded_rogue
					trait = charismatic_negotiator
					trait = grey_eminence
				}
			}	
		}
		modifier = {
			factor = 2
			FROM = { is_patrician = yes }
		}
			
		###Child###
		###Pro###
		modifier = {
			factor = 2
			diplomacy = 4
		}
		modifier = {
			factor = 2
			diplomacy = 6
		}
		#Sexism
		modifier = {
			factor = 3.5
			is_female = yes
			FROM = {
				NOT = { culture = sarnorian }
			}
		}		
		modifier = {
			factor = 0.5
			is_female = yes
			FROM = {
				OR = {
					culture_group = dornish
					AND = {
						is_ruler = yes
						northman_culture_trigger = yes
					}
				}
			}	
		}
		modifier = {
			factor = 0.3
			is_female = yes
			FROM = {
				female_warrior_culture_trigger = yes
			}	
		}
		modifier = {
			factor = 2.5
			is_female = no
			FROM = {
				female_warrior_culture_trigger = yes
			}	
		}
		modifier = {
			factor = 4
			is_female = yes
			FROM = {
				OR = {
					culture = jogos_nhai
					culture = dothraki 
				}	
			}	
		}
		###Con###
		modifier = {
			factor = 0.6
			NOT = { diplomacy = 2 }
		}
	}
	
	# Focuses have no success conditions
	success = {
		always = no
	}
	
	abort = {
		is_adult = yes
	}
	
	abort_effect = {
	}
	
	# MODIFIERS
	diplomacy = 1
	
	good_traits = {
		affectionate
		curious
	}
	
	bad_traits = {
		willful
		fussy
	}
}

focus_ed_martial = {
	type = character
	
	modifier_name = "EDUCATION_FOCUS_MARTIAL"
	
	potential = {
		age = 12
		is_adult = no
		NOT_mythical_creature_trigger = yes
	}
	
	allow = {
	}
	
	# AI Pick chance
	chance = {
		factor = 100
		###Educator###
		###Pro###
		modifier = {
			factor = 3
			FROM = {
				OR = {
					culture_group = iron_isles_culture
					trait = wildling
					trait = pirate
				}
			}	
		}
		modifier = {
			factor = 2
			FROM = {
				OR = {				
					trait = tough_soldier
					trait = skilled_tactician
					trait = brilliant_strategist
					trait = trained_warrior
					trait = skilled_warrior
					trait = master_warrior
				}
			}	
		}
		###Child###
		###Pro###
		modifier = {
			factor = 1.5
			OR = {
				is_strong_trigger = yes
				is_agile_trigger = yes
				trait = brave
			}
		}
		modifier = {
			factor = 2
			martial = 4
		}
		modifier = {
			factor = 2
			martial = 6
		}

		###Con###
		modifier = {
			factor = 0.5
			OR = {
				trait = clubfooted
				trait = hunchback
				trait = dwarf
				is_weak_trigger = yes
				is_lazy_trigger = yes
				is_crippled_trigger = yes
			}
		}
		modifier = {
			factor = 0.6
			NOT = { martial = 2 }
		}
		#Sexism
		modifier = {
			factor = 0.3
			is_female = yes
			FROM = {
				NOT = { culture = sarnorian }
			}
		}
		modifier = {
			factor = 2
			is_female = yes
			FROM = {
				OR = {
					culture_group = dornish
					AND = {
						tier = count
						northman_culture_trigger = yes
					}
				}
			}	
		}
		modifier = {
			factor = 0.1
			is_female = no
			FROM = {
				female_warrior_culture_trigger = yes
			}	
		}
		modifier = {
			factor = 10
			is_female = yes
			FROM = {
				female_warrior_culture_trigger = yes
			}	
		}
		modifier = {
			factor = 8
			is_female = no
			FROM = {
				OR = {
					culture = jogos_nhai
					culture = dothraki 
				}	
			}	
		}
	}
	
	# Focuses have no success conditions
	success = {
		always = no
	}
	
	abort = {
		is_adult = yes
	}
	
	abort_effect = {
	}
	
	# MODIFIERS
	martial = 1
	
	good_traits = {
		rowdy
		willful
	}
	
	bad_traits = {
		timid
		idolizer
	}
}

focus_ed_stewardship = {
	type = character
	
	modifier_name = "EDUCATION_FOCUS_STEWARDSHIP"
	
	potential = {
		age = 12
		is_adult = no
		NOT_mythical_creature_trigger = yes
	}
	
	allow = {
	}
	
	# AI Pick chance
	chance = {
		factor = 100
		
		###Educator###
		###Pro###
		modifier = {
			factor = 2
			FROM = {
				OR = {
					trait = indulgent_wastrel
					trait = thrifty_clerk
					trait = fortune_builder
					trait = midas_touched
					trait = greedy
				}
			}	
		}
		modifier = {
			factor = 3
			FROM = { is_patrician = yes }
		}

		###Con###
		modifier = {
			factor = 0.3
			is_female = yes
			FROM = {
				female_warrior_culture_trigger = yes
			}	
		}
		modifier = {
			factor = 5
			is_female = no
			FROM = {
				female_warrior_culture_trigger = yes
			}	
		}
		
		###Child###
		###Pro###
		modifier = {
			factor = 2
			stewardship = 4
		}
		modifier = {
			factor = 2
			stewardship = 6
		}
		
		###Con###
		modifier = {
			factor = 0.6
			NOT = { stewardship = 2 }
		}
	}
	
	# Focuses have no success conditions
	success = {
		always = no
	}
	
	abort = {
		is_adult = yes
	}
	
	abort_effect = {
	}
	
	# MODIFIERS
	stewardship = 1
	
	good_traits = {
		brooding
		conscientious
	}
	
	bad_traits = {
		indolent
		haughty
	}
}

focus_ed_intrigue = {
	type = character
	
	modifier_name = "EDUCATION_FOCUS_INTRIGUE"
	
	potential = {
		age = 12
		is_adult = no
		NOT_mythical_creature_trigger = yes
	}
	
	allow = {
	}
	
	# AI Pick chance
	chance = {
		factor = 100
		
		###Educator###
		###Pro###
		modifier = {
			factor = 2
			FROM = {
				OR = {
					trait = flamboyant_schemer
					trait = intricate_webweaver
					trait = elusive_shadow
				}
			}	
		}
		modifier = {
			factor = 2
			FROM = { is_patrician = yes }
		}
			
		###Child###
		###Pro###
		modifier = {
			factor = 2
			intrigue = 4
		}
		modifier = {
			factor = 2
			intrigue = 6
		}
		#Sexism
		modifier = {
			factor = 3.5
			is_female = yes
			FROM = {
				NOT = { culture = sarnorian }
			}
		}		
		modifier = {
			factor = 0.5
			is_female = yes
			FROM = {
				OR = {
					culture_group = dornish
					AND = {
						is_ruler = yes
						northman_culture_trigger = yes
					}
				}
			}	
		}
		modifier = {
			factor = 0.3
			is_female = yes
			FROM = {
				female_warrior_culture_trigger = yes
			}	
		}
		modifier = {
			factor = 2.5
			is_female = no
			FROM = {
				female_warrior_culture_trigger = yes
			}	
		}
		modifier = {
			factor = 4
			is_female = yes
			FROM = {
				OR = {
					culture = jogos_nhai
					culture = dothraki 
				}	
			}	
		}
		###Con###
		modifier = {
			factor = 0.6
			NOT = { intrigue = 2 }
		}
	}
	
	# Focuses have no success conditions
	success = {
		always = no
	}
	
	abort = {
		is_adult = yes
	}
	
	abort_effect = {
	}
	
	# MODIFIERS
	intrigue = 1
	
	good_traits = {
		playful
		fussy
	}
	
	bad_traits = {
		rowdy
		affectionate
	}
}

focus_ed_learning = {
	type = character
	
	modifier_name = "EDUCATION_FOCUS_LEARNING"
	
	potential = {
		age = 12
		is_adult = no
		NOT_mythical_creature_trigger = yes
	}
	
	allow = {
		custom_tooltip = {
			text = TOOLTIPfocus_ed_learningWESTEROS
			hidden_tooltip = {
				trigger_if = {
					limit = { is_ruler = yes }
					maester_culture_trigger = no
				}
				trigger_else = {
					liege = { maester_culture_trigger = no }
				}
			}
		}	
		trigger_if = {
			limit = { is_ruler = yes }
			is_nomadic = no
			NOT = { trait = wildling }
		}
		trigger_else = {
			liege = { 
				is_nomadic = no
				NOT = { trait = wildling }
			}
		}
	}
	
	# AI Pick chance
	chance = {
		factor = 50
		
		###Educator###
		###Pro###
		modifier = {
			factor = 2
			FROM = {
				OR = {
					trait = martial_cleric
					trait = scholarly_theologian
					trait = mastermind_theologian
				}
			}	
		}
			
		###Child###
		###Pro###
		modifier = {
			factor = 2
			learning = 4
		}
		modifier = {
			factor = 2
			learning = 6
		}
		#Sexism	
		modifier = {
			factor = 0.3
			is_female = yes
			FROM = {
				female_warrior_culture_trigger = yes
			}	
		}
		modifier = {
			factor = 2.5
			is_female = no
			FROM = {
				female_warrior_culture_trigger = yes
			}	
		}

		###Con###
		modifier = {
			factor = 0.6
			NOT = { learning = 2 }
		}
	}
	
	# Focuses have no success conditions
	success = {
		always = no
	}
	
	abort = {
		is_adult = yes
	}
	
	abort_effect = {
	}
	
	# MODIFIERS
	learning = 1
	
	good_traits = {
		timid
		idolizer
	}
	
	bad_traits = {
		brooding
		playful
	}
}

focus_ed_dragon = { # To stop annoying pop up to educate dragons
	type = character
	
	modifier_name = "EDUCATION_FOCUS_DRAGON"
	
	potential = {
		age = 12
		trait = dragon
	}
	
	allow = {
	}
	
	# AI Pick chance
	chance = {
		factor = 100
	}
	
	# Focuses have no success conditions
	success = {
		always = no
	}
	
	abort = {
		is_adult = yes
	}
	
	abort_effect = {
	}
	

}
