#House Reed
6000.1.1={
	liege="d_theneck"
	law = succ_primogeniture
}
6444.1.1={
	holder = 1050121
}
6475.1.1={
	holder = 0
}
7859.1.1 = { holder=344126 } # Jojen (nc)
7876.1.1 = { holder=343126 } # Lucan (nc)
7902.1.1 = { holder=342126 } # Walton (nc)
7922.1.1 = { holder=341126 } # Wylis (nc)
7956.1.1 = { holder=340126 } # Willam (nc)

7971.1.1 = { holder=1099126 } # Beron (nc)
8014.1.1 = { holder=13126 } # Artos (nc)
8031.1.1={
	holder=12126
}
8054.1.1={
	holder=11126
}
8067.1.1={
	holder=14126
}
8107.1.1={
	holder=9126
}
8140.1.1={
	holder=7126
}
8172.1.1={
	holder=6126
}
8204.1.1={
	holder=5126
}
8252.1.1={
	holder=4126
}
8267.1.1={
	holder=3126
}
8282.1.1={
	holder=126
}
