900.1.1={
	liege="d_saltcliffe"
	law=succ_primogeniture law=cognatic_succession
}
7840.1.1={holder=324117}
7890.1.1={holder=323117}
7915.1.1={holder=322117}
7940.1.1={holder=321117}
7965.1.1={holder=320117}
7990.1.1 = { holder=300117 } # Victarion (nc)
7998.2.1 = { holder=301117 } # Stygg (nc)
8036.1.1 = { holder=304117 } # Theomore (nc)
8080.1.1 = { holder=308117 } # Manfryd (nc)
8101.1.1 = { holder=311117 } # Kenned (nc)
8119.1.1 = { holder=313117 } # Denys (nc)
8143.1.1 = { holder=314117 } # Norne (nc)
8160.1.1 = { holder=315117 } # Torwold (nc)
8211.1.1 = { holder=317117 } # Harras (nc)

8241.1.1={
	holder=117
}
8268.1.1={
	holder=2117
}
8294.1.1={
	holder=4117
}














