#NOTE: The holder of this title has the House Swann dynasty tracker set in roberts_rebellion_events
1.1.1 = { liege="d_red_watch" }

1963.1.1 = { holder = 1666010 }
2010.1.1 = {
	holder = 0
}
7852.1.1 = { holder=344306 } # Rolland (nc)
7883.1.1 = { holder=343306 } # Benedict (nc)
7901.1.1 = { holder=342306 } # Ormund (nc)
7926.1.1 = { holder=341306 } # Lucamore (nc)
7949.1.1 = { holder=340306 } # Triston (nc)

7968.1.1 = { holder=304306 } # Steffon Swann (nc)
8004.1.1 = { holder=300306 } # Simon Swann (nc)
8042.1.1 = { holder=302306 } # Myrcella Swann (nc)
8068.1.1 = { holder=303306 } # Johanna Swann (nc)
8094.1.1 = { holder=308306 } # Denys Swann (C)
8106.1.1 = { holder=318306 } # Galbert Swann (nc)
8135.1.1 = { holder=309306 } # Clifford Swann (nc)
8145.1.1 = { holder=312306 } # Allos Swann (nc)
8175.1.1 = { holder=201306 } # Gawen Swann (C)
8212.1.1 = { holder=313306 } # Rickard Swann (nc)
8231.1.1 = { holder=320306 } # Bryen Swann (nc)
8240.1.1 = { holder=202306 } # Balon Swann (nc)
8263.1.1 = { holder=204306 } # Gulian Swann (C)