623.1.1={
liege="e_iron_isles"
}
900.1.1={
	law=succ_primogeniture law=cognatic_succession
}
7866.1.1 = { holder=342109 } # Sigrin (nc)
7883.1.1 = { holder=341109 } # Stygg (nc)
7922.1.1 = { holder=340109 } # Lodos (nc)

7947.1.1 = { holder=3026109 } # Donnel (nc)
7994.1.1 = { holder=3001109 } # Sargon (nc)
7998.2.1={
liege="k_iron_isles"
}
8012.1.1 = { holder=3002109 } # Sawane (nc)
8028.1.1 = { holder=3000109 } # Steffarion (nc)
8046.1.1 = { holder=3003109 } # Ralf (nc)
8057.1.1 = { holder=3006109 } # Willam (nc)
8097.1.1 = { holder=3008109 } # Gelmarr (nc)
8124.1.1 = { holder=3011109 } # Vickon (nc)
8135.1.1 = { holder=3016109 } # Norjen (nc)
8178.1.1 = { holder=3017109 } # Cadwyl (nc)
8210.1.1 = { holder=3019109 } # Emmond (nc)
8229.1.1 = { holder=3023109 } # Endehar (nc)
8241.1.1 = { holder=3024109 } # Eldiss (nc)

8282.1.1 = {	
	holder=1109
}
8289.1.1={
	liege="e_iron_isles"
}
8289.6.1={
	liege="k_iron_isles"
}
8295.1.1 = {
	holder=109
}
8299.3.4 = {
	liege="e_iron_isles"
}
