#House Brownbarrow
6000.1.1={
	liege="c_barrowton"
	law = succ_primogeniture
}
7855.1.1 = { holder=3451876 } # Larence (nc)
7884.1.1 = { holder=3441876 } # Harwin (nc)
7905.1.1 = { holder=3431876 } # Roderick (nc)
7931.1.1 = { holder=3421876 } # Norley (nc)
7954.1.1 = { holder=3411876 } # Buford (nc)
7980.1.1 = { holder=3401876 } # Finn (nc)
7998.1.1 = { holder=31876 } # Boras (nc)
8013.1.1 = { holder=41876 } # Hallis (nc)
8057.1.1 = { holder=51876 } # Karlon (nc)
8076.1.1 = { holder=61876 } # Theodan (nc)
8101.1.1 = { holder=71876 } # Hallis (nc)
8150.1.1 = { holder=81876 } # Galbart (nc)
8171.1.1 = { holder=91876 } # Jeremy (nc)
8203.1.1 = { holder=101876 } # Ondrew (nc)
8230.1.1 = { holder=111876 } # Ecton (nc)
8252.1.1 = { holder=121876 } # Bannen (nc)
8264.1.1 = { 
	holder=1876		# Roger
}
#House Ryswell-Dustin
8299.11.5 = { 
	holder=2068 # Barbrey Ryswell
}