900.1.1={ law=succ_primogeniture law=cognatic_succession
	liege="c_yelshire"
}
7840.1.1={holder=3035257}
7895.1.1={holder=3034257}
7915.1.1={holder=3033257}
7940.1.1={holder=3032257}
7965.1.1={holder=3031257}
8000.1.1 = { holder=3000257 } # Walys (nc)
8020.1.1 = { holder=3003257 } # Emmon (nc)
8058.1.1 = { holder=3006257 } # Paxter (nc)
8086.1.1 = { holder=3007257 } # Rycherd (nc)
8123.1.1 = { holder=3010257 } # Arthur (nc)
8144.1.1={holder=3011257}
8152.1.1 = { holder=3013257 } # Branston (nc)
8187.1.1 = { holder=3017257 } # Amelryc (nc)
#8196 Gormon Peake loses castle after blackfyre rebellion
8205.1.1 = { holder=3020257 } # Mathis (nc)
8209.1.1 = { holder=3022257 } # Gerold (nc)
8235.1.1 = { holder=3025257 } # Mark (nc)
8282.1.1={
	holder=257
}








