6000.1.1={
	liege="c_winterfell"
	law = succ_primogeniture
}
7846.1.1={holder=19095}
7900.1.1={holder=18095}
7925.1.1={holder=17095}
7950.1.1={holder=16095}
7975.1.1={
	holder=15095
}
8012.1.1={
	holder=14095
}
8027.1.1={
	holder=13095
}
8065.1.1={
	holder=12095
}
8082.1.1={
	holder=11095
}
8122.1.1={
	holder=10095
}
8152.1.1={
	holder=9095
}
8179.1.1={
	holder=8095
}
8188.1.1={
	holder=7095
}
8218.1.1={
	holder=6095
}
8241.1.1={
	holder=5095
}
8262.1.1={
	holder=95
}