900.1.1={ law=succ_primogeniture law=cognatic_succession
	liege="c_hammerhorn"
}
7960.1.1={holder=516112}
8000.1.1={holder=515112}
8025.1.1={holder=514112}
8050.1.1={holder=513112}
8075.1.1={holder=512112}
8100.1.1={holder=511112}
8125.1.1={holder=510112}
8150.1.1={holder=509112}
8175.1.1={holder=508112}
8200.1.1={holder=507112}
8225.1.1={holder=506112}
8250.1.1 = {	
	holder=500112 
}
8281.1.1 = {	
	holder=502112 
}





