#House Grayson
6000.1.1={
	liege="c_hornwood"
	law = succ_primogeniture
}
7850.1.1 = { holder=3451878 } # Buford (nc)
7877.1.1 = { holder=3441878 } # Gareth (nc)
7902.1.1 = { holder=3431878 } # Ondrew (nc)
7921.1.1 = { holder=3421878 } # Tomard (nc)
7944.1.1 = { holder=3411878 } # Eckard (nc)
7973.1.1 = { holder=3401878 } # Qhorin (nc)
7985.1.1 = { holder=51878 } # Danelle (nc)
8045.1.1 = { holder=71878 } # Daryn (nc)
8063.1.1 = { holder=81878 } # Raynard (nc)
8075.1.1 = { holder=91878 } # Tristan (nc)
8120.1.1 = { holder=101878 } # Jonnel (nc)
8150.1.1 = { holder=111878 } # Yoren (nc)
8176.1.1 = { holder=121878 } # Gareth (nc)
8205.1.1 = { holder=131878 } # Desmond (nc)
8244.1.1 = { holder=1878 } # Wynton (nc)
8293.1.1 = { holder=11878 } # Ethan (nc)
8296.1.1 = { holder=21878 } # Walton (nc)

#House Manderly
8299.11.5 = { 
	holder = 80 #Wyman
}
#House Bolton
8300.1.1 = {
	holder = 2087 #Ramsay
}