900.1.1={ 
	liege="k_astapor"
	holding_dynasty = 360001 # Nakloz
}
7849.1.1 = { holder=345360001 } # Mazdhan (nc)
7871.1.1 = { holder=344360001 } # Miklaz (nc)
7890.1.1 = { holder=343360001 } # Dhazzar (nc)
7908.1.1 = { holder=342360001 } # Zarraq (nc)
7927.1.1 = { holder=341360001 } # Paezhar (nc)
7956.1.1 = { holder=340360001 } # Kraznys (nc)

7980.1.1 = { holder=150360001 } # Gazdhor (nc)
8006.1.1 = { holder=100360001 } # Gorzhak (nc)
8035.1.1 = { holder=101360001 } # Grazdan (nc)
8071.1.1 = { holder=106360001 } # Grazdhan (nc)
8105.1.1 = { holder=110360001 } # Yezzan (nc)
8146.1.1 = { holder=115360001 } # Grazdan (nc)
8152.1.1 = { holder=116360001 } # Marghaz (nc)
8170.1.1 = { holder=121360001 } # Maezon (nc)
8223.1.1 = { holder=127360001 } # Grazdhan (nc)
8238.1.1 = { holder=130360001 } # Skahaz (nc)
8246.1.1 = { holder=134360001 } # Yurkhaz (nc)
8285.1.1={
	holder=6571000 # Kraznys
}
8299.12.12={
	holder=0 # Dany happened !!
}