900.1.1={ 
	liege="d_spicers"
	holding_dynasty = 350006 # Qar Xath
}
7849.1.1 = { holder=345350006 } # Lyat (nc)
7868.1.1 = { holder=344350006 } # Xaantho (nc)
7888.1.1 = { holder=343350006 } # Urrathon (nc)
7923.1.1 = { holder=342350006 } # Thon (nc)
7950.1.1 = { holder=341350006 } # Surindos (nc)
7968.1.1 = { holder=340350006 } # Zagon (nc)

7985.1.1 = { holder=100350006 } # Sybassion (nc)
8045.1.1 = { holder=101350006 } # Wullon (nc)
8076.1.1 = { holder=107350006 } # Surindos (nc)
8107.1.1 = { holder=110350006 } # Wullon (nc)
8139.1.1 = { holder=111350006 } # Semython (nc)
8153.1.1 = { holder=115350006 } # Sallor (nc)
8191.1.1 = { holder=117350006 } # Gorys (nc)
8209.1.1 = { holder=121350006 } # Gathril (nc)
8216.1.1 = { holder=122350006 } # Navathos (nc)
8235.1.1 = { holder=124350006 } # Urrathon (nc)
8258.1.1 = { holder=129350006 } # Wendello (nc)
8299.1.1 = { holder=133350006 } # Gorys (nc)


