600.1.1={
	liege="k_qohor"
	holding_dynasty = 300567 #Qarit
}
7860.1.1 = { holder=344300567 } # Vargorno (nc)
7880.1.1 = { holder=343300567 } # Qiran (nc)
7898.1.1 = { 
	liege="d_qohor"
}
7899.1.1 = {
	liege="k_qohor"
}
7901.1.1 = { holder=342300567 } # Moro (nc)
7920.1.1 = { holder=341300567 } # Malero (nc)
7944.1.1 = { holder=340300567 } # Soquo (nc)

7965.1.1 = { holder=100300567 } # Daario (nc)
8007.1.1 = { holder=101300567 } # Moredo (nc)
8032.1.1 = { holder=105300567 } # Orbelo (nc)
8055.1.1 = { holder=107300567 } # Ezzelyno (nc)
8076.1.1 = { holder=110300567 } # Lotho (nc)
8085.1.1 = { holder=112300567 } # Ollo (nc)
8112.1.1 = { holder=113300567 } # Brusco (nc)
8113.1.1 = { holder=114300567 } # Syrio (nc)
8135.1.1 = { holder=117300567 } # Gyloro (nc)
8162.1.1 = { holder=120300567 } # Denyo (nc)
8178.1.1 = { holder=123300567 } # Meralyn (nc)
8205.1.1 = { holder=126300567 } # Gyleno (nc)
8207.1.1 = { holder=128300567 } # Ferrego (nc)
8252.1.1 = { holder=132300567 } # Izembaro (nc)
8271.1.1 = { holder=133300567 } # Ternesio (nc)
8277.1.1 = { holder=134300567 } # Ezzelyno (nc)
8281.1.1 = { holder=138300567 } # Cossomo (nc)



