600.1.1={
	liege="c_oldvolantis"
	law = succ_seniority
	law = agnatic_succession
}
#House Staegone
7870.1.1 = { holder=343174600 } # Tregyros (nc)
7883.1.1 = { holder=342174600 } # Vogys (nc)
7911.1.1 = { holder=341174600 } # Nakodos (nc)
7961.1.1 = { holder=340174600 } # Lysiros (nc)

7998.1.1 = { holder=108174600 } # Colloquo (nc)
8023.1.1 = { holder=110174600 } # Belicho (nc)
8050.1.1 = { holder=115174600 } # Colloquo (nc)
8053.1.1 = { holder=117174600 } # Malaquo (nc)
8057.1.1 = { holder=119174600 } # Nyessos (nc)
8092.1.1 = { holder=120174600 } # Nyessos (nc)
8115.1.1 = { holder=125174600 } # Aelix (nc)
8137.1.1 = { holder=128174600 } # Jaekar (nc)
8187.1.1 = { holder=136174600 } # Methyso (nc)
8228.1.1 = { holder=142174600 } # Haerys (nc)
8230.1.1 = { holder=145174600 } # Jaekar (nc)
8279.1.1 = { holder=100174398 } # Belicho Staegone (C)