7600.1.1={
	law = cognatic_succession
	law = succ_primogeniture
	liege=c_southern_crackclaw_point
}
7830.1.1={holder=318174411}
7880.1.1={holder=317174411}
7905.1.1={holder=316174411}
7930.1.1={holder=315174411}
7955.1.1={holder=314174411}
7980.1.1 = { holder=312174411 } # Balman (nc)
8011.1.1 = { holder=313174411 } # Qarlton (nc)
8027.1.1 = { holder=311174411 } # Dobber (nc)
8052.1.1 = { holder=310174411 } # Will (nc)
8076.1.1 = { holder=308174411 } # Gyles (nc)
8097.1.1 = { holder=307174411 } # Jaremy (nc)
8123.1.1 = { holder=306174411 } # Alan (nc)
8152.1.1 = { holder=305174411 } # Crispian (nc)
8176.1.1 = { holder=304174411 } # Clement (nc)
8196.1.1 = { holder=303174411 } # Mortimer (nc)
8215.1.1 = { holder=302174411 } # Robin (nc)
8254.1.1 = { holder=300174411 } # Maric (nc)
8265.1.1 = { holder=301174411 } # Alyn (nc)