7600.1.1={ 
	liege="k_braavos"
	holding_dynasty = 300541 # Tendyris
}
7834.1.1 = { holder=344300541 } # Daario (nc)
7855.1.1 = { holder=343300541 } # Ferrego (nc)
7887.1.1 = { holder=342300541 } # Lotho (nc)
7906.1.1 = { holder=341300541 } # Nakodos (nc)
7937.1.1 = { holder=340300541 } # Bellaquo (nc)

7994.1.1 = { holder=1100541 } # Roro (nc)
8006.1.1 = { holder=1000541 } # Colloquo (nc)
8015.1.1 = { holder=900541 } # Moredo (nc)
8025.1.1 = { holder=800541 } # Ternesio (nc)
8059.1.1 = { holder=700541 } # Qarro (nc)
8102.1.1 = { holder=600541 } # Jeppo (nc)
8111.1.1 = { holder=500541 } # Yorko (nc)
8161.1.1 = { holder=400541 } # Beqqo (nc)
8194.1.1 = { holder=300541 } # Ferrego (nc)
8205.1.1 = { holder=200541 } # Syrio (nc)
8239.1.1 = { holder=100541 } # Luco (nc)
8282.1.1 = {
	holder=600000048 # Oro Tendyris (C)
}