1.1.1 = { liege="d_wanhu" }
7860.1.1 = { holder = 34569199 }
7886.1.1 = { holder = 34469199 }
7899.1.1 = { holder = 34369199 }
7929.1.1 = { holder = 34269199 }
7951.1.1 = { holder = 34169199 }
7972.1.1 = { holder = 34069199 }
7995.1.1 = { holder = 10069199 }
8023.1.1 = { holder = 10169199 }
8060.1.1 = { holder = 10269199 }
8061.1.1 = { holder = 10669199 }
8105.1.1 = { holder = 11069199 }
8131.1.1 = { holder = 11369199 }
8183.1.1 = { holder = 11669199 }
8198.1.1 = { holder = 12169199 }
8215.1.1 = { holder = 12269199 }
8226.1.1 = { holder = 12469199 }
8257.1.1 = { holder = 12769199 }
8265.1.1 = { holder = 13069199 }
8298.1.1 = { holder = 13369199 }