#House Whitehill
6000.1.1={
	liege="d_dreadfort"
	law = succ_primogeniture
}
7868.1.1 = { holder=344070 } # Gregor (nc)
7880.1.1 = { holder=343070 } # Errold (nc)
7903.1.1 = { holder=342070 } # Ethan (nc)
7935.1.1 = { holder=341070 } # Wendel (nc)
7966.1.1 = { holder=340070 } # Torrhen (nc)

7981.1.1 = { holder=25070 } # Willam (nc)
8025.1.1 = { holder=24070 } # Walton (nc)
8037.1.1 = { holder=23070 } # Walder (nc)
8065.1.1 = { holder=22070 } # Wayn (nc)
8072.1.1 = { holder=21070 } # Edric (nc)
8122.1.1 = { holder=19070 } # Eddard (nc)
8146.1.1 = { holder=18070 } # Porther (nc)
8177.1.1 = { holder=17070 } # Beron (nc) 
8195.1.1 = { holder=16070 } # Bannen (nc)
8201.1.1 = { holder=15070 } # Robett (nc)
8223.1.1 = { holder=14070 } # Larence (nc)
8254.1.1 = { holder=13070 } # Edric (nc)
8277.1.1 = {
	holder=70 # Ludd Whitehill (sc)
}