#House Daevan
5214.1.1 = {
	liege = d_omber
}
7860.1.1 = { holder=34451800 } # Harihar (nc)
7884.1.1 = { holder=34351800 } # Mukesh (nc)
7919.1.1 = { holder=34251800 } # Sahasrad (nc)
7940.1.1 = { holder=34151800 } # Paarth (nc)
7964.1.1 = { holder=34051800 } # Lakshan (nc)
7986.1.1 = { 
	holder=10051800 # Balavant (nc)
} 
8019.1.1 = { holder=10151800 } # Yogesh (nc)
8022.1.1 = { holder=10451800 } # Taresh (nc)
8063.1.1 = { holder=10851800 } # Etash (nc)
8110.1.1 = { holder=11351800 } # Harith (nc)
8126.1.1 = { holder=11551800 } # Ekavir (nc)
8164.1.1 = { holder=11651800 } # Harihar (nc)
8198.1.1 = { holder=12351800 } # Manish (nc)
8213.1.1 = { holder=12751800 } # Ishwar (nc)
8259.1.1 = { holder=12951800 } # Avilash (nc)
8275.1.1 = { holder=13151800 } # Ganesh (nc)
