#House Pahryris
6780.1.1 = { 
	law=succ_primogeniture 
	liege = k_essaria
}
7878.1.1 = { holder=340662900 } # Matarys (nc)
7885.1.1 = { holder=10002900 } # Belicho (nc)
7926.1.1 = { holder=10012900 } # Methyso (nc)
7953.1.1 = { holder=10032900 } # Colloquo (nc)
7969.1.1 = { holder=10062900 } # Belicho (nc)

#Dothraki
7980.1.1 = { 
	holder=100600217  # Rogo (nc)
	liege = d_mardosh
}
8010.1.1 = { holder=102600217 } # Ogo (nc)
8033.1.1 = { holder=107600217 } # Rhogoro (nc)
8070.1.1 = { holder=111600217 } # Mosko (nc)
8089.1.1 = { holder=112600217 } # Temmo (nc)
8093.1.1 = { holder=116600217 } # Cohollo (nc)
8121.1.1 = { holder=121600217 } # Pono (nc)
8125.1.1 = { holder=123600217 } # Zerqollo (nc)
8164.1.1 = { holder=127600217 } # Hezzo (nc)
8166.1.1 = { holder=131600217 } # Moro (nc)
8187.1.1 = { holder=135600217 } # Remekko (nc)
8237.1.1 = { holder=139600217 } # Rhogoro (nc)
8265.1.1 = { holder=142600217 } # Jasso (nc)
8294.1.1 = { holder=147600217 } # Remekko (nc)