#House Stackspear
900.1.1={
	liege="d_ashemark"
	law = succ_primogeniture
}
7861.1.1 = { holder=344202 } # Walderan (nc)
7875.1.1 = { holder=343202 } # Marq (nc)
7909.1.1 = { holder=342202 } # Andros (nc)
7929.1.1 = { holder=341202 } # Harold (nc)
7969.1.1 = { holder=340202 } # Selmond (nc)

7994.1.1 = { holder=15202 } # Willam (nc) 
8011.1.1 = { holder=14202 } # Jon (nc)
8036.1.1 = { holder=13202 } # Damon (nc)
8084.1.1 = { holder=12202 } # Marq (nc)
8090.1.1 = { holder=11202 } # Walder (nc)
8120.1.1 = { holder=10202 } # Willam (C)
8156.1.1 = { holder=9202 } # Alyn (nc)
8196.1.1 = { holder=7202 } # Tommen (nc)
8245.1.1 = { holder=6202 } # Jon (nc)
8255.1.1 = { holder=5202 } # Martyn (nc)
8276.1.1 = { holder=202 }