600.1.1={
	liege="d_wuan"
}
7995.1.1 = { holder=10069214 }
8032.1.1 = { holder=10169214 }
8038.1.1 = { holder=10469214 }
8094.1.1 = { holder=10569214 }
8117.1.1 = { holder=10769214 }
8124.1.1 = { holder=11569214 }
8146.1.1 = { holder=11669214 }
8182.1.1 = { holder=12069214 }
8217.1.1 = { holder=12469214 }
8244.1.1 = { holder=12869214 }
8256.1.1 = { holder=13069214 }
8291.1.1 = { holder=13269214 }
8299.1.1 = { holder=13369214 }

