900.1.1={ 
	liege="d_pyke"
	law=succ_primogeniture
	law=agnatic_succession
}
7780.1.1 = { holder=1511507 } # Cadron (nc)
7803.1.1 = { holder=1361507 } # Harlon (nc)
7860.1.1 = { holder=1371507 } # Ygon (nc)
7876.1.1 = { holder=1381507 } # Hilmar (nc)
7919.1.1 = { holder=1431507 } # Dagmer (nc)
7948.1.1 = { holder=1491507 } # Todric (nc)
7970.1.1 = { holder=1501507 } # Cadron (nc)
7995.1.1 = { holder=1001507 } # Cadwyl (nc)
8018.1.1 = { holder=1041507 } # Hagen (nc)
8061.1.1 = { holder=1061507 } # Manfryd (nc)
8079.1.1 = { holder=1081507 } # Romny (nc)
8096.1.1 = { holder=1101507 } # Gyles (nc)
8151.1.1 = { holder=1131507 } # Sargon (nc)
8161.1.1 = { holder=1141507 } # Harlon (nc)
8182.1.1 = { holder=1151507 } # Erik (nc)
8194.1.1 = { holder=1161507 } # Sawane (nc)
8220.1.1 = { holder=1201507 } # Alyn (nc)
8266.1.1 = { holder=1261507 } # Andrik (nc)
8274.1.1 = { holder=1281507 } # Qalen (nc)