1.1.1={
	liege="d_wolfswood"
	law = succ_primogeniture
}

2963.1.1={
	holder = 1040124 #
}	
3009.1.1 = {
	holder = 0
}
7868.1.1 = { holder=344062 } # Galbart (nc)
7880.1.1 = { holder=343062 } # Gareth (nc)
7902.1.1 = { holder=342062 } # Edric (nc)
7922.1.1 = { holder=341062 } # Cedric (nc)
7945.1.1 = { holder=340062 } # Osric (nc)

7973.1.1 = { holder=19062 } # Gawen (nc)
8013.1.1 = { holder=18062 } # Edric (nc)
8019.1.1 = { holder=17062 } # Hullen (nc)
8035.1.1 = { holder=16062 } # Rodwell (nc)
8045.1.1 = { holder=15062 } # Edderion (nc)
8077.1.1 = { holder=14062 } # Barthogan (nc)
8091.1.1 = { holder=13062 } # Edric (nc)
8108.1.1 = { holder=12062 } # Wylis (nc)
8145.1.1 = { holder=10062 } # Bowen (nc)
8178.1.1 = { holder=9062 } # Rodwell (nc)
8192.1.1 = { holder=8062 } # Rodrik (nc)
8222.1.1 = { holder=7062 } # Rickon (nc)
8249.1.1={
	holder=5062
}
8284.1.1={
	holder=62 # Galbart Glover (C)
}
