#House Stane
6000.1.1={
	liege="e_north"
	law = succ_primogeniture
}
7851.1.1 = { holder=344106 } # Wendel (nc)
7869.1.1 = { holder=343106 } # Howd (nc)
7894.1.1 = { holder=342106 } # Ygon (nc)
7922.1.1 = { holder=341106 } # Brogg (nc)
7941.1.1 = { holder=340106 } # Soren (nc)

7966.1.1 = { holder=17106 } # Styr (nc)
7993.1.1 = { holder=16106 } # Soren (nc)
7999.1.1 = {
	liege="k_north"
}
8011.1.1 = { holder=15106 } # Sigorn (nc)
8029.1.1 = { holder=14106 } # Qhorin (nc)
8051.1.1 = { holder=13106 } # Yoren (nc)
8077.1.1 = { holder=12106 } # Hallis (nc)
8095.1.1 = { holder=11106 } # Henk (nc)
8101.1.1 = { holder=10106 } # Arson (nc)
8145.1.1 = { holder=9106 } # Bodger (nc)
8150.1.1 = { holder=8106 } # Harmond (nc)
8194.1.1 = { holder=7106 } # Harmond (nc)
8195.1.1 = {
	liege = d_skagos
}
8196.1.1 = {
	liege = 0
}
8197.1.1 = {
	liege="k_north"
}
8203.1.1 = { holder=6106 } # Arnolf (nc)
8223.1.1 = { holder=5106 } # Gendel (nc)
8230.1.1 = { holder=4106 } # Torghen (nc)
8272.1.5 = { holder=106 }
