#House Musgood
202.1.1 = {liege="d_shipbreaker"}
7866.1.1 = { holder=344362 } # Jack (nc)
7885.1.1 = { holder=343362 } # Rolland (nc)
7899.1.1 = { holder=342362 } # Garse (nc)
7925.1.1 = { holder=341362 } # Pearse (nc)
7961.1.1 = { holder=340362 } # Leslyn (nc)

7976.1.1 = { holder=60000362 } # Michael (nc)
8009.1.1 = { holder=3000362 } # Armond (nc)
8034.1.1 = { holder=3001362 } # Alaric (nc)
8071.1.1 = { holder=3003362 } # Arys (nc)
8078.1.1 = { holder=3006362 } # Lyana (nc)
8099.1.1 = { holder=3014362 } # Alaric (nc)
8131.1.1 = { holder=3017362 } # Awen (nc)
8144.1.1 = { holder=3018362 } # Alesander (nc)
8146.1.1 = { holder=3019362 } # Allard (nc)
8194.1.1 = { holder=3021362 } # Alaric (nc)
8202.1.1 = { holder=3025362 } # Awen (nc)
8231.1.1 = { holder=3026362 } # Alesander (nc)
8233.1.1 = { holder=3032362 } # Arrys (nc)
8270.1.1 = { holder=3035362 } # Alaric (nc)
8294.1.1 = { holder=3038362 } # Argilac (nc)