#House Swygert
202.1.1 = {liege="d_shipbreaker"}
7853.1.1 = { holder=345361 } # Eglantine (nc)
7874.1.1 = { holder=344361 } # Glendon (nc)
7888.1.1 = { holder=343361 } # Richard (nc)
7910.1.1 = { holder=342361 } # Orbert (nc)
7944.1.1 = { holder=341361 } # Osmund (nc)
7972.1.1 = { holder=340361 } # Podrick (nc)

7994.1.1 = { holder=300361 } # Durran (nc)
8004.1.1 = { holder=301361 } # Joffrey (nc)
8024.1.1 = { holder=303361 } # Lyonel (nc)
8062.1.1 = { holder=306361 } # Gawen (nc)
8083.1.1 = { holder=308361 } # Ronnet (nc)
8119.1.1 = { holder=309361 } # Raymund (nc)
8139.1.1 = { holder=310361 } # Simon (nc)
8154.1.1 = { holder=313361 } # Byron (nc)
8176.1.1 = { holder=315361 } # Arstan (nc)
8221.1.1 = { holder=318361 } # Endrew (nc)
8241.1.1 = { holder=319361 } # Elinor (nc)
8260.1.1 = { holder=322361 } # Gunthor (nc)