#House Riznahz
600.1.1={
	liege="k_new_ghis"
}
7868.1.1 = { holder=34469152 } # Gorghan (nc)
7879.1.1 = { holder=34369152 } # Zhezzan (nc)
7905.1.1 = { holder=34269152 } # Skahaz (nc)
7959.1.1 = { holder=34169152 } # Razlahr (nc)
7981.1.1 = { holder=34069152 } # Gadhaz (nc)

7995.1.1 = { holder=100069152 } # Azzak (nc)
8036.1.1 = { holder=100269152 } # Faezdhar (nc)
8058.1.1 = { holder=100669152 } # Gorzhak (nc)
8073.1.1 = { holder=100869152 } # Reznak (nc)
8100.1.1 = { holder=101069152 } # Zaraq (nc)
8135.1.1 = { holder=101269152 } # Morghaz (nc)
8166.1.1 = { holder=101669152 } # Harghaz (nc)
8179.1.1 = { holder=102169152 } # Grazdhan (nc)
8233.1.1 = { holder=102369152 } # Yurkhaz (nc)
8255.1.1 = { holder=102469152 } # Morghaz (nc)
8268.1.1 = { holder=102869152 } # Mazdhan (nc)
8298.1.1 = { holder=103169152 } # Barghaz (nc)
