#c_golden_tooth
900.1.1={
	liege="d_golden_tooth"
}
7826.1.1 = { holder=323213 }
7884.1.1 = { holder=322213 }
7902.1.1 = { holder=321213 }
7933.1.1 = { holder=320213 }
7960.1.1 = { holder=319213 }
7985.1.1 = { holder=317213 }
8018.1.1 = { holder = 315213 }
8032.1.1 = { holder = 314213 }
8058.1.1 = { holder = 312213 }
8111.1.1 = { holder = 311213 }
8130.1.1 = { holder = 310213 }
8154.1.1 = { holder = 305213 } # Lyonel Lefford
8186.1.1 = { holder = 202213 }
8195.6.1 = { holder = 303213 }
8196.5.7 = { holder = 302213 }
8252.1.1 = { holder = 301213 }
8259.3.8 = { holder = 300213 }
8272.1.1 = {holder=213}
8299.6.24 = {holder=4213}
