6000.1.1={
	liege="d_theneck"
	law = succ_primogeniture
}
6447.1.1={
	holder = 1050125
}
6476.1.1={
	holder = 0
}
7863.1.1 = { holder=344074 } # Bowen (nc)
7881.1.1 = { holder=343074 } # Beren (nc)
7900.1.1 = { holder=342074 } # Farlen (nc)
7922.1.1 = { holder=341074 } # Rodrik (nc)
7956.1.1 = { holder=340074 } # Eyron (nc)

7987.1.1 = { holder=13074 } # Medger (nc)
8025.1.1 = { holder=12074 } # Mikken (nc)
8031.1.1 = { holder=11074 } # Ethan (nc)
8063.1.1 = { holder=14074 } # Jeor (nc)
8110.1.1 = { holder=8074 } # Leobald (nc)
8145.1.1 = { holder=7074 } # Martyn (nc) 
8162.1.1 = { holder=6074 } # Vayon (nc)
8204.1.1 = { holder=4074 } # Cley (nc)
8229.1.1 = { holder=3074 } # Rodwell (nc)
8262.1.1 = {
	holder = 74
}
