#House Errol
202.1.1 = { liege="d_wendwater" }

7853.1.1 = { holder = 333318 } # Sebastion (nc)
7869.1.1 = { holder = 332318 } # Myles (nc)
7902.1.1 = { holder = 331318 } # Patrek (nc)
7933.1.1 = { holder = 330318 } # Richard (nc)

7970.1.1 = { holder = 305318 } # Edric (nc)
7996.1.1 = { holder = 300318 } # Stannis (nc)
7998.2.1 = { holder = 301318 } # Steffon (nc)
8072.1.1 = { holder = 303318 } # Tryston (nc)
8080.1.1 = { holder = 304318 } # Ormund (nc)
8109.1.1 = { holder = 306318 } # Tryston (nc)
8134.1.1 = { holder = 307318 } # Tommen (nc)
8167.1.1 = { holder = 308318 } # Terrence (nc)
8202.1.1 = { holder = 309318 } # Simon (nc)
8228.1.1 = { holder = 310318 } # Terrence (nc)
8253.1.1 = { holder = 311318 } # Stewys (nc)

8269.1.1 = { holder = 318 } # Shyra Errol (C)
8299.3.1 = { holder = 2318 } # Sebastion Errol (C)
