600.1.1={
	liege="d_hengyin"
}
7995.1.1 = { holder=10069101 }
8032.1.1 = { holder=10269101 }
8055.1.1 = { holder=10669101 }
8074.1.1 = { holder=10869101 }
8112.1.1 = { holder=11069101 }
8150.1.1 = { holder=11169101 }
8186.1.1 = { holder=11469101 }
8194.1.1 = { holder=11769101 }
8206.1.1 = { holder=12169101 }
8240.1.1 = { holder=12469101 }
8242.1.1 = { holder=12869101 }
8270.1.1 = { holder=12969101 }



