#House Uller
7000.1.1={
	liege="e_dorne"
	law = true_cognatic_succession
}

7266.1.1 = {
	holder = 150013
}
7316.1.1 = { holder = 0 }

7848.1.1 = { holder=155013 } # Benedict (nc)
7873.1.1 = { holder=154013 } # Harmon (nc)
7900.1.1 = { holder=153013 } # Eselle (nc)
7928.1.1 = { holder=152013 } # Lewyn (nc)
7971.1.1 = { holder=60013 } # Symon (nc)
7996.1.1 = { holder=60113 } # Uthor (C)
8010.6.1 = { holder=60213 } # Quentyn (nc)
8011.1.1 = { holder=60413 } # Ryon (nc)
8011.6.1 = { holder=61113 } # Arron (nc)
8012.1.1 = { holder=60313 } # Elyana (nc)
8051.1.1 = { holder=60813 } # Elyana (nc)
8090.1.1 = { holder=61213 } # Melessa (nc)
8129.1.1 = { holder=61313 } # Archibald (nc)
8146.1.1 = { holder=61513 } # Arthur (nc)
8172.1.1 = { holder=62513 } # Symon (nc)
8187.6.1 = {liege=k_dorne}
8196.4.18 = { holder=62913 } # Theodan (nc)
8211.2.10 = { holder=63113 } # Doran (nc)
8243.1.1 = { holder=63613 } # Daemon (nc)
8259.2.17 = { holder=9013 } # Boran (nc)
8276.2.12 = { holder=13 } # Harman (C)