600.1.1={
	liege="d_piqui_jungle"
}
7854.1.1 = { holder=34469101 } # Qo (nc)
7885.1.1 = { holder=34369101 } # Rai (nc)
7915.1.1 = { holder=34269101 } # Luen (nc)
7939.1.1 = { holder=34169101 } # Shoq (nc)
7965.1.1 = { holder=34069101 } # Dan (nc)

7990.1.1 = { holder=10069101 } # Fai (nc)
8032.1.1 = { holder=10269101 } # Abdullah (nc)
8055.1.1 = { holder=10669101 } # Nizam (nc)
8074.1.1 = { holder=10869101 } # Bahir (nc)
8112.1.1 = { holder=11069101 } # Hafiz (nc)
8150.1.1 = { holder=11169101 } # Husam (nc)
8186.1.1 = { holder=11469101 } # Azam (nc)
8194.1.1 = { holder=11769101 } # Yusuf (nc)
8206.1.1 = { holder=12169101 } # Qawurd (nc)
8240.1.1 = { holder=12469101 } # Bahir (nc)
8242.1.1 = { holder=12869101 } # Uways (nc)
8270.1.1 = { holder=12969101 } # Ghalib (nc)



