#House Moth
600.1.1={
	liege="d_bayofwhales"
}
7854.1.1 = { holder=34555927 } # Bodger (nc)
7871.1.1 = { holder=34455927 } # Jarr (nc)
7890.1.1 = { holder=34355927 } # Draloth (nc)
7912.1.1 = { holder=34255927 } # Togg (nc)
7930.1.1 = { holder=34155927 } # Moggoth (nc)
7966.1.1 = { holder=34055927 } # Bodger (nc)

7990.1.1 = { holder=1055927 } # Togg (nc)
8022.1.1 = { holder=1155927 } # Togg (nc)
8040.1.1 = { holder=1655927 } # Groo (nc)
8042.1.1 = { holder=1755927 } # Caloth (nc)
8081.1.1 = { holder=1955927 } # Tugg (nc)
8127.1.1 = { holder=2155927 } # Galt (nc)
8146.1.1 = { holder=2255927 } # Galt (nc)
8159.1.1 = { holder=2555927 } # Slugg (nc)
8229.1.1 = { holder=2855927 } # Togg (nc)
8255.1.1 = { holder=3255927 } # Krull (nc)
8263.1.1 = { holder=3355927 } # Durr (nc)
8296.1.1 = { holder=3755927 } # Holger (nc)