600.1.1={
	liege="d_yuantong"
}
7995.1.1 = { holder=10069102 }
8022.1.1 = { holder=10169102 }
8030.1.1 = { holder=10469102 }
8052.1.1 = { holder=10569102 }
8099.1.1 = { holder=11369102 }
8148.1.1 = { holder=11669102 }
8160.1.1 = { holder=11969102 }
8174.1.1 = { holder=12369102 }
8192.1.1 = { holder=12769102 }
8224.1.1 = { holder=13069102 }
8251.1.1 = { holder=13169102 }
8275.1.1 = { holder=13769102 }
8286.1.1 = { holder=13969102 }
8299.1.1 = { holder=14169102 }

