#House Kenning
900.1.1={
	liege="e_westerlands"
}
5335.1.1 = {
	holder = 150195 #Herrock Whoreson
}
5365.1.1 = { holder = 0 }

7866.1.1 = { holder=340195 } # Harras (nc)
7880.1.1 = { holder=315195 } # Herrock (nc)
7905.1.1 = { holder=314195 } # Dagmer (nc)
7945.1.1 = { holder=313195 } # Balon (nc)
7975.1.1 = { holder=312195 } # Loren (nc)
7982.1.1 = { holder=311195 } # Quellon (nc)
7998.6.6 = { holder=310195 } # Tymor (nc)
7998.7.6 = {
	liege="k_westerlands"
}
8036.1.1 = { holder=309195 } # Gevin (nc)
8040.1.1 = { holder=308195 } # Terrence (nc)
8093.1.1 = { holder=307195 } # Myles (nc)
8116.1.1 = { holder=306195 } # Preston (nc)
8130.1.1 = { holder=305195 } # Herrock (nc)
8173.1.1 = { holder=304195 } # Harold (nc)
8196.5.5 = { holder=303195 } # Garth (nc)
8236.1.1 = { holder=302195 } # Rupert (nc)
8261.1.1 = { holder=300195 } # Pallyn (nc)
8273.1.1 = { 
	holder = 195  # Terrence Kenning (C)
}