7885.1.1 = { 
	holder=342600226 # Rovo (nc)
	liege = d_krazaaj_zasque 
}
7892.1.1 = { holder=341600226 } # Najaho (nc)
7908.1.1 = { holder=340600226 } # Kovarro (nc)
7936.1.1 = { 
	holder=100600226  #Khal Scoro (C)
}
7951.1.1 = {
	liege=0
}
7966.1.1 = { holder=100600227 } #Khal Rogo (C)
7973.1.1 = { holder=600223 } #Khal Qano (C)

#NC Fillers
7985.1.1 = { holder=100600211 }  # Zirqo (nc)
8022.1.1 = { holder=101600211 } # Fogo (nc)
8058.1.1 = { holder=102600211 } # Hezzo (nc)
8066.1.1 = { holder=104600211 } # Jarbo (nc)
8067.1.1 = { holder=106600211 } # Zirqo (nc)
8098.1.1 = { holder=111600211 } # Scoro (nc)
8113.1.1 = { holder=112600211 } # Zollo (nc)
8122.1.1 = { holder=115600211 } # Tihho (nc)
8169.1.1 = { holder=118600211 } # Lanno (nc)
8193.1.1 = { holder=121600211 } # Marro (nc)
8203.1.1 = { holder=123600211 } # Mosko (nc)
8214.1.1 = { holder=126600211 } # Arakho (nc)
8247.1.1 = { holder=128600211 } # Jasso (nc)
8256.1.1 = { holder=130600211 } # Brozho (nc)
