#House Long
900.1.1={ law=succ_primogeniture law=cognatic_succession
	liege="d_whiteharbor"
}
7866.1.1 = { holder=345800841 } # Quenton (nc)
7882.1.1 = { holder=344800841 } # Walder (nc)
7903.1.1 = { holder=343800841 } # Leobald (nc)
7939.1.1 = { holder=342800841 } # Galbart (nc)
7955.1.1 = { holder=341800841 } # Normund (nc)
7980.1.1 = { holder=340800841 } # Wynton (nc)
7993.1.1 = { holder=12800841 } # Walton (nc)
8054.1.1 = { holder=11800841 } # Gareth (nc)
8080.1.1 = { holder=10800841 } # Domeric (nc)
8086.1.1 = { holder=9800841 } # Karlon (nc)
8129.1.1 = { holder=8800841 } # Bowen (nc)
8143.1.1 = { holder=7800841 } # Lucan (nc)
8186.1.1 = { holder=6800841 } # Barthogan (nc)
8210.1.1 = { holder=5800841 } # Hoarfrost (nc)
8241.1.1 = { holder=4800841 } # Arnolf (nc)
8273.1.1 = { holder=3800841 } # Hendry (nc)
8281.1.1 = { holder=800841 }