#House Lake
6000.1.1= {
	liege="d_lasthearth"
	law = succ_primogeniture
}
7858.1.1 = { holder=344094 } # Gavin (nc)
7875.1.1 = { holder=343094 } # Ethan (nc)
7899.1.1 = { holder=342094 } # Lorick (nc)
7931.1.1 = { holder=341094 } # Leobald (nc)
7966.1.1 = { holder=340094 } # Harwin (nc)

7976.1.1 = { holder=15094 } # Larence (nc)
8013.1.1 = { holder=13094 } # Wynton (nc)
8042.1.1 = { holder=12094 } # Duncan (nc)
8057.1.1 = { holder=11094 } # Qhorin (nc)
8066.1.1 = { holder=10094 } # Hother (nc)
8112.1.1 = { holder=9094 } # Willam (nc)
8142.1.1 = { holder=8094 } # Joseth (nc)
8156.1.1 = { holder=7094 } # Howland (nc)
8177.1.1 = { holder=6094 } # Alyn (nc) 
8184.9.10 = { holder=5094 } # Jeor (nc)
8229.1.1 = { holder=4094 } # Ronnel (nc)
8239.1.1 = { holder=3094 } # Karlon (nc)
8262.1.5 = {
	holder=94
}


