600.1.1={
	liege="d_jinqi"
}
7995.1.1 = { holder=10069191 }
8031.1.1 = { holder=10569191 }
8059.1.1 = { holder=10769191 }
8065.1.1 = { holder=11069191 }
8122.1.1 = { holder=11869191 }
8134.1.1 = { holder=11969191 }
8167.1.1 = { holder=12369191 }
8201.1.1 = { holder=12569191 }
8213.1.1 = { holder=13169191 }
8254.1.1 = { holder=13369191 }
8259.1.1 = { holder=13769191 }
8289.1.1 = { holder=13969191 }


