7860.1.1 = { holder=340560345 } # Dormund (nc)
7877.1.1 = { holder=341560345 } # Quort (nc)
7894.1.1 = { holder=342560345 } # Joseth (nc)
7904.1.1 = { holder=343560345 } # Harlon (nc)
7972.1.1 = { holder=344560345 } # Zia (nc)
7980.1.1 = { holder=345560345 } # Joramun (nc)
7996.1.1 = { holder=10560345 } # Brogg (nc)
8021.1.1 = { holder=11560345 } # Torwynd (nc)
8049.1.1 = { holder=12560345 } # Bump (nc)
8074.1.1 = { holder=15560345 } # Brogg (nc)
8077.1.1 = { holder=20560345 } # Dormund (nc)
8108.1.1 = { holder=22560345 } # Ondrew (nc)
8132.1.1 = { holder=23560345 } # Jojen (nc)
8166.1.1 = { holder=24560345 } # Bump (nc)
8189.1.1 = { holder=25560345 } # Galbart (nc)
8200.1.1 = { holder=28560345 } # Del (nc)
8213.1.1 = {
	liege="k_beyond_wall"
}
8219.1.1 = { holder=29560345 } # Bump (nc)
8226.9.9 = {
	liege=0
}

8273.1.1 = { holder=31560345 } # Errok (nc)
8286.1.1 = { holder=34560345 } # Wallen (nc)

8298.1.1 = {
	liege="k_beyond_wall"
}
8300.2.10 = {
	liege="d_haunted_forest"
	holder=174345 #Tormund Giantsbane
}
8300.8.17 = { 
	holder=999000666 #Abandoned
}