#House Paenymion
600.1.1={
	liege="k_volantis"
}
7860.1.1 = { holder=344174372 } # Relapho (nc)
7884.1.1 = { holder=343174372 } # Paranys (nc)
7915.1.1 = { holder=342174372 } # Qoronno (nc)
7940.1.1 = { holder=341174372 } # Tybero (nc)
7966.1.1 = { holder=340174372 } # Vysarro (nc)

7983.1.1 = { holder=100174372 } # Aenar (nc)
8045.1.1 = { holder=102174372 } # Horonno (nc)
8049.1.1 = { holder=105174372 } # Vaekar (nc)
8076.1.1 = { holder=107174372 } # Belicho (nc)
8079.1.1 = { holder=110174372 } # Doniphos (nc)
8094.1.1 = { holder=111174372 } # Orys (nc)
8121.1.1 = { holder=112174372 } # Qavo (nc)
8159.1.1 = { holder=123174372 } # Matarys (nc)
8167.1.1 = { holder=125174372 } # Nyessos (nc)
8170.1.1 = { holder=127174372 } # Benerro (nc)
8198.1.1 = { holder=133174372 } # Qavo (nc)
8231.1.1 = { holder=135174372 } # Aenar (nc)
8260.1.1 = { holder=137174372 } # Moqorro (nc)
8276.1.1 = { holder=138174372 } # Belicho (nc)
8278.1.1 = { holder=142174372 } # Doniphos (C)