#House Solaju
7800.1.1 = {
	liege=d_omburu
	law = succ_seniority
	law = cognatic_succession
}
7856.1.1 = { holder=340304031 } # Qaro (nc)
7860.1.1 = { holder=341304031 } # Dubaya (nc)
7917.1.1 = { holder=342304031 } # Bapato (nc)
7943.1.1 = { holder=343304031 } # Alayaya (nc)
7983.1.1 = { holder=344304031 } # Gwahura (nc)
7997.1.1 = { holder=100304031 } # Simbhar (nc)
8036.1.1 = { holder=104304031 } # Punuxharo (nc)
8086.1.1 = { holder=107304031 } # Xhoan (nc)
8102.1.1 = { holder=108304031 } # Sango (nc)
8108.1.1 = { holder=110304031 } # Quhuru (nc)
8135.1.1 = { holder=113304031 } # Rudo (nc)
8167.1.1 = { holder=115304031 } # Qaro (nc)
8169.1.1 = { holder=117304031 } # Nyadundo (nc)
8195.1.1 = { holder=120304031 } # Odingaxho (nc)
8241.1.1 = { holder=123304031 } # Qaro (nc)
8242.1.1 = { holder=124304031 } # Siboxhoan (nc)
8289.1.1 = { holder=131304031 } # Makhan (nc)

