600.1.1={
	liege="d_yongchun"
}
7995.1.1 = { holder=10069197 }
8032.1.1 = { holder=10169197 }
8044.1.1 = { holder=10569197 }
8098.1.1 = { holder=10669197 }
8117.1.1 = { holder=10969197 }
8139.1.1 = { holder=11069197 }
8143.1.1 = { holder=11569197 }
8166.1.1 = { holder=12069197 }
8197.1.1 = { holder=12469197 }
8212.1.1 = { holder=12769197 }
8245.1.1 = { holder=13069197 }
8280.1.1 = { holder=13569197 }
8299.1.1 = { holder=13769197 }


