6000.1.1={
	liege="e_riverlands"
	law = succ_primogeniture
}
7832.1.1={
	holder=34136
}
7880.1.1={
	holder=33136
}
7900.1.1={
	holder=32136
}
7924.1.1={
	holder=31136
}
7956.1.1={
	holder=30136
}
7980.1.1={
	holder=23136
}
7998.2.1={
	liege="k_riverlands"
}
8007.1.1={
	holder=22136
}
8025.1.1={
	holder=21136
}
8044.6.1={
	liege="d_esgaroth"
}
8046.1.1={
	holder=20136
}
8067.1.1={
	holder=19136
}
8088.1.1={
	holder=18136
}
8106.1.1={
	holder=17136
}
8137.1.1={
	holder=16136
}
8159.1.1={
	holder=15136
}
8183.1.1={
	holder=14136
}
8204.1.1={
	holder=13136
}
8212.1.1={
	liege = d_harrenhal
}
8220.1.1={
	holder=12136
}
8239.1.1={
	holder=11136
}
8274.1.1={
	holder=136
}
8290.1.1 = {
	holder=140136
}
8298.11.2={
	liege = k_riverlands
}
8299.11.5 = {
	liege = d_harrenhal
}