7849.1.1 = { holder=340559357 } # Gavin (nc)
7880.1.1 = { holder=342559357 } # Doss (nc)
7921.1.1 = { holder=343559357 } # Briar (nc)
7939.1.1 = { holder=344559357 } # Craster (nc)
7952.1.1 = { holder=345559357 } # Gariss (nc)
7991.1.1 = { holder=10559357 } # Quent (nc)
8047.1.1 = { holder=11559357 } # Gerrick (nc)
8069.1.1 = { holder=16559357 } # Arson (nc)
8078.1.1 = { holder=17559357 } # Errok (nc)
8092.1.1 = { holder=19559357 } # Ondrew (nc)
8097.1.1 = { holder=20559357 } # Eyron (nc)
8128.1.1 = { holder=21559357 } # Arson (nc)
8159.1.1 = { holder=22559357 } # Henk (nc)
8178.1.1 = { holder=23559357 } # Gorne (nc)
8213.1.1={
	liege="k_beyond_wall"
}
8222.1.1 = { holder=25559357 } # Bael (nc)
8226.9.9={
	liege="0"
}
8265.1.1 = { holder=30559357 } # Toregg (nc)

8298.1.1 = {
	liege="k_beyond_wall"
}
8300.1.1 = { holder=31559357 } # Arthor (nc)
8300.2.10 = {
	holder=999000666
}