#House Crabb
6600.1.1={
	holder=60021197 # Ser Clarence Crabb
	law = succ_primogeniture
}
6625.1.1={ holder= 0 }
7860.1.1 = { holder=3441197 } # Dickon (nc)
7877.1.1 = { holder=3431197 } # Roben (nc)
7887.1.1 = { 
	liege="d_crackclaw_point"
}
7902.1.1 = { 
	liege = 0
}
7915.1.1 = { holder=3421197 } # Clement (nc)
7926.1.1 = { holder=3411197 } # Clarence (nc)
7938.1.1 = { holder=3401197 } # Bandon (nc)

7940.1.1 = { holder=60001197 } # Alan (nc)
7990.1.1 = { holder=60011197 } # Osmund (nc)
7998.2.1={
	liege="e_iron_throne"
}
8022.1.1 = { holder=60101197 } # Duncan (nc)
8037.1.1 = { holder=60111197 } # Gyles (nc)
8080.1.1 = { holder=60121197 } # Clayton (nc)
8102.1.1 = { holder=60191197 } # Triston (nc)
8109.1.1 = { holder=60211197 } # Rennifer (C)
8160.1.1 = { holder=60221197 } # Belgrave (nc)
8181.1.1 = { holder=60291197 } # Devan (nc)
8203.1.1 = { holder=60311197 } # Clarence (nc)
8240.1.1 = { holder=60331197 } # Wallace (nc)
8269.1.1 = { holder=60361197 } # Lucifer (nc)
