#House Nin-marki
7865.1.1 = { holder=34533901 } # Belshun (nc)
7881.1.1 = { holder=34433901 } # Errath (nc)
7903.1.1 = { holder=34333901 } # Iddin (nc)
7931.1.1 = { holder=34233901 } # Ninurta (nc)
7940.1.1 = { holder=34133901 } # Shulgi (nc)
7967.1.1 = { holder=34033901 } # Limer (nc)

7985.1.1 = { holder=10033901 } # Munawirtum (nc)
8037.1.1 = { holder=10333901 } # Ishtup (nc)
8064.1.1 = { holder=10533901 } # Puzur (nc)
8080.1.1 = { holder=11233901 } # Hunhal (nc)
8090.1.1 = { holder=11533901 } # Dadanum (nc)
8131.1.1 = { holder=11633901 } # Lugatum (nc)
8153.1.1 = { holder=11833901 } # Yasmath (nc)
8167.1.1 = { holder=12033901 } # Awil (nc)
8177.1.1 = { holder=12233901 } # Nawirum (nc)
8183.1.1 = { holder=12533901 } # Bunuth (nc)
8203.1.1 = { holder=12833901 } # Wusum (nc)
8268.1.1 = { holder=13033901 } # Ugazum (nc)
8281.1.1 = { holder=13133901 } # Enlil (nc)
8290.1.1 = { holder=13433901 } # Sidu (nc)


