#House Kankkunen
7862.1.1 = { 
	holder=100400414  # Yusuf (nc)
	liege = d_adakhakileki
}
7881.1.1 = { holder=101400414 } # Bahir (nc)

#Dothraki
7905.1.1 = { holder=341600234 } # Dosko (nc)
7923.1.1 = { holder=340600234 } # Hezzo (nc)
7938.1.1 = { holder=100600208 } # Horro (C)

#Field of Crows Khal
7946.1.1 = { holder=600224 } # Haro (C)
7975.1.1 = { holder=600225 } # Zeggo (C)

#NC Fillers
7986.1.1 = { holder=100600212 } # Onqo (nc)
8004.1.1 = { holder=102600212 } # Remekko (nc)
8058.1.1 = { holder=104600212 } # Iggo (nc)
8059.1.1 = { holder=106600212 } # Jhogo (nc)
8078.1.1 = { holder=109600212 } # Mago (nc)
8082.1.1 = { holder=108600212 } # Malakho (nc)
8083.1.1 = { holder=112600212 } # Zeggo (nc)
8115.1.1 = { holder=116600212 } # Onqo (nc)
8134.1.1 = { holder=114600212 } # Horro (nc)
8140.1.1 = { holder=117600212 } # Jhogo (nc)
8164.1.1 = { holder=118600212 } # Iggo (nc)
8167.1.1 = { holder=122600212 } # Scoro (nc)
8199.1.1 = { holder=123600212 } # Hezzo (nc)
8219.1.1 = { holder=127600212 } # Temmo (nc)
8222.1.1 = { holder=126600212 } # Arakho (nc)
8234.1.1 = { holder=133600212 } # Cohollo (nc)
8257.1.1 = { holder=136600212 } # Onqo (nc)
8269.1.1 = { holder=140600212 } # Moro (nc)

8287.1.1 = {
	holder = 3300101 #Pono
}
8298.10.10 = {
	holder=140600212
}