20.1.1={
	active = no
}
8298.10.28={
	active = yes
	#liege = e_iron_throne
	holder = 1303 #Beric Dondarrion
	law = succ_open_elective
	effect = { 
		set_title_flag = brotherhood_rebellion
		set_title_flag = outlaw_title
		k_riverlands = { #remove temp title
			holder_scope = {
				c_redfork = {
					gain_title = PREV
				}
			}
		}
		succession = open_elective
		holder_scope = {
			set_government_type = outlaw_government
			recalc_succession = yes
			long_character_event = { id = feast_for_crows.70 }
			any_courtier = {
				e_iron_throne = {
					holder_scope = {
						opinion = {
							modifier = opinion_traitor
							who = PREVPREV
						}
					}
				}
			}	
			#Forbid raids against stark or tully lands
			c_1002059 = { #Jon Snow
				reverse_opinion = { who = ROOT modifier = forbidden_raid_target months = 120 } #forbid further raids
				any_dynasty_member = {
					reverse_opinion = { who = ROOT modifier = forbidden_raid_target months = 120 } #forbid further raids
				}
			}	
			c_4159 = { #Edmure
				reverse_opinion = { who = ROOT modifier = forbidden_raid_target months = 120 } #forbid further raids
				any_dynasty_member = {
					reverse_opinion = { who = ROOT modifier = forbidden_raid_target months = 120 } #forbid further raids
				}
			}
			
			spawn_unit = {
				province = 93 #The Red Fork
				owner = THIS
				troops = {
					archers = { 22 22 }
					heavy_infantry = { 300 300 }
					light_infantry = { 600 600 }	
					light_cavalry = { 150 150 }		
					knights = { 25 25 }						
				}
				attrition = 0.25
				is_looter = yes
				can_toggle_looting = no
			}
			spawn_unit = {
				province = 93 #The Red Fork
				owner = THIS
				troops = {
					archers = { 22 22 }
					heavy_infantry = { 300 300 }
					light_infantry = { 600 600 }	
					light_cavalry = { 150 150 }		
					knights = { 25 25 }						
				}
				attrition = 0.25
				is_looter = yes
				can_toggle_looting = no
			}
			spawn_unit = {
				province = 93 #The Red Fork
				owner = THIS
				troops = {
					archers = { 22 22 }
					heavy_infantry = { 300 300 }
					light_infantry = { 600 600 }	
					light_cavalry = { 150 150 }		
					knights = { 25 25 }						
				}
				attrition = 0.25
				is_looter = yes
				can_toggle_looting = no
			}
		}			
	}
}
8299.11.5 = {
	holder = 250159 #Lady Stoneheart
}