6000.1.1={
	law = succ_primogeniture
}
6349.1.1 = { liege="e_vale" }

6505.1.1 = { holder=1020124 } # Raymar (NC)
6538.6.6 = { holder=500177 } # Eustace (NC)
6582.1.1 = { holder = 0 }
7824.1.1 = { holder=3400177 }
7883.1.1 = { holder=3300177 }
7900.1.1 = { holder=3200177 }
7923.1.1 = { holder=3100177 } # Jasper (nc)
7940.1.1 = { holder=3201177 } # Raymar (nc)
7996.1.1 = { holder=3000177 } # Vardis (nc)
7999.1.1={ 
	liege="k_vale"
} 
8023.1.1 = { holder=3001177 } # Eon (nc)
8024.1.1 = { holder=3004177 } # Waymar (nc)
8042.1.1 = { holder=3007177 } # Morton (nc)
8086.1.1 = { holder=3008177 } # Petyr (nc)
8150.1.1 = { holder=3009177 } # Damon (nc)
8178.1.1 = { holder=3010177 } # Triston (nc)
8194.1.1 = { holder=3012177 } # Raymar (nc)
8203.1.1 = { holder=3014177 } # Pate (nc)
8214.1.1 = { holder=3018177 } # Vardis (nc)
8240.1.1={
	holder=94052
}
8300.1.1={
	holder=94053
}