600.1.1={
	liege="k_jinqi"
}
7995.1.1 = { holder=10069104 }
8038.1.1 = { holder=10469104 }
8045.1.1 = { holder=10669104 }
8073.1.1 = { holder=10869104 }
8123.1.1 = { holder=11169104 }
8132.1.1 = { holder=11669104 }
8151.1.1 = { holder=11969104 }
8184.1.1 = { holder=12069104 }
8211.1.1 = { holder=12369104 }
8252.1.1 = { holder=12769104 }
8255.1.1 = { holder=12869104 }
8288.1.1 = { holder=13169104 }

