900.1.1={ law=succ_primogeniture law=cognatic_succession
	liege="e_reach"
}
7776.1.1={
	holder=83006
}
7811.1.1={
	holder=83005
}
7844.1.1={
	holder=83004
}
7850.1.1={
	holder=83003
}
7888.1.1={
	holder=83002
}
7901.1.1={
	holder=83001
}
7943.1.1={
	holder=83000
}
7952.1.1={
	holder=88295
}
7985.1.1={
	holder=88287
}
7992.1.1={
	holder=88286
}
7998.6.6={
	liege="k_reach"
}
8035.1.1={
	holder=88285
}
8044.1.1={
	holder=0 #Osgreys lose titles
}