8024.1.1 = { 
	holder=101982370  # Salassor Saan 
} 
8029.1.1 = { 
	holder=0
}

8096.6.1 = { holder=103300543 } # Tyrosh
8098.1.1 = { holder=105300542 } # Tyrosh
8108.1.1 = { holder=108300533 } # Tyrosh
8109.1.1 = { holder=0 }
8258.1.1={
	liege="k_stepstones"
	holder=118982370 # Samarro Saan(C) Ninepenny King
}
8260.1.1={
	liege="0"
	holder=0
}
8284.1.1 = {
	law = succ_turkish_succession
	law = agnatic_succession 
	holder=119982370 # Salladhor Saan 
}