#House Xho
7800.1.1 = {
	law = succ_seniority
	law = cognatic_succession
}
7865.1.1 = { holder=340304000 } # Udo (nc)
7880.1.1 = { holder=341304000 } # Orengo (nc)
7929.1.1 = { holder=344304000 } # Xhondo (nc)
7957.1.1 = { holder=345304000 } # Chakoro (nc)
7980.7.6 = { holder=100304000 } # Udo (nc)
8025.1.1 = { holder=102304000 } # Jalabhar (nc)
8044.1.1 = { holder=105304000 } # Quhuru (nc)
8083.1.1 = { holder=106304000 } # Udo (nc)
8120.1.1 = { holder=112304000 } # Jalabhar (nc)
8142.1.1 = { holder=113304000 } # Dubaku (nc)
8150.1.1 = { holder=116304000 } # Tatenda (nc)
8179.1.1 = { holder=117304000 } # Udo (nc)
8214.1.1 = { holder=118304000 } # Dubaku (nc)
8230.1.1 = { holder=120304000 } # Gwalahuru (nc)
8253.1.1 = { holder=122304000 } # Udo (nc)
8284.1.1 = { 
	holder=125304000 # Jalabhar Xho
} 
8289.6.1 = { 
	holder=134304029 # Dubaku the Bastard
} 