#House Dayne
4000.1.1={
	liege="k_torrentineTK"
	law = succ_primogeniture
	law = true_cognatic_succession
	effect = { #cull spawned western valyrians
		holder_scope = {
			any_realm_character = {
				limit = {
					culture_group = valyrian
					NOT = { father_even_if_dead = { always = yes } }
					NOT = { mother_even_if_dead = { always = yes } }
					OR = {
						dynasty = 0
						tier = BARON
					}
					NOT = { has_character_flag = high_valyrian }
					NOT = { has_dynasty_flag = high_valyrian }
					high_valyrian_dynasty_trigger = no
				}
				culture = stone_dornish
				set_graphical_culture = stone_dornish
			}
		}
	}
}
4751.1.1 = {
	holder = 150016 #Samwell
}
4798.1.1 = {
	holder = 0
}
7281.1.1 = {
	holder = 152016 #Vorian
}
7305.1.1 = {
	holder = 153016 #Trystane
	liege="e_dorne"
}
7355.1.1 = {
	holder = 155016 #Maron
}
7378.1.1 = { holder = 0 }

7862.1.1 = { holder=61116 } # Gerold (nc)
7870.1.1 = { holder=61016 } # Franklyn (nc)
7910.1.1 = { holder=60916 } # Edric (nc)
7935.1.1 = { holder=60016 } # Arthur (nc)
7977.1.1 = { holder=24017 } # Gerold (nc)
8001.2.5= {
holder=23017
}
8044.1.1= {
holder=22017
}
8076.1.1= {
holder=21017
}
8098.1.1= {
holder=20017
}
8112.1.1= {
holder=18017
}
8150.1.1= {
holder=71117
}
8157.7.11= {
holder=17017
}
8157.8.7 = {liege=k_dorne} #Dornish Conquest
8160.1.4 = {liege=e_dorne} #Dornish Rebellion
8184.1.1= {
holder=16017
}
8187.1.1= { 
holder=13017
}
8187.6.1 = {liege="k_dorne"}

8204.1.1= {
holder=12017
}
8231.1.1= {
holder=11017
}
8265.1.1= {
holder=1017
}
8272.1.1= {
holder=1016
}
8284.1.1= {
holder=6016
}
8296.1.1= {
holder=9016
}