#House Volnyros
600.1.1={
	liege="k_volantis"
}
7840.1.1 = { holder=344305618 } # Tregonos (nc)
7867.1.1 = { holder=343305618 } # Tyros (nc)
7901.1.1 = { holder=342305618 } # Pylan (nc)
7921.1.1 = { holder=341305618 } # Releqor (nc)
7949.1.1 = { holder=340305618 } # Hasaro (nc)

7958.1.1 = { holder=100305618 } # Beqqo (nc)
8003.1.1 = { holder=101305618 } # Orbelo (nc)
8031.1.1 = { holder=104305618 } # Ordello (nc)
8062.1.1 = { holder=108305618 } # Ordello (nc)
8075.1.1 = { holder=111305618 } # Lotho (nc)
8127.1.1 = { holder=116305618 } # Yorko (nc)
8129.1.1 = { holder=117305618 } # Colloquo (nc)
8159.1.1 = { holder=119305618 } # Bolquello (nc)
8166.1.1 = { holder=121305618 } # Ordello (nc)
8168.1.1 = { holder=122305618 } # Parquello (nc)
8190.1.1 = { holder=124305618 } # Bolquello (nc)
8228.1.1 = { holder=127305618 } # Colloquo (nc)
8249.1.1 = { holder=131305618 } # Parquello (nc)
8265.1.1 = { holder=133305618 } # Vogarro (nc)
8292.1.1 = { holder=135305618 } # Doniphos (nc)

