20.1.1={
	holder=821059 #Brandon the Builder
	law = succ_primogeniture
	law = cognatic_succession
	law = centralization_2
	law = first_night_1
	law = slavery_0
}
110.1.1 = {
    holder = 826059 # Brandon, son of Bran the builder
}
130.1.1 = {
    holder = 827059 # Jon
}	    
150.1.1 = { 
    holder = 0 
}

6450.1.1={
	holder = 8115059 #Brandon
}

6460.1.1={
	holder = 815059 #Jon
}
6503.1.1={
	holder = 814059 #Rickard
}
6531.1.1 = {
	holder = 0
}
6597.1.1 = {
	holder = 820059 #Theon the Hungry Wolf
}
6638.1.1 = {
	holder = 0
}
6961.1.1 = {
	holder = 8480074
}
7021.1.1 = {
	holder = 0
}

7227.1.1= {
    holder = 1120159 # Brandon the Daughterless
}
7267.12.12= {
    holder = 1120459 # Brandon, Bael's son
}
7298.9.9= {
    holder = 8311059 # Harlon
}
7324.1.1 = {
	holder = 0
}
7452.1.1 = {
	holder = 819059 #Brandon the Shipwright
}
7461.1.1={
	holder = 818059 #Brandon the Burner
}
7527.1.1={
	holder = 817059 #Jonnel
}
7532.1.1={
	holder = 816059 #Dorren
}
7582.1.1 = {
	holder = 850059 #Brandon
}

7590.1.1 = {
	holder = 8150059 #Brandon
}
7609.1.1 = {
	holder = 813059 #Rodrik
}
7620.1.1 = {
	holder = 812059 #Edrick
}
7709.1.1 = {
	holder = 811059 #Brandon
}
7715.1.1 = {
	holder = 810059 #Rodrik
}
7722.1.1={
	holder = 809059 #Brandon ice Eyes
}
7742.1.1={
	holder = 808059 #Benjen
}
7765.1.1={
	holder = 807059 #Benjen
}
7779.1.1={
	holder = 806059 #Eyron
}
7812.1.1 ={
	holder = 805059 #Edderion
}
7835.1.1 ={
	holder = 804059 #Walton
}
7856.1.1 ={
	holder = 803059 #Brandon the Bad
}
7892.1.1  ={
	holder = 802059 #Jorah
}
7919.1.1 ={
	holder = 801059 #Jonos
}
7951.1.1 ={
	holder = 800059 #Edwyn
}
7988.1.1={
	holder = 20059 #Torrhen Stark
}
7999.1.1={
	holder=0
}
8060.1.1={ law = first_night_0 } #First Night abolished
8298.12.20 = {
	holder = 2059 #Robb Stark
	effect = {
		holder_scope = { 
			any_realm_lord = {
				any_demesne_title = {
					limit = { 
						NOT = { holder_scope = { culture = ruin } } 
						NOT = { tier = BARON }
						NOT = { tier = EMPEROR }
					}
					set_variable = { which = "de_facto_empire" value = 1 }
				}
			}	
		} 
	}
}
8299.11.5={
	holder = 0
}