7979.1.1 = {
	law = slavery_2
	law = centralization_0
	law = republic_law_0
	law = agnatic_succession
	law = succ_open_elective
	law = feudal_contract_1
	law = feudal_tax_0
	law = city_contract_1
	law = city_tax_0
	law = temple_contract_1
	law = temple_tax_0
	effect = { set_title_flag = alliance_government }
}
8096.6.1 = {
	holder=106300542
}
8100.1.1 = {
	holder=10081386
}
8104.1.1 = {
	holder=112300516
}
8114.1.1 = {
	holder=113300544
}
8131.9.1 = {
	holder=0
}
