7898.1.1={
	holder= 343360000 # Oznak mo Ullhor (nc)
	law = slavery_2
	law = centralization_2
}
7910.1.1 = { holder=343360026 } # Uhzaq zo Grazlar (nc)
7915.1.1 = { holder=342360002 } # Grazdan mo Grazdhan (nc)
7935.1.1 = { holder=342360000 } # Prendahl mo Ullhor (nc)
7937.1.1 = { holder=341360001 } # Paezhar mo Nakloz (nc)
7956.1.1 = { holder=341360002 } # Haznak mo Grazdhan (nc)
7959.1.1 = { holder=341360027 } # Mizlaq zo Mazlaq (nc)
7971.1.1 = { holder=340360000 } # Grazdan mo Ullhor (nc)

7990.1.1 = { holder=150360002 } # Grazdan mo Grazdhan (nc)
8023.1.1 = { holder=100360000 } # Barghaz mo Ullhor (nc)
8042.1.1 = { holder=101360001 } # Grazdan mo Nakloz (nc)
8071.1.1 = { holder=106360001 } # Grazdhan mo Nakloz (nc)
8105.1.1 = { holder=105360027 } # Grazdan zo Mazlaq (nc)
8133.1.1 = { holder=109360002 } # Barkhaz mo Grazdhan (nc)
8154.1.1 = { holder=114360026 } # Kraznys zo Grazlar (nc)
8172.1.1 = { holder=121360001 } # Maezon mo Nakloz (nc)
8223.1.1 = { holder=114360002 } # Kraznys mo Grazdhan (nc)
8235.1.1 = { holder=121360026 } # Prendahl zo Grazlar (nc)
8249.1.1 = { holder=126360000 } # Yezzan mo Ullhor (nc)
8253.1.1 = { holder=127360027 } # Gunzak zo Mazlaq (nc)
8262.1.1 = { holder=129360000 } # Marghaz mo Ullhor (nc)
8289.1.1={
	holder=6571000 # Kraznys mo Nakloz (C)
}
8299.12.12={
	law = succ_primogeniture
	law = cognatic_succession
	law = centralization_2
	law = slavery_0
	law = treaty_breach_1
	holder=600000060 # Cleon the Butcher King (C)
}