#House Pahryris
6780.1.1 = {
	effect = { 
		if = {
			limit = { NOT = { start_date = 7980.1.1 } }
			add_law = republic_law_oligarchy 
			add_law = succ_feudal_elective
			add_law = agnatic_succession
			add_law = centralization_2
		}
	}
	law = slavery_2
}
7878.1.1 = { holder=340662900 } # Matarys (nc)
7885.1.1 = { holder=10002900 } # Belicho (nc)
7926.1.1 = { holder=10012900 } # Methyso (nc)
7953.1.1 = { holder=10032900 } # Colloquo (nc)
7969.1.1 = { holder=10062900 } # Belicho (nc)

#Dothraki
7980.1.1 = { holder=0 }
7985.1.1 = { 
	historical_nomad = yes
	holder = 100600210  #Khal temmo (C)
}
7999.1.1 = { holder = 0 }
8290.1.1 = { holder=101600206 } #Zekko (C)