900.1.1={	
	law = succ_primogeniture
	law = cognatic_succession
	law = centralization_2
	law = investiture_law_2
	law = first_night_1
	law = slavery_0
	effect = { 
		set_variable = { which = "lord_paramount_status" value = 1 }
		holder_scope = { set_government_type = feudal_government_LP }
		any_previous_holder = {
			limit = { NOT = { tier = EMPEROR } }
			set_government_type = feudal_government_LP
		}
	}
}
7998.6.6={
	holder=16253 #Harlen Tyrell
	liege="e_iron_throne"
}
8005.1.1 = {
	holder=15253 #Theo Tyrell
}
8043.1.1={
	liege = 0
}
8044.1.1={
	liege = "e_iron_throne"
}
8045.1.1={
	holder=14253 #Bertrand Tyrell
}
8048.6.2 = {
	law = investiture_law_1 
}
8059.2.5={
	holder=88000338
}
8060.1.1={ law = first_night_0 } #First Night abolished
8090.1.1={
	holder=13253 #Matthos Tyrell
}
8120.1.1={
	holder=113253 #Loras Tyrell
}
8129.1.3={
	holder=12253 #Lyonel Tyrell
}
8129.4.1={
	liege = 0
}
8131.1.8={
	liege = "e_iron_throne"
}
8160.1.4={
	holder=88067 #Leo 'Longthorn' Tyrell
}
8195.3.7={
	liege = 0
}
8196.6.1={
	liege = "e_iron_throne"
}
8215.1.1={
	holder=88000  #Denys Tyrell
}
8247.1.1={
	holder=253 #Luthor Tyrell
}
8259.11.1={
	liege=0
}
8260.12.31={
	liege="e_iron_throne"
}
8265.1.1={
	holder=1253 #Mace Tyrell
}
8282.9.15={
	liege=0
}
8282.12.31={
	liege="e_iron_throne"
}
8298.11.7={
	liege=0
}
