#House Pazaq
5000.1.1 = {
	law = slavery_2
	law = republic_law_oligarchy
	law = succ_feudal_elective
	law = agnatic_succession
	law = centralization_1
	effect = { add_law = republic_law_oligarchy }
}
7898.1.1 = { holder=103360208 } # Hizdhar (nc)
7903.1.1 = { holder=106360208 } # Faezdhar (nc)
7920.1.1 = { holder=0 }